<?xml version="1.0" encoding="UTF-8" standalone="no"?>
<svg
   enable-background="new 0 0 88.59 186.376"
   viewBox="0 0 88.59 186.376"
   version="1.1"
   id="svg78"
   sodipodi:docname="controller.svg"
   inkscape:version="1.1 (c68e22c387, 2021-05-23)"
   xmlns:inkscape="http://www.inkscape.org/namespaces/inkscape"
   xmlns:sodipodi="http://sodipodi.sourceforge.net/DTD/sodipodi-0.dtd"
   xmlns="http://www.w3.org/2000/svg"
   xmlns:svg="http://www.w3.org/2000/svg">
  <defs
     id="defs82" />
  <sodipodi:namedview
     id="namedview80"
     pagecolor="#ffffff"
     bordercolor="#666666"
     borderopacity="1.0"
     inkscape:pageshadow="2"
     inkscape:pageopacity="0.0"
     inkscape:pagecheckerboard="true"
     showgrid="false"
     inkscape:zoom="1.0100549"
     inkscape:cx="-16.335746"
     inkscape:cy="115.83529"
     inkscape:window-width="1920"
     inkscape:window-height="1138"
     inkscape:window-x="-8"
     inkscape:window-y="-8"
     inkscape:window-maximized="1"
     inkscape:current-layer="svg78" />
  <linearGradient
     id="a"
     gradientTransform="rotate(90,694.10415,435.44985)"
     gradientUnits="userSpaceOnUse"
     x1="312.9354"
     x2="291.9762"
     y1="1095.2787"
     y2="1074.3195">
    <stop
       offset="0"
       stop-color="#a4a5a9"
       id="stop2" />
    <stop
       offset="1"
       stop-color="#e6e6e7"
       id="stop4" />
  </linearGradient>
  <linearGradient
     id="b"
     gradientTransform="rotate(90,694.10415,435.44985)"
     gradientUnits="userSpaceOnUse"
     x1="292.0519"
     x2="312.9278"
     y1="1095.271"
     y2="1074.3951">
    <stop
       offset="0"
       stop-color="#211c1d"
       stop-opacity="0"
       id="stop7" />
    <stop
       offset=".0448"
       stop-color="#211c1d"
       stop-opacity=".0896"
       id="stop9" />
    <stop
       offset=".5"
       stop-color="#211c1d"
       id="stop11" />
    <stop
       offset=".9552"
       stop-color="#211c1d"
       stop-opacity=".0896"
       id="stop13" />
    <stop
       offset="1"
       stop-color="#211c1d"
       stop-opacity="0"
       id="stop15" />
  </linearGradient>
  <linearGradient
     id="c"
     gradientTransform="rotate(-90,-671.8962,-3185.7487)"
     gradientUnits="userSpaceOnUse"
     x1="-3911.9182"
     x2="-3891.0425"
     y1="-2458.6936"
     y2="-2479.5693">
    <stop
       offset="0"
       stop-color="#fff"
       stop-opacity="0"
       id="stop18" />
    <stop
       offset=".5"
       stop-color="#fff"
       id="stop20" />
    <stop
       offset="1"
       stop-color="#fff"
       stop-opacity="0"
       id="stop22" />
  </linearGradient>
  <radialGradient
     id="d"
     cx="55.7433"
     cy="142.4042"
     gradientTransform="matrix(0.866,-0.5,0.35,0.6062,-42.3733,-14.825898)"
     gradientUnits="userSpaceOnUse"
     r="20.5107">
    <stop
       offset="0"
       stop-color="#96b7d1"
       id="stop25" />
    <stop
       offset=".1142"
       stop-color="#88b1cf"
       id="stop27" />
    <stop
       offset=".3714"
       stop-color="#6ba5cb"
       id="stop29" />
    <stop
       offset=".6124"
       stop-color="#509cc8"
       id="stop31" />
    <stop
       offset=".829"
       stop-color="#3796c5"
       id="stop33" />
    <stop
       offset="1"
       stop-color="#2a94c5"
       id="stop35" />
  </radialGradient>
  <circle
     cx="0.69784707"
     cy="62.641216"
     fill="#211c1d"
     transform="rotate(-45)"
     id="ellipse38"
     r="43.800579"
     style="stroke-width:0.99999" />
  <g
     fill="#808094"
     opacity="0.1"
     id="g56"
     transform="translate(-2e-6,-98.773798)">
    <path
       d="m 44.789,183.157 8.892,-8.59 h -4.343 v -9.829 H 40.24 v 9.829 h -4.343 z"
       id="path40" />
    <path
       d="m 73.485,171.271 0.213,-12.362 -3.071,3.071 -6.95,-6.95 -6.433,6.434 6.95,6.949 -3.072,3.071 z"
       id="path42" />
    <path
       d="m 85.371,142.576 -8.591,-8.893 v 4.344 h -9.828 v 9.098 h 9.828 v 4.343 z"
       id="path44" />
    <path
       d="m 73.485,113.88 -12.362,-0.213 3.071,3.071 -6.95,6.949 6.433,6.434 6.95,-6.95 3.071,3.071 z"
       id="path46" />
    <path
       d="m 44.789,101.993 -8.892,8.591 h 4.343 v 9.829 h 9.098 v -9.829 h 4.343 z"
       id="path48" />
    <path
       d="m 16.093,113.879 -0.213,12.363 3.071,-3.071 6.95,6.95 6.433,-6.434 -6.949,-6.949 3.071,-3.072 z"
       id="path50" />
    <path
       d="m 4.207,142.575 8.591,8.892 v -4.343 h 9.828 v -9.098 h -9.828 v -4.343 z"
       id="path52" />
    <path
       d="m 16.093,171.271 12.362,0.213 -3.071,-3.071 6.95,-6.95 -6.433,-6.433 -6.95,6.95 -3.071,-3.071 z"
       id="path54" />
  </g>
  <path
     d="m 44.294998,87.596202 c -23.963,-0.265 -43.307,-19.769 -43.307,-43.795 0,-24.025 19.344,-43.529 43.307,-43.795 -0.165,-0.002 -0.329,-0.006 -0.494,-0.006 -24.191,0.001 -43.801,19.611 -43.801,43.801 0,24.191 19.61,43.801 43.801,43.801 0.165,0 0.329,-0.004 0.494,-0.006 z"
     fill="#6d6e6f"
     id="path58" />
  <circle
     cx="44.754997"
     cy="43.801201"
     fill="url(#a)"
     r="14.82"
     id="circle60"
     style="fill:url(#a)" />
  <circle
     cx="44.754997"
     cy="43.801201"
     fill="#211c1d"
     opacity="0.3"
     r="11.808"
     id="circle62" />
  <path
     d="m 59.481998,43.835202 c 0,-8.153 -6.609,-14.761 -14.762,-14.761 -8.152,0 -14.761,6.609 -14.761,14.761 0,8.152 6.609,14.761 14.761,14.761 8.153,0.001 14.762,-6.608 14.762,-14.761 z m -28.728,-0.182 c 0,-7.814 6.335,-14.149 14.149,-14.149 7.814,0 14.149,6.335 14.149,14.149 0,7.814 -6.335,14.149 -14.149,14.149 -7.814,0 -14.149,-6.335 -14.149,-14.149 z"
     fill="url(#b)"
     opacity="0.15"
     id="path64"
     style="fill:url(#b)" />
  <path
     d="m 29.959998,43.835202 c 0,8.152 6.609,14.762 14.761,14.762 8.153,0 14.761,-6.609 14.761,-14.762 0,-8.153 -6.609,-14.761 -14.761,-14.761 -8.153,0 -14.761,6.609 -14.761,14.761 z m 28.728,0.182 c 0,7.814 -6.335,14.149 -14.149,14.149 -7.814,0 -14.149,-6.335 -14.149,-14.149 0,-7.814 6.335,-14.149 14.149,-14.149 7.814,0.001 14.149,6.335 14.149,14.149 z"
     fill="url(#c)"
     opacity="0.4"
     id="path66"
     style="fill:url(#c)" />
  <circle
     cx="55.742996"
     cy="43.630211"
     fill="url(#d)"
     r="20.511"
     id="circle68"
     style="fill:#287dc9;fill-opacity:1" />
  <circle
     cx="-44.293064"
     cy="-126.678"
     fill="#2a94c5"
     r="17.455"
     id="circle70"
     transform="scale(-1)"
     style="fill:#287dc9;fill-opacity:1" />
  <circle
     cx="-44.293064"
     cy="-126.678"
     fill="#1d86ac"
     r="13.877"
     id="circle72"
     transform="scale(-1)"
     style="fill:#284c6b;fill-opacity:1" />
  <circle
     cx="-44.293064"
     cy="-168.92101"
     fill="#2a94c5"
     r="17.455"
     id="circle74"
     transform="scale(-1)"
     style="fill:#287dc9;fill-opacity:1" />
  <circle
     cx="-44.293064"
     cy="-168.92101"
     fill="#1d86ac"
     r="13.877"
     id="circle76"
     transform="scale(-1)"
     style="fill:#284c6b;fill-opacity:1" />
</svg>
