<?xml version="1.0" encoding="UTF-8" standalone="no"?>
<svg
   enable-background="new 0 0 88.59 186.376"
   viewBox="0 0 88.588055 186.37602"
   version="1.1"
   id="svg78"
   sodipodi:docname="auto-arcade-technos.svg"
   inkscape:version="1.1 (c68e22c387, 2021-05-23)"
   width="88.588051"
   height="186.37602"
   xmlns:inkscape="http://www.inkscape.org/namespaces/inkscape"
   xmlns:sodipodi="http://sodipodi.sourceforge.net/DTD/sodipodi-0.dtd"
   xmlns:xlink="http://www.w3.org/1999/xlink"
   xmlns="http://www.w3.org/2000/svg"
   xmlns:svg="http://www.w3.org/2000/svg">
  <defs
     id="defs82">
    <linearGradient
       id="linearGradient890"
       gradientTransform="rotate(90,694.10415,435.44985)"
       gradientUnits="userSpaceOnUse"
       x1="312.93539"
       x2="291.9762"
       y1="1095.2787"
       y2="1074.3195">
      <stop
         offset="0"
         stop-color="#a4a5a9"
         id="stop2-7" />
      <stop
         offset="1"
         stop-color="#e6e6e7"
         id="stop4-4" />
    </linearGradient>
    <linearGradient
       id="linearGradient897"
       gradientTransform="rotate(90,694.10415,435.44985)"
       gradientUnits="userSpaceOnUse"
       x1="292.05191"
       x2="312.9278"
       y1="1095.271"
       y2="1074.3951">
      <stop
         offset="0"
         stop-color="#211c1d"
         stop-opacity="0"
         id="stop7-7" />
      <stop
         offset=".0448"
         stop-color="#211c1d"
         stop-opacity=".0896"
         id="stop9-1" />
      <stop
         offset=".5"
         stop-color="#211c1d"
         id="stop11-8" />
      <stop
         offset=".9552"
         stop-color="#211c1d"
         stop-opacity=".0896"
         id="stop13-9" />
      <stop
         offset="1"
         stop-color="#211c1d"
         stop-opacity="0"
         id="stop15-1" />
    </linearGradient>
    <linearGradient
       id="linearGradient902"
       gradientTransform="rotate(-90,-671.8962,-3185.7487)"
       gradientUnits="userSpaceOnUse"
       x1="-3911.9182"
       x2="-3891.0425"
       y1="-2458.6936"
       y2="-2479.5693">
      <stop
         offset="0"
         stop-color="#fff"
         stop-opacity="0"
         id="stop18-4" />
      <stop
         offset=".5"
         stop-color="#fff"
         id="stop20-5" />
      <stop
         offset="1"
         stop-color="#fff"
         stop-opacity="0"
         id="stop22-4" />
    </linearGradient>
    <linearGradient
       inkscape:collect="always"
       xlink:href="#a"
       id="linearGradient925"
       gradientUnits="userSpaceOnUse"
       gradientTransform="rotate(90,694.10414,435.44987)"
       x1="312.93539"
       y1="1095.2787"
       x2="291.9762"
       y2="1074.3195" />
    <linearGradient
       inkscape:collect="always"
       xlink:href="#b"
       id="linearGradient927"
       gradientUnits="userSpaceOnUse"
       gradientTransform="rotate(90,694.10414,435.44987)"
       x1="292.05191"
       y1="1095.271"
       x2="312.9278"
       y2="1074.3951" />
    <linearGradient
       inkscape:collect="always"
       xlink:href="#c"
       id="linearGradient929"
       gradientUnits="userSpaceOnUse"
       gradientTransform="rotate(-90,-671.89619,-3185.7487)"
       x1="-3911.9182"
       y1="-2458.6936"
       x2="-3891.0425"
       y2="-2479.5693" />
  </defs>
  <sodipodi:namedview
     id="namedview80"
     pagecolor="#ffffff"
     bordercolor="#666666"
     borderopacity="1.0"
     inkscape:pageshadow="2"
     inkscape:pageopacity="0.0"
     inkscape:pagecheckerboard="true"
     showgrid="false"
     inkscape:zoom="2.0201097"
     inkscape:cx="151.22941"
     inkscape:cy="107.41991"
     inkscape:window-width="1920"
     inkscape:window-height="1138"
     inkscape:window-x="-8"
     inkscape:window-y="-8"
     inkscape:window-maximized="1"
     inkscape:current-layer="svg78"
     fit-margin-top="0"
     fit-margin-left="0"
     fit-margin-right="0"
     fit-margin-bottom="0" />
  <linearGradient
     id="a"
     gradientTransform="rotate(90,694.10415,435.44985)"
     gradientUnits="userSpaceOnUse"
     x1="312.93539"
     x2="291.9762"
     y1="1095.2787"
     y2="1074.3195">
    <stop
       offset="0"
       stop-color="#a4a5a9"
       id="stop2" />
    <stop
       offset="1"
       stop-color="#e6e6e7"
       id="stop4" />
  </linearGradient>
  <linearGradient
     id="b"
     gradientTransform="rotate(90,694.10415,435.44985)"
     gradientUnits="userSpaceOnUse"
     x1="292.05191"
     x2="312.9278"
     y1="1095.271"
     y2="1074.3951">
    <stop
       offset="0"
       stop-color="#211c1d"
       stop-opacity="0"
       id="stop7" />
    <stop
       offset=".0448"
       stop-color="#211c1d"
       stop-opacity=".0896"
       id="stop9" />
    <stop
       offset=".5"
       stop-color="#211c1d"
       id="stop11" />
    <stop
       offset=".9552"
       stop-color="#211c1d"
       stop-opacity=".0896"
       id="stop13" />
    <stop
       offset="1"
       stop-color="#211c1d"
       stop-opacity="0"
       id="stop15" />
  </linearGradient>
  <linearGradient
     id="c"
     gradientTransform="rotate(-90,-671.8962,-3185.7487)"
     gradientUnits="userSpaceOnUse"
     x1="-3911.9182"
     x2="-3891.0425"
     y1="-2458.6936"
     y2="-2479.5693">
    <stop
       offset="0"
       stop-color="#fff"
       stop-opacity="0"
       id="stop18" />
    <stop
       offset=".5"
       stop-color="#fff"
       id="stop20" />
    <stop
       offset="1"
       stop-color="#fff"
       stop-opacity="0"
       id="stop22" />
  </linearGradient>
  <radialGradient
     id="d"
     cx="55.743301"
     cy="142.40421"
     gradientTransform="matrix(0.866,-0.5,0.35,0.6062,-42.3733,-14.825898)"
     gradientUnits="userSpaceOnUse"
     r="20.5107">
    <stop
       offset="0"
       stop-color="#96b7d1"
       id="stop25" />
    <stop
       offset=".1142"
       stop-color="#88b1cf"
       id="stop27" />
    <stop
       offset=".3714"
       stop-color="#6ba5cb"
       id="stop29" />
    <stop
       offset=".6124"
       stop-color="#509cc8"
       id="stop31" />
    <stop
       offset=".829"
       stop-color="#3796c5"
       id="stop33" />
    <stop
       offset="1"
       stop-color="#2a94c5"
       id="stop35" />
  </radialGradient>
  <circle
     cx="0.69784069"
     cy="62.641212"
     fill="#211c1d"
     transform="rotate(-45)"
     id="ellipse38-1"
     r="43.800579"
     style="stroke-width:0.99999" />
  <g
     fill="#808094"
     opacity="0.1"
     id="g56"
     transform="translate(0,-98.773788)">
    <path
       d="m 44.789,183.157 8.892,-8.59 h -4.343 v -9.829 H 40.24 v 9.829 h -4.343 z"
       id="path40" />
    <path
       d="m 73.485,171.271 0.213,-12.362 -3.071,3.071 -6.95,-6.95 -6.433,6.434 6.95,6.949 -3.072,3.071 z"
       id="path42" />
    <path
       d="m 85.371,142.576 -8.591,-8.893 v 4.344 h -9.828 v 9.098 h 9.828 v 4.343 z"
       id="path44" />
    <path
       d="m 73.485,113.88 -12.362,-0.213 3.071,3.071 -6.95,6.949 6.433,6.434 6.95,-6.95 3.071,3.071 z"
       id="path46" />
    <path
       d="m 44.789,101.993 -8.892,8.591 h 4.343 v 9.829 h 9.098 v -9.829 h 4.343 z"
       id="path48" />
    <path
       d="m 16.093,113.879 -0.213,12.363 3.071,-3.071 6.95,6.95 6.433,-6.434 -6.949,-6.949 3.071,-3.072 z"
       id="path50" />
    <path
       d="m 4.207,142.575 8.591,8.892 v -4.343 h 9.828 v -9.098 h -9.828 v -4.343 z"
       id="path52" />
    <path
       d="m 16.093,171.271 12.362,0.213 -3.071,-3.071 6.95,-6.95 -6.433,-6.433 -6.95,6.95 -3.071,-3.071 z"
       id="path54" />
  </g>
  <path
     d="m 44.295,87.596217 c -23.963,-0.265 -43.307,-19.769 -43.307,-43.795 0,-24.025 19.344,-43.52900077 43.307,-43.79500077 -0.165,-0.002 -0.329,-0.006000004 -0.494,-0.006000004 C 19.61,0.00121623 0,19.611217 0,43.801217 c 0,24.191 19.61,43.801 43.801,43.801 0.165,0 0.329,-0.004 0.494,-0.006 z"
     fill="#6d6e6f"
     id="path58-1" />
  <circle
     cx="44.754993"
     cy="43.801224"
     fill="url(#a)"
     r="14.82"
     id="circle60-1"
     style="fill:url(#linearGradient925)" />
  <circle
     cx="44.754993"
     cy="43.801224"
     fill="#211c1d"
     opacity="0.3"
     r="11.808"
     id="circle62-5" />
  <path
     d="m 59.482,43.835217 c 0,-8.153 -6.609,-14.761 -14.762,-14.761 -8.152,0 -14.761,6.609 -14.761,14.761 0,8.152 6.609,14.761 14.761,14.761 8.153,10e-4 14.762,-6.608 14.762,-14.761 z m -28.728,-0.182 c 0,-7.814 6.335,-14.149 14.149,-14.149 7.814,0 14.149,6.335 14.149,14.149 0,7.814 -6.335,14.149 -14.149,14.149 -7.814,0 -14.149,-6.335 -14.149,-14.149 z"
     fill="url(#b)"
     opacity="0.15"
     id="path64-5"
     style="fill:url(#linearGradient927)" />
  <path
     d="m 29.96,43.835217 c 0,8.152 6.609,14.762 14.761,14.762 8.153,0 14.761,-6.609 14.761,-14.762 0,-8.153 -6.609,-14.761 -14.761,-14.761 -8.153,0 -14.761,6.609 -14.761,14.761 z m 28.728,0.182 c 0,7.814 -6.335,14.149 -14.149,14.149 -7.814,0 -14.149,-6.335 -14.149,-14.149 0,-7.814 6.335,-14.149 14.149,-14.149 7.814,10e-4 14.149,6.335 14.149,14.149 z"
     fill="url(#c)"
     opacity="0.4"
     id="path66-8"
     style="fill:url(#linearGradient929)" />
  <circle
     cx="55.743"
     cy="43.630234"
     fill="url(#d)"
     r="20.511"
     id="circle68-3"
     style="fill:#6ca8cc;fill-opacity:1" />
  <circle
     cx="-44.293079"
     cy="-126.67802"
     fill="#2a94c5"
     r="17.455"
     id="circle70-8"
     transform="scale(-1)"
     style="fill:#6ca8cc;fill-opacity:1" />
  <circle
     cx="-44.293079"
     cy="-126.67802"
     fill="#1d86ac"
     r="13.877"
     id="circle72-6"
     transform="scale(-1)"
     style="fill:#16507b;fill-opacity:1" />
  <circle
     cx="-44.293079"
     cy="-168.92102"
     fill="#2a94c5"
     r="17.455"
     id="circle74-3"
     transform="scale(-1)"
     style="fill:#6ca8cc;fill-opacity:1" />
  <circle
     cx="-44.293079"
     cy="-168.92102"
     fill="#1d86ac"
     r="13.877"
     id="circle76-1"
     transform="scale(-1)"
     style="fill:#16507b;fill-opacity:1" />
</svg>
