<?xml version="1.0" encoding="UTF-8" standalone="no"?>
<svg
   enable-background="new 0 0 501 278.5"
   viewBox="0 0 278.5 501"
   version="1.1"
   id="svg418"
   sodipodi:docname="bk.svg"
   width="278.5"
   height="501"
   inkscape:version="1.1 (c68e22c387, 2021-05-23)"
   xmlns:inkscape="http://www.inkscape.org/namespaces/inkscape"
   xmlns:sodipodi="http://sodipodi.sourceforge.net/DTD/sodipodi-0.dtd"
   xmlns:xlink="http://www.w3.org/1999/xlink"
   xmlns="http://www.w3.org/2000/svg"
   xmlns:svg="http://www.w3.org/2000/svg">
  <defs
     id="defs422" />
  <sodipodi:namedview
     id="namedview420"
     pagecolor="#ffffff"
     bordercolor="#666666"
     borderopacity="1.0"
     inkscape:pageshadow="2"
     inkscape:pageopacity="0.0"
     inkscape:pagecheckerboard="0"
     showgrid="false"
     fit-margin-top="0"
     fit-margin-left="0"
     fit-margin-right="0"
     fit-margin-bottom="0"
     inkscape:zoom="1.1107784"
     inkscape:cx="139.09164"
     inkscape:cy="251.1752"
     inkscape:window-width="1920"
     inkscape:window-height="1138"
     inkscape:window-x="-8"
     inkscape:window-y="-8"
     inkscape:window-maximized="1"
     inkscape:current-layer="svg418" />
  <linearGradient
     id="a"
     gradientUnits="userSpaceOnUse"
     x1="0"
     x2="501"
     y1="31"
     y2="31">
    <stop
       offset="0"
       stop-color="#131313"
       id="stop2" />
    <stop
       offset=".1284"
       stop-color="#141414"
       id="stop4" />
    <stop
       offset=".2757"
       stop-color="#181616"
       id="stop6" />
    <stop
       offset=".4324"
       stop-color="#1c1919"
       id="stop8" />
    <stop
       offset=".5955"
       stop-color="#1f1d1d"
       id="stop10" />
    <stop
       offset=".7638"
       stop-color="#211f20"
       id="stop12" />
    <stop
       offset=".9338"
       stop-color="#121112"
       id="stop14" />
    <stop
       offset="1"
       id="stop16" />
  </linearGradient>
  <linearGradient
     id="b">
    <stop
       offset="0"
       stop-color="#131313"
       id="stop19" />
    <stop
       offset="1"
       id="stop21" />
  </linearGradient>
  <linearGradient
     id="c"
     gradientUnits="userSpaceOnUse"
     x1="0"
     x2="501"
     xlink:href="#b"
     y1="143.2196"
     y2="143.2196" />
  <linearGradient
     id="d"
     gradientUnits="userSpaceOnUse"
     x1="74.025902"
     x2="88.574097"
     xlink:href="#b"
     y1="149.6759"
     y2="135.1277" />
  <linearGradient
     id="e"
     gradientUnits="userSpaceOnUse"
     x1="40.770802"
     x2="40.770802"
     xlink:href="#b"
     y1="224"
     y2="62.388901" />
  <linearGradient
     id="f"
     gradientUnits="userSpaceOnUse"
     x1="3.5016"
     x2="497.49841"
     xlink:href="#b"
     y1="251.4722"
     y2="251.4722" />
  <linearGradient
     id="g">
    <stop
       offset="0"
       stop-color="#131212"
       id="stop28" />
    <stop
       offset="1"
       stop-color="#1e1b1c"
       id="stop30" />
  </linearGradient>
  <linearGradient
     id="h"
     gradientUnits="userSpaceOnUse"
     x1="96.225601"
     x2="119.9411"
     xlink:href="#g"
     y1="89.191101"
     y2="65.475601" />
  <linearGradient
     id="i"
     gradientUnits="userSpaceOnUse"
     x1="98.268501"
     x2="121.984"
     xlink:href="#g"
     y1="141.8853"
     y2="118.1698" />
  <linearGradient
     id="j"
     gradientUnits="userSpaceOnUse"
     x1="106.3519"
     x2="130.0674"
     xlink:href="#g"
     y1="167.6906"
     y2="143.9751" />
  <linearGradient
     id="k"
     gradientUnits="userSpaceOnUse"
     x1="106.3519"
     x2="130.0674"
     xlink:href="#g"
     y1="219.3013"
     y2="195.5858" />
  <linearGradient
     id="l"
     gradientUnits="userSpaceOnUse"
     x1="136.144"
     x2="159.5141"
     xlink:href="#g"
     y1="89.018402"
     y2="65.6483" />
  <linearGradient
     id="m"
     gradientUnits="userSpaceOnUse"
     x1="175.3714"
     x2="198.7415"
     xlink:href="#g"
     y1="89.018402"
     y2="65.6483" />
  <linearGradient
     id="n"
     gradientUnits="userSpaceOnUse"
     x1="214.5988"
     x2="237.9689"
     xlink:href="#g"
     y1="89.018402"
     y2="65.6483" />
  <linearGradient
     id="o"
     gradientUnits="userSpaceOnUse"
     x1="253.8262"
     x2="277.19629"
     xlink:href="#g"
     y1="89.018402"
     y2="65.6483" />
  <linearGradient
     id="p"
     gradientUnits="userSpaceOnUse"
     x1="293.05359"
     x2="316.42371"
     xlink:href="#g"
     y1="89.018402"
     y2="65.6483" />
  <linearGradient
     id="q"
     gradientUnits="userSpaceOnUse"
     x1="332.28091"
     x2="355.65109"
     xlink:href="#g"
     y1="89.018402"
     y2="65.6483" />
  <linearGradient
     id="r"
     gradientUnits="userSpaceOnUse"
     x1="371.5083"
     x2="394.87839"
     xlink:href="#g"
     y1="89.018402"
     y2="65.6483" />
  <linearGradient
     id="s"
     gradientUnits="userSpaceOnUse"
     x1="410.73569"
     x2="434.1058"
     xlink:href="#g"
     y1="89.018402"
     y2="65.6483" />
  <linearGradient
     id="t"
     gradientUnits="userSpaceOnUse"
     x1="453.1983"
     x2="481.0928"
     y1="91.280602"
     y2="63.386101">
    <stop
       offset="0"
       stop-color="#9f1e22"
       id="stop45" />
    <stop
       offset="1"
       stop-color="#771215"
       id="stop47" />
  </linearGradient>
  <linearGradient
     id="u"
     gradientUnits="userSpaceOnUse"
     x1="93.102501"
     x2="112.0084"
     xlink:href="#g"
     y1="113.6751"
     y2="94.769203" />
  <linearGradient
     id="v"
     gradientUnits="userSpaceOnUse"
     x1="102.3525"
     x2="121.2584"
     xlink:href="#g"
     y1="191.09109"
     y2="172.1852" />
  <linearGradient
     id="w"
     gradientUnits="userSpaceOnUse"
     x1="128.0361"
     x2="146.942"
     xlink:href="#g"
     y1="191.09109"
     y2="172.1852" />
  <linearGradient
     id="x"
     gradientUnits="userSpaceOnUse"
     x1="140.6609"
     x2="159.5668"
     xlink:href="#g"
     y1="216.8965"
     y2="197.9906" />
  <linearGradient
     id="y"
     gradientUnits="userSpaceOnUse"
     x1="374.98389"
     x2="398.69949"
     xlink:href="#g"
     y1="219.30141"
     y2="195.58591" />
  <linearGradient
     id="z"
     gradientUnits="userSpaceOnUse"
     x1="460.36429"
     x2="484.0798"
     xlink:href="#g"
     y1="116.0799"
     y2="92.364403" />
  <linearGradient
     id="A"
     gradientUnits="userSpaceOnUse"
     x1="454.65891"
     x2="478.37439"
     xlink:href="#g"
     y1="167.69051"
     y2="143.97501" />
  <linearGradient
     id="B"
     gradientUnits="userSpaceOnUse"
     x1="468.65811"
     x2="487.564"
     xlink:href="#g"
     y1="139.48061"
     y2="120.5747" />
  <linearGradient
     id="C"
     gradientUnits="userSpaceOnUse"
     x1="436.82251"
     x2="455.72839"
     xlink:href="#g"
     y1="191.0912"
     y2="172.1853" />
  <linearGradient
     id="D"
     gradientUnits="userSpaceOnUse"
     x1="436.82251"
     x2="455.72839"
     xlink:href="#g"
     y1="216.8965"
     y2="197.9906" />
  <linearGradient
     id="E"
     gradientUnits="userSpaceOnUse"
     x1="403.59869"
     x2="435.40729"
     xlink:href="#g"
     y1="210.4453"
     y2="178.6367" />
  <linearGradient
     id="F"
     gradientUnits="userSpaceOnUse"
     x1="456.50131"
     x2="488.30991"
     xlink:href="#g"
     y1="210.4453"
     y2="178.6367" />
  <g
     id="g1417"
     transform="rotate(90,139.25,139.25)">
    <path
       d="m 3.042,62 v -5.264 c 0,-0.568 -0.46,-1.028 -1.028,-1.028 H 0 V 5.25 C 0,2.351 2.351,0 5.25,0 h 490.5 c 2.9,0 5.25,2.351 5.25,5.25 V 62 Z"
       fill="url(#a)"
       id="path62"
       style="fill:url(#a)" />
    <path
       d="M 81.778,224.444 H 3.502 L 0,68.556 V 57.333 c 0,-0.276 0.224,-0.5 0.5,-0.5 h 2.542 c 0.036,1.72 0.072,3.441 0.108,5.161 7.184,0 75.017,0.005 75.017,0.005 0,0 3.611,149.557 3.611,162.445 z"
       id="path64" />
    <path
       d="M 501,61.995 C 493.816,61.995 0,62 0,62 0,62 3.502,211.556 3.502,224.444 H 497.499 L 501,68.556 V 62 Z"
       fill="url(#c)"
       id="path66"
       style="fill:url(#c)" />
    <path
       d="M 88.542,46.333 H 15.625 c -1.266,0 -2.292,-1.026 -2.292,-2.292 v -26.25 c 0,-1.266 1.026,-2.292 2.292,-2.292 h 72.917 c 1.266,0 2.292,1.026 2.292,2.292 v 26.25 c -0.001,1.266 -1.027,2.292 -2.292,2.292 z"
       fill="#1c1c1d"
       id="path68" />
    <path
       d="m 82.851,156.028 h -2.473 l -0.629,-27.252 h 2.473 z"
       fill="url(#d)"
       id="path70"
       style="fill:url(#d)" />
    <path
       d="M 81.125,224 H 3.998 L 0.417,64.153 C 0.395,63.185 1.168,62.389 2.129,62.389 h 75.414 z"
       fill="url(#e)"
       id="path72"
       style="fill:url(#e)" />
    <path
       d="m 90.833,31 h -77.5"
       fill="none"
       stroke="#ffffff"
       stroke-miterlimit="10"
       stroke-width="0.75"
       id="path74" />
    <path
       d="M 488.709,278.5 H 12.298 c -2.128,0 -3.853,-1.725 -3.853,-3.853 L 3.502,224.445 h 493.997 l -4.943,50.209 c 0,2.124 -1.723,3.846 -3.847,3.846 z"
       fill="url(#f)"
       id="path76"
       style="fill:url(#f)" />
    <path
       d="m 102.692,221.444 c -2.196,0 -3.982,-1.786 -3.982,-3.982 v -73.434 h -4.102 c -2.196,0 -3.982,-1.736 -3.982,-3.871 V 90.833 C 89.393,90.147 88.583,88.834 88.583,87.352 V 67.316 c 0,-2.196 1.787,-3.982 3.982,-3.982 H 487.41 c 2.377,0 4.312,1.934 4.312,4.311 v 72.847 c 0,1.95 -1.587,3.537 -3.537,3.537 h -2.169 v 73.879 c 0,1.95 -1.586,3.537 -3.536,3.537 H 102.692 Z"
       fill="#0d0d0d"
       id="path78" />
    <path
       d="M 90.083,87.351 V 67.316 c 0,-1.371 1.111,-2.483 2.483,-2.483 h 31.035 c 1.371,0 2.483,1.111 2.483,2.483 v 20.035 c 0,1.371 -1.111,2.483 -2.483,2.483 H 92.566 c -1.371,-0.001 -2.483,-1.112 -2.483,-2.483 z"
       fill="#0d0d0d"
       id="path80" />
    <path
       d="M 121.101,87.003 H 95.066 c -1.371,0 -2.483,-1.112 -2.483,-2.483 V 70.146 c 0,-1.371 1.112,-2.483 2.483,-2.483 h 26.035 c 1.371,0 2.483,1.112 2.483,2.483 V 84.52 c -0.001,1.372 -1.112,2.483 -2.483,2.483 z"
       fill="url(#h)"
       id="path82"
       style="fill:url(#h)" />
    <path
       d="M 92.126,140.046 V 120.01 c 0,-1.371 1.111,-2.483 2.483,-2.483 h 31.035 c 1.371,0 2.483,1.111 2.483,2.483 v 20.035 c 0,1.371 -1.111,2.483 -2.483,2.483 H 94.608 c -1.37,0 -2.482,-1.112 -2.482,-2.482 z"
       fill="#0d0d0d"
       id="path84" />
    <path
       d="M 123.144,139.697 H 97.109 c -1.371,0 -2.483,-1.112 -2.483,-2.483 V 122.84 c 0,-1.371 1.112,-2.483 2.483,-2.483 h 26.035 c 1.371,0 2.483,1.112 2.483,2.483 v 14.374 c -10e-4,1.372 -1.112,2.483 -2.483,2.483 z"
       fill="url(#i)"
       id="path86"
       style="fill:url(#i)" />
    <path
       d="m 100.21,165.851 v -20.036 c 0,-1.371 1.111,-2.483 2.483,-2.483 h 31.035 c 1.371,0 2.483,1.111 2.483,2.483 v 20.035 c 0,1.371 -1.111,2.483 -2.483,2.483 h -31.035 c -1.372,0 -2.483,-1.111 -2.483,-2.482 z"
       fill="#0d0d0d"
       id="path88" />
    <path
       d="m 131.227,165.503 h -26.035 c -1.371,0 -2.483,-1.112 -2.483,-2.483 v -14.374 c 0,-1.371 1.112,-2.483 2.483,-2.483 h 26.035 c 1.371,0 2.483,1.112 2.483,2.483 v 14.374 c 0,1.371 -1.112,2.483 -2.483,2.483 z"
       fill="url(#j)"
       id="path90"
       style="fill:url(#j)" />
    <path
       d="m 100.21,217.462 v -20.036 c 0,-1.371 1.111,-2.483 2.483,-2.483 h 31.035 c 1.371,0 2.483,1.111 2.483,2.483 v 20.035 c 0,1.371 -1.111,2.483 -2.483,2.483 h -31.035 c -1.372,0 -2.483,-1.112 -2.483,-2.482 z"
       fill="#0d0d0d"
       id="path92" />
    <path
       d="m 131.227,217.113 h -26.035 c -1.371,0 -2.483,-1.112 -2.483,-2.483 v -14.374 c 0,-1.371 1.112,-2.483 2.483,-2.483 h 26.035 c 1.371,0 2.483,1.112 2.483,2.483 v 14.374 c 0,1.372 -1.112,2.483 -2.483,2.483 z"
       fill="url(#k)"
       id="path94"
       style="fill:url(#k)" />
    <path
       d="M 130.25,87.381 V 67.287 c 0,-1.355 1.098,-2.453 2.453,-2.453 h 30.251 c 1.355,0 2.453,1.098 2.453,2.453 V 87.38 c 0,1.355 -1.098,2.453 -2.453,2.453 h -30.252 c -1.354,0 -2.452,-1.098 -2.452,-2.452 z"
       fill="#0d0d0d"
       id="path96" />
    <path
       d="m 160.513,87.003 h -25.368 c -1.355,0 -2.453,-1.098 -2.453,-2.453 V 70.117 c 0,-1.355 1.098,-2.453 2.453,-2.453 h 25.368 c 1.355,0 2.453,1.098 2.453,2.453 V 84.55 c 0.001,1.355 -1.098,2.453 -2.453,2.453 z"
       fill="url(#l)"
       id="path98"
       style="fill:url(#l)" />
    <path
       d="M 169.478,87.381 V 67.287 c 0,-1.355 1.098,-2.453 2.453,-2.453 h 30.251 c 1.355,0 2.453,1.098 2.453,2.453 V 87.38 c 0,1.355 -1.098,2.453 -2.453,2.453 H 171.93 c -1.354,0 -2.452,-1.098 -2.452,-2.452 z"
       fill="#0d0d0d"
       id="path100" />
    <path
       d="m 199.741,87.003 h -25.368 c -1.355,0 -2.453,-1.098 -2.453,-2.453 V 70.117 c 0,-1.355 1.098,-2.453 2.453,-2.453 h 25.368 c 1.355,0 2.453,1.098 2.453,2.453 V 84.55 c 0,1.355 -1.098,2.453 -2.453,2.453 z"
       fill="url(#m)"
       id="path102"
       style="fill:url(#m)" />
    <path
       d="M 208.705,87.381 V 67.287 c 0,-1.355 1.098,-2.453 2.453,-2.453 h 30.251 c 1.355,0 2.453,1.098 2.453,2.453 V 87.38 c 0,1.355 -1.098,2.453 -2.453,2.453 h -30.252 c -1.354,0 -2.452,-1.098 -2.452,-2.452 z"
       fill="#0d0d0d"
       id="path104" />
    <path
       d="M 238.968,87.003 H 213.6 c -1.355,0 -2.453,-1.098 -2.453,-2.453 V 70.117 c 0,-1.355 1.098,-2.453 2.453,-2.453 h 25.368 c 1.355,0 2.453,1.098 2.453,2.453 V 84.55 c 0,1.355 -1.098,2.453 -2.453,2.453 z"
       fill="url(#n)"
       id="path106"
       style="fill:url(#n)" />
    <path
       d="M 247.932,87.381 V 67.287 c 0,-1.355 1.098,-2.453 2.453,-2.453 h 30.251 c 1.355,0 2.453,1.098 2.453,2.453 V 87.38 c 0,1.355 -1.098,2.453 -2.453,2.453 h -30.252 c -1.353,0 -2.452,-1.098 -2.452,-2.452 z"
       fill="#0d0d0d"
       id="path108" />
    <path
       d="m 278.195,87.003 h -25.368 c -1.355,0 -2.453,-1.098 -2.453,-2.453 V 70.117 c 0,-1.355 1.098,-2.453 2.453,-2.453 h 25.368 c 1.355,0 2.453,1.098 2.453,2.453 V 84.55 c 10e-4,1.355 -1.098,2.453 -2.453,2.453 z"
       fill="url(#o)"
       id="path110"
       style="fill:url(#o)" />
    <path
       d="M 287.16,87.381 V 67.287 c 0,-1.355 1.098,-2.453 2.453,-2.453 h 30.251 c 1.355,0 2.453,1.098 2.453,2.453 V 87.38 c 0,1.355 -1.098,2.453 -2.453,2.453 h -30.252 c -1.354,0 -2.452,-1.098 -2.452,-2.452 z"
       fill="#0d0d0d"
       id="path112" />
    <path
       d="m 317.423,87.003 h -25.368 c -1.355,0 -2.453,-1.098 -2.453,-2.453 V 70.117 c 0,-1.355 1.098,-2.453 2.453,-2.453 h 25.368 c 1.355,0 2.453,1.098 2.453,2.453 V 84.55 c 0,1.355 -1.098,2.453 -2.453,2.453 z"
       fill="url(#p)"
       id="path114"
       style="fill:url(#p)" />
    <path
       d="M 326.387,87.381 V 67.287 c 0,-1.355 1.098,-2.453 2.453,-2.453 h 30.251 c 1.355,0 2.453,1.098 2.453,2.453 V 87.38 c 0,1.355 -1.098,2.453 -2.453,2.453 H 328.84 c -1.355,0 -2.453,-1.098 -2.453,-2.452 z"
       fill="#0d0d0d"
       id="path116" />
    <path
       d="m 356.65,87.003 h -25.368 c -1.355,0 -2.453,-1.098 -2.453,-2.453 V 70.117 c 0,-1.355 1.098,-2.453 2.453,-2.453 h 25.368 c 1.355,0 2.453,1.098 2.453,2.453 V 84.55 c 10e-4,1.355 -1.098,2.453 -2.453,2.453 z"
       fill="url(#q)"
       id="path118"
       style="fill:url(#q)" />
    <path
       d="M 365.614,87.381 V 67.287 c 0,-1.355 1.098,-2.453 2.453,-2.453 h 30.251 c 1.355,0 2.453,1.098 2.453,2.453 V 87.38 c 0,1.355 -1.098,2.453 -2.453,2.453 h -30.252 c -1.353,0 -2.452,-1.098 -2.452,-2.452 z"
       fill="#0d0d0d"
       id="path120" />
    <path
       d="m 395.877,87.003 h -25.368 c -1.355,0 -2.453,-1.098 -2.453,-2.453 V 70.117 c 0,-1.355 1.098,-2.453 2.453,-2.453 h 25.368 c 1.355,0 2.453,1.098 2.453,2.453 V 84.55 c 0.001,1.355 -1.098,2.453 -2.453,2.453 z"
       fill="url(#r)"
       id="path122"
       style="fill:url(#r)" />
    <path
       d="M 404.842,87.381 V 67.287 c 0,-1.355 1.098,-2.453 2.453,-2.453 h 30.251 c 1.355,0 2.453,1.098 2.453,2.453 V 87.38 c 0,1.355 -1.098,2.453 -2.453,2.453 h -30.252 c -1.354,0 -2.452,-1.098 -2.452,-2.452 z"
       fill="#0d0d0d"
       id="path124" />
    <path
       d="m 435.105,87.003 h -25.368 c -1.355,0 -2.453,-1.098 -2.453,-2.453 V 70.117 c 0,-1.355 1.098,-2.453 2.453,-2.453 h 25.368 c 1.355,0 2.453,1.098 2.453,2.453 V 84.55 c 0,1.355 -1.098,2.453 -2.453,2.453 z"
       fill="url(#s)"
       id="path126"
       style="fill:url(#s)" />
    <path
       d="M 444.069,87.023 V 67.644 c 0,-1.552 1.258,-2.811 2.811,-2.811 h 40.531 c 1.552,0 2.811,1.258 2.811,2.811 v 19.378 c 0,1.552 -1.258,2.811 -2.811,2.811 H 446.88 c -1.552,0 -2.811,-1.258 -2.811,-2.81 z"
       fill="#861719"
       id="path128" />
    <path
       d="m 484.206,87.003 h -34.121 c -1.552,0 -2.811,-1.259 -2.811,-2.811 V 70.475 c 0,-1.552 1.259,-2.811 2.811,-2.811 h 34.121 c 1.552,0 2.811,1.259 2.811,2.811 v 13.718 c 0,1.552 -1.259,2.81 -2.811,2.81 z"
       fill="url(#t)"
       id="path130"
       style="fill:url(#t)" />
    <path
       d="M 90.444,114.686 V 93.758 c 0,-1.125 0.912,-2.036 2.036,-2.036 h 20.149 c 1.125,0 2.036,0.912 2.036,2.036 v 20.927 c 0,1.125 -0.912,2.036 -2.036,2.036 H 92.48 c -1.124,10e-4 -2.036,-0.91 -2.036,-2.035 z"
       fill="#0d0d0d"
       id="path132" />
    <path
       d="M 110.948,113.892 H 94.163 c -1.125,0 -2.036,-0.912 -2.036,-2.036 V 96.589 c 0,-1.125 0.912,-2.036 2.036,-2.036 h 16.785 c 1.125,0 2.036,0.912 2.036,2.036 v 15.267 c 0,1.124 -0.911,2.036 -2.036,2.036 z"
       fill="url(#u)"
       id="path134"
       style="fill:url(#u)" />
    <path
       d="m 99.694,192.102 v -20.928 c 0,-1.125 0.912,-2.036 2.036,-2.036 h 20.149 c 1.125,0 2.036,0.912 2.036,2.036 v 20.927 c 0,1.125 -0.912,2.036 -2.036,2.036 h -20.15 c -1.123,0.001 -2.035,-0.91 -2.035,-2.035 z"
       fill="#0d0d0d"
       id="path136" />
    <path
       d="m 120.198,191.308 h -16.785 c -1.125,0 -2.036,-0.912 -2.036,-2.036 v -15.267 c 0,-1.125 0.912,-2.036 2.036,-2.036 h 16.785 c 1.125,0 2.036,0.912 2.036,2.036 v 15.267 c 0,1.124 -0.911,2.036 -2.036,2.036 z"
       fill="url(#v)"
       id="path138"
       style="fill:url(#v)" />
    <path
       d="m 125.378,192.102 v -20.928 c 0,-1.125 0.912,-2.036 2.036,-2.036 h 20.149 c 1.125,0 2.036,0.912 2.036,2.036 v 20.927 c 0,1.125 -0.912,2.036 -2.036,2.036 h -20.15 c -1.123,0.001 -2.035,-0.91 -2.035,-2.035 z"
       fill="#0d0d0d"
       id="path140" />
    <path
       d="m 145.882,191.308 h -16.785 c -1.125,0 -2.036,-0.912 -2.036,-2.036 v -15.267 c 0,-1.125 0.912,-2.036 2.036,-2.036 h 16.785 c 1.125,0 2.036,0.912 2.036,2.036 v 15.267 c 0,1.124 -0.912,2.036 -2.036,2.036 z"
       fill="url(#w)"
       id="path142"
       style="fill:url(#w)" />
    <path
       d="M 117.583,114.733 V 93.712 c 0,-1.099 0.891,-1.99 1.99,-1.99 h 19.148 c 1.099,0 1.99,0.891 1.99,1.99 v 21.02 c 0,1.099 -0.891,1.99 -1.99,1.99 h -19.149 c -1.098,0 -1.989,-0.89 -1.989,-1.989 z"
       fill="#cabfa3"
       id="path144" />
    <path
       d="m 137.115,113.892 h -15.936 c -1.099,0 -1.99,-0.891 -1.99,-1.99 v -15.36 c 0,-1.099 0.891,-1.99 1.99,-1.99 h 15.936 c 1.099,0 1.99,0.891 1.99,1.99 v 15.36 c 0,1.099 -0.891,1.99 -1.99,1.99 z"
       fill="#ddd6ba"
       id="path146" />
    <path
       d="M 143.496,114.733 V 93.712 c 0,-1.099 0.891,-1.99 1.99,-1.99 h 19.148 c 1.099,0 1.99,0.891 1.99,1.99 v 21.02 c 0,1.099 -0.891,1.99 -1.99,1.99 h -19.149 c -1.098,0 -1.989,-0.89 -1.989,-1.989 z"
       fill="#cabfa3"
       id="path148" />
    <path
       d="m 163.028,113.892 h -15.936 c -1.099,0 -1.99,-0.891 -1.99,-1.99 v -15.36 c 0,-1.099 0.891,-1.99 1.99,-1.99 h 15.936 c 1.099,0 1.99,0.891 1.99,1.99 v 15.36 c 0,1.099 -0.891,1.99 -1.99,1.99 z"
       fill="#ddd6ba"
       id="path150" />
    <path
       d="M 169.409,114.733 V 93.712 c 0,-1.099 0.891,-1.99 1.99,-1.99 h 19.148 c 1.099,0 1.99,0.891 1.99,1.99 v 21.02 c 0,1.099 -0.891,1.99 -1.99,1.99 h -19.149 c -1.098,0 -1.989,-0.89 -1.989,-1.989 z"
       fill="#cabfa3"
       id="path152" />
    <path
       d="m 188.941,113.892 h -15.936 c -1.099,0 -1.99,-0.891 -1.99,-1.99 v -15.36 c 0,-1.099 0.891,-1.99 1.99,-1.99 h 15.936 c 1.099,0 1.99,0.891 1.99,1.99 v 15.36 c 0,1.099 -0.891,1.99 -1.99,1.99 z"
       fill="#ddd6ba"
       id="path154" />
    <path
       d="M 195.322,114.733 V 93.712 c 0,-1.099 0.891,-1.99 1.99,-1.99 h 19.148 c 1.099,0 1.99,0.891 1.99,1.99 v 21.02 c 0,1.099 -0.891,1.99 -1.99,1.99 h -19.149 c -1.098,0 -1.989,-0.89 -1.989,-1.989 z"
       fill="#cabfa3"
       id="path156" />
    <path
       d="m 214.854,113.892 h -15.936 c -1.099,0 -1.99,-0.891 -1.99,-1.99 v -15.36 c 0,-1.099 0.891,-1.99 1.99,-1.99 h 15.936 c 1.099,0 1.99,0.891 1.99,1.99 v 15.36 c 0,1.099 -0.891,1.99 -1.99,1.99 z"
       fill="#ddd6ba"
       id="path158" />
    <path
       d="M 221.235,114.733 V 93.712 c 0,-1.099 0.891,-1.99 1.99,-1.99 h 19.148 c 1.099,0 1.99,0.891 1.99,1.99 v 21.02 c 0,1.099 -0.891,1.99 -1.99,1.99 h -19.149 c -1.098,0 -1.989,-0.89 -1.989,-1.989 z"
       fill="#cabfa3"
       id="path160" />
    <path
       d="m 240.767,113.892 h -15.936 c -1.099,0 -1.99,-0.891 -1.99,-1.99 v -15.36 c 0,-1.099 0.891,-1.99 1.99,-1.99 h 15.936 c 1.099,0 1.99,0.891 1.99,1.99 v 15.36 c 0,1.099 -0.891,1.99 -1.99,1.99 z"
       fill="#ddd6ba"
       id="path162" />
    <path
       d="M 247.148,114.733 V 93.712 c 0,-1.099 0.891,-1.99 1.99,-1.99 h 19.148 c 1.099,0 1.99,0.891 1.99,1.99 v 21.02 c 0,1.099 -0.891,1.99 -1.99,1.99 h -19.149 c -1.098,0 -1.989,-0.89 -1.989,-1.989 z"
       fill="#cabfa3"
       id="path164" />
    <path
       d="m 266.68,113.892 h -15.936 c -1.099,0 -1.99,-0.891 -1.99,-1.99 v -15.36 c 0,-1.099 0.891,-1.99 1.99,-1.99 h 15.936 c 1.099,0 1.99,0.891 1.99,1.99 v 15.36 c 0,1.099 -0.891,1.99 -1.99,1.99 z"
       fill="#ddd6ba"
       id="path166" />
    <path
       d="M 273.061,114.733 V 93.712 c 0,-1.099 0.891,-1.99 1.99,-1.99 h 19.148 c 1.099,0 1.99,0.891 1.99,1.99 v 21.02 c 0,1.099 -0.891,1.99 -1.99,1.99 H 275.05 c -1.098,0 -1.989,-0.89 -1.989,-1.989 z"
       fill="#cabfa3"
       id="path168" />
    <path
       d="m 292.593,113.892 h -15.936 c -1.099,0 -1.99,-0.891 -1.99,-1.99 v -15.36 c 0,-1.099 0.891,-1.99 1.99,-1.99 h 15.936 c 1.099,0 1.99,0.891 1.99,1.99 v 15.36 c 0,1.099 -0.891,1.99 -1.99,1.99 z"
       fill="#ddd6ba"
       id="path170" />
    <path
       d="M 298.974,114.733 V 93.712 c 0,-1.099 0.891,-1.99 1.99,-1.99 h 19.148 c 1.099,0 1.99,0.891 1.99,1.99 v 21.02 c 0,1.099 -0.891,1.99 -1.99,1.99 h -19.149 c -1.098,0 -1.989,-0.89 -1.989,-1.989 z"
       fill="#cabfa3"
       id="path172" />
    <path
       d="M 318.506,113.892 H 302.57 c -1.099,0 -1.99,-0.891 -1.99,-1.99 v -15.36 c 0,-1.099 0.891,-1.99 1.99,-1.99 h 15.936 c 1.099,0 1.99,0.891 1.99,1.99 v 15.36 c 0,1.099 -0.891,1.99 -1.99,1.99 z"
       fill="#ddd6ba"
       id="path174" />
    <path
       d="M 324.887,114.733 V 93.712 c 0,-1.099 0.891,-1.99 1.99,-1.99 h 19.148 c 1.099,0 1.99,0.891 1.99,1.99 v 21.02 c 0,1.099 -0.891,1.99 -1.99,1.99 h -19.149 c -1.098,0 -1.989,-0.89 -1.989,-1.989 z"
       fill="#cabfa3"
       id="path176" />
    <path
       d="m 344.419,113.892 h -15.936 c -1.099,0 -1.99,-0.891 -1.99,-1.99 v -15.36 c 0,-1.099 0.891,-1.99 1.99,-1.99 h 15.936 c 1.099,0 1.99,0.891 1.99,1.99 v 15.36 c 0,1.099 -0.891,1.99 -1.99,1.99 z"
       fill="#ddd6ba"
       id="path178" />
    <path
       d="M 350.8,114.733 V 93.712 c 0,-1.099 0.891,-1.99 1.99,-1.99 h 19.148 c 1.099,0 1.99,0.891 1.99,1.99 v 21.02 c 0,1.099 -0.891,1.99 -1.99,1.99 h -19.149 c -1.098,0 -1.989,-0.89 -1.989,-1.989 z"
       fill="#cabfa3"
       id="path180" />
    <path
       d="m 370.332,113.892 h -15.936 c -1.099,0 -1.99,-0.891 -1.99,-1.99 v -15.36 c 0,-1.099 0.891,-1.99 1.99,-1.99 h 15.936 c 1.099,0 1.99,0.891 1.99,1.99 v 15.36 c 0,1.099 -0.891,1.99 -1.99,1.99 z"
       fill="#ddd6ba"
       id="path182" />
    <path
       d="M 376.713,114.733 V 93.712 c 0,-1.099 0.891,-1.99 1.99,-1.99 h 19.148 c 1.099,0 1.99,0.891 1.99,1.99 v 21.02 c 0,1.099 -0.891,1.99 -1.99,1.99 h -19.149 c -1.099,0 -1.989,-0.89 -1.989,-1.989 z"
       fill="#cabfa3"
       id="path184" />
    <path
       d="m 396.245,113.892 h -15.936 c -1.099,0 -1.99,-0.891 -1.99,-1.99 v -15.36 c 0,-1.099 0.891,-1.99 1.99,-1.99 h 15.936 c 1.099,0 1.99,0.891 1.99,1.99 v 15.36 c 0,1.099 -0.891,1.99 -1.99,1.99 z"
       fill="#ddd6ba"
       id="path186" />
    <path
       d="M 402.626,114.733 V 93.712 c 0,-1.099 0.891,-1.99 1.99,-1.99 h 19.148 c 1.099,0 1.99,0.891 1.99,1.99 v 21.02 c 0,1.099 -0.891,1.99 -1.99,1.99 h -19.149 c -1.099,0 -1.989,-0.89 -1.989,-1.989 z"
       fill="#cabfa3"
       id="path188" />
    <path
       d="m 422.158,113.892 h -15.936 c -1.099,0 -1.99,-0.891 -1.99,-1.99 v -15.36 c 0,-1.099 0.891,-1.99 1.99,-1.99 h 15.936 c 1.099,0 1.99,0.891 1.99,1.99 v 15.36 c 0,1.099 -0.891,1.99 -1.99,1.99 z"
       fill="#ddd6ba"
       id="path190" />
    <path
       d="M 428.539,114.733 V 93.712 c 0,-1.099 0.891,-1.99 1.99,-1.99 h 19.148 c 1.099,0 1.99,0.891 1.99,1.99 v 21.02 c 0,1.099 -0.891,1.99 -1.99,1.99 h -19.149 c -1.099,0 -1.989,-0.89 -1.989,-1.989 z"
       fill="#cabfa3"
       id="path192" />
    <path
       d="m 448.071,113.892 h -15.936 c -1.099,0 -1.99,-0.891 -1.99,-1.99 v -15.36 c 0,-1.099 0.891,-1.99 1.99,-1.99 h 15.936 c 1.099,0 1.99,0.891 1.99,1.99 v 15.36 c -10e-4,1.099 -0.891,1.99 -1.99,1.99 z"
       fill="#ddd6ba"
       id="path194" />
    <path
       d="m 130.292,140.538 v -21.021 c 0,-1.099 0.891,-1.99 1.99,-1.99 h 19.148 c 1.099,0 1.99,0.891 1.99,1.99 v 21.021 c 0,1.099 -0.891,1.99 -1.99,1.99 h -19.149 c -1.098,0 -1.989,-0.891 -1.989,-1.99 z"
       fill="#cabfa3"
       id="path196" />
    <path
       d="m 149.824,139.697 h -15.936 c -1.099,0 -1.99,-0.891 -1.99,-1.99 v -15.36 c 0,-1.099 0.891,-1.99 1.99,-1.99 h 15.936 c 1.099,0 1.99,0.891 1.99,1.99 v 15.36 c 0,1.1 -0.891,1.99 -1.99,1.99 z"
       fill="#ddd6ba"
       id="path198" />
    <path
       d="m 156.205,140.538 v -21.021 c 0,-1.099 0.891,-1.99 1.99,-1.99 h 19.148 c 1.099,0 1.99,0.891 1.99,1.99 v 21.021 c 0,1.099 -0.891,1.99 -1.99,1.99 h -19.149 c -1.098,0 -1.989,-0.891 -1.989,-1.99 z"
       fill="#cabfa3"
       id="path200" />
    <path
       d="m 175.737,139.697 h -15.936 c -1.099,0 -1.99,-0.891 -1.99,-1.99 v -15.36 c 0,-1.099 0.891,-1.99 1.99,-1.99 h 15.936 c 1.099,0 1.99,0.891 1.99,1.99 v 15.36 c 0,1.1 -0.891,1.99 -1.99,1.99 z"
       fill="#ddd6ba"
       id="path202" />
    <path
       d="m 182.118,140.538 v -21.021 c 0,-1.099 0.891,-1.99 1.99,-1.99 h 19.148 c 1.099,0 1.99,0.891 1.99,1.99 v 21.021 c 0,1.099 -0.891,1.99 -1.99,1.99 h -19.149 c -1.098,0 -1.989,-0.891 -1.989,-1.99 z"
       fill="#cabfa3"
       id="path204" />
    <path
       d="m 201.65,139.697 h -15.936 c -1.099,0 -1.99,-0.891 -1.99,-1.99 v -15.36 c 0,-1.099 0.891,-1.99 1.99,-1.99 h 15.936 c 1.099,0 1.99,0.891 1.99,1.99 v 15.36 c 0,1.1 -0.891,1.99 -1.99,1.99 z"
       fill="#ddd6ba"
       id="path206" />
    <path
       d="m 208.031,140.538 v -21.021 c 0,-1.099 0.891,-1.99 1.99,-1.99 h 19.148 c 1.099,0 1.99,0.891 1.99,1.99 v 21.021 c 0,1.099 -0.891,1.99 -1.99,1.99 H 210.02 c -1.098,0 -1.989,-0.891 -1.989,-1.99 z"
       fill="#cabfa3"
       id="path208" />
    <path
       d="m 227.563,139.697 h -15.936 c -1.099,0 -1.99,-0.891 -1.99,-1.99 v -15.36 c 0,-1.099 0.891,-1.99 1.99,-1.99 h 15.936 c 1.099,0 1.99,0.891 1.99,1.99 v 15.36 c 0,1.1 -0.891,1.99 -1.99,1.99 z"
       fill="#ddd6ba"
       id="path210" />
    <path
       d="m 233.944,140.538 v -21.021 c 0,-1.099 0.891,-1.99 1.99,-1.99 h 19.148 c 1.099,0 1.99,0.891 1.99,1.99 v 21.021 c 0,1.099 -0.891,1.99 -1.99,1.99 h -19.149 c -1.099,0 -1.989,-0.891 -1.989,-1.99 z"
       fill="#cabfa3"
       id="path212" />
    <path
       d="M 253.476,139.697 H 237.54 c -1.099,0 -1.99,-0.891 -1.99,-1.99 v -15.36 c 0,-1.099 0.891,-1.99 1.99,-1.99 h 15.936 c 1.099,0 1.99,0.891 1.99,1.99 v 15.36 c 0,1.1 -0.891,1.99 -1.99,1.99 z"
       fill="#ddd6ba"
       id="path214" />
    <path
       d="m 259.857,140.538 v -21.021 c 0,-1.099 0.891,-1.99 1.99,-1.99 h 19.148 c 1.099,0 1.99,0.891 1.99,1.99 v 21.021 c 0,1.099 -0.891,1.99 -1.99,1.99 h -19.149 c -1.099,0 -1.989,-0.891 -1.989,-1.99 z"
       fill="#cabfa3"
       id="path216" />
    <path
       d="m 279.389,139.697 h -15.936 c -1.099,0 -1.99,-0.891 -1.99,-1.99 v -15.36 c 0,-1.099 0.891,-1.99 1.99,-1.99 h 15.936 c 1.099,0 1.99,0.891 1.99,1.99 v 15.36 c 0,1.1 -0.891,1.99 -1.99,1.99 z"
       fill="#ddd6ba"
       id="path218" />
    <path
       d="m 285.77,140.538 v -21.021 c 0,-1.099 0.891,-1.99 1.99,-1.99 h 19.148 c 1.099,0 1.99,0.891 1.99,1.99 v 21.021 c 0,1.099 -0.891,1.99 -1.99,1.99 h -19.149 c -1.099,0 -1.989,-0.891 -1.989,-1.99 z"
       fill="#cabfa3"
       id="path220" />
    <path
       d="m 305.302,139.697 h -15.936 c -1.099,0 -1.99,-0.891 -1.99,-1.99 v -15.36 c 0,-1.099 0.891,-1.99 1.99,-1.99 h 15.936 c 1.099,0 1.99,0.891 1.99,1.99 v 15.36 c -10e-4,1.1 -0.891,1.99 -1.99,1.99 z"
       fill="#ddd6ba"
       id="path222" />
    <path
       d="m 311.683,140.538 v -21.021 c 0,-1.099 0.891,-1.99 1.99,-1.99 h 19.148 c 1.099,0 1.99,0.891 1.99,1.99 v 21.021 c 0,1.099 -0.891,1.99 -1.99,1.99 h -19.149 c -1.099,0 -1.989,-0.891 -1.989,-1.99 z"
       fill="#cabfa3"
       id="path224" />
    <path
       d="m 331.215,139.697 h -15.936 c -1.099,0 -1.99,-0.891 -1.99,-1.99 v -15.36 c 0,-1.099 0.891,-1.99 1.99,-1.99 h 15.936 c 1.099,0 1.99,0.891 1.99,1.99 v 15.36 c -10e-4,1.1 -0.892,1.99 -1.99,1.99 z"
       fill="#ddd6ba"
       id="path226" />
    <path
       d="m 337.596,140.538 v -21.021 c 0,-1.099 0.891,-1.99 1.99,-1.99 h 19.148 c 1.099,0 1.99,0.891 1.99,1.99 v 21.021 c 0,1.099 -0.891,1.99 -1.99,1.99 h -19.149 c -1.099,0 -1.989,-0.891 -1.989,-1.99 z"
       fill="#cabfa3"
       id="path228" />
    <path
       d="m 357.127,139.697 h -15.936 c -1.099,0 -1.99,-0.891 -1.99,-1.99 v -15.36 c 0,-1.099 0.891,-1.99 1.99,-1.99 h 15.936 c 1.099,0 1.99,0.891 1.99,1.99 v 15.36 c 0,1.1 -0.891,1.99 -1.99,1.99 z"
       fill="#ddd6ba"
       id="path230" />
    <path
       d="m 363.508,140.538 v -21.021 c 0,-1.099 0.891,-1.99 1.99,-1.99 h 19.148 c 1.099,0 1.99,0.891 1.99,1.99 v 21.021 c 0,1.099 -0.891,1.99 -1.99,1.99 h -19.149 c -1.098,0 -1.989,-0.891 -1.989,-1.99 z"
       fill="#cabfa3"
       id="path232" />
    <path
       d="m 383.04,139.697 h -15.936 c -1.099,0 -1.99,-0.891 -1.99,-1.99 v -15.36 c 0,-1.099 0.891,-1.99 1.99,-1.99 h 15.936 c 1.099,0 1.99,0.891 1.99,1.99 v 15.36 c 0,1.1 -0.891,1.99 -1.99,1.99 z"
       fill="#ddd6ba"
       id="path234" />
    <path
       d="m 389.421,140.538 v -21.021 c 0,-1.099 0.891,-1.99 1.99,-1.99 h 19.148 c 1.099,0 1.99,0.891 1.99,1.99 v 21.021 c 0,1.099 -0.891,1.99 -1.99,1.99 H 391.41 c -1.098,0 -1.989,-0.891 -1.989,-1.99 z"
       fill="#cabfa3"
       id="path236" />
    <path
       d="m 408.953,139.697 h -15.936 c -1.099,0 -1.99,-0.891 -1.99,-1.99 v -15.36 c 0,-1.099 0.891,-1.99 1.99,-1.99 h 15.936 c 1.099,0 1.99,0.891 1.99,1.99 v 15.36 c 0,1.1 -0.891,1.99 -1.99,1.99 z"
       fill="#ddd6ba"
       id="path238" />
    <path
       d="m 415.334,140.538 v -21.021 c 0,-1.099 0.891,-1.99 1.99,-1.99 h 19.148 c 1.099,0 1.99,0.891 1.99,1.99 v 21.021 c 0,1.099 -0.891,1.99 -1.99,1.99 h -19.149 c -1.098,0 -1.989,-0.891 -1.989,-1.99 z"
       fill="#cabfa3"
       id="path240" />
    <path
       d="M 434.866,139.697 H 418.93 c -1.099,0 -1.99,-0.891 -1.99,-1.99 v -15.36 c 0,-1.099 0.891,-1.99 1.99,-1.99 h 15.936 c 1.099,0 1.99,0.891 1.99,1.99 v 15.36 c 0,1.1 -0.891,1.99 -1.99,1.99 z"
       fill="#ddd6ba"
       id="path242" />
    <path
       d="m 441.247,140.538 v -21.021 c 0,-1.099 0.891,-1.99 1.99,-1.99 h 19.148 c 1.099,0 1.99,0.891 1.99,1.99 v 21.021 c 0,1.099 -0.891,1.99 -1.99,1.99 h -19.149 c -1.098,0 -1.989,-0.891 -1.989,-1.99 z"
       fill="#cabfa3"
       id="path244" />
    <path
       d="m 460.779,139.697 h -15.936 c -1.099,0 -1.99,-0.891 -1.99,-1.99 v -15.36 c 0,-1.099 0.891,-1.99 1.99,-1.99 h 15.936 c 1.099,0 1.99,0.891 1.99,1.99 v 15.36 c 0,1.1 -0.891,1.99 -1.99,1.99 z"
       fill="#ddd6ba"
       id="path246" />
    <path
       d="m 138.105,166.344 v -21.021 c 0,-1.099 0.891,-1.99 1.99,-1.99 h 19.148 c 1.099,0 1.99,0.891 1.99,1.99 v 21.02 c 0,1.099 -0.891,1.99 -1.99,1.99 h -19.149 c -1.098,0 -1.989,-0.891 -1.989,-1.989 z"
       fill="#cabfa3"
       id="path248" />
    <path
       d="m 157.637,165.503 h -15.936 c -1.099,0 -1.99,-0.891 -1.99,-1.99 v -15.36 c 0,-1.099 0.891,-1.99 1.99,-1.99 h 15.936 c 1.099,0 1.99,0.891 1.99,1.99 v 15.36 c 0,1.099 -0.891,1.99 -1.99,1.99 z"
       fill="#ddd6ba"
       id="path250" />
    <path
       d="m 164.018,166.344 v -21.021 c 0,-1.099 0.891,-1.99 1.99,-1.99 h 19.148 c 1.099,0 1.99,0.891 1.99,1.99 v 21.02 c 0,1.099 -0.891,1.99 -1.99,1.99 h -19.149 c -1.098,0 -1.989,-0.891 -1.989,-1.989 z"
       fill="#cabfa3"
       id="path252" />
    <path
       d="m 183.55,165.503 h -15.936 c -1.099,0 -1.99,-0.891 -1.99,-1.99 v -15.36 c 0,-1.099 0.891,-1.99 1.99,-1.99 h 15.936 c 1.099,0 1.99,0.891 1.99,1.99 v 15.36 c 0,1.099 -0.891,1.99 -1.99,1.99 z"
       fill="#ddd6ba"
       id="path254" />
    <path
       d="m 189.931,166.344 v -21.021 c 0,-1.099 0.891,-1.99 1.99,-1.99 h 19.148 c 1.099,0 1.99,0.891 1.99,1.99 v 21.02 c 0,1.099 -0.891,1.99 -1.99,1.99 H 191.92 c -1.098,0 -1.989,-0.891 -1.989,-1.989 z"
       fill="#cabfa3"
       id="path256" />
    <path
       d="m 209.463,165.503 h -15.936 c -1.099,0 -1.99,-0.891 -1.99,-1.99 v -15.36 c 0,-1.099 0.891,-1.99 1.99,-1.99 h 15.936 c 1.099,0 1.99,0.891 1.99,1.99 v 15.36 c 0,1.099 -0.891,1.99 -1.99,1.99 z"
       fill="#ddd6ba"
       id="path258" />
    <path
       d="m 215.844,166.344 v -21.021 c 0,-1.099 0.891,-1.99 1.99,-1.99 h 19.148 c 1.099,0 1.99,0.891 1.99,1.99 v 21.02 c 0,1.099 -0.891,1.99 -1.99,1.99 h -19.149 c -1.098,0 -1.989,-0.891 -1.989,-1.989 z"
       fill="#cabfa3"
       id="path260" />
    <path
       d="M 235.376,165.503 H 219.44 c -1.099,0 -1.99,-0.891 -1.99,-1.99 v -15.36 c 0,-1.099 0.891,-1.99 1.99,-1.99 h 15.936 c 1.099,0 1.99,0.891 1.99,1.99 v 15.36 c 0,1.099 -0.891,1.99 -1.99,1.99 z"
       fill="#ddd6ba"
       id="path262" />
    <path
       d="m 241.757,166.344 v -21.021 c 0,-1.099 0.891,-1.99 1.99,-1.99 h 19.148 c 1.099,0 1.99,0.891 1.99,1.99 v 21.02 c 0,1.099 -0.891,1.99 -1.99,1.99 h -19.149 c -1.098,0 -1.989,-0.891 -1.989,-1.989 z"
       fill="#cabfa3"
       id="path264" />
    <path
       d="m 261.289,165.503 h -15.936 c -1.099,0 -1.99,-0.891 -1.99,-1.99 v -15.36 c 0,-1.099 0.891,-1.99 1.99,-1.99 h 15.936 c 1.099,0 1.99,0.891 1.99,1.99 v 15.36 c 0,1.099 -0.891,1.99 -1.99,1.99 z"
       fill="#ddd6ba"
       id="path266" />
    <path
       d="m 267.67,166.344 v -21.021 c 0,-1.099 0.891,-1.99 1.99,-1.99 h 19.148 c 1.099,0 1.99,0.891 1.99,1.99 v 21.02 c 0,1.099 -0.891,1.99 -1.99,1.99 h -19.149 c -1.098,0 -1.989,-0.891 -1.989,-1.989 z"
       fill="#cabfa3"
       id="path268" />
    <path
       d="m 287.202,165.503 h -15.936 c -1.099,0 -1.99,-0.891 -1.99,-1.99 v -15.36 c 0,-1.099 0.891,-1.99 1.99,-1.99 h 15.936 c 1.099,0 1.99,0.891 1.99,1.99 v 15.36 c 0,1.099 -0.891,1.99 -1.99,1.99 z"
       fill="#ddd6ba"
       id="path270" />
    <path
       d="m 293.583,166.344 v -21.021 c 0,-1.099 0.891,-1.99 1.99,-1.99 h 19.148 c 1.099,0 1.99,0.891 1.99,1.99 v 21.02 c 0,1.099 -0.891,1.99 -1.99,1.99 h -19.149 c -1.099,0 -1.989,-0.891 -1.989,-1.989 z"
       fill="#cabfa3"
       id="path272" />
    <path
       d="m 313.115,165.503 h -15.936 c -1.099,0 -1.99,-0.891 -1.99,-1.99 v -15.36 c 0,-1.099 0.891,-1.99 1.99,-1.99 h 15.936 c 1.099,0 1.99,0.891 1.99,1.99 v 15.36 c 0,1.099 -0.891,1.99 -1.99,1.99 z"
       fill="#ddd6ba"
       id="path274" />
    <path
       d="m 319.496,166.344 v -21.021 c 0,-1.099 0.891,-1.99 1.99,-1.99 h 19.148 c 1.099,0 1.99,0.891 1.99,1.99 v 21.02 c 0,1.099 -0.891,1.99 -1.99,1.99 h -19.149 c -1.099,0 -1.989,-0.891 -1.989,-1.989 z"
       fill="#cabfa3"
       id="path276" />
    <path
       d="m 339.028,165.503 h -15.936 c -1.099,0 -1.99,-0.891 -1.99,-1.99 v -15.36 c 0,-1.099 0.891,-1.99 1.99,-1.99 h 15.936 c 1.099,0 1.99,0.891 1.99,1.99 v 15.36 c 0,1.099 -0.891,1.99 -1.99,1.99 z"
       fill="#ddd6ba"
       id="path278" />
    <path
       d="m 345.409,166.344 v -21.021 c 0,-1.099 0.891,-1.99 1.99,-1.99 h 19.148 c 1.099,0 1.99,0.891 1.99,1.99 v 21.02 c 0,1.099 -0.891,1.99 -1.99,1.99 h -19.149 c -1.099,0 -1.989,-0.891 -1.989,-1.989 z"
       fill="#cabfa3"
       id="path280" />
    <path
       d="m 364.941,165.503 h -15.936 c -1.099,0 -1.99,-0.891 -1.99,-1.99 v -15.36 c 0,-1.099 0.891,-1.99 1.99,-1.99 h 15.936 c 1.099,0 1.99,0.891 1.99,1.99 v 15.36 c -10e-4,1.099 -0.891,1.99 -1.99,1.99 z"
       fill="#ddd6ba"
       id="path282" />
    <path
       d="m 371.322,166.344 v -21.021 c 0,-1.099 0.891,-1.99 1.99,-1.99 h 19.148 c 1.099,0 1.99,0.891 1.99,1.99 v 21.02 c 0,1.099 -0.891,1.99 -1.99,1.99 h -19.149 c -1.099,0 -1.989,-0.891 -1.989,-1.989 z"
       fill="#cabfa3"
       id="path284" />
    <path
       d="m 390.854,165.503 h -15.936 c -1.099,0 -1.99,-0.891 -1.99,-1.99 v -15.36 c 0,-1.099 0.891,-1.99 1.99,-1.99 h 15.936 c 1.099,0 1.99,0.891 1.99,1.99 v 15.36 c -10e-4,1.099 -0.891,1.99 -1.99,1.99 z"
       fill="#ddd6ba"
       id="path286" />
    <path
       d="m 397.235,166.344 v -21.021 c 0,-1.099 0.891,-1.99 1.99,-1.99 h 19.148 c 1.099,0 1.99,0.891 1.99,1.99 v 21.02 c 0,1.099 -0.891,1.99 -1.99,1.99 h -19.149 c -1.099,0 -1.989,-0.891 -1.989,-1.989 z"
       fill="#cabfa3"
       id="path288" />
    <path
       d="M 416.766,165.503 H 400.83 c -1.099,0 -1.99,-0.891 -1.99,-1.99 v -15.36 c 0,-1.099 0.891,-1.99 1.99,-1.99 h 15.936 c 1.099,0 1.99,0.891 1.99,1.99 v 15.36 c 0,1.099 -0.891,1.99 -1.99,1.99 z"
       fill="#ddd6ba"
       id="path290" />
    <path
       d="m 423.148,166.344 v -21.021 c 0,-1.099 0.891,-1.99 1.99,-1.99 h 19.148 c 1.099,0 1.99,0.891 1.99,1.99 v 21.02 c 0,1.099 -0.891,1.99 -1.99,1.99 h -19.149 c -1.099,0 -1.989,-0.891 -1.989,-1.989 z"
       fill="#cabfa3"
       id="path292" />
    <path
       d="m 442.679,165.503 h -15.936 c -1.099,0 -1.99,-0.891 -1.99,-1.99 v -15.36 c 0,-1.099 0.891,-1.99 1.99,-1.99 h 15.936 c 1.099,0 1.99,0.891 1.99,1.99 v 15.36 c 0,1.099 -0.891,1.99 -1.99,1.99 z"
       fill="#ddd6ba"
       id="path294" />
    <path
       d="m 346.064,219.944 h 19.009 c 1.091,0 1.975,-0.891 1.975,-1.99 v -21.02 c 0,-1.099 -0.884,-1.99 -1.975,-1.99 H 346.064 165.993 c -1.091,0 -1.975,0.891 -1.975,1.99 v 21.021 c 0,1.099 0.884,1.989 1.975,1.989 z"
       fill="#cabfa3"
       id="path296" />
    <path
       d="m 347.659,217.113 h 15.82 c 1.091,0 1.975,-0.891 1.975,-1.99 v -15.36 c 0,-1.099 -0.884,-1.99 -1.975,-1.99 h -15.82 -180.071 c -1.091,0 -1.975,0.891 -1.975,1.99 v 15.36 c 0,1.099 0.884,1.99 1.975,1.99 z"
       fill="#ddd6ba"
       id="path298" />
    <path
       d="m 151.062,192.159 v -21.041 c 0,-1.093 0.886,-1.98 1.98,-1.98 h 18.937 c 1.093,0 1.98,0.886 1.98,1.98 v 21.04 c 0,1.093 -0.886,1.98 -1.98,1.98 h -18.937 c -1.094,0 -1.98,-0.886 -1.98,-1.979 z"
       fill="#cabfa3"
       id="path300" />
    <path
       d="m 170.388,191.308 h -15.757 c -1.093,0 -1.98,-0.886 -1.98,-1.98 v -15.38 c 0,-1.093 0.886,-1.98 1.98,-1.98 h 15.757 c 1.093,0 1.98,0.886 1.98,1.98 v 15.38 c 0,1.094 -0.886,1.98 -1.98,1.98 z"
       fill="#ddd6ba"
       id="path302" />
    <path
       d="m 176.715,192.159 v -21.041 c 0,-1.093 0.886,-1.98 1.98,-1.98 h 18.937 c 1.093,0 1.98,0.886 1.98,1.98 v 21.04 c 0,1.093 -0.886,1.98 -1.98,1.98 h -18.937 c -1.093,0 -1.98,-0.886 -1.98,-1.979 z"
       fill="#cabfa3"
       id="path304" />
    <path
       d="m 196.042,191.308 h -15.757 c -1.093,0 -1.98,-0.886 -1.98,-1.98 v -15.38 c 0,-1.093 0.886,-1.98 1.98,-1.98 h 15.757 c 1.093,0 1.98,0.886 1.98,1.98 v 15.38 c 0,1.094 -0.887,1.98 -1.98,1.98 z"
       fill="#ddd6ba"
       id="path306" />
    <path
       d="m 202.369,192.159 v -21.041 c 0,-1.093 0.886,-1.98 1.98,-1.98 h 18.937 c 1.093,0 1.98,0.886 1.98,1.98 v 21.04 c 0,1.093 -0.886,1.98 -1.98,1.98 h -18.937 c -1.094,0 -1.98,-0.886 -1.98,-1.979 z"
       fill="#cabfa3"
       id="path308" />
    <path
       d="m 221.696,191.308 h -15.757 c -1.093,0 -1.98,-0.886 -1.98,-1.98 v -15.38 c 0,-1.093 0.886,-1.98 1.98,-1.98 h 15.757 c 1.093,0 1.98,0.886 1.98,1.98 v 15.38 c 0,1.094 -0.887,1.98 -1.98,1.98 z"
       fill="#ddd6ba"
       id="path310" />
    <path
       d="m 228.023,192.159 v -21.041 c 0,-1.093 0.886,-1.98 1.98,-1.98 h 18.937 c 1.093,0 1.98,0.886 1.98,1.98 v 21.04 c 0,1.093 -0.886,1.98 -1.98,1.98 h -18.937 c -1.094,0 -1.98,-0.886 -1.98,-1.979 z"
       fill="#cabfa3"
       id="path312" />
    <path
       d="m 247.349,191.308 h -15.757 c -1.093,0 -1.98,-0.886 -1.98,-1.98 v -15.38 c 0,-1.093 0.886,-1.98 1.98,-1.98 h 15.757 c 1.093,0 1.98,0.886 1.98,1.98 v 15.38 c 0,1.094 -0.886,1.98 -1.98,1.98 z"
       fill="#ddd6ba"
       id="path314" />
    <path
       d="m 253.677,192.159 v -21.041 c 0,-1.093 0.886,-1.98 1.98,-1.98 h 18.937 c 1.093,0 1.98,0.886 1.98,1.98 v 21.04 c 0,1.093 -0.886,1.98 -1.98,1.98 h -18.937 c -1.094,0 -1.98,-0.886 -1.98,-1.979 z"
       fill="#cabfa3"
       id="path316" />
    <path
       d="m 273.003,191.308 h -15.757 c -1.093,0 -1.98,-0.886 -1.98,-1.98 v -15.38 c 0,-1.093 0.886,-1.98 1.98,-1.98 h 15.757 c 1.093,0 1.98,0.886 1.98,1.98 v 15.38 c 0,1.094 -0.886,1.98 -1.98,1.98 z"
       fill="#ddd6ba"
       id="path318" />
    <path
       d="m 279.33,192.159 v -21.041 c 0,-1.093 0.886,-1.98 1.98,-1.98 h 18.937 c 1.093,0 1.98,0.886 1.98,1.98 v 21.04 c 0,1.093 -0.886,1.98 -1.98,1.98 H 281.31 c -1.094,0 -1.98,-0.886 -1.98,-1.979 z"
       fill="#cabfa3"
       id="path320" />
    <path
       d="M 298.657,191.308 H 282.9 c -1.093,0 -1.98,-0.886 -1.98,-1.98 v -15.38 c 0,-1.093 0.886,-1.98 1.98,-1.98 h 15.757 c 1.093,0 1.98,0.886 1.98,1.98 v 15.38 c 0,1.094 -0.887,1.98 -1.98,1.98 z"
       fill="#ddd6ba"
       id="path322" />
    <path
       d="m 304.984,192.159 v -21.041 c 0,-1.093 0.886,-1.98 1.98,-1.98 h 18.937 c 1.093,0 1.98,0.886 1.98,1.98 v 21.04 c 0,1.093 -0.886,1.98 -1.98,1.98 h -18.937 c -1.094,0 -1.98,-0.886 -1.98,-1.979 z"
       fill="#cabfa3"
       id="path324" />
    <path
       d="m 324.311,191.308 h -15.757 c -1.093,0 -1.98,-0.886 -1.98,-1.98 v -15.38 c 0,-1.093 0.886,-1.98 1.98,-1.98 h 15.757 c 1.093,0 1.98,0.886 1.98,1.98 v 15.38 c 0,1.094 -0.887,1.98 -1.98,1.98 z"
       fill="#ddd6ba"
       id="path326" />
    <path
       d="m 330.638,192.159 v -21.041 c 0,-1.093 0.886,-1.98 1.98,-1.98 h 18.937 c 1.093,0 1.98,0.886 1.98,1.98 v 21.04 c 0,1.093 -0.886,1.98 -1.98,1.98 h -18.937 c -1.094,0 -1.98,-0.886 -1.98,-1.979 z"
       fill="#cabfa3"
       id="path328" />
    <path
       d="m 349.964,191.308 h -15.757 c -1.093,0 -1.98,-0.886 -1.98,-1.98 v -15.38 c 0,-1.093 0.886,-1.98 1.98,-1.98 h 15.757 c 1.093,0 1.98,0.886 1.98,1.98 v 15.38 c 0,1.094 -0.886,1.98 -1.98,1.98 z"
       fill="#ddd6ba"
       id="path330" />
    <path
       d="m 356.291,192.159 v -21.041 c 0,-1.093 0.886,-1.98 1.98,-1.98 h 18.937 c 1.093,0 1.98,0.886 1.98,1.98 v 21.04 c 0,1.093 -0.886,1.98 -1.98,1.98 h -18.937 c -1.093,0 -1.98,-0.886 -1.98,-1.979 z"
       fill="#cabfa3"
       id="path332" />
    <path
       d="m 375.618,191.308 h -15.757 c -1.093,0 -1.98,-0.886 -1.98,-1.98 v -15.38 c 0,-1.093 0.886,-1.98 1.98,-1.98 h 15.757 c 1.093,0 1.98,0.886 1.98,1.98 v 15.38 c 0,1.094 -0.886,1.98 -1.98,1.98 z"
       fill="#ddd6ba"
       id="path334" />
    <path
       d="m 381.945,192.159 v -21.041 c 0,-1.093 0.886,-1.98 1.98,-1.98 h 18.937 c 1.093,0 1.98,0.886 1.98,1.98 v 21.04 c 0,1.093 -0.886,1.98 -1.98,1.98 h -18.937 c -1.094,0 -1.98,-0.886 -1.98,-1.979 z"
       fill="#cabfa3"
       id="path336" />
    <path
       d="m 401.272,191.308 h -15.757 c -1.093,0 -1.98,-0.886 -1.98,-1.98 v -15.38 c 0,-1.093 0.886,-1.98 1.98,-1.98 h 15.757 c 1.093,0 1.98,0.886 1.98,1.98 v 15.38 c 0,1.094 -0.887,1.98 -1.98,1.98 z"
       fill="#ddd6ba"
       id="path338" />
    <path
       d="M 138.003,217.908 V 196.98 c 0,-1.125 0.912,-2.036 2.036,-2.036 h 20.15 c 1.125,0 2.036,0.912 2.036,2.036 v 20.927 c 0,1.125 -0.912,2.036 -2.036,2.036 h -20.15 c -1.125,10e-4 -2.036,-0.911 -2.036,-2.035 z"
       fill="#0d0d0d"
       id="path340" />
    <path
       d="m 158.506,217.113 h -16.785 c -1.125,0 -2.036,-0.912 -2.036,-2.036 V 199.81 c 0,-1.125 0.912,-2.036 2.036,-2.036 h 16.785 c 1.125,0 2.036,0.912 2.036,2.036 v 15.267 c 0.001,1.125 -0.911,2.036 -2.036,2.036 z"
       fill="url(#x)"
       id="path342"
       style="fill:url(#x)" />
    <path
       d="m 368.842,217.462 v -20.036 c 0,-1.371 1.111,-2.483 2.483,-2.483 h 31.035 c 1.371,0 2.483,1.111 2.483,2.483 v 20.035 c 0,1.371 -1.111,2.483 -2.483,2.483 h -31.035 c -1.372,0 -2.483,-1.111 -2.483,-2.482 z"
       fill="#0d0d0d"
       id="path344" />
    <path
       d="m 399.859,217.113 h -26.035 c -1.371,0 -2.483,-1.112 -2.483,-2.483 v -14.374 c 0,-1.371 1.112,-2.483 2.483,-2.483 h 26.035 c 1.371,0 2.483,1.112 2.483,2.483 v 14.374 c 0,1.372 -1.112,2.483 -2.483,2.483 z"
       fill="url(#y)"
       id="path346"
       style="fill:url(#y)" />
    <path
       d="M 454.222,114.24 V 94.205 c 0,-1.371 1.111,-2.483 2.483,-2.483 h 31.035 c 1.371,0 2.483,1.111 2.483,2.483 v 20.035 c 0,1.371 -1.111,2.483 -2.483,2.483 h -31.035 c -1.372,-0.001 -2.483,-1.112 -2.483,-2.483 z"
       fill="#0d0d0d"
       id="path348" />
    <path
       d="m 485.239,113.892 h -26.035 c -1.371,0 -2.483,-1.112 -2.483,-2.483 V 97.035 c 0,-1.371 1.112,-2.483 2.483,-2.483 h 26.035 c 1.371,0 2.483,1.112 2.483,2.483 v 14.374 c 0,1.371 -1.111,2.483 -2.483,2.483 z"
       fill="url(#z)"
       id="path350"
       style="fill:url(#z)" />
    <path
       d="m 448.517,165.851 v -20.036 c 0,-1.371 1.111,-2.483 2.483,-2.483 h 31.035 c 1.371,0 2.483,1.111 2.483,2.483 v 20.035 c 0,1.371 -1.111,2.483 -2.483,2.483 H 451 c -1.372,0 -2.483,-1.111 -2.483,-2.482 z"
       fill="#0d0d0d"
       id="path352" />
    <path
       d="m 479.534,165.503 h -26.035 c -1.371,0 -2.483,-1.112 -2.483,-2.483 v -14.374 c 0,-1.371 1.112,-2.483 2.483,-2.483 h 26.035 c 1.371,0 2.483,1.112 2.483,2.483 v 14.374 c 0,1.371 -1.112,2.483 -2.483,2.483 z"
       fill="url(#A)"
       id="path354"
       style="fill:url(#A)" />
    <path
       d="m 466,140.492 v -20.928 c 0,-1.125 0.912,-2.036 2.036,-2.036 h 20.15 c 1.125,0 2.036,0.912 2.036,2.036 v 20.927 c 0,1.125 -0.912,2.036 -2.036,2.036 h -20.15 C 466.912,142.528 466,141.616 466,140.492 Z"
       fill="#0d0d0d"
       id="path356" />
    <path
       d="m 486.504,139.697 h -16.785 c -1.125,0 -2.036,-0.912 -2.036,-2.036 v -15.267 c 0,-1.125 0.912,-2.036 2.036,-2.036 h 16.785 c 1.125,0 2.036,0.912 2.036,2.036 v 15.267 c 0,1.125 -0.912,2.036 -2.036,2.036 z"
       fill="url(#B)"
       id="path358"
       style="fill:url(#B)" />
    <path
       d="m 434.164,192.103 v -20.928 c 0,-1.125 0.912,-2.036 2.036,-2.036 h 20.15 c 1.125,0 2.036,0.912 2.036,2.036 v 20.927 c 0,1.125 -0.912,2.036 -2.036,2.036 H 436.2 c -1.124,0 -2.036,-0.911 -2.036,-2.035 z"
       fill="#0d0d0d"
       id="path360" />
    <path
       d="m 454.668,191.308 h -16.785 c -1.125,0 -2.036,-0.912 -2.036,-2.036 v -15.267 c 0,-1.125 0.912,-2.036 2.036,-2.036 h 16.785 c 1.125,0 2.036,0.912 2.036,2.036 v 15.267 c 0,1.124 -0.911,2.036 -2.036,2.036 z"
       fill="url(#C)"
       id="path362"
       style="fill:url(#C)" />
    <path
       d="M 434.164,217.908 V 196.98 c 0,-1.125 0.912,-2.036 2.036,-2.036 h 20.15 c 1.125,0 2.036,0.912 2.036,2.036 v 20.927 c 0,1.125 -0.912,2.036 -2.036,2.036 H 436.2 c -1.124,10e-4 -2.036,-0.911 -2.036,-2.035 z"
       fill="#0d0d0d"
       id="path364" />
    <path
       d="m 454.668,217.113 h -16.785 c -1.125,0 -2.036,-0.912 -2.036,-2.036 V 199.81 c 0,-1.125 0.912,-2.036 2.036,-2.036 h 16.785 c 1.125,0 2.036,0.912 2.036,2.036 v 15.267 c 0,1.125 -0.911,2.036 -2.036,2.036 z"
       fill="url(#D)"
       id="path366"
       style="fill:url(#D)" />
    <path
       d="m 407.392,196.98 v 20.928 c 0,1.124 0.912,2.036 2.036,2.036 h 20.15 c 1.125,0 2.036,-0.912 2.036,-2.036 V 196.98 171.175 c 0,-1.125 -0.912,-2.036 -2.036,-2.036 h -20.149 c -1.125,0 -2.036,0.912 -2.036,2.036 -10e-4,0 -10e-4,25.805 -10e-4,25.805 z"
       fill="#0d0d0d"
       id="path368" />
    <path
       d="m 409.074,189.272 v 25.805 c 0,1.125 0.912,2.036 2.036,2.036 h 16.785 c 1.125,0 2.036,-0.912 2.036,-2.036 v -25.805 -15.267 c 0,-1.125 -0.912,-2.036 -2.036,-2.036 H 411.11 c -1.125,0 -2.036,0.912 -2.036,2.036 z"
       fill="url(#E)"
       id="path370"
       style="fill:url(#E)" />
    <path
       d="m 460.295,196.98 v 20.928 c 0,1.124 0.912,2.036 2.036,2.036 h 20.15 c 1.125,0 2.036,-0.912 2.036,-2.036 V 196.98 171.175 c 0,-1.125 -0.912,-2.036 -2.036,-2.036 h -20.15 c -1.125,0 -2.036,0.912 -2.036,2.036 z"
       fill="#0d0d0d"
       id="path372" />
    <path
       d="m 461.977,189.272 v 25.805 c 0,1.125 0.912,2.036 2.036,2.036 h 16.785 c 1.125,0 2.036,-0.912 2.036,-2.036 v -25.805 -15.267 c 0,-1.125 -0.912,-2.036 -2.036,-2.036 h -16.785 c -1.125,0 -2.036,0.912 -2.036,2.036 z"
       fill="url(#F)"
       id="path374"
       style="fill:url(#F)" />
    <g
       fill="#ffffff"
       id="g416">
      <path
         d="m 18.263,23.413 h 2.52 c -0.088,-1.043 -0.738,-1.87 -1.854,-1.87 -0.433,0 -0.811,0.12 -1.156,0.273 l -0.168,-0.538 c 0.385,-0.168 0.851,-0.313 1.364,-0.313 1.702,0 2.568,1.228 2.568,2.801 0,1.774 -1.172,2.785 -2.608,2.785 -0.538,0 -1.027,-0.104 -1.413,-0.281 l 0.152,-0.554 c 0.313,0.145 0.763,0.249 1.164,0.249 1.196,0 1.91,-0.867 1.958,-1.991 h -2.528 v -0.561 z"
         id="path376" />
      <path
         d="m 27.338,21.285 v 5.177 h -0.931 v -4.439 h -1.775 v 1.348 c 0,1.455 -0.139,2.428 -0.813,2.867 -0.257,0.203 -0.545,0.321 -1.027,0.321 l -0.096,-0.738 c 0.182,-0.032 0.385,-0.107 0.513,-0.214 0.481,-0.353 0.535,-1.08 0.535,-2.235 v -2.086 h 3.594 z"
         id="path378" />
      <path
         d="m 30.526,24.045 c 0.021,1.273 0.834,1.797 1.775,1.797 0.674,0 1.081,-0.118 1.433,-0.267 l 0.161,0.674 c -0.332,0.15 -0.898,0.321 -1.722,0.321 -1.594,0 -2.546,-1.048 -2.546,-2.61 0,-1.562 0.92,-2.792 2.428,-2.792 1.69,0 2.139,1.487 2.139,2.439 0,0.192 -0.021,0.342 -0.032,0.438 z m 2.759,-0.674 c 0.011,-0.599 -0.246,-1.529 -1.305,-1.529 -0.952,0 -1.369,0.877 -1.444,1.529 z"
         id="path380" />
      <path
         d="m 37.414,21.285 v 2.247 h 0.225 l 1.947,-2.247 h 1.145 l -2.257,2.343 c 0.834,0.085 1.337,0.642 1.743,1.572 0.139,0.342 0.321,0.845 0.557,1.262 H 39.79 c -0.139,-0.225 -0.321,-0.631 -0.481,-1.059 -0.353,-0.834 -0.834,-1.219 -1.711,-1.219 h -0.182 v 2.278 h -0.931 v -5.177 z"
         id="path382" />
      <path
         d="m 46.41,21.285 v 0.749 h -1.615 v 4.428 h -0.931 v -4.428 h -1.615 v -0.749 z"
         id="path384" />
      <path
         d="m 48.357,22.976 c 0,-0.664 -0.021,-1.198 -0.042,-1.69 h 0.845 l 0.043,0.888 h 0.021 c 0.385,-0.631 0.995,-1.006 1.839,-1.006 1.251,0 2.193,1.059 2.193,2.631 0,1.861 -1.134,2.781 -2.353,2.781 -0.685,0 -1.284,-0.299 -1.594,-0.813 h -0.021 v 2.813 h -0.931 z m 0.93,1.379 c 0,0.139 0.021,0.268 0.043,0.385 0.171,0.652 0.738,1.102 1.412,1.102 0.995,0 1.572,-0.812 1.572,-2 0,-1.038 -0.545,-1.925 -1.54,-1.925 -0.642,0 -1.241,0.46 -1.423,1.166 -0.032,0.118 -0.064,0.256 -0.064,0.385 z"
         id="path386" />
      <path
         d="m 60.251,23.831 c 0,1.915 -1.326,2.749 -2.578,2.749 -1.401,0 -2.482,-1.027 -2.482,-2.664 0,-1.733 1.134,-2.749 2.567,-2.749 1.488,0 2.493,1.081 2.493,2.664 z m -4.107,0.054 c 0,1.134 0.652,1.989 1.572,1.989 0.898,0 1.573,-0.845 1.573,-2.011 0,-0.877 -0.439,-1.99 -1.551,-1.99 -1.112,0 -1.594,1.027 -1.594,2.012 z"
         id="path388" />
      <path
         d="m 63.471,21.285 v 2.086 h 2.46 v -2.086 h 0.93 v 5.177 h -0.93 V 24.12 h -2.46 v 2.342 H 62.54 v -5.177 z"
         id="path390" />
      <path
         d="m 70.391,21.285 v 2.182 c 0,0.824 -0.011,1.337 -0.054,2.075 l 0.032,0.011 c 0.31,-0.631 0.492,-0.995 0.834,-1.594 l 1.615,-2.674 h 1.102 v 5.177 h -0.899 v -2.193 c 0,-0.845 0.021,-1.284 0.064,-2.118 h -0.032 c -0.332,0.663 -0.556,1.08 -0.855,1.604 -0.492,0.802 -1.059,1.797 -1.615,2.706 h -1.081 v -5.177 h 0.889 z"
         id="path392" />
      <path
         d="m 77.505,21.285 v 2.247 h 0.225 l 1.947,-2.247 h 1.145 l -2.257,2.343 c 0.834,0.085 1.337,0.642 1.743,1.572 0.139,0.342 0.321,0.845 0.557,1.262 H 79.881 C 79.742,26.237 79.56,25.831 79.4,25.403 79.047,24.569 78.566,24.184 77.689,24.184 h -0.182 v 2.278 h -0.931 v -5.177 z"
         id="path394" />
      <path
         d="M 85.794,26.462 85.72,25.81 h -0.032 c -0.289,0.406 -0.845,0.77 -1.583,0.77 -1.048,0 -1.583,-0.738 -1.583,-1.487 0,-1.251 1.112,-1.936 3.112,-1.925 v -0.107 c 0,-0.428 -0.118,-1.198 -1.176,-1.198 -0.481,0 -0.984,0.15 -1.348,0.385 l -0.214,-0.621 c 0.428,-0.278 1.048,-0.46 1.701,-0.46 1.583,0 1.968,1.081 1.968,2.118 v 1.936 c 0,0.449 0.021,0.888 0.086,1.241 z M 85.655,23.82 c -1.027,-0.021 -2.193,0.161 -2.193,1.166 0,0.61 0.407,0.898 0.888,0.898 0.674,0 1.102,-0.428 1.251,-0.866 0.032,-0.097 0.053,-0.204 0.053,-0.3 V 23.82 Z"
         id="path396" />
      <path
         d="m 23.395,33.835 v 0.75 h -2.988 v 1.859 c 0.216,-0.031 0.626,-0.051 0.853,-0.051 0.657,0 1.304,0.144 1.787,0.462 0.524,0.339 0.883,0.883 0.883,1.694 0,0.647 -0.216,1.14 -0.575,1.5 -0.565,0.555 -1.499,0.77 -2.444,0.77 -0.626,0 -1.099,-0.041 -1.397,-0.082 v -6.901 h 3.881 z m -2.988,6.233 c 0.206,0.041 0.441,0.051 0.75,0.051 0.555,0 1.12,-0.174 1.458,-0.534 0.236,-0.246 0.38,-0.585 0.38,-1.017 0,-0.534 -0.226,-0.893 -0.565,-1.129 -0.359,-0.247 -0.821,-0.349 -1.314,-0.349 -0.205,0 -0.482,0.021 -0.708,0.041 v 2.937 z"
         id="path398" />
      <path
         d="m 27.29,33.835 v 3.07 h 0.277 l 2.372,-3.07 h 1.078 l -2.619,3.173 c 1.14,0.154 1.582,0.852 1.941,1.787 0.257,0.708 0.452,1.345 0.76,1.961 H 30.134 C 29.887,40.284 29.692,39.668 29.508,39.123 29.19,38.209 28.748,37.582 27.577,37.582 H 27.29 v 3.173 h -0.883 v -6.921 h 0.883 z"
         id="path400" />
      <path
         d="m 47.887,37.347 c 0,2.27 -0.842,3.522 -2.321,3.522 -1.304,0 -2.188,-1.222 -2.208,-3.43 0,-2.239 0.965,-3.471 2.321,-3.471 1.407,0 2.208,1.253 2.208,3.379 z m -3.625,0.103 c 0,1.735 0.534,2.721 1.355,2.721 0.924,0 1.366,-1.078 1.366,-2.783 0,-1.643 -0.421,-2.722 -1.355,-2.722 -0.791,0 -1.366,0.966 -1.366,2.784 z"
         id="path402" />
      <path
         d="m 54.472,37.347 c 0,2.27 -0.842,3.522 -2.321,3.522 -1.304,0 -2.188,-1.222 -2.208,-3.43 0,-2.239 0.965,-3.471 2.321,-3.471 1.407,0 2.208,1.253 2.208,3.379 z m -3.625,0.103 c 0,1.735 0.534,2.721 1.355,2.721 0.924,0 1.366,-1.078 1.366,-2.783 0,-1.643 -0.421,-2.722 -1.355,-2.722 -0.791,0 -1.366,0.966 -1.366,2.784 z"
         id="path404" />
      <path
         d="m 58.582,34.923 h -0.021 l -1.16,0.626 -0.175,-0.688 1.458,-0.78 h 0.77 v 6.675 h -0.873 v -5.833 z"
         id="path406" />
      <path
         d="m 67.642,37.347 c 0,2.27 -0.842,3.522 -2.321,3.522 -1.304,0 -2.188,-1.222 -2.208,-3.43 0,-2.239 0.965,-3.471 2.321,-3.471 1.407,0 2.208,1.253 2.208,3.379 z m -3.625,0.103 c 0,1.735 0.534,2.721 1.355,2.721 0.924,0 1.366,-1.078 1.366,-2.783 0,-1.643 -0.421,-2.722 -1.355,-2.722 -0.79,0 -1.366,0.966 -1.366,2.784 z"
         id="path408" />
      <path
         d="m 72.174,37.645 v 0.667 h -2.537 v -0.667 z"
         id="path410" />
      <path
         d="m 78.697,37.347 c 0,2.27 -0.842,3.522 -2.321,3.522 -1.304,0 -2.188,-1.222 -2.208,-3.43 0,-2.239 0.965,-3.471 2.321,-3.471 1.406,0 2.208,1.253 2.208,3.379 z m -3.625,0.103 c 0,1.735 0.534,2.721 1.355,2.721 0.924,0 1.366,-1.078 1.366,-2.783 0,-1.643 -0.421,-2.722 -1.355,-2.722 -0.791,0 -1.366,0.966 -1.366,2.784 z"
         id="path412" />
      <path
         d="m 82.806,34.923 h -0.021 l -1.16,0.626 -0.175,-0.688 1.458,-0.78 h 0.77 v 6.675 h -0.873 v -5.833 z"
         id="path414" />
    </g>
  </g>
</svg>
