<?xml version="1.0" encoding="UTF-8" standalone="no"?>
<svg
   enable-background="new 0 0 398.322 216.722"
   viewBox="0 0 216.72201 398.32251"
   version="1.1"
   id="svg158"
   sodipodi:docname="gamegear.svg"
   width="216.722"
   height="398.32251"
   inkscape:version="1.1 (c68e22c387, 2021-05-23)"
   xmlns:inkscape="http://www.inkscape.org/namespaces/inkscape"
   xmlns:sodipodi="http://sodipodi.sourceforge.net/DTD/sodipodi-0.dtd"
   xmlns="http://www.w3.org/2000/svg"
   xmlns:svg="http://www.w3.org/2000/svg">
  <defs
     id="defs162" />
  <sodipodi:namedview
     id="namedview160"
     pagecolor="#ffffff"
     bordercolor="#666666"
     borderopacity="1.0"
     inkscape:pageshadow="2"
     inkscape:pageopacity="0.0"
     inkscape:pagecheckerboard="0"
     showgrid="false"
     fit-margin-top="0"
     fit-margin-left="0"
     fit-margin-right="0"
     fit-margin-bottom="0"
     inkscape:zoom="1.3971109"
     inkscape:cx="108.43806"
     inkscape:cy="198.98205"
     inkscape:window-width="1920"
     inkscape:window-height="1138"
     inkscape:window-x="-8"
     inkscape:window-y="-8"
     inkscape:window-maximized="1"
     inkscape:current-layer="svg158" />
  <g
     id="g1057"
     transform="rotate(90,108.36088,108.36112)">
    <path
       d="m 199.228,216.722 c 35.223,0 141.719,-5.802 150.835,-6.631 9.117,-0.828 41.439,2.901 46.411,-35.222 C 401.448,136.745 395.112,72.827 392.33,56.355 386.943,24.448 387.91,12.707 369.539,10.359 343.076,6.977 280.447,0 199.093,0 h 0.135 C 117.875,0 55.245,6.977 28.782,10.359 10.411,12.707 11.379,24.448 5.991,56.355 3.21,72.827 -3.125,136.745 1.847,174.869 c 4.973,38.123 37.294,34.393 46.411,35.222 9.116,0.829 115.612,6.631 150.835,6.631 z"
       fill="#333333"
       id="path2" />
    <path
       d="m 199.228,210.644 c 34.27,0 137.687,-4.856 146.556,-5.664 8.87,-0.805 39.501,0.42 44.339,-36.672 C 394.961,131.216 389.676,73.65 386.971,57.624 381.729,26.579 382.993,13.472 365.119,11.187 339.371,7.897 278.247,0.829 199.093,0.829 h 0.135 C 120.075,0.829 58.95,7.897 33.202,11.188 15.329,13.473 16.592,26.58 11.35,57.625 8.645,73.65 3.36,131.216 8.198,168.308 c 4.838,37.092 35.469,35.867 44.339,36.672 8.87,0.808 112.287,5.664 146.556,5.664 z"
       fill="#404140"
       id="path4" />
    <path
       d="m 202.393,148.763 c 0,0 42.265,0.277 62.708,0 20.443,-0.275 31.493,-20.994 34.532,-28.178 3.039,-7.182 26.521,-70.997 29.559,-80.666 3.039,-9.669 -1.934,-18.786 -8.564,-21.272 -6.629,-2.486 -23.481,-6.354 -46.135,-8.012 -22.652,-1.658 -41.437,-1.934 -72.1,-1.934 h -3.165 c -30.662,0 -49.447,0.276 -72.101,1.934 -22.652,1.658 -39.504,5.525 -46.134,8.012 -6.63,2.486 -11.603,11.603 -8.564,21.272 3.039,9.668 26.521,73.484 29.559,80.666 3.039,7.184 14.089,27.902 34.532,28.178 20.443,0.277 62.708,0 62.708,0 z"
       fill="#333333"
       id="path6" />
    <path
       d="m 53.842,8.17 c 3.253,10.351 37.926,107.673 41.179,115.363 3.253,7.688 15.082,34.426 36.966,34.723 21.884,0.295 67.129,0 67.129,0 h 3.389 c 0,0 45.245,0.295 67.129,0 21.885,-0.297 33.713,-27.035 36.967,-34.723 3.253,-7.689 36.967,-104.48 40.22,-114.831"
       fill="none"
       stroke="#333333"
       stroke-miterlimit="10"
       stroke-width="1.6575"
       id="path8" />
    <path
       d="m 202.343,148.214 c 0,0 40.933,0.268 60.731,0 19.798,-0.268 30.499,-21.99 33.443,-28.947 2.943,-6.955 25.684,-68.758 28.628,-78.123 2.943,-9.364 -1.873,-16.121 -8.294,-18.529 -6.421,-2.408 -22.742,-6.154 -44.68,-7.759 -21.938,-1.605 -40.132,-1.873 -69.827,-1.873 h -3.064 c -29.695,0 -47.889,0.268 -69.828,1.873 -21.938,1.605 -38.259,5.351 -44.68,7.759 -6.421,2.408 -11.237,9.165 -8.294,18.529 2.943,9.364 25.685,71.167 28.627,78.123 2.942,6.957 13.645,28.68 33.443,28.947 19.798,0.268 60.731,0 60.731,0 z"
       fill="#272727"
       id="path10" />
    <path
       d="m 281.627,128.458 c 0,3.243 -2.629,5.873 -5.873,5.873 H 128.513 c -3.244,0 -5.873,-2.63 -5.873,-5.873 V 20.998 c 0,-3.244 2.629,-5.873 5.873,-5.873 h 147.241 c 3.244,0 5.873,2.629 5.873,5.873 z"
       fill="#3a3b3b"
       id="path12" />
    <path
       d="m 266.456,120.326 c 0,2.654 -2.152,4.805 -4.805,4.805 H 141.167 c -2.654,0 -4.806,-2.15 -4.806,-4.805 V 32.393 c 0,-2.654 2.152,-4.807 4.806,-4.807 h 120.484 c 2.653,0 4.805,2.152 4.805,4.807 z"
       fill="#1a1b1b"
       id="path14" />
    <g
       fill="#242425"
       id="g88">
      <path
         d="m 40.695,157.785 c 0,1.105 -0.896,2.002 -2.003,2.002 -1.106,0 -2.002,-0.896 -2.002,-2.002 0,-1.107 0.896,-2.004 2.002,-2.004 1.107,0 2.003,0.896 2.003,2.004 z"
         id="path16" />
      <path
         d="m 40.695,164.249 c 0,1.105 -0.896,2.003 -2.003,2.003 -1.106,0 -2.002,-0.898 -2.002,-2.003 0,-1.105 0.896,-2.002 2.002,-2.002 1.107,0 2.003,0.897 2.003,2.002 z"
         id="path18" />
      <path
         d="m 40.695,170.714 c 0,1.105 -0.896,2.003 -2.003,2.003 -1.106,0 -2.002,-0.897 -2.002,-2.003 0,-1.106 0.896,-2.003 2.002,-2.003 1.107,0 2.003,0.898 2.003,2.003 z"
         id="path20" />
      <path
         d="m 46.981,151.318 c 0,1.107 -0.897,2.004 -2.003,2.004 -1.105,0 -2.003,-0.896 -2.003,-2.004 0,-1.105 0.897,-2.002 2.003,-2.002 1.106,0 2.003,0.896 2.003,2.002 z"
         id="path22" />
      <path
         d="m 46.981,157.785 c 0,1.105 -0.897,2.002 -2.003,2.002 -1.105,0 -2.003,-0.896 -2.003,-2.002 0,-1.107 0.897,-2.004 2.003,-2.004 1.106,0 2.003,0.896 2.003,2.004 z"
         id="path24" />
      <path
         d="m 46.981,164.249 c 0,1.105 -0.897,2.003 -2.003,2.003 -1.105,0 -2.003,-0.898 -2.003,-2.003 0,-1.105 0.897,-2.002 2.003,-2.002 1.106,0 2.003,0.897 2.003,2.002 z"
         id="path26" />
      <path
         d="m 46.981,170.714 c 0,1.105 -0.897,2.003 -2.003,2.003 -1.105,0 -2.003,-0.897 -2.003,-2.003 0,-1.106 0.897,-2.003 2.003,-2.003 1.106,0 2.003,0.898 2.003,2.003 z"
         id="path28" />
      <path
         d="m 46.981,177.18 c 0,1.107 -0.897,2.003 -2.003,2.003 -1.105,0 -2.003,-0.896 -2.003,-2.003 0,-1.106 0.897,-2.003 2.003,-2.003 1.106,0 2.003,0.897 2.003,2.003 z"
         id="path30" />
      <path
         d="m 53.265,151.318 c 0,1.107 -0.896,2.004 -2.002,2.004 -1.106,0 -2.003,-0.896 -2.003,-2.004 0,-1.105 0.897,-2.002 2.003,-2.002 1.106,0 2.002,0.896 2.002,2.002 z"
         id="path32" />
      <path
         d="m 53.265,157.785 c 0,1.105 -0.896,2.002 -2.002,2.002 -1.106,0 -2.003,-0.896 -2.003,-2.002 0,-1.107 0.897,-2.004 2.003,-2.004 1.106,0 2.002,0.896 2.002,2.004 z"
         id="path34" />
      <path
         d="m 53.265,164.249 c 0,1.105 -0.896,2.003 -2.002,2.003 -1.106,0 -2.003,-0.898 -2.003,-2.003 0,-1.105 0.897,-2.002 2.003,-2.002 1.106,0 2.002,0.897 2.002,2.002 z"
         id="path36" />
      <path
         d="m 53.265,170.714 c 0,1.105 -0.896,2.003 -2.002,2.003 -1.106,0 -2.003,-0.897 -2.003,-2.003 0,-1.106 0.897,-2.003 2.003,-2.003 1.106,0 2.002,0.898 2.002,2.003 z"
         id="path38" />
      <path
         d="m 53.265,177.18 c 0,1.107 -0.896,2.003 -2.002,2.003 -1.106,0 -2.003,-0.896 -2.003,-2.003 0,-1.106 0.897,-2.003 2.003,-2.003 1.106,0 2.002,0.897 2.002,2.003 z"
         id="path40" />
      <path
         d="m 59.55,151.318 c 0,1.107 -0.896,2.004 -2.002,2.004 -1.106,0 -2.003,-0.896 -2.003,-2.004 0,-1.105 0.897,-2.002 2.003,-2.002 1.106,0 2.002,0.896 2.002,2.002 z"
         id="path42" />
      <path
         d="m 59.55,157.785 c 0,1.105 -0.896,2.002 -2.002,2.002 -1.106,0 -2.003,-0.896 -2.003,-2.002 0,-1.107 0.897,-2.004 2.003,-2.004 1.106,0 2.002,0.896 2.002,2.004 z"
         id="path44" />
      <path
         d="m 59.55,164.249 c 0,1.105 -0.896,2.003 -2.002,2.003 -1.106,0 -2.003,-0.898 -2.003,-2.003 0,-1.105 0.897,-2.002 2.003,-2.002 1.106,0 2.002,0.897 2.002,2.002 z"
         id="path46" />
      <path
         d="m 59.55,170.714 c 0,1.105 -0.896,2.003 -2.002,2.003 -1.106,0 -2.003,-0.897 -2.003,-2.003 0,-1.106 0.897,-2.003 2.003,-2.003 1.106,0 2.002,0.898 2.002,2.003 z"
         id="path48" />
      <path
         d="m 59.55,177.18 c 0,1.107 -0.896,2.003 -2.002,2.003 -1.106,0 -2.003,-0.896 -2.003,-2.003 0,-1.106 0.897,-2.003 2.003,-2.003 1.106,0 2.002,0.897 2.002,2.003 z"
         id="path50" />
      <path
         d="m 65.835,151.318 c 0,1.107 -0.897,2.004 -2.002,2.004 -1.106,0 -2.003,-0.896 -2.003,-2.004 0,-1.105 0.897,-2.002 2.003,-2.002 1.106,0 2.002,0.896 2.002,2.002 z"
         id="path52" />
      <path
         d="m 65.835,157.785 c 0,1.105 -0.897,2.002 -2.002,2.002 -1.106,0 -2.003,-0.896 -2.003,-2.002 0,-1.107 0.897,-2.004 2.003,-2.004 1.106,0 2.002,0.896 2.002,2.004 z"
         id="path54" />
      <path
         d="m 65.835,164.249 c 0,1.105 -0.897,2.003 -2.002,2.003 -1.106,0 -2.003,-0.898 -2.003,-2.003 0,-1.105 0.897,-2.002 2.003,-2.002 1.106,0 2.002,0.897 2.002,2.002 z"
         id="path56" />
      <path
         d="m 65.835,170.714 c 0,1.105 -0.897,2.003 -2.002,2.003 -1.106,0 -2.003,-0.897 -2.003,-2.003 0,-1.106 0.897,-2.003 2.003,-2.003 1.106,0 2.002,0.898 2.002,2.003 z"
         id="path58" />
      <path
         d="m 65.835,177.18 c 0,1.107 -0.897,2.003 -2.002,2.003 -1.106,0 -2.003,-0.896 -2.003,-2.003 0,-1.106 0.897,-2.003 2.003,-2.003 1.106,0 2.002,0.897 2.002,2.003 z"
         id="path60" />
      <path
         d="m 72.121,151.318 c 0,1.107 -0.897,2.004 -2.003,2.004 -1.106,0 -2.003,-0.896 -2.003,-2.004 0,-1.105 0.896,-2.002 2.003,-2.002 1.106,0 2.003,0.896 2.003,2.002 z"
         id="path62" />
      <path
         d="m 72.121,157.785 c 0,1.105 -0.897,2.002 -2.003,2.002 -1.106,0 -2.003,-0.896 -2.003,-2.002 0,-1.107 0.896,-2.004 2.003,-2.004 1.106,0 2.003,0.896 2.003,2.004 z"
         id="path64" />
      <path
         d="m 72.121,164.249 c 0,1.105 -0.897,2.003 -2.003,2.003 -1.106,0 -2.003,-0.898 -2.003,-2.003 0,-1.105 0.896,-2.002 2.003,-2.002 1.106,0 2.003,0.897 2.003,2.002 z"
         id="path66" />
      <path
         d="m 72.121,170.714 c 0,1.105 -0.897,2.003 -2.003,2.003 -1.106,0 -2.003,-0.897 -2.003,-2.003 0,-1.106 0.896,-2.003 2.003,-2.003 1.106,0 2.003,0.898 2.003,2.003 z"
         id="path68" />
      <path
         d="m 72.121,177.18 c 0,1.107 -0.897,2.003 -2.003,2.003 -1.106,0 -2.003,-0.896 -2.003,-2.003 0,-1.106 0.896,-2.003 2.003,-2.003 1.106,0 2.003,0.897 2.003,2.003 z"
         id="path70" />
      <path
         d="m 78.405,151.318 c 0,1.107 -0.897,2.004 -2.003,2.004 -1.106,0 -2.003,-0.896 -2.003,-2.004 0,-1.105 0.897,-2.002 2.003,-2.002 1.106,0 2.003,0.896 2.003,2.002 z"
         id="path72" />
      <path
         d="m 78.405,157.785 c 0,1.105 -0.897,2.002 -2.003,2.002 -1.106,0 -2.003,-0.896 -2.003,-2.002 0,-1.107 0.897,-2.004 2.003,-2.004 1.106,0 2.003,0.896 2.003,2.004 z"
         id="path74" />
      <path
         d="m 78.405,164.249 c 0,1.105 -0.897,2.003 -2.003,2.003 -1.106,0 -2.003,-0.898 -2.003,-2.003 0,-1.105 0.897,-2.002 2.003,-2.002 1.106,0 2.003,0.897 2.003,2.002 z"
         id="path76" />
      <circle
         cx="76.402"
         cy="170.714"
         r="2.003"
         id="circle78" />
      <path
         d="m 78.405,177.18 c 0,1.107 -0.897,2.003 -2.003,2.003 -1.106,0 -2.003,-0.896 -2.003,-2.003 0,-1.106 0.897,-2.003 2.003,-2.003 1.106,0 2.003,0.897 2.003,2.003 z"
         id="path80" />
      <path
         d="m 84.69,157.785 c 0,1.105 -0.897,2.002 -2.003,2.002 -1.106,0 -2.003,-0.896 -2.003,-2.002 0,-1.107 0.896,-2.004 2.003,-2.004 1.107,0 2.003,0.896 2.003,2.004 z"
         id="path82" />
      <path
         d="m 84.69,164.249 c 0,1.105 -0.897,2.003 -2.003,2.003 -1.106,0 -2.003,-0.898 -2.003,-2.003 0,-1.105 0.896,-2.002 2.003,-2.002 1.107,0 2.003,0.897 2.003,2.002 z"
         id="path84" />
      <path
         d="m 84.69,170.714 c 0,1.105 -0.897,2.003 -2.003,2.003 -1.106,0 -2.003,-0.897 -2.003,-2.003 0,-1.106 0.896,-2.003 2.003,-2.003 1.107,0 2.003,0.898 2.003,2.003 z"
         id="path86" />
    </g>
    <path
       d="m 349.98,41.283 c 0.077,-2.899 -1.417,-9.542 -7.251,-11.188 -2.141,-0.604 -2.435,-0.104 -2.746,0.777 -0.311,0.88 -6.733,19.113 -6.733,19.113 0,0 -0.984,2.693 1.606,2.745 2.589,0.052 14.814,0.31 15.124,-11.447 z"
       fill="#2c3691"
       id="path90" />
    <path
       clip-rule="evenodd"
       d="m 95.932,20.91 c 0.12,0.026 0.243,0.042 0.36,0.08 0.437,0.146 0.67,0.468 0.763,0.904 0.087,0.408 0.042,0.812 -0.048,1.213 -0.168,0.745 -0.48,1.431 -0.853,2.092 -0.504,0.892 -1.113,1.707 -1.799,2.467 -0.738,0.819 -1.548,1.557 -2.466,2.173 -0.572,0.382 -1.171,0.712 -1.834,0.906 -0.351,0.103 -0.706,0.162 -1.074,0.106 -0.522,-0.08 -0.877,-0.413 -0.99,-0.935 -0.083,-0.381 -0.055,-0.76 0.021,-1.137 0.148,-0.732 0.438,-1.412 0.8,-2.058 0.992,-1.772 2.306,-3.265 3.928,-4.486 0.579,-0.436 1.197,-0.809 1.877,-1.072 0.313,-0.121 0.633,-0.212 0.969,-0.24 0.016,-0.002 0.032,-0.008 0.048,-0.013 z"
       fill="#c3262e"
       fill-rule="evenodd"
       id="path92" />
    <path
       clip-rule="evenodd"
       d="m 104.523,20.91 c 0.12,0.026 0.243,0.042 0.359,0.08 0.437,0.146 0.671,0.468 0.763,0.904 0.087,0.408 0.042,0.812 -0.048,1.213 -0.168,0.745 -0.48,1.431 -0.853,2.092 -0.503,0.892 -1.113,1.707 -1.799,2.467 -0.738,0.819 -1.548,1.557 -2.466,2.173 -0.571,0.382 -1.171,0.712 -1.835,0.906 -0.35,0.103 -0.706,0.162 -1.074,0.106 -0.521,-0.08 -0.877,-0.413 -0.99,-0.935 -0.083,-0.381 -0.055,-0.76 0.021,-1.137 0.148,-0.732 0.438,-1.412 0.8,-2.058 0.992,-1.772 2.307,-3.265 3.928,-4.486 0.579,-0.436 1.198,-0.809 1.878,-1.072 0.313,-0.121 0.633,-0.212 0.969,-0.24 0.017,-0.002 0.032,-0.008 0.047,-0.013 z"
       fill="#0d9347"
       fill-rule="evenodd"
       id="path94" />
    <path
       clip-rule="evenodd"
       d="m 113.113,20.91 c 0.12,0.026 0.243,0.042 0.359,0.08 0.437,0.146 0.67,0.468 0.763,0.904 0.087,0.408 0.042,0.812 -0.048,1.213 -0.168,0.745 -0.48,1.431 -0.853,2.092 -0.503,0.892 -1.113,1.707 -1.798,2.467 -0.739,0.819 -1.549,1.557 -2.466,2.173 -0.571,0.382 -1.171,0.712 -1.834,0.906 -0.351,0.103 -0.707,0.162 -1.074,0.106 -0.522,-0.08 -0.877,-0.413 -0.991,-0.935 -0.083,-0.381 -0.054,-0.76 0.022,-1.137 0.147,-0.732 0.438,-1.412 0.8,-2.058 0.992,-1.772 2.307,-3.265 3.928,-4.486 0.58,-0.436 1.198,-0.809 1.878,-1.072 0.313,-0.121 0.633,-0.212 0.969,-0.24 0.017,-0.002 0.032,-0.008 0.047,-0.013 z"
       fill="#2c3691"
       fill-rule="evenodd"
       id="path96" />
    <path
       clip-rule="evenodd"
       d="m 95.434,48.646 c -0.11,-0.026 -0.221,-0.05 -0.33,-0.079 -0.707,-0.19 -1.218,-0.625 -1.558,-1.267 -0.219,-0.415 -0.328,-0.863 -0.373,-1.326 -0.072,-0.724 -0.028,-1.441 0.153,-2.147 0.194,-0.757 0.536,-1.438 1.072,-2.012 0.582,-0.623 1.308,-0.922 2.157,-0.93 0.512,-0.005 1.005,0.08 1.467,0.313 0.695,0.353 1.085,0.928 1.211,1.688 0.041,0.247 0.055,0.499 0.083,0.755 -0.527,0 -1.034,0 -1.54,0 -0.014,-0.133 -0.019,-0.266 -0.042,-0.395 -0.086,-0.471 -0.314,-0.709 -0.786,-0.799 -0.481,-0.091 -0.931,-0.012 -1.318,0.309 -0.262,0.216 -0.436,0.499 -0.577,0.802 -0.338,0.734 -0.445,1.505 -0.342,2.304 0.035,0.275 0.127,0.534 0.279,0.77 0.179,0.276 0.43,0.445 0.756,0.491 0.331,0.046 0.653,0.015 0.959,-0.127 0.23,-0.106 0.396,-0.282 0.54,-0.483 0.162,-0.225 0.274,-0.474 0.355,-0.745 -0.477,0 -0.947,0 -1.425,0 0.024,-0.143 0.047,-0.28 0.07,-0.417 0.05,-0.296 0.101,-0.593 0.147,-0.891 0.01,-0.064 0.032,-0.083 0.098,-0.083 0.83,0.002 1.661,0.002 2.492,0.002 h 0.203 c -0.017,0.1 -0.032,0.193 -0.049,0.286 -0.071,0.393 -0.125,0.792 -0.218,1.181 -0.157,0.655 -0.435,1.257 -0.879,1.773 -0.272,0.316 -0.603,0.554 -0.982,0.724 -0.202,0.091 -0.406,0.179 -0.61,0.267 -0.037,0.016 -0.077,0.023 -0.115,0.034 -0.3,0.002 -0.599,0.002 -0.898,0.002 z"
       fill="#cdcccc"
       fill-rule="evenodd"
       id="path98" />
    <path
       clip-rule="evenodd"
       d="m 86.621,37.084 c 0.009,-0.106 0.018,-0.211 0.028,-0.318 0.1,-1.061 0.442,-2.025 1.15,-2.837 0.542,-0.623 1.23,-0.958 2.057,-1.005 0.521,-0.03 1.027,0.029 1.509,0.242 0.765,0.336 1.209,0.923 1.347,1.742 0.042,0.249 0.056,0.503 0.084,0.762 -0.526,0 -1.032,0 -1.537,0 -0.015,-0.136 -0.02,-0.274 -0.045,-0.408 -0.088,-0.467 -0.322,-0.702 -0.796,-0.786 -0.475,-0.083 -0.917,-0.008 -1.3,0.305 -0.231,0.188 -0.394,0.428 -0.527,0.69 -0.351,0.692 -0.476,1.431 -0.426,2.2 0.018,0.3 0.092,0.589 0.23,0.859 0.218,0.424 0.567,0.638 1.041,0.643 0.456,0.005 0.862,-0.114 1.171,-0.476 0.164,-0.193 0.292,-0.408 0.385,-0.644 0.032,-0.081 0.059,-0.164 0.092,-0.257 -0.48,0 -0.951,0 -1.426,0 0.077,-0.464 0.153,-0.92 0.229,-1.38 h 2.777 c -0.021,0.121 -0.04,0.238 -0.062,0.356 -0.065,0.366 -0.116,0.735 -0.203,1.097 -0.156,0.65 -0.427,1.25 -0.866,1.764 -0.274,0.321 -0.608,0.562 -0.991,0.737 -0.148,0.067 -0.292,0.148 -0.443,0.211 -0.254,0.105 -0.522,0.13 -0.795,0.119 -0.466,-0.018 -0.912,-0.115 -1.319,-0.352 -0.512,-0.298 -0.858,-0.738 -1.079,-1.281 -0.167,-0.408 -0.243,-0.836 -0.271,-1.274 -0.003,-0.037 -0.009,-0.074 -0.013,-0.112 -0.001,-0.198 -0.001,-0.397 -0.001,-0.597 z"
       fill="#cdcccc"
       fill-rule="evenodd"
       id="path100" />
    <path
       clip-rule="evenodd"
       d="m 99.966,40.522 c -0.167,-1.902 -0.334,-3.796 -0.501,-5.69 -0.004,0 -0.007,0 -0.011,-10e-4 -0.025,0.178 -0.051,0.356 -0.075,0.533 -0.08,0.566 -0.158,1.132 -0.236,1.698 -0.078,0.559 -0.156,1.117 -0.233,1.677 -0.08,0.577 -0.161,1.155 -0.243,1.732 -0.002,0.019 -0.031,0.048 -0.048,0.048 -0.427,0.002 -0.854,0.001 -1.281,0.001 -0.007,0 -0.013,-0.004 -0.027,-0.01 0.411,-2.463 0.822,-4.926 1.234,-7.395 h 1.9 c 0.141,1.723 0.281,3.45 0.422,5.175 0.004,0.002 0.009,0.003 0.014,0.005 0.01,-0.022 0.02,-0.043 0.029,-0.065 0.686,-1.683 1.373,-3.365 2.057,-5.048 0.025,-0.063 0.052,-0.089 0.126,-0.088 0.588,0.008 1.177,0.011 1.766,0.015 0.016,0 0.032,0.002 0.057,0.004 -0.03,0.178 -0.059,0.353 -0.087,0.527 -0.126,0.75 -0.252,1.5 -0.378,2.251 -0.126,0.752 -0.252,1.505 -0.379,2.258 -0.125,0.748 -0.249,1.496 -0.377,2.243 -0.026,0.154 0.011,0.128 -0.148,0.13 -0.372,0.001 -0.745,0 -1.118,0 -0.027,0 -0.055,0 -0.093,0 0.35,-1.905 0.696,-3.799 1.044,-5.692 -0.003,-10e-4 -0.006,-0.003 -0.009,-0.004 -0.033,0.08 -0.066,0.159 -0.099,0.239 -0.725,1.792 -1.449,3.583 -2.171,5.377 -0.026,0.063 -0.057,0.082 -0.124,0.082 -0.306,-0.004 -0.613,-0.002 -0.918,-0.002 -0.031,0 -0.059,0 -0.093,0 z"
       fill="#cdcccc"
       fill-rule="evenodd"
       id="path102" />
    <path
       clip-rule="evenodd"
       d="m 112.57,45.363 c 0.406,1.045 0.81,2.082 1.216,3.127 -0.032,10e-4 -0.054,0.003 -0.077,0.003 -0.494,0 -0.987,-0.001 -1.48,10e-4 -0.053,0 -0.078,-0.014 -0.098,-0.065 -0.347,-0.9 -0.698,-1.797 -1.045,-2.696 -0.021,-0.056 -0.047,-0.071 -0.103,-0.07 -0.192,0.004 -0.384,0.001 -0.583,0.001 -0.158,0.942 -0.317,1.881 -0.476,2.823 -0.473,0 -0.943,0 -1.422,0 0.41,-2.472 0.819,-4.94 1.228,-7.413 0.019,-10e-4 0.038,-0.004 0.056,-0.004 0.832,0 1.665,-10e-4 2.498,0.002 0.285,10e-4 0.562,0.05 0.823,0.169 0.363,0.165 0.626,0.431 0.752,0.811 0.202,0.606 0.228,1.224 0.017,1.83 -0.224,0.639 -0.667,1.104 -1.245,1.446 -0.018,0.011 -0.036,0.021 -0.061,0.035 z m -1.957,-1.035 c 0.021,0.002 0.038,0.004 0.054,0.004 0.249,0 0.498,0.008 0.746,-0.004 0.15,-0.007 0.304,-0.029 0.447,-0.073 0.338,-0.103 0.593,-0.303 0.681,-0.667 0.05,-0.208 0.045,-0.418 0,-0.627 -0.045,-0.21 -0.174,-0.345 -0.381,-0.397 -0.114,-0.028 -0.232,-0.05 -0.349,-0.055 -0.271,-0.008 -0.541,-0.002 -0.811,-0.006 -0.052,0 -0.067,0.018 -0.076,0.067 -0.058,0.338 -0.12,0.676 -0.18,1.015 -0.044,0.246 -0.087,0.494 -0.131,0.743 z"
       fill="#cdcccc"
       fill-rule="evenodd"
       id="path104" />
    <path
       clip-rule="evenodd"
       d="m 108.516,35.975 c -0.077,0.486 -0.151,0.959 -0.227,1.438 -0.727,0 -1.452,0 -2.186,0 -0.094,0.527 -0.187,1.048 -0.282,1.579 h 2.466 c -0.023,0.149 -0.045,0.29 -0.067,0.429 -0.056,0.349 -0.113,0.697 -0.167,1.046 -0.007,0.042 -0.021,0.055 -0.062,0.055 -1.265,-10e-4 -2.53,-10e-4 -3.794,-10e-4 -0.009,0 -0.018,-0.003 -0.04,-0.006 0.409,-2.472 0.818,-4.941 1.228,-7.414 h 3.843 c -0.078,0.512 -0.156,1.02 -0.234,1.534 -0.807,0 -1.608,0 -2.418,0 -0.082,0.446 -0.162,0.888 -0.244,1.339 0.727,0.001 1.449,0.001 2.184,0.001 z"
       fill="#cdcccc"
       fill-rule="evenodd"
       id="path106" />
    <path
       clip-rule="evenodd"
       d="m 98.905,48.488 c 0.41,-2.474 0.819,-4.942 1.229,-7.414 h 3.842 c -0.078,0.51 -0.155,1.018 -0.233,1.531 -0.807,0 -1.609,0 -2.419,0 -0.081,0.448 -0.161,0.891 -0.243,1.343 h 2.182 c -0.076,0.484 -0.15,0.959 -0.225,1.438 -0.034,0 -0.061,0 -0.089,0 -0.671,0 -1.343,10e-4 -2.014,-0.002 -0.068,0 -0.087,0.021 -0.098,0.083 -0.084,0.481 -0.172,0.961 -0.259,1.441 -0.002,0.016 -0.001,0.033 -0.003,0.055 h 2.464 c -0.082,0.512 -0.162,1.017 -0.243,1.525 -1.295,0 -2.587,0 -3.891,0 z"
       fill="#cdcccc"
       fill-rule="evenodd"
       id="path108" />
    <path
       clip-rule="evenodd"
       d="m 107.508,41.067 c 0.282,2.477 0.563,4.944 0.844,7.42 -0.47,0 -0.936,0 -1.408,0 -0.041,-0.477 -0.082,-0.954 -0.124,-1.436 -0.029,-0.001 -0.054,-0.003 -0.079,-0.003 -0.586,0 -1.172,10e-4 -1.758,-0.002 -0.058,0 -0.08,0.019 -0.1,0.072 -0.158,0.439 -0.32,0.877 -0.48,1.315 -0.014,0.039 -0.028,0.062 -0.077,0.062 -0.451,-0.002 -0.902,-10e-4 -1.353,-10e-4 -0.014,0 -0.028,-0.002 -0.05,-0.004 0.029,-0.074 0.057,-0.144 0.084,-0.213 0.958,-2.379 1.916,-4.759 2.872,-7.139 0.021,-0.052 0.044,-0.071 0.102,-0.07 0.484,0.002 0.968,0.001 1.452,0.001 0.023,-0.002 0.044,-0.002 0.075,-0.002 z m -2.129,4.702 h 1.332 c -0.083,-0.973 -0.167,-1.941 -0.25,-2.909 -0.006,0 -0.012,-10e-4 -0.017,-0.002 -0.354,0.968 -0.708,1.936 -1.065,2.911 z"
       fill="#cdcccc"
       fill-rule="evenodd"
       id="path110" />
    <path
       clip-rule="evenodd"
       d="m 97.122,40.522 c -0.032,0 -0.058,0 -0.084,0 -0.413,0 -0.826,-0.002 -1.239,0.002 -0.075,0 -0.089,-0.026 -0.095,-0.092 -0.036,-0.449 -0.075,-0.897 -0.114,-1.357 -0.029,0 -0.057,0 -0.085,0 -0.579,0 -1.158,10e-4 -1.737,-0.001 -0.063,0 -0.094,0.015 -0.117,0.078 -0.156,0.438 -0.319,0.872 -0.479,1.309 -0.014,0.039 -0.027,0.063 -0.077,0.063 -0.449,-0.003 -0.897,-10e-4 -1.345,-10e-4 -0.015,0 -0.029,-0.003 -0.052,-0.005 0.008,-0.025 0.015,-0.047 0.023,-0.068 0.979,-2.43 1.957,-4.86 2.934,-7.292 0.019,-0.046 0.041,-0.063 0.092,-0.063 0.487,0.003 0.974,0.003 1.459,0 0.055,0 0.076,0.012 0.083,0.072 0.057,0.525 0.119,1.051 0.179,1.576 0.059,0.521 0.117,1.041 0.176,1.562 0.06,0.521 0.119,1.041 0.179,1.562 0.054,0.473 0.108,0.947 0.162,1.421 0.045,0.397 0.09,0.796 0.135,1.194 10e-4,0.009 10e-4,0.019 0.002,0.04 z m -1.889,-5.637 c -0.004,-10e-4 -0.01,-10e-4 -0.014,-10e-4 -0.357,0.972 -0.713,1.944 -1.07,2.918 h 1.333 c -0.084,-0.977 -0.166,-1.947 -0.249,-2.917 z"
       fill="#cdcccc"
       fill-rule="evenodd"
       id="path112" />
    <path
       clip-rule="evenodd"
       d="m 307.742,29.194 v 1.194 c -0.025,10e-4 -0.047,0.002 -0.069,0.002 -1.299,0 -2.596,0.004 -3.895,-0.001 -0.557,-0.002 -1.058,0.387 -1.188,0.924 -0.022,0.092 -0.035,0.189 -0.036,0.283 -0.002,1.29 -0.002,2.579 -10e-4,3.87 0,0.587 0.446,1.101 1.028,1.189 0.069,0.011 0.138,0.017 0.208,0.017 0.897,0.001 1.794,0.001 2.691,0.001 0.07,0 0.07,0 0.07,-0.072 0,-1.049 0,-2.098 0,-3.147 0,-0.074 0,-0.074 -0.072,-0.074 -0.692,0 -1.384,0 -2.076,0 -0.064,0 -0.065,0 -0.065,-0.063 0,-0.36 0,-0.721 0,-1.082 0,-0.016 0,-0.032 0,-0.05 h 3.408 v 4.834 c 0.005,0 0.01,0.002 0.015,0.003 0.008,-0.017 0.016,-0.032 0.022,-0.049 0.23,-0.678 0.461,-1.355 0.691,-2.033 0.293,-0.86 0.586,-1.721 0.879,-2.582 0.236,-0.694 0.468,-1.391 0.708,-2.084 0.185,-0.534 0.558,-0.898 1.083,-1.088 0.734,-0.265 1.415,-0.153 2.02,0.349 0.263,0.219 0.426,0.504 0.534,0.828 0.478,1.43 0.961,2.858 1.442,4.287 0.355,1.054 0.711,2.108 1.067,3.162 0.005,0.017 0.009,0.033 0.016,0.056 -0.023,10e-4 -0.039,0.003 -0.057,0.003 -1.588,0 -3.174,0 -4.762,10e-4 -0.048,0 -0.06,-0.014 -0.059,-0.061 0.002,-0.36 0.001,-0.721 0.001,-1.081 0,-0.016 0,-0.032 0,-0.056 h 3.218 c -0.02,-0.06 -0.035,-0.111 -0.052,-0.16 -0.576,-1.698 -1.151,-3.396 -1.726,-5.095 -0.098,-0.287 -0.195,-0.574 -0.292,-0.861 -0.089,-0.261 -0.353,-0.445 -0.634,-0.443 -0.289,0.001 -0.549,0.182 -0.638,0.444 -0.346,1.022 -0.692,2.043 -1.039,3.065 -0.431,1.271 -0.863,2.543 -1.294,3.815 -0.043,0.125 -0.088,0.249 -0.127,0.375 -0.014,0.045 -0.036,0.055 -0.08,0.055 -0.34,-0.002 -0.682,0 -1.022,0 -1.294,0 -2.586,-0.004 -3.879,10e-4 -1.036,0.003 -1.971,-0.654 -2.309,-1.646 -0.082,-0.242 -0.125,-0.491 -0.125,-0.746 -0.003,-1.296 -0.003,-2.592 -10e-4,-3.889 10e-4,-1.124 0.818,-2.122 1.919,-2.341 0.164,-0.032 0.333,-0.049 0.499,-0.05 1.301,-0.004 2.603,-0.002 3.904,-0.002 0.026,-0.002 0.048,-0.002 0.075,-0.002 z"
       fill="#cdcccc"
       fill-rule="evenodd"
       id="path114" />
    <path
       clip-rule="evenodd"
       d="m 287.11,36.376 c 0,-0.403 0,-0.797 0,-1.197 h 0.069 3.724 c 0.027,0 0.055,-0.001 0.081,-0.009 0.067,-0.018 0.106,-0.077 0.104,-0.15 -0.003,-0.067 -0.049,-0.122 -0.117,-0.135 -0.027,-0.004 -0.055,-0.006 -0.082,-0.006 -0.346,-10e-4 -0.691,0.005 -1.038,-0.003 -0.629,-0.015 -1.191,-0.226 -1.682,-0.619 -0.55,-0.442 -0.896,-1.014 -1.016,-1.71 -0.147,-0.854 0.049,-1.63 0.596,-2.307 0.425,-0.527 0.978,-0.856 1.643,-0.988 0.177,-0.035 0.362,-0.053 0.543,-0.054 1.261,-0.004 2.521,-0.002 3.782,-0.002 h 0.064 v 1.201 c -0.022,0 -0.046,0 -0.069,0 -1.252,0 -2.505,-10e-4 -3.757,0 -0.772,0 -1.432,0.519 -1.6,1.271 -0.125,0.558 0.012,1.057 0.395,1.482 0.267,0.295 0.604,0.466 0.999,0.513 0.15,0.018 0.303,0.013 0.455,0.015 0.26,0.004 0.52,0.006 0.78,0.008 0.589,0.005 1.116,0.422 1.267,1.002 0.201,0.768 -0.301,1.542 -1.084,1.67 -0.083,0.014 -0.168,0.019 -0.251,0.019 -1.247,0.002 -2.496,10e-4 -3.743,10e-4 -0.022,-0.002 -0.041,-0.002 -0.063,-0.002 z"
       fill="#cdcccc"
       fill-rule="evenodd"
       id="path116" />
    <path
       clip-rule="evenodd"
       d="m 287.107,36.663 h 0.07 3.773 c 0.792,0 1.471,-0.565 1.616,-1.344 0.162,-0.869 -0.423,-1.729 -1.29,-1.901 -0.201,-0.04 -0.405,-0.033 -0.608,-0.035 -0.244,-0.002 -0.488,-0.001 -0.732,-0.004 -0.669,-0.011 -1.209,-0.486 -1.313,-1.137 -0.108,-0.693 0.328,-1.345 1.009,-1.509 0.096,-0.023 0.198,-0.035 0.297,-0.035 1.268,-0.002 2.534,-0.002 3.802,-0.002 h 0.05 c 0.003,0.011 0.006,0.021 0.006,0.029 -0.003,0.366 -0.007,0.73 -0.007,1.095 0,0.057 -0.023,0.062 -0.068,0.062 -1.233,-0.001 -2.467,-0.001 -3.7,-0.001 -0.029,0 -0.058,0 -0.087,0.004 -0.071,0.009 -0.122,0.066 -0.125,0.138 -0.005,0.098 0.054,0.164 0.153,0.164 0.173,0 0.346,-0.005 0.519,-0.004 0.25,10e-4 0.502,-0.01 0.751,0.012 0.565,0.05 1.07,0.259 1.511,0.616 0.524,0.425 0.866,0.969 1,1.63 0.176,0.868 -0.01,1.659 -0.559,2.355 -0.428,0.543 -0.99,0.88 -1.666,1.023 -0.19,0.039 -0.383,0.055 -0.577,0.055 -1.251,0 -2.502,0 -3.753,0 -0.07,0 -0.07,0 -0.07,-0.072 0,-0.359 0,-0.718 0,-1.077 -0.002,-0.017 -0.002,-0.036 -0.002,-0.062 z"
       fill="#cdcccc"
       fill-rule="evenodd"
       id="path118" />
    <path
       clip-rule="evenodd"
       d="m 300.883,29.194 v 1.193 c -0.023,0.001 -0.047,0.003 -0.07,0.003 -1.343,0 -2.686,0 -4.03,0 -0.59,0 -1.094,0.419 -1.2,0.999 -0.012,0.069 -0.018,0.141 -0.018,0.212 -10e-4,1.281 -10e-4,2.563 -10e-4,3.845 10e-4,0.622 0.442,1.129 1.055,1.214 0.062,0.008 0.125,0.01 0.189,0.01 1.329,10e-4 2.66,10e-4 3.991,10e-4 0.071,0 0.071,0 0.071,0.07 0,0.354 -10e-4,0.708 10e-4,1.062 0,0.049 -0.013,0.064 -0.063,0.064 -1.353,-10e-4 -2.705,0.001 -4.058,-0.002 -1.125,-0.003 -2.108,-0.82 -2.331,-1.924 -0.035,-0.171 -0.05,-0.342 -0.05,-0.515 10e-4,-1.262 10e-4,-2.525 0,-3.788 0,-0.624 0.199,-1.173 0.614,-1.639 0.363,-0.408 0.816,-0.665 1.353,-0.763 0.156,-0.028 0.315,-0.041 0.472,-0.041 1.335,-0.003 2.67,-0.002 4.005,-0.002 0.023,10e-4 0.045,10e-4 0.07,10e-4 z"
       fill="#cdcccc"
       fill-rule="evenodd"
       id="path120" />
    <path
       clip-rule="evenodd"
       d="m 311.351,35.267 c -0.263,0.774 -0.56,1.648 -0.823,2.422 -0.016,0.046 -0.033,0.091 -0.047,0.138 -0.008,0.03 -0.023,0.041 -0.055,0.04 -0.058,-10e-4 -0.116,0 -0.174,0 -0.373,0 -0.747,0 -1.121,0 -0.021,0 -0.041,-0.002 -0.068,-0.003 0.007,-0.024 0.013,-0.044 0.019,-0.063 0.419,-1.24 0.839,-2.48 1.26,-3.719 0.383,-1.133 0.767,-2.267 1.15,-3.399 0.091,-0.266 0.388,-0.364 0.603,-0.202 0.068,0.051 0.112,0.12 0.139,0.2 0.326,0.97 0.653,1.94 0.98,2.911 0.308,0.912 0.615,1.824 0.922,2.737 0.005,0.015 0.01,0.03 0.018,0.052 -0.938,0 -1.869,0 -2.805,0 -10e-4,-0.354 0.002,-0.766 0.002,-1.114 z m 0.074,-0.217 c 0.248,0.001 0.557,0 0.805,0 h 0.067 c -0.145,-0.433 -0.286,-0.853 -0.427,-1.274 -0.004,0 -0.009,0 -0.013,0 -0.006,0.017 -0.014,0.034 -0.02,0.051 -0.131,0.388 -0.263,0.776 -0.393,1.164 z"
       fill="#cdcccc"
       fill-rule="evenodd"
       id="path122" />
    <path
       clip-rule="evenodd"
       d="m 307.744,31.883 c -0.025,0 -0.042,0 -0.06,0 -1.094,0 -2.188,0 -3.282,0 -0.028,0 -0.055,0 -0.083,0.002 -0.167,0.013 -0.271,0.124 -0.271,0.292 v 2.71 c 0,0.15 0.122,0.276 0.277,0.281 0.139,0.004 0.278,0.002 0.417,0.004 0.088,0.001 0.175,0.002 0.262,0.007 0.043,0.002 0.056,-0.015 0.054,-0.056 -0.003,-0.064 -0.003,-0.129 0,-0.194 0.001,-0.041 -0.014,-0.053 -0.054,-0.053 -0.2,0.001 -0.401,0.001 -0.602,0 -0.065,0 -0.066,0 -0.066,-0.062 0,-0.364 0,-0.728 0,-1.091 0,-0.014 0.002,-0.028 0.003,-0.045 h 1.91 c 0,0.021 10e-4,0.04 0.002,0.06 v 2.574 c 0,0.064 -10e-4,0.064 -0.062,0.064 -0.797,0 -1.594,0.001 -2.391,0 -0.453,0 -0.826,-0.291 -0.926,-0.721 -0.014,-0.062 -0.023,-0.127 -0.023,-0.192 -10e-4,-1.288 -10e-4,-2.576 0,-3.864 0,-0.449 0.347,-0.842 0.793,-0.901 0.056,-0.007 0.113,-0.01 0.169,-0.01 1.287,-10e-4 2.574,-10e-4 3.86,-10e-4 0.081,0 0.071,-0.007 0.072,0.073 v 1.058 c 0.001,0.019 0.001,0.038 0.001,0.065 z"
       fill="#cdcccc"
       fill-rule="evenodd"
       id="path124" />
    <path
       clip-rule="evenodd"
       d="m 297.067,32.183 h 2.935 c 0.002,0.025 0.006,0.047 0.006,0.069 0.002,0.334 0.003,0.668 0.005,1.003 v 0.004 c 0,0.12 0,0.12 -0.117,0.12 -1.317,0 -2.635,0 -3.952,0 -0.022,0 -0.045,0 -0.072,0 0,-0.025 0,-0.043 0,-0.06 0,-0.567 0,-1.135 10e-4,-1.702 0,-0.454 0.295,-0.818 0.738,-0.912 0.066,-0.014 0.138,-0.017 0.207,-0.017 1.335,-10e-4 2.67,-10e-4 4.005,-10e-4 h 0.063 v 0.063 1.067 c 0,0.066 0,0.066 -0.066,0.066 -1.138,0 -2.277,0 -3.414,0 -0.035,0 -0.071,0.001 -0.107,0.005 -0.14,0.013 -0.247,0.146 -0.232,0.295 z"
       fill="#cdcccc"
       fill-rule="evenodd"
       id="path126" />
    <path
       clip-rule="evenodd"
       d="m 297.065,34.877 c -0.009,0.177 0.106,0.295 0.288,0.301 h 0.044 3.404 c 0.068,0 0.069,0 0.069,0.067 v 1.057 c 0,0.063 -10e-4,0.063 -0.064,0.063 -1.339,0 -2.676,0 -4.015,0 -0.467,0 -0.85,-0.334 -0.914,-0.798 -0.006,-0.043 -0.005,-0.087 -0.005,-0.131 -0.001,-0.562 -0.001,-1.125 -0.001,-1.687 0,-0.066 0,-0.066 0.066,-0.066 h 4.01 c 0.07,0 0.068,0 0.067,0.069 -0.001,0.232 -0.001,0.465 -0.003,0.697 -0.001,0.12 -0.002,0.239 -0.003,0.359 0,0.067 0,0.067 -0.066,0.067 -0.934,0 -1.869,0 -2.802,0 -0.025,0.002 -0.049,0.002 -0.075,0.002 z"
       fill="#cdcccc"
       fill-rule="evenodd"
       id="path128" />
    <path
       clip-rule="evenodd"
       d="m 108.827,59.844 c 0,1.106 -0.896,2.003 -2.003,2.003 -1.106,0 -2.003,-0.897 -2.003,-2.003 0,-1.106 0.896,-2.003 2.003,-2.003 1.107,0 2.003,0.897 2.003,2.003 z"
       fill="#c3262e"
       fill-rule="evenodd"
       id="path130" />
    <path
       d="m 17.249,127.837 c 1.945,9.895 9.668,24.24 23.447,14.502 13.778,-9.737 28.698,-27.276 29.422,-51.45 0.724,-24.174 -9.843,-38.47 -29.007,-38.47 -19.166,0 -27.867,17.302 -27.867,27.506 -10e-4,10.203 2.416,39.831 4.005,47.912 z"
       fill="#3d3d3d"
       id="path132" />
    <path
       d="m 64.972,79.925 c 0,13.178 -10.683,23.861 -23.861,23.861 -13.179,0 -23.862,-10.684 -23.862,-23.861 0,-13.179 10.683,-23.862 23.862,-23.862 13.178,0 23.861,10.683 23.861,23.862 z"
       fill="#262727"
       id="path134" />
    <path
       d="M 49.64,88.988 V 59.809 l -0.637,-0.266 c -0.17,-0.071 -4.205,-1.737 -7.893,-1.737 -3.688,0 -7.723,1.667 -7.893,1.737 l -0.637,0.266 v 29.178"
       fill="#181819"
       id="path136" />
    <path
       d="m 32.581,88.455 v 11.585 l 0.637,0.267 c 0.169,0.07 4.205,1.737 7.893,1.737 3.688,0 7.722,-1.667 7.893,-1.737 l 0.637,-0.267 V 88.455"
       fill="#181819"
       id="path138" />
    <path
       d="M 32.581,71.395 H 20.995 l -0.266,0.638 c -0.071,0.17 -1.737,4.205 -1.737,7.893 0,3.688 1.666,7.722 1.737,7.892 l 0.266,0.637 h 11.586"
       fill="#181819"
       id="path140" />
    <path
       d="m 31.89,88.455 h 29.335 l 0.266,-0.637 c 0.071,-0.171 1.737,-4.205 1.737,-7.892 0,-3.687 -1.667,-7.723 -1.737,-7.893 L 61.225,71.395 H 31.89"
       fill="#181819"
       id="path142" />
    <path
       d="m 41.11,58.842 c -3.523,0 -7.494,1.658 -7.494,1.658 v 10.566 l 7.494,8.012 7.493,-8.012 V 60.5 c 10e-4,0 -3.971,-1.658 -7.493,-1.658 z"
       fill="#262727"
       id="path144" />
    <path
       d="m 41.11,101.007 c 3.522,0 7.493,-1.658 7.493,-1.658 V 88.783 l -7.493,-8.012 -7.494,8.012 v 10.566 c 0,0 3.972,1.658 7.494,1.658 z"
       fill="#262727"
       id="path146" />
    <path
       d="m 62.192,79.925 c 0,-3.522 -1.657,-7.494 -1.657,-7.494 H 49.14 l -7.183,7.494 7.183,7.492 h 11.396 c -0.001,0 1.656,-3.97 1.656,-7.492 z"
       fill="#262727"
       id="path148" />
    <path
       d="m 20.027,79.925 c 0,3.521 1.658,7.492 1.658,7.492 h 11.396 l 7.183,-7.492 -7.183,-7.494 H 21.685 c 0,0 -1.658,3.972 -1.658,7.494 z"
       fill="#262727"
       id="path150" />
    <path
       d="m 345.281,94.464 c -18.851,18.713 -29.216,38.834 -23.152,44.943 6.064,6.109 26.262,-4.107 45.115,-22.818 11.025,-10.944 19.145,-22.369 22.775,-31.191 -0.449,-5.513 -0.937,-10.562 -1.418,-14.939 -7.615,-3.168 -26.033,6.845 -43.32,24.005 z"
       fill="#3d3d3d"
       id="path152" />
    <path
       d="m 353.784,96.343 c 0,6.479 -5.251,11.729 -11.729,11.729 -6.478,0 -11.728,-5.251 -11.728,-11.729 0,-6.478 5.25,-11.729 11.728,-11.729 6.478,10e-4 11.729,5.252 11.729,11.729 z"
       fill="#2f2f2f"
       id="path154" />
    <path
       d="m 381.237,73.345 c 0,6.479 -5.251,11.729 -11.73,11.729 -6.478,0 -11.729,-5.251 -11.729,-11.729 0,-6.478 5.251,-11.729 11.729,-11.729 6.479,10e-4 11.73,5.252 11.73,11.729 z"
       fill="#2f2f2f"
       id="path156" />
  </g>
</svg>
