<?xml version="1.0" encoding="UTF-8" standalone="no"?>
<svg
   enable-background="new 0 0 506.92 236.681"
   viewBox="0 0 236.68099 506.91901"
   version="1.1"
   id="svg154"
   sodipodi:docname="lynx.svg"
   width="236.681"
   height="506.91901"
   inkscape:version="1.1 (c68e22c387, 2021-05-23)"
   xmlns:inkscape="http://www.inkscape.org/namespaces/inkscape"
   xmlns:sodipodi="http://sodipodi.sourceforge.net/DTD/sodipodi-0.dtd"
   xmlns="http://www.w3.org/2000/svg"
   xmlns:svg="http://www.w3.org/2000/svg">
  <defs
     id="defs158" />
  <sodipodi:namedview
     id="namedview156"
     pagecolor="#ffffff"
     bordercolor="#666666"
     borderopacity="1.0"
     inkscape:pageshadow="2"
     inkscape:pageopacity="0.0"
     inkscape:pagecheckerboard="0"
     showgrid="false"
     fit-margin-top="0"
     fit-margin-left="0"
     fit-margin-right="0"
     fit-margin-bottom="0"
     inkscape:zoom="1.0978063"
     inkscape:cx="118.87343"
     inkscape:cy="253.23228"
     inkscape:window-width="1920"
     inkscape:window-height="1138"
     inkscape:window-x="-8"
     inkscape:window-y="-8"
     inkscape:window-maximized="1"
     inkscape:current-layer="svg154" />
  <g
     id="g1051"
     transform="rotate(90,118.3405,118.3405)">
    <path
       d="M 107.066,8.21 H 402.784 V 228.243 H 107.066 Z"
       fill="#262626"
       id="path2" />
    <path
       d="m 289.316,30.792 -9.475,3.438 h 9.536 l 3.627,-2.003 z"
       fill="#d78b00"
       id="path4" />
    <path
       d="m 280.468,20.876 h 11.257 l 14.988,7.599 h -5.878 l -4.132,-1.9 -2.549,1.036 z"
       fill="#d78b00"
       id="path6" />
    <path
       d="m 301.434,24.357 9.476,-3.434 h -9.536 l -3.627,2 z"
       fill="#d78b00"
       id="path8" />
    <path
       d="m 310.283,34.274 h -11.257 l -14.988,-7.599 h 5.878 l 4.132,1.901 2.548,-1.037 z"
       fill="#d78b00"
       id="path10" />
    <path
       d="m 209.422,20.785 h 7.461 v 9.117 h -7.461 z"
       fill="#d78b00"
       id="path12" />
    <path
       d="m 209.422,31.018 h 19.119 v 2.791 h -19.119 z"
       fill="#d78b00"
       id="path14" />
    <path
       d="m 221.547,20.785 h 8.861 l 6.062,5.115 -4.382,3.216 z"
       fill="#d78b00"
       id="path16" />
    <path
       d="m 232.739,29.623 v 4.186 h 6.995 v -4.186 l 13.525,-8.838 h -6.53 l -13.523,8.838 z"
       fill="#d78b00"
       id="path18" />
    <path
       d="m 254.191,22.179 7.462,4.653 v 6.977 h -7.462 z"
       fill="#d78b00"
       id="path20" />
    <path
       d="m 255.124,20.785 19.121,13.024 h 4.196 V 20.783 h -3.637 v 9.16 l -13.616,-9.158 z"
       fill="#d78b00"
       id="path22" />
    <path
       d="m 339.499,192.61 c 9.165,0 16.596,-33.251 16.596,-74.269 0,-41.017 -7.431,-74.269 -16.596,-74.269 H 168.351 c -9.166,0 -16.596,33.252 -16.596,74.269 0,41.019 7.43,74.269 16.596,74.269 z"
       fill="#333333"
       id="path24" />
    <path
       d="M 170.693,65.144 H 335.8 V 171.571 H 170.693 Z"
       fill="#1a1a1a"
       id="path26" />
    <path
       d="m 331.856,66.902 c 1.122,0 2.039,0.917 2.039,2.039 v 98.572 c 0,1.122 -0.917,2.039 -2.039,2.039 H 175.047 c -1.12,0 -2.038,-0.917 -2.038,-2.039 V 68.941 c 0,-1.122 0.918,-2.039 2.038,-2.039 z m 0,-5.44 H 175.047 c -4.123,0 -7.477,3.356 -7.477,7.479 v 98.572 c 0,4.123 3.354,7.479 7.477,7.479 h 156.809 c 4.124,0 7.479,-3.355 7.479,-7.479 V 68.941 c 0,-4.123 -3.355,-7.479 -7.479,-7.479 z"
       fill="#262626"
       id="path28" />
    <path
       d="m 133.934,228.515 -25.039,8.055 c -0.231,0.072 -0.473,0.111 -0.714,0.111 H 25.534 c -0.924,0 -1.76,-0.546 -2.134,-1.391 C 8.092,200.531 0,160.091 0,118.341 0,76.589 8.092,36.15 23.4,1.392 23.774,0.546 24.61,0 25.534,0 h 82.646 c 0.241,0 0.482,0.038 0.714,0.112 l 25.039,8.053 c -13.945,31.662 -22.058,69.447 -22.058,110.174 0.001,40.729 8.113,78.515 22.059,110.176 z"
       fill="#262626"
       id="path30" />
    <path
       d="m 131.866,224.291 -24.08,7.745 c -0.222,0.07 -0.452,0.107 -0.686,0.107 H 27.625 c -0.89,0 -1.694,-0.524 -2.053,-1.339 C 10.851,197.378 3.068,158.49 3.068,118.341 3.068,78.191 10.85,39.302 25.572,5.877 25.93,5.064 26.735,4.539 27.625,4.539 h 79.476 c 0.233,0 0.464,0.037 0.686,0.107 l 24.08,7.745 c -13.409,30.446 -21.213,66.783 -21.213,105.948 -10e-4,39.166 7.803,75.504 21.212,105.952 z"
       fill="#333333"
       id="path32" />
    <path
       d="m 372.985,228.515 25.04,8.055 c 0.231,0.072 0.472,0.111 0.714,0.111 h 82.646 c 0.924,0 1.761,-0.546 2.134,-1.391 15.31,-34.76 23.4,-75.199 23.4,-116.949 0,-41.752 -8.091,-82.191 -23.4,-116.949 C 483.146,0.546 482.31,0 481.386,0 H 398.74 c -0.242,0 -0.483,0.038 -0.714,0.112 l -25.04,8.053 c 13.946,31.662 22.059,69.447 22.059,110.174 -0.001,40.729 -8.113,78.515 -22.06,110.176 z"
       fill="#262626"
       id="path34" />
    <path
       d="m 374.932,224.291 24.079,7.745 c 0.222,0.07 0.454,0.107 0.687,0.107 h 79.477 c 0.889,0 1.693,-0.524 2.051,-1.339 14.723,-33.426 22.505,-72.314 22.505,-112.463 0,-40.15 -7.782,-79.039 -22.505,-112.464 -0.357,-0.813 -1.162,-1.338 -2.051,-1.338 h -79.477 c -0.233,0 -0.465,0.037 -0.687,0.107 l -24.079,7.745 c 13.41,30.446 21.212,66.783 21.212,105.948 0,39.166 -7.802,75.504 -21.212,105.952 z"
       fill="#333333"
       id="path36" />
    <path
       d="m 99.33,166.863 c -0.656,0 -1.233,-0.475 -1.341,-1.142 -2.491,-15.434 -3.755,-31.375 -3.755,-47.381 0,-15.88 1.246,-31.711 3.703,-47.053 0.119,-0.741 0.813,-1.248 1.557,-1.127 0.742,0.119 1.247,0.816 1.128,1.557 -2.434,15.2 -3.668,30.887 -3.668,46.623 0,15.861 1.251,31.656 3.72,46.947 0.12,0.741 -0.384,1.439 -1.125,1.559 -0.074,0.011 -0.148,0.017 -0.219,0.017 z"
       fill="#262626"
       id="path38" />
    <path
       d="m 106.159,164.904 c -0.66,0 -1.239,-0.48 -1.342,-1.152 -2.285,-14.811 -3.443,-30.09 -3.443,-45.412 0,-15.216 1.141,-30.385 3.392,-45.084 0.113,-0.742 0.81,-1.25 1.549,-1.139 0.743,0.113 1.252,0.807 1.138,1.549 -2.229,14.564 -3.36,29.596 -3.36,44.674 0,15.184 1.147,30.322 3.412,44.998 0.114,0.742 -0.395,1.436 -1.136,1.551 -0.072,0.01 -0.142,0.015 -0.21,0.015 z"
       fill="#262626"
       id="path40" />
    <path
       d="m 384.882,128.083 c 0,1.502 -1.219,2.72 -2.72,2.72 h -6.798 c -1.502,0 -2.72,-1.218 -2.72,-2.72 v -19.941 c 0,-1.501 1.218,-2.719 2.72,-2.719 h 6.798 c 1.501,0 2.72,1.218 2.72,2.719 z"
       fill="#404040"
       id="path42" />
    <path
       d="m 382.176,164.181 c -0.157,1.492 -1.496,2.576 -2.989,2.42 l -6.761,-0.711 c -1.493,-0.157 -2.577,-1.496 -2.42,-2.989 l 2.083,-19.831 c 0.157,-1.493 1.496,-2.576 2.989,-2.42 l 6.761,0.711 c 1.493,0.156 2.577,1.494 2.42,2.988 z"
       fill="#404040"
       id="path44" />
    <path
       d="m 382.176,71.82 c -0.157,-1.493 -1.496,-2.576 -2.989,-2.42 l -6.761,0.71 c -1.493,0.157 -2.577,1.495 -2.42,2.989 l 2.083,19.832 c 0.157,1.492 1.496,2.576 2.989,2.419 l 6.761,-0.71 c 1.493,-0.157 2.577,-1.496 2.42,-2.988 z"
       fill="#404040"
       id="path46" />
    <path
       d="m 123.56,128.083 c 0,1.502 1.218,2.72 2.719,2.72 h 6.799 c 1.501,0 2.719,-1.218 2.719,-2.72 v -19.941 c 0,-1.501 -1.218,-2.719 -2.719,-2.719 h -6.799 c -1.501,0 -2.719,1.218 -2.719,2.719 z"
       fill="#404040"
       id="path48" />
    <path
       d="m 126.266,164.181 c 0.157,1.492 1.495,2.576 2.988,2.42 l 6.762,-0.711 c 1.493,-0.157 2.577,-1.496 2.42,-2.989 l -2.084,-19.831 c -0.157,-1.493 -1.495,-2.576 -2.99,-2.42 l -6.76,0.711 c -1.493,0.156 -2.576,1.494 -2.42,2.988 z"
       fill="#404040"
       id="path50" />
    <path
       d="m 126.266,71.82 c 0.157,-1.493 1.495,-2.576 2.988,-2.42 l 6.762,0.71 c 1.493,0.157 2.577,1.495 2.42,2.989 l -2.084,19.832 c -0.157,1.492 -1.495,2.576 -2.99,2.419 l -6.76,-0.71 c -1.493,-0.157 -2.576,-1.496 -2.42,-2.988 z"
       fill="#404040"
       id="path52" />
    <path
       d="m 150.007,25.886 c 0,1.877 -1.521,3.398 -3.399,3.398 -1.877,0 -3.398,-1.521 -3.398,-3.398 0,-1.878 1.521,-3.399 3.398,-3.399 1.877,0 3.399,1.521 3.399,3.399 z"
       fill="#ce6d30"
       id="path54" />
    <path
       d="m 428.584,48.452 c 0.385,1.415 -0.451,2.878 -1.868,3.262 l -25.968,7.059 c -1.416,0.386 -2.876,-0.45 -3.262,-1.868 l -7.06,-25.967 c -0.384,-1.418 0.451,-2.877 1.868,-3.263 l 25.968,-7.058 c 1.416,-0.386 2.876,0.449 3.261,1.867 z"
       fill="#1a1a1a"
       id="path56" />
    <path
       d="m 422.329,36.208 c 1.926,7.083 -2.255,14.385 -9.338,16.311 -7.082,1.925 -14.385,-2.256 -16.31,-9.339 -1.926,-7.082 2.257,-14.385 9.339,-16.309 7.082,-1.926 14.384,2.254 16.309,9.337 z"
       fill="#404040"
       id="path58" />
    <path
       d="m 470.732,36.555 c 0.385,1.415 -0.452,2.878 -1.869,3.262 l -25.967,7.059 c -1.416,0.385 -2.877,-0.45 -3.263,-1.868 L 432.575,19.04 c -0.385,-1.417 0.451,-2.876 1.867,-3.262 L 460.41,8.719 c 1.416,-0.385 2.875,0.451 3.262,1.868 z"
       fill="#1a1a1a"
       id="path60" />
    <path
       d="m 464.477,24.311 c 1.926,7.083 -2.254,14.385 -9.337,16.31 -7.083,1.925 -14.385,-2.256 -16.31,-9.338 -1.926,-7.083 2.257,-14.385 9.338,-16.308 7.082,-1.927 14.384,2.253 16.309,9.336 z"
       fill="#404040"
       id="path62" />
    <path
       d="m 432.575,218.064 c -0.386,1.416 0.452,2.878 1.868,3.262 l 25.968,7.059 c 1.416,0.385 2.875,-0.45 3.262,-1.867 l 7.059,-25.969 c 0.385,-1.416 -0.451,-2.876 -1.868,-3.262 l -25.967,-7.059 c -1.416,-0.385 -2.877,0.451 -3.262,1.867 z"
       fill="#1a1a1a"
       id="path64" />
    <path
       d="m 438.83,205.82 c -1.926,7.084 2.254,14.385 9.338,16.311 7.081,1.924 14.385,-2.256 16.309,-9.339 1.926,-7.082 -2.256,-14.384 -9.339,-16.308 -7.081,-1.926 -14.382,2.254 -16.308,9.336 z"
       fill="#404040"
       id="path66" />
    <path
       d="m 390.427,206.167 c -0.386,1.416 0.451,2.877 1.868,3.262 l 25.968,7.059 c 1.416,0.385 2.876,-0.451 3.262,-1.867 l 7.06,-25.969 c 0.384,-1.416 -0.451,-2.876 -1.868,-3.262 l -25.968,-7.059 c -1.416,-0.385 -2.876,0.451 -3.261,1.867 z"
       fill="#1a1a1a"
       id="path68" />
    <path
       d="m 396.682,193.923 c -1.926,7.084 2.255,14.385 9.338,16.311 7.082,1.924 14.385,-2.256 16.31,-9.339 1.925,-7.083 -2.258,-14.384 -9.339,-16.308 -7.083,-1.925 -14.385,2.254 -16.309,9.336 z"
       fill="#404040"
       id="path70" />
    <path
       d="m 89.887,108.056 c 0,-2.243 -1.836,-4.078 -4.079,-4.078 H 74.079 c -2.244,0 -4.08,-1.836 -4.08,-4.079 V 88.17 c 0,-2.244 -1.835,-4.078 -4.078,-4.078 H 44.63 c -2.244,0 -4.08,1.834 -4.08,4.078 v 11.729 c 0,2.243 -1.836,4.079 -4.078,4.079 h -11.73 c -2.243,0 -4.08,1.835 -4.08,4.078 v 21.292 c 0,2.243 1.837,4.079 4.08,4.079 h 11.729 c 2.242,0 4.078,1.836 4.078,4.079 v 11.729 c 0,2.243 1.836,4.079 4.08,4.079 H 65.92 c 2.243,0 4.078,-1.836 4.078,-4.079 v -11.729 c 0,-2.243 1.836,-4.079 4.08,-4.079 h 11.729 c 2.243,0 4.079,-1.836 4.079,-4.079 v -21.292 z"
       fill="#1a1a1a"
       id="path72" />
    <path
       d="m 86.656,118.683 c 0,6.523 -5.287,11.792 -11.81,11.792 l -4.614,-0.038 c -1.751,0 -3.184,1.434 -3.184,3.184 v 4.575 c 0,6.524 -5.289,11.811 -11.811,11.811 -6.522,0 -11.753,-5.287 -11.753,-11.811 l 0.018,-4.575 c 0,-1.751 -1.433,-3.184 -3.185,-3.184 l -4.614,0.038 c -6.521,0 -11.809,-5.269 -11.809,-11.792 0,-6.521 5.287,-11.791 11.809,-11.791 l 4.614,0.037 c 1.752,0 3.185,-1.433 3.185,-3.184 l -0.018,-4.576 c 0,-6.522 5.23,-11.811 11.753,-11.811 6.523,0 11.811,5.288 11.811,11.811 v 4.576 c 0,1.751 1.433,3.184 3.184,3.184 l 4.614,-0.037 c 6.523,0 11.81,5.27 11.81,11.791 z"
       fill="#404040"
       id="path74" />
    <path
       clip-rule="evenodd"
       d="m 243.26,201.501 h 0.934 v 2.625 c 0,2.204 1.511,4.056 3.556,4.573 l 0.002,1.491 c -2.551,-0.423 -4.497,-2.644 -4.495,-5.31 z m -1.777,0 h -0.934 v 2.625 c 0,2.204 -1.513,4.056 -3.556,4.573 l -0.004,1.491 c 2.552,-0.423 4.498,-2.644 4.496,-5.31 z m 0.219,0 h 1.335 v 8.693 h -1.335 z m 21.166,5.316 -0.827,-2.701 -0.74,2.696 z m -1.94,1.349 -0.554,2.016 h -1.53 l 2.138,-7.746 c 0.133,-0.447 0.55,-0.775 1.043,-0.775 0.493,0 0.911,0.328 1.045,0.775 l 2.344,7.759 -1.519,-0.013 -0.614,-2.012 z m -7.432,-1.349 -0.828,-2.701 -0.739,2.696 z m -1.941,1.349 -0.553,2.016 h -1.529 l 2.136,-7.746 c 0.134,-0.447 0.55,-0.775 1.044,-0.775 0.492,0 0.911,0.328 1.046,0.775 l 2.343,7.759 -1.518,-0.013 -0.615,-2.012 z m 17.656,-1.471 c 0.968,-0.37 1.652,-1.306 1.652,-2.402 0,-1.421 -1.151,-2.572 -2.573,-2.572 l -0.996,-0.006 c -0.923,-0.004 -1.457,0.483 -1.457,1.458 v 6.972 h 1.457 v -7.017 h 0.898 c 0.684,0 1.237,0.555 1.237,1.239 0,0.609 -0.439,1.114 -1.018,1.219 -0.102,0.024 -0.205,0.055 -0.301,0.111 -0.507,0.307 -0.671,0.967 -0.365,1.473 l 1.831,3.024 h 1.539 l -1.99,-3.273 c -0.044,-0.071 -0.021,-0.163 0.051,-0.206 0.013,-0.008 0.028,-0.012 0.041,-0.016 z m -14.342,-3.526 v -1.442 h 5.085 v 1.442 h -1.809 l -0.006,7.024 h -1.456 v -7.018 z m 16.674,-1.449 H 273 v 8.474 h -1.457 z"
       fill="#666666"
       fill-rule="evenodd"
       id="path76" />
    <path
       d="m 462.782,182.578 c -0.097,0 -0.195,-0.01 -0.295,-0.031 -0.732,-0.162 -1.195,-0.889 -1.033,-1.621 4.449,-20.128 6.705,-41.184 6.705,-62.586 0,-21.284 -2.232,-42.234 -6.635,-62.267 -0.161,-0.733 0.303,-1.459 1.036,-1.62 0.738,-0.158 1.459,0.303 1.62,1.036 4.444,20.224 6.697,41.37 6.697,62.851 0,21.598 -2.277,42.852 -6.77,63.172 -0.138,0.634 -0.701,1.066 -1.325,1.066 z"
       fill="#262626"
       id="path78" />
    <path
       d="m 449.011,178.628 c -0.091,0 -0.183,-0.009 -0.274,-0.028 -0.736,-0.15 -1.21,-0.869 -1.059,-1.605 3.892,-18.928 5.865,-38.662 5.865,-58.654 0,-19.889 -1.951,-39.516 -5.798,-58.334 -0.15,-0.736 0.324,-1.454 1.06,-1.604 0.737,-0.155 1.454,0.325 1.604,1.06 3.884,18.997 5.853,38.807 5.853,58.879 0,20.176 -1.991,40.095 -5.92,59.202 -0.133,0.641 -0.699,1.084 -1.331,1.084 z"
       fill="#262626"
       id="path80" />
    <path
       d="m 434.538,174.476 c -0.085,0 -0.17,-0.008 -0.256,-0.024 -0.737,-0.14 -1.222,-0.852 -1.082,-1.589 3.349,-17.649 5.047,-35.993 5.047,-54.523 0,-18.41 -1.678,-36.646 -4.987,-54.201 -0.14,-0.738 0.346,-1.449 1.084,-1.588 0.734,-0.141 1.448,0.346 1.588,1.084 3.341,17.721 5.034,36.127 5.034,54.705 0,18.699 -1.714,37.215 -5.094,55.029 -0.124,0.652 -0.694,1.107 -1.334,1.107 z"
       fill="#262626"
       id="path82" />
    <path
       d="m 424.206,171.512 c -0.08,0 -0.16,-0.007 -0.241,-0.021 -0.739,-0.132 -1.231,-0.839 -1.1,-1.577 2.989,-16.73 4.505,-34.082 4.505,-51.574 0,-17.386 -1.496,-34.629 -4.445,-51.252 -0.131,-0.738 0.362,-1.444 1.102,-1.576 0.732,-0.131 1.444,0.362 1.576,1.102 2.977,16.779 4.486,34.182 4.486,51.727 0,17.651 -1.529,35.164 -4.546,52.053 -0.118,0.656 -0.691,1.118 -1.337,1.118 z"
       fill="#262626"
       id="path84" />
    <path
       d="m 413.842,168.54 c -0.075,0 -0.15,-0.007 -0.227,-0.019 -0.74,-0.125 -1.24,-0.826 -1.116,-1.566 2.65,-15.812 3.994,-32.168 3.994,-48.615 0,-16.334 -1.326,-32.582 -3.94,-48.292 -0.124,-0.741 0.377,-1.44 1.117,-1.564 0.748,-0.116 1.441,0.378 1.564,1.118 2.639,15.857 3.977,32.254 3.977,48.738 0,16.598 -1.356,33.105 -4.031,49.064 -0.111,0.665 -0.687,1.136 -1.338,1.136 z"
       fill="#262626"
       id="path86" />
    <path
       d="m 407.999,166.863 c -0.072,0 -0.146,-0.006 -0.219,-0.017 -0.741,-0.119 -1.245,-0.817 -1.125,-1.559 2.468,-15.291 3.72,-31.086 3.72,-46.947 0,-15.749 -1.234,-31.436 -3.669,-46.622 -0.118,-0.741 0.386,-1.438 1.128,-1.558 0.731,-0.115 1.439,0.385 1.558,1.127 2.457,15.329 3.702,31.16 3.702,47.053 0,16.006 -1.263,31.947 -3.755,47.381 -0.108,0.667 -0.685,1.142 -1.34,1.142 z"
       fill="#262626"
       id="path88" />
    <path
       d="m 401.17,164.904 c -0.069,0 -0.139,-0.005 -0.209,-0.016 -0.742,-0.115 -1.251,-0.809 -1.137,-1.551 2.265,-14.674 3.413,-29.813 3.413,-44.998 0,-15.08 -1.131,-30.111 -3.361,-44.673 -0.114,-0.743 0.396,-1.436 1.138,-1.55 0.751,-0.111 1.436,0.396 1.55,1.138 2.251,14.698 3.393,29.867 3.393,45.085 0,15.324 -1.159,30.604 -3.444,45.412 -0.105,0.672 -0.684,1.153 -1.343,1.153 z"
       fill="#262626"
       id="path90" />
    <g
       fill="#1a1a1a"
       id="g152">
      <path
         d="m 453.42,109.902 c 0.049,1.717 0.085,3.438 0.103,5.16 l 2.719,-0.059 c -0.02,-1.757 -0.055,-3.512 -0.104,-5.265 z"
         id="path92" />
      <path
         d="m 427.072,104.996 2.707,-0.291 c -0.058,-1.285 -0.134,-2.567 -0.208,-3.85 l -2.699,0.438 c 0.07,1.233 0.146,2.466 0.2,3.703 z"
         id="path94" />
      <path
         d="m 416.247,106.158 2.708,-0.29 c -0.045,-1.091 -0.108,-2.177 -0.166,-3.267 l -2.7,0.438 c 0.054,1.04 0.116,2.078 0.158,3.119 z"
         id="path96" />
      <path
         d="m 429.765,132.246 -2.707,-0.291 c -0.056,1.236 -0.13,2.469 -0.202,3.703 l 2.7,0.438 c 0.076,-1.284 0.15,-2.565 0.209,-3.85 z"
         id="path98" />
      <path
         d="m 453.521,121.89 c -0.021,1.723 -0.06,3.442 -0.109,5.16 l 2.716,0.162 c 0.052,-1.752 0.091,-3.507 0.112,-5.264 z"
         id="path100" />
      <path
         d="m 440.59,133.408 -2.708,-0.291 c -0.07,1.432 -0.151,2.859 -0.242,4.287 l 2.696,0.436 c 0.096,-1.475 0.18,-2.952 0.254,-4.432 z"
         id="path102" />
      <path
         d="m 455.799,135.041 -2.707,-0.29 c -0.094,1.704 -0.2,3.405 -0.321,5.104 l 2.695,0.436 c 0.127,-1.747 0.236,-3.497 0.333,-5.25 z"
         id="path104" />
      <path
         d="m 465.862,81.362 c 0.254,2.021 0.488,4.045 0.7,6.077 l 2.676,-0.572 c -0.218,-2.076 -0.463,-4.145 -0.724,-6.209 z"
         id="path106" />
      <path
         d="m 437.656,99.546 c 0.089,1.427 0.17,2.856 0.239,4.288 l 2.708,-0.291 c -0.072,-1.479 -0.156,-2.958 -0.251,-4.434 z"
         id="path108" />
      <path
         d="m 430.004,111.302 -2.715,0.163 c 0.031,1.382 0.039,2.767 0.052,4.149 l 2.719,-0.058 c -0.013,-1.418 -0.023,-2.837 -0.056,-4.254 z"
         id="path110" />
      <path
         d="m 419.185,121.166 -2.721,-0.059 c -0.011,1.244 -0.018,2.486 -0.043,3.729 l 2.715,0.163 c 0.027,-1.278 0.036,-2.556 0.049,-3.833 z"
         id="path112" />
      <path
         d="m 416.468,115.844 2.719,-0.058 c -0.01,-1.277 -0.017,-2.557 -0.043,-3.833 l -2.715,0.163 c 0.024,1.241 0.029,2.485 0.039,3.728 z"
         id="path114" />
      <path
         d="m 438.15,110.816 c 0.038,1.521 0.064,3.044 0.081,4.568 l 2.717,-0.057 c -0.015,-1.561 -0.043,-3.118 -0.083,-4.675 z"
         id="path116" />
      <path
         d="m 440.947,121.625 -2.719,-0.057 c -0.016,1.523 -0.047,3.047 -0.085,4.568 l 2.716,0.162 c 0.04,-1.556 0.072,-3.113 0.088,-4.673 z"
         id="path118" />
      <path
         d="m 430.056,121.395 -2.718,-0.058 c -0.015,1.383 -0.025,2.768 -0.059,4.148 l 2.716,0.162 c 0.034,-1.415 0.047,-2.834 0.061,-4.252 z"
         id="path120" />
      <path
         d="m 418.943,131.083 -2.709,-0.291 c -0.043,1.041 -0.105,2.079 -0.159,3.118 l 2.699,0.438 c 0.059,-1.089 0.121,-2.175 0.169,-3.265 z"
         id="path122" />
      <path
         d="m 469.211,150.08 -2.676,-0.572 c -0.215,2.031 -0.451,4.056 -0.706,6.074 l 2.65,0.703 c 0.265,-2.063 0.511,-4.129 0.732,-6.205 z"
         id="path124" />
      <path
         d="m 454.899,147.017 -2.678,-0.573 c -0.169,1.797 -0.351,3.592 -0.553,5.38 l 2.654,0.705 c 0.211,-1.833 0.401,-3.67 0.577,-5.512 z"
         id="path126" />
      <path
         d="m 439.894,143.804 -2.681,-0.572 c -0.129,1.551 -0.272,3.098 -0.425,4.643 l 2.663,0.707 c 0.16,-1.59 0.307,-3.182 0.443,-4.778 z"
         id="path128" />
      <path
         d="m 467.617,136.31 c -0.117,1.965 -0.247,3.928 -0.403,5.884 l 2.691,0.437 c 0.162,-2.005 0.298,-4.016 0.419,-6.029 z"
         id="path130" />
      <path
         d="m 452.79,97.094 c 0.12,1.698 0.226,3.4 0.317,5.106 l 2.706,-0.291 c -0.094,-1.754 -0.203,-3.505 -0.327,-5.252 z"
         id="path132" />
      <path
         d="m 468.011,109.029 c 0.058,1.904 0.103,3.813 0.125,5.725 l 2.718,-0.059 c -0.022,-1.946 -0.067,-3.889 -0.128,-5.829 z"
         id="path134" />
      <path
         d="m 468.134,122.199 c -0.024,1.912 -0.073,3.82 -0.133,5.725 l 2.715,0.162 c 0.063,-1.939 0.112,-3.883 0.136,-5.828 z"
         id="path136" />
      <path
         d="m 467.234,94.755 c 0.154,1.956 0.283,3.92 0.399,5.885 l 2.706,-0.291 c -0.119,-2.014 -0.251,-4.025 -0.411,-6.031 z"
         id="path138" />
      <path
         d="m 426.524,96.009 2.685,-0.575 c -0.109,-1.42 -0.217,-2.839 -0.345,-4.254 l -2.664,0.706 c 0.121,1.371 0.223,2.748 0.324,4.123 z"
         id="path140" />
      <path
         d="m 437.235,93.716 2.68,-0.574 c -0.134,-1.596 -0.279,-3.188 -0.438,-4.777 l -2.664,0.706 c 0.153,1.546 0.294,3.094 0.422,4.645 z"
         id="path142" />
      <path
         d="m 429.186,141.513 -2.684,-0.574 c -0.103,1.374 -0.206,2.749 -0.327,4.119 l 2.662,0.707 c 0.131,-1.414 0.24,-2.832 0.349,-4.252 z"
         id="path144" />
      <path
         d="m 451.7,85.121 c 0.201,1.789 0.379,3.584 0.548,5.383 l 2.677,-0.573 c -0.174,-1.843 -0.361,-3.681 -0.57,-5.515 z"
         id="path146" />
      <path
         d="m 415.813,98.302 2.686,-0.576 c -0.086,-1.242 -0.167,-2.484 -0.267,-3.725 l -2.676,0.709 c 0.094,1.196 0.176,2.394 0.257,3.592 z"
         id="path148" />
      <path
         d="m 418.478,139.221 -2.685,-0.574 c -0.08,1.196 -0.162,2.395 -0.258,3.588 l 2.675,0.71 c 0.103,-1.238 0.184,-2.483 0.268,-3.724 z"
         id="path150" />
    </g>
  </g>
</svg>
