<?xml version="1.0" encoding="UTF-8" standalone="no"?>
<svg
   viewBox="0 0 75.099998 283.50001"
   version="1.1"
   id="svg930"
   sodipodi:docname="controller.svg"
   width="75.099998"
   height="283.5"
   inkscape:version="1.1 (c68e22c387, 2021-05-23)"
   xmlns:inkscape="http://www.inkscape.org/namespaces/inkscape"
   xmlns:sodipodi="http://sodipodi.sourceforge.net/DTD/sodipodi-0.dtd"
   xmlns="http://www.w3.org/2000/svg"
   xmlns:svg="http://www.w3.org/2000/svg">
  <defs
     id="defs934" />
  <sodipodi:namedview
     id="namedview932"
     pagecolor="#ffffff"
     bordercolor="#666666"
     borderopacity="1.0"
     inkscape:pageshadow="2"
     inkscape:pageopacity="0.0"
     inkscape:pagecheckerboard="0"
     showgrid="false"
     fit-margin-top="0"
     fit-margin-left="0"
     fit-margin-right="0"
     fit-margin-bottom="0"
     inkscape:zoom="1.2168714"
     inkscape:cx="37.390969"
     inkscape:cy="24.653386"
     inkscape:window-width="1920"
     inkscape:window-height="1138"
     inkscape:window-x="-8"
     inkscape:window-y="-8"
     inkscape:window-maximized="1"
     inkscape:current-layer="svg930" />
  <g
     id="g2400"
     transform="rotate(90,154.75,154.75)">
    <path
       fill="#cfc9bf"
       d="M 283.5,300.7 H 0 l 10.5,-62.3 c 0,-2.2 1.8,-4 4,-4 h 254.3 c 2.2,0 4,1.8 4,4 z"
       id="path112" />
    <path
       fill="#352b1b"
       d="M 276.3,291.2 H 8.4 c -0.9,0 -1.6,-0.9 -1.4,-1.8 l 6.9,-41.9 c 0,-1.6 1.8,-2.8 4,-2.8 h 248.6 c 2.2,0 4,1.3 4,2.8 l 7.3,41.9 c 0.1,0.9 -0.6,1.8 -1.5,1.8 z"
       id="path114" />
    <path
       fill="#958b7c"
       d="M 282.9,305.5 H 0.6 C 0.3,305.5 0,305.2 0,304.9 v -4.2 h 283.5 v 4.2 c 0,0.4 -0.2,0.6 -0.6,0.6 z"
       id="path116" />
    <path
       fill="#908a7b"
       d="M 281.2,309.5 H 2.3 c -0.4,0 -0.8,-0.4 -0.8,-0.8 l -0.9,-3.2 h 282.3 l -0.9,3.2 c 0.1,0.5 -0.3,0.8 -0.8,0.8 z"
       id="path118" />
    <path
       fill="#0e0000"
       d="m 188.3,254.8 -166.1,0.1 c -0.2,0 -0.3,0.1 -0.3,0.2 L 17.4,279 c 0,0.1 0.1,0.2 0.3,0.2 l 173.2,0.1 c 0.2,0 0.3,-0.1 0.3,-0.2 l -2.5,-24 c -0.1,-0.2 -0.2,-0.3 -0.4,-0.3 z"
       id="path120" />
    <path
       fill="#0e0000"
       d="M 168.4,285.7 H 39.6 c -0.2,0 -0.3,-0.1 -0.3,-0.3 l 0.6,-6.2 128.5,0.1 0.2,6.1 c 0.1,0.2 0,0.3 -0.2,0.3 z M 43.3,246 H 22.5 c -0.2,0 -0.3,0.1 -0.3,0.3 l -1.2,6.3 c 0,0.2 0.1,0.3 0.3,0.3 h 22.5 c 0.2,0 0.3,-0.1 0.3,-0.3 l -0.5,-6.3 c 0,-0.1 -0.1,-0.3 -0.3,-0.3 z m 72.1,0 H 49.5 c -0.5,0 -0.8,0.1 -0.8,0.3 l -1,6.3 c 0,0.2 0.4,0.3 0.8,0.3 h 67.3 c 0.5,0 0.8,-0.1 0.8,-0.3 l -0.4,-6.3 c 0.1,-0.1 -0.3,-0.3 -0.8,-0.3 z m 72.2,0 h -65 c -0.5,0 -0.8,0.1 -0.8,0.3 l -1,6.3 c 0,0.2 0.4,0.3 0.8,0.3 H 188 c 0.5,0 0.8,-0.1 0.8,-0.3 l -0.3,-6.3 c 0,-0.1 -0.4,-0.3 -0.9,-0.3 z m 7.3,39.4 -0.6,-18.1 c 0,-0.2 0.1,-0.3 0.3,-0.3 h 21.5 c 0.8,0 0.9,0.1 0.9,0.3 l 1.8,18.1 c 0,0.2 -0.1,0.3 -0.3,0.3 h -23.3 c -0.1,0 -0.3,-0.1 -0.3,-0.3 z m 20.6,-30.1 h -21.3 c -0.2,0 -0.3,0.1 -0.3,0.3 l 0.3,5.5 c 0,0.2 0.1,0.3 0.3,0.3 h 21.4 c 0.2,0 0.3,-0.1 0.3,-0.3 l -0.4,-5.5 c 0,-0.2 -0.2,-0.3 -0.3,-0.3 z m -1,-8.5 h -21.3 c -0.2,0 -0.3,0.1 -0.3,0.3 l 0.3,5.5 c 0,0.2 0.1,0.3 0.3,0.3 h 21.4 c 0.2,0 0.3,-0.1 0.3,-0.3 l -0.4,-5.5 c 0,-0.2 -0.1,-0.3 -0.3,-0.3 z m 53.9,38.9 h -43.8 c -0.1,0 -0.3,-0.1 -0.3,-0.2 l -2.7,-29.9 c 0,-0.2 0.1,-0.3 0.3,-0.3 h 43 c 0.1,0 0.3,0.1 0.3,0.2 l 3.6,29.9 c -0.1,0.1 -0.2,0.3 -0.4,0.3 z"
       id="path122" />
    <path
       fill="#241f16"
       d="m 31.4,246.9 h -8.1 l -1.1,5.7 h 10.3 z"
       id="path124" />
    <path
       fill="#282219"
       d="m 31.1,244.8 h -7.6 c -0.1,0 -0.3,0.1 -0.3,0.3 v 1.9 h 8.1 v -2 c 0.1,-0.1 0,-0.2 -0.2,-0.2 z"
       id="path126" />
    <path
       fill="#38312a"
       d="m 31.4,245 1.1,3.4 v 4.2 l -1.1,-5.7 z m -8.1,0 -1.1,3.4 v 4.2 l 1.1,-5.7 z"
       id="path128" />
    <path
       fill="#241f16"
       d="m 42.3,246.9 h -8.1 l -1.1,5.7 h 10.4 z"
       id="path130" />
    <path
       fill="#282219"
       d="m 42.1,244.8 h -7.6 c -0.1,0 -0.3,0.1 -0.3,0.3 v 1.9 h 8.1 v -2 c 0,-0.1 -0.1,-0.2 -0.2,-0.2 z"
       id="path132" />
    <path
       fill="#38312a"
       d="m 42.3,245 1.2,3.4 v 4.2 l -1.2,-5.7 z m -8.1,0 -1.1,3.4 v 4.2 l 1.1,-5.7 z"
       id="path134" />
    <path
       fill="#241f16"
       d="m 60.5,247 h -10 l -1.5,5.7 h 12.9 z"
       id="path136" />
    <path
       fill="#282219"
       d="m 60.2,244.9 h -9.4 c -0.2,0 -0.3,0.1 -0.3,0.3 v 1.8 h 10 v -1.8 c 0,-0.2 -0.2,-0.3 -0.3,-0.3 z"
       id="path138" />
    <path
       fill="#38312a"
       d="m 60.5,245.1 1.4,3.4 v 4.2 L 60.5,247 Z m -10,0 -1.5,3.4 v 4.2 l 1.5,-5.7 z"
       id="path140" />
    <path
       fill="#241f16"
       d="m 73.8,247.1 h -10 l -1.4,5.6 h 12.8 z"
       id="path142" />
    <path
       fill="#282219"
       d="m 73.5,244.9 h -9.4 c -0.2,0 -0.3,0.1 -0.3,0.3 v 1.8 h 10 v -1.8 c 0,-0.1 -0.1,-0.3 -0.3,-0.3 z"
       id="path144" />
    <path
       fill="#38312a"
       d="m 73.8,245.2 1.4,3.4 v 4.1 l -1.4,-5.6 z m -10,0 -1.4,3.4 v 4.1 l 1.4,-5.6 z"
       id="path146" />
    <path
       fill="#241f16"
       d="m 87.5,247.1 h -10 l -1.4,5.6 H 89 Z"
       id="path148" />
    <path
       fill="#282219"
       d="m 87.2,244.9 h -9.4 c -0.2,0 -0.3,0.1 -0.3,0.3 v 1.8 h 10 v -1.8 c 0,-0.1 -0.1,-0.3 -0.3,-0.3 z"
       id="path150" />
    <path
       fill="#38312a"
       d="m 87.5,245.2 1.5,3.4 v 4.1 l -1.5,-5.6 z m -10,0 -1.4,3.4 v 4.1 l 1.4,-5.6 z"
       id="path152" />
    <path
       fill="#241f16"
       d="m 99.1,247.1 h -9.4 l -1.4,5.7 h 12.1 z"
       id="path154" />
    <path
       fill="#282219"
       d="M 98.8,245 H 90 c -0.2,0 -0.3,0.1 -0.3,0.3 v 1.8 h 9.4 v -1.8 c 0,-0.2 -0.1,-0.3 -0.3,-0.3 z"
       id="path156" />
    <path
       fill="#38312a"
       d="m 99.1,245.2 1.3,3.4 v 4.2 l -1.3,-5.7 z m -9.4,0 -1.4,3.4 v 4.2 l 1.4,-5.7 z"
       id="path158" />
    <path
       fill="#241f16"
       d="m 100.9,247.1 h -10 l -1.4,5.7 h 12.8 z"
       id="path160" />
    <path
       fill="#282219"
       d="m 100.6,245 h -9.4 c -0.2,0 -0.3,0.1 -0.3,0.3 v 1.8 h 10 v -1.8 c 0,-0.2 -0.1,-0.3 -0.3,-0.3 z"
       id="path162" />
    <path
       fill="#38312a"
       d="m 100.9,245.3 1.4,3.4 v 4.1 l -1.4,-5.7 z m -10,0 -1.4,3.4 v 4.1 l 1.4,-5.7 z"
       id="path164" />
    <path
       fill="#241f16"
       d="m 114.5,247.1 h -10.1 l -1.4,5.6 h 12.9 z"
       id="path166" />
    <path
       fill="#282219"
       d="m 114.2,244.9 h -9.4 c -0.2,0 -0.3,0.1 -0.3,0.3 v 1.8 h 10 v -1.8 c 0,-0.1 -0.2,-0.3 -0.3,-0.3 z"
       id="path168" />
    <path
       fill="#38312a"
       d="m 114.5,245.2 1.4,3.4 v 4.1 l -1.4,-5.6 z m -10.1,0 -1.4,3.4 v 4.1 l 1.4,-5.6 z"
       id="path170" />
    <path
       fill="#241f16"
       d="m 133.4,247 h -9.8 l -1.4,5.6 h 12.6 z"
       id="path172" />
    <path
       fill="#282219"
       d="m 133.1,244.9 h -9.3 c -0.2,0 -0.3,0.1 -0.3,0.3 v 1.8 h 9.9 v -1.8 c 0,-0.2 -0.1,-0.3 -0.3,-0.3 z"
       id="path174" />
    <path
       fill="#38312a"
       d="m 133.4,245.1 1.4,3.4 v 4.1 l -1.4,-5.6 z m -9.8,0 -1.4,3.4 v 4.1 l 1.4,-5.6 z"
       id="path176" />
    <path
       fill="#241f16"
       d="m 146.6,247 h -9.9 l -1.4,5.7 H 148 Z"
       id="path178" />
    <path
       fill="#282219"
       d="M 146.3,244.9 H 137 c -0.2,0 -0.3,0.1 -0.3,0.3 v 1.8 h 9.9 v -1.8 c 0,-0.2 -0.1,-0.3 -0.3,-0.3 z"
       id="path180" />
    <path
       fill="#38312a"
       d="m 146.6,245.2 1.4,3.4 v 4.1 l -1.4,-5.7 z m -9.9,0 -1.4,3.4 v 4.1 l 1.4,-5.7 z"
       id="path182" />
    <path
       fill="#241f16"
       d="m 160.2,247 h -9.9 l -1.4,5.7 h 12.7 z"
       id="path184" />
    <path
       fill="#282219"
       d="m 159.9,244.9 h -9.3 c -0.2,0 -0.3,0.1 -0.3,0.3 v 1.8 h 9.9 v -1.8 c 0,-0.2 -0.2,-0.3 -0.3,-0.3 z"
       id="path186" />
    <path
       fill="#38312a"
       d="m 160.2,245.2 1.4,3.4 v 4.1 l -1.4,-5.7 z m -9.9,0 -1.4,3.4 v 4.1 l 1.4,-5.7 z"
       id="path188" />
    <path
       fill="#241f16"
       d="m 173.4,247.1 h -9.9 l -1.4,5.6 h 12.7 z"
       id="path190" />
    <path
       fill="#282219"
       d="m 173.1,245 h -9.3 c -0.2,0 -0.3,0.1 -0.3,0.3 v 1.8 h 9.9 v -1.8 c 0,-0.2 -0.2,-0.3 -0.3,-0.3 z"
       id="path192" />
    <path
       fill="#38312a"
       d="m 173.4,245.2 1.4,3.4 v 4.1 l -1.4,-5.6 z m -9.9,0 -1.4,3.4 v 4.1 l 1.4,-5.6 z"
       id="path194" />
    <path
       fill="#241f16"
       d="m 186.7,247 h -9.9 l -1.4,5.7 h 12.7 z"
       id="path196" />
    <path
       fill="#282219"
       d="m 186.4,244.9 h -9.3 c -0.2,0 -0.3,0.1 -0.3,0.3 v 1.8 h 9.9 v -1.8 c 0,-0.2 -0.1,-0.3 -0.3,-0.3 z"
       id="path198" />
    <path
       fill="#38312a"
       d="m 186.7,245.2 1.4,3.4 v 4.1 l -1.4,-5.7 z m -9.9,0 -1.4,3.4 v 4.1 l 1.4,-5.7 z"
       id="path200" />
    <path
       fill="#241f16"
       d="m 202.7,247 h -7.6 l -1.1,5.7 h 9.8 z"
       id="path202" />
    <path
       fill="#282219"
       d="m 202.5,244.9 h -7.1 c -0.1,0 -0.3,0.1 -0.3,0.3 v 1.9 h 7.6 v -1.9 c 0,-0.2 -0.1,-0.3 -0.2,-0.3 z"
       id="path204" />
    <path
       fill="#38312a"
       d="m 202.7,245.2 1.1,3.4 v 4.1 l -1.1,-5.7 z m -7.6,0 -1.1,3.4 v 4.1 l 1.1,-5.7 z"
       id="path206" />
    <g
       id="g214">
      <path
         fill="#241f16"
         d="m 213.1,247 h -7.7 l -1.1,5.7 h 9.8 z"
         id="path208" />
      <path
         fill="#282219"
         d="m 212.8,244.9 h -7.1 c -0.1,0 -0.3,0.1 -0.3,0.3 v 1.9 h 7.6 v -1.9 c 0.1,-0.2 -0.1,-0.3 -0.2,-0.3 z"
         id="path210" />
      <path
         fill="#38312a"
         d="m 213.1,245.2 1,3.4 v 4.1 l -1,-5.7 z m -7.7,0 -1.1,3.4 v 4.1 l 1.1,-5.7 z"
         id="path212" />
    </g>
    <g
       id="g366">
      <path
         fill="#241f16"
         d="m 231.7,256.6 h -7.9 l -1.1,6.6 h 10.1 z"
         id="path216" />
      <path
         fill="#282219"
         d="m 231.4,254.1 h -7.3 c -0.2,0 -0.3,0.1 -0.3,0.3 v 2.2 h 7.9 v -2.2 c 0,-0.1 -0.1,-0.3 -0.3,-0.3 z"
         id="path218" />
      <path
         fill="#38312a"
         d="m 231.7,254.5 1.1,3.9 v 4.8 l -1.1,-6.6 z m -7.9,0 -1.1,3.9 v 4.8 l 1.1,-6.6 z"
         id="path220" />
      <path
         fill="#241f16"
         d="m 242.4,256.6 h -7.9 l -1.1,6.6 h 10.1 z"
         id="path222" />
      <path
         fill="#282219"
         d="m 242.1,254.1 h -7.3 c -0.2,0 -0.3,0.1 -0.3,0.3 v 2.2 h 7.9 v -2.2 c 0,-0.1 -0.1,-0.3 -0.3,-0.3 z"
         id="path224" />
      <path
         fill="#38312a"
         d="m 242.4,254.5 1.1,3.9 v 4.8 l -1.1,-6.6 z m -7.9,0 -1.1,3.9 v 4.8 l 1.1,-6.6 z"
         id="path226" />
      <path
         fill="#241f16"
         d="m 253.3,256.4 h -7.9 l -1.1,6.5 h 10.1 z"
         id="path228" />
      <path
         fill="#282219"
         d="m 253,253.9 h -7.3 c -0.2,0 -0.3,0.1 -0.3,0.3 v 2.2 h 7.9 v -2.2 c 0,-0.2 -0.2,-0.3 -0.3,-0.3 z"
         id="path230" />
      <path
         fill="#38312a"
         d="m 253.3,254.2 1.1,3.9 v 4.8 l -1.1,-6.5 z m -7.9,0 -1.1,3.9 v 4.8 l 1.1,-6.5 z"
         id="path232" />
      <path
         fill="#241f16"
         d="m 264,256.4 h -7.9 l -1.2,6.5 h 10.2 z"
         id="path234" />
      <path
         fill="#282219"
         d="m 263.7,253.9 h -7.3 c -0.2,0 -0.3,0.1 -0.3,0.3 v 2.2 h 7.9 v -2.2 c 0,-0.2 -0.2,-0.3 -0.3,-0.3 z"
         id="path236" />
      <path
         fill="#38312a"
         d="m 264,254.2 1.1,3.9 v 4.8 l -1.1,-6.5 z m -7.9,0 -1.2,3.9 v 4.8 l 1.2,-6.5 z"
         id="path238" />
      <path
         fill="#706f6d"
         d="m 232.3,262.2 h -7.9 l -1.1,6.5 h 10.1 z"
         id="path240" />
      <path
         fill="#9e9c9a"
         d="m 232,259.7 h -7.3 c -0.2,0 -0.3,0.1 -0.3,0.3 v 2.2 h 7.9 V 260 c 0,-0.2 -0.1,-0.3 -0.3,-0.3 z"
         id="path242" />
      <path
         fill="#7a7874"
         d="m 232.3,260 1.1,3.9 v 4.8 l -1.1,-6.5 z m -7.9,0 -1.1,3.9 v 4.8 l 1.1,-6.5 z"
         id="path244" />
      <g
         id="g252">
        <path
           fill="#706f6d"
           d="m 243,262.2 h -7.9 l -1.1,6.5 h 10.1 z"
           id="path246" />
        <path
           fill="#9e9c9a"
           d="m 242.7,259.7 h -7.3 c -0.2,0 -0.3,0.1 -0.3,0.3 v 2.2 H 243 V 260 c 0,-0.2 -0.1,-0.3 -0.3,-0.3 z"
           id="path248" />
        <path
           fill="#7a7874"
           d="m 243,260 1.1,3.9 v 4.8 l -1.1,-6.5 z m -7.9,0 -1.1,3.9 v 4.8 l 1.1,-6.5 z"
           id="path250" />
      </g>
      <g
         id="g260">
        <path
           fill="#706f6d"
           d="M 253.9,261.9 H 246 l -1.2,6.6 H 255 Z"
           id="path254" />
        <path
           fill="#9e9c9a"
           d="m 253.6,259.4 h -7.3 c -0.2,0 -0.3,0.1 -0.3,0.3 v 2.2 h 7.9 v -2.2 c 0,-0.1 -0.2,-0.3 -0.3,-0.3 z"
           id="path256" />
        <path
           fill="#7a7874"
           d="m 253.9,259.7 1.1,4 v 4.8 l -1.1,-6.6 z m -7.9,0 -1.2,4 v 4.8 l 1.2,-6.6 z"
           id="path258" />
      </g>
      <g
         id="g268">
        <path
           fill="#241f16"
           d="m 264.6,261.9 h -7.9 l -1.2,6.6 h 10.2 z"
           id="path262" />
        <path
           fill="#282219"
           d="M 264.3,259.4 H 257 c -0.2,0 -0.3,0.1 -0.3,0.3 v 2.2 h 7.9 v -2.2 c 0,-0.1 -0.2,-0.3 -0.3,-0.3 z"
           id="path264" />
        <path
           fill="#38312a"
           d="m 264.6,259.7 1.1,4 v 4.8 l -1.1,-6.6 z m -7.9,0 -1.2,4 v 4.8 l 1.2,-6.6 z"
           id="path266" />
      </g>
      <g
         id="g276">
        <path
           fill="#706f6d"
           d="M 232.9,267.7 H 225 l -1.1,6.5 H 234 Z"
           id="path270" />
        <path
           fill="#9e9c9a"
           d="m 232.6,265.2 h -7.3 c -0.2,0 -0.3,0.1 -0.3,0.3 v 2.2 h 7.9 v -2.2 c 0,-0.2 -0.1,-0.3 -0.3,-0.3 z"
           id="path272" />
        <path
           fill="#7a7874"
           d="m 232.9,265.5 1.1,4 v 4.7 l -1.1,-6.5 z m -7.9,0 -1.1,4 v 4.7 l 1.1,-6.5 z"
           id="path274" />
      </g>
      <g
         id="g284">
        <path
           fill="#706f6d"
           d="m 243.6,267.7 h -7.9 l -1.1,6.5 h 10.1 z"
           id="path278" />
        <path
           fill="#9e9c9a"
           d="M 243.3,265.2 H 236 c -0.2,0 -0.3,0.1 -0.3,0.3 v 2.2 h 7.9 v -2.2 c 0,-0.2 -0.1,-0.3 -0.3,-0.3 z"
           id="path280" />
        <path
           fill="#7a7874"
           d="m 243.6,265.5 1.1,4 v 4.7 l -1.1,-6.5 z m -7.9,0 -1.1,4 v 4.7 l 1.1,-6.5 z"
           id="path282" />
      </g>
      <g
         id="g292">
        <path
           fill="#706f6d"
           d="m 254.5,267.4 h -7.9 l -1.2,6.6 h 10.2 z"
           id="path286" />
        <path
           fill="#9e9c9a"
           d="m 254.2,265 h -7.3 c -0.2,0 -0.3,0.1 -0.3,0.3 v 2.2 h 7.9 v -2.2 c 0,-0.2 -0.2,-0.3 -0.3,-0.3 z"
           id="path288" />
        <path
           fill="#7a7874"
           d="m 254.5,265.3 1.1,3.9 v 4.8 l -1.1,-6.6 z m -7.9,0 -1.2,3.9 v 4.8 l 1.2,-6.6 z"
           id="path290" />
      </g>
      <g
         id="g300">
        <path
           fill="#241f16"
           d="m 265.2,267.4 h -7.9 l -1.2,6.6 h 10.2 z"
           id="path294" />
        <path
           fill="#282219"
           d="m 264.9,265 h -7.3 c -0.2,0 -0.3,0.1 -0.3,0.3 v 2.2 h 7.9 v -2.2 c 0,-0.2 -0.2,-0.3 -0.3,-0.3 z"
           id="path296" />
        <path
           fill="#38312a"
           d="m 265.2,265.3 1.1,3.9 v 4.8 l -1.1,-6.6 z m -7.9,0 -1.2,3.9 v 4.8 l 1.2,-6.6 z"
           id="path298" />
      </g>
      <g
         id="g308">
        <path
           fill="#706f6d"
           d="m 233.5,273.2 h -7.9 l -1.1,6.5 h 10.1 z"
           id="path302" />
        <path
           fill="#9e9c9a"
           d="m 233.2,270.7 h -7.3 c -0.2,0 -0.3,0.1 -0.3,0.3 v 2.2 h 7.9 V 271 c 0,-0.2 -0.1,-0.3 -0.3,-0.3 z"
           id="path304" />
        <path
           fill="#7a7874"
           d="m 233.5,271 1.1,4 v 4.7 l -1.1,-6.5 z m -7.9,0 -1.1,4 v 4.7 l 1.1,-6.5 z"
           id="path306" />
      </g>
      <g
         id="g316">
        <path
           fill="#706f6d"
           d="m 244.2,273.2 h -7.9 l -1.1,6.5 h 10.1 z"
           id="path310" />
        <path
           fill="#9e9c9a"
           d="m 243.9,270.7 h -7.3 c -0.2,0 -0.3,0.1 -0.3,0.3 v 2.2 h 7.9 V 271 c 0,-0.2 -0.1,-0.3 -0.3,-0.3 z"
           id="path312" />
        <path
           fill="#7a7874"
           d="m 244.2,271 1.1,4 v 4.7 l -1.1,-6.5 z m -7.9,0 -1.1,4 v 4.7 l 1.1,-6.5 z"
           id="path314" />
      </g>
      <g
         id="g324">
        <path
           fill="#706f6d"
           d="m 255.1,272.9 h -7.9 l -1.2,6.6 h 10.2 z"
           id="path318" />
        <path
           fill="#9e9c9a"
           d="m 254.8,270.5 h -7.3 c -0.2,0 -0.3,0.1 -0.3,0.3 v 2.2 h 7.9 v -2.2 c 0,-0.2 -0.2,-0.3 -0.3,-0.3 z"
           id="path320" />
        <path
           fill="#7a7874"
           d="m 255.1,270.8 1.1,3.9 v 4.8 l -1.1,-6.6 z m -7.9,0 -1.2,3.9 v 4.8 l 1.2,-6.6 z"
           id="path322" />
      </g>
      <g
         id="g332">
        <path
           fill="#241f16"
           d="m 265.8,272.9 h -8 l -1.1,6.6 h 10.2 z"
           id="path326" />
        <path
           fill="#282219"
           d="m 265.5,270.5 h -7.3 c -0.2,0 -0.3,0.1 -0.3,0.3 v 2.2 h 7.9 v -2.2 c 0,-0.2 -0.2,-0.3 -0.3,-0.3 z"
           id="path328" />
        <path
           fill="#38312a"
           d="m 265.8,270.8 1.1,3.9 v 4.8 l -1.1,-6.6 z m -7.9,0 -1.2,3.9 v 4.8 l 1.2,-6.6 z"
           id="path330" />
      </g>
      <g
         id="g340">
        <path
           fill="#706f6d"
           d="m 234.1,278.7 h -7.9 l -1.2,6.6 h 10.2 z"
           id="path334" />
        <path
           fill="#9e9c9a"
           d="m 233.8,276.3 h -7.3 c -0.2,0 -0.3,0.1 -0.3,0.3 v 2.2 h 7.9 v -2.2 c 0,-0.2 -0.2,-0.3 -0.3,-0.3 z"
           id="path336" />
        <path
           fill="#7a7874"
           d="m 234.1,276.6 1.1,3.9 v 4.8 l -1.1,-6.6 z m -7.9,0 -1.2,3.9 v 4.8 l 1.2,-6.6 z"
           id="path338" />
      </g>
      <g
         id="g348">
        <path
           fill="#706f6d"
           d="m 244.8,278.7 h -8 l -1.1,6.6 h 10.2 z"
           id="path342" />
        <path
           fill="#9e9c9a"
           d="m 244.5,276.3 h -7.3 c -0.2,0 -0.3,0.1 -0.3,0.3 v 2.2 h 7.9 v -2.2 c 0,-0.2 -0.2,-0.3 -0.3,-0.3 z"
           id="path344" />
        <path
           fill="#7a7874"
           d="m 244.8,276.6 1.1,3.9 v 4.8 l -1.1,-6.6 z m -7.9,0 -1.2,3.9 v 4.8 l 1.2,-6.6 z"
           id="path346" />
      </g>
      <g
         id="g356">
        <path
           fill="#706f6d"
           d="m 255.6,278.5 h -7.9 l -1.1,6.5 h 10.2 z"
           id="path350" />
        <path
           fill="#9e9c9a"
           d="M 255.4,276 H 248 c -0.2,0 -0.3,0.1 -0.3,0.3 v 2.2 h 7.9 v -2.2 c 0,-0.2 -0.1,-0.3 -0.2,-0.3 z"
           id="path352" />
        <path
           fill="#7a7874"
           d="m 255.6,276.3 1.2,3.9 v 4.8 l -1.2,-6.5 z m -7.9,0 -1.1,3.9 v 4.8 l 1.1,-6.5 z"
           id="path354" />
      </g>
      <g
         id="g364">
        <path
           fill="#241f16"
           d="m 266.3,278.5 h -7.9 l -1.1,6.5 h 10.2 z"
           id="path358" />
        <path
           fill="#282219"
           d="m 266.1,276 h -7.3 c -0.2,0 -0.3,0.1 -0.3,0.3 v 2.2 h 7.9 v -2.2 c -0.1,-0.2 -0.2,-0.3 -0.3,-0.3 z"
           id="path360" />
        <path
           fill="#38312a"
           d="m 266.3,276.3 1.2,3.9 v 4.8 l -1.2,-6.5 z m -7.9,0 -1.1,3.9 v 4.8 l 1.1,-6.5 z"
           id="path362" />
      </g>
    </g>
    <g
       id="g374">
      <path
         fill="#241f16"
         d="m 32.4,255.8 h -9 l -1.3,5.7 h 11.6 z"
         id="path368" />
      <path
         fill="#282219"
         d="m 32.1,253.7 h -8.4 c -0.2,0 -0.3,0.1 -0.3,0.3 v 1.9 h 9 V 254 c 0,-0.2 -0.1,-0.3 -0.3,-0.3 z"
         id="path370" />
      <path
         fill="#38312a"
         d="m 32.4,254 1.3,3.4 v 4.1 l -1.3,-5.7 z m -9,0 -1.3,3.4 v 4.1 l 1.3,-5.7 z"
         id="path372" />
    </g>
    <g
       id="g382">
      <path
         fill="#706f6d"
         d="m 43.5,255.8 h -7.8 l -1.1,5.7 h 10 z"
         id="path376" />
      <path
         fill="#9e9c9a"
         d="M 43.2,253.7 H 36 c -0.1,0 -0.3,0.1 -0.3,0.3 v 1.9 h 7.8 V 254 c 0,-0.2 -0.1,-0.3 -0.3,-0.3 z"
         id="path378" />
      <path
         fill="#7a7874"
         d="m 43.5,254 1.1,3.4 v 4.1 l -1.1,-5.7 z m -7.8,0 -1.1,3.4 v 4.1 l 1.1,-5.7 z"
         id="path380" />
    </g>
    <g
       id="g390">
      <path
         fill="#706f6d"
         d="m 54.3,255.8 h -7.8 l -1.1,5.7 h 10 z"
         id="path384" />
      <path
         fill="#9e9c9a"
         d="m 54.1,253.7 h -7.3 c -0.1,0 -0.3,0.1 -0.3,0.3 v 1.9 h 7.8 V 254 c 0,-0.2 -0.1,-0.3 -0.2,-0.3 z"
         id="path386" />
      <path
         fill="#7a7874"
         d="m 54.3,254 1.1,3.4 v 4.1 l -1.1,-5.7 z m -7.8,0 -1.1,3.4 v 4.1 l 1.1,-5.7 z"
         id="path388" />
    </g>
    <g
       id="g398">
      <path
         fill="#706f6d"
         d="m 65.1,255.8 h -7.8 l -1,5.7 h 9.9 z"
         id="path392" />
      <path
         fill="#9e9c9a"
         d="m 64.9,253.7 h -7.3 c -0.1,0 -0.3,0.1 -0.3,0.3 v 1.9 h 7.8 V 254 c 0,-0.2 -0.1,-0.3 -0.2,-0.3 z"
         id="path394" />
      <path
         fill="#7a7874"
         d="m 65.1,254 1.1,3.4 v 4.1 l -1.1,-5.7 z m -7.7,0 -1.1,3.4 v 4.1 l 1.1,-5.7 z"
         id="path396" />
    </g>
    <g
       id="g406">
      <path
         fill="#706f6d"
         d="m 75.9,255.8 h -7.7 l -1.1,5.7 H 77 Z"
         id="path400" />
      <path
         fill="#9e9c9a"
         d="m 75.7,253.7 h -7.3 c -0.1,0 -0.3,0.1 -0.3,0.3 v 1.9 h 7.8 V 254 c 0,-0.2 -0.1,-0.3 -0.2,-0.3 z"
         id="path402" />
      <path
         fill="#7a7874"
         d="m 75.9,254 1.1,3.4 v 4.1 l -1.1,-5.7 z m -7.7,0 -1.1,3.4 v 4.1 l 1.1,-5.7 z"
         id="path404" />
    </g>
    <g
       id="g414">
      <path
         fill="#706f6d"
         d="M 86.7,256 H 79 l -1.1,5.6 h 9.9 z"
         id="path408" />
      <path
         fill="#9e9c9a"
         d="m 86.5,253.8 h -7.3 c -0.1,0 -0.3,0.1 -0.3,0.3 v 1.9 h 7.8 v -1.9 c 0,-0.1 -0.1,-0.3 -0.2,-0.3 z"
         id="path410" />
      <path
         fill="#7a7874"
         d="m 86.7,254.1 1.1,3.4 v 4.1 L 86.7,256 Z m -7.7,0 -1.1,3.4 v 4.1 L 79,256 Z"
         id="path412" />
    </g>
    <g
       id="g422">
      <path
         fill="#706f6d"
         d="m 97.5,256 h -7.7 l -1.1,5.6 h 9.9 z"
         id="path416" />
      <path
         fill="#9e9c9a"
         d="M 97.3,253.8 H 90 c -0.1,0 -0.3,0.1 -0.3,0.3 v 1.9 h 7.8 v -1.9 c 0,-0.1 -0.1,-0.3 -0.2,-0.3 z"
         id="path418" />
      <path
         fill="#7a7874"
         d="m 97.5,254.1 1.1,3.4 v 4.1 L 97.5,256 Z m -7.7,0 -1.1,3.4 v 4.1 l 1.1,-5.6 z"
         id="path420" />
    </g>
    <g
       id="g430">
      <path
         fill="#706f6d"
         d="m 108.4,256 h -7.8 l -1.1,5.6 h 10 z"
         id="path424" />
      <path
         fill="#9e9c9a"
         d="m 108.1,253.8 h -7.3 c -0.1,0 -0.3,0.1 -0.3,0.3 v 1.9 h 7.8 v -1.9 c 0.1,-0.1 -0.1,-0.3 -0.2,-0.3 z"
         id="path426" />
      <path
         fill="#7a7874"
         d="m 108.4,254.1 1.1,3.4 v 4.1 l -1.1,-5.6 z m -7.8,0 -1.1,3.4 v 4.1 l 1.1,-5.6 z"
         id="path428" />
    </g>
    <g
       id="g438">
      <path
         fill="#706f6d"
         d="m 119.2,256 h -7.8 l -1.1,5.6 h 10 z"
         id="path432" />
      <path
         fill="#9e9c9a"
         d="m 118.9,253.8 h -7.3 c -0.1,0 -0.3,0.1 -0.3,0.3 v 1.9 h 7.8 v -1.9 c 0.1,-0.1 0,-0.3 -0.2,-0.3 z"
         id="path434" />
      <path
         fill="#7a7874"
         d="m 119.2,254.1 1.1,3.4 v 4.1 l -1.1,-5.6 z m -7.8,0 -1.1,3.4 v 4.1 l 1.1,-5.6 z"
         id="path436" />
    </g>
    <g
       id="g446">
      <path
         fill="#706f6d"
         d="m 130,256 h -7.8 l -1.1,5.6 h 10 z"
         id="path440" />
      <path
         fill="#9e9c9a"
         d="m 129.7,253.8 h -7.3 c -0.1,0 -0.3,0.1 -0.3,0.3 v 1.9 h 7.8 v -1.9 c 0.1,-0.1 0,-0.3 -0.2,-0.3 z"
         id="path442" />
      <path
         fill="#7a7874"
         d="m 130,254.1 1.1,3.4 v 4.1 L 130,256 Z m -7.8,0 -1.1,3.4 v 4.1 l 1.1,-5.6 z"
         id="path444" />
    </g>
    <g
       id="g454">
      <path
         fill="#706f6d"
         d="M 140.8,256 H 133 l -1.1,5.6 h 10 z"
         id="path448" />
      <path
         fill="#9e9c9a"
         d="m 140.5,253.8 h -7.3 c -0.1,0 -0.3,0.1 -0.3,0.3 v 1.9 h 7.8 v -1.9 c 0.1,-0.1 0,-0.3 -0.2,-0.3 z"
         id="path450" />
      <path
         fill="#7a7874"
         d="m 140.8,254.1 1.1,3.4 v 4.1 l -1.1,-5.6 z m -7.8,0 -1.1,3.4 v 4.1 L 133,256 Z"
         id="path452" />
    </g>
    <g
       id="g462">
      <path
         fill="#706f6d"
         d="m 151.6,256 h -7.8 l -1.1,5.6 h 10 z"
         id="path456" />
      <path
         fill="#9e9c9a"
         d="M 151.3,253.8 H 144 c -0.1,0 -0.3,0.1 -0.3,0.3 v 1.9 h 7.8 v -1.9 c 0.1,-0.1 0,-0.3 -0.2,-0.3 z"
         id="path458" />
      <path
         fill="#7a7874"
         d="m 151.6,254.1 1.1,3.4 v 4.1 l -1.1,-5.6 z m -7.8,0 -1.1,3.4 v 4.1 l 1.1,-5.6 z"
         id="path460" />
    </g>
    <g
       id="g470">
      <path
         fill="#706f6d"
         d="m 162.4,256 h -7.8 l -1.1,5.6 h 10 z"
         id="path464" />
      <path
         fill="#9e9c9a"
         d="m 162.1,253.8 h -7.3 c -0.1,0 -0.3,0.1 -0.3,0.3 v 1.9 h 7.8 v -1.9 c 0.1,-0.1 0,-0.3 -0.2,-0.3 z"
         id="path466" />
      <path
         fill="#7a7874"
         d="m 162.4,254.1 1.1,3.4 v 4.1 l -1.1,-5.6 z m -7.8,0 -1.1,3.4 v 4.1 l 1.1,-5.6 z"
         id="path468" />
    </g>
    <g
       id="g478">
      <path
         fill="#706f6d"
         d="m 173.2,256 h -7.8 l -1.1,5.6 h 10 z"
         id="path472" />
      <path
         fill="#9e9c9a"
         d="m 172.9,253.8 h -7.3 c -0.1,0 -0.3,0.1 -0.3,0.3 v 1.9 h 7.8 v -1.9 c 0.1,-0.1 0,-0.3 -0.2,-0.3 z"
         id="path474" />
      <path
         fill="#7a7874"
         d="m 173.2,254.1 1.1,3.4 v 4.1 l -1.1,-5.6 z m -7.8,0 -1.1,3.4 v 4.1 l 1.1,-5.6 z"
         id="path476" />
    </g>
    <g
       id="g486">
      <path
         fill="#241f16"
         d="m 186.7,256 h -10.1 l -1.4,5.6 h 12.9 z"
         id="path480" />
      <path
         fill="#282219"
         d="m 186.4,253.8 h -9.5 c -0.2,0 -0.3,0.1 -0.3,0.3 v 1.8 h 10.1 v -1.8 c 0,-0.1 -0.1,-0.3 -0.3,-0.3 z"
         id="path482" />
      <path
         fill="#38312a"
         d="m 186.7,254.1 1.4,3.4 v 4.1 l -1.4,-5.6 z m -10.1,0 -1.4,3.4 v 4.1 l 1.4,-5.6 z"
         id="path484" />
    </g>
    <g
       id="g494">
      <path
         fill="#706f6d"
         d="M 48.8,260.9 H 41 l -1.1,5.7 h 10 z"
         id="path488" />
      <path
         fill="#9e9c9a"
         d="m 48.5,258.8 h -7.3 c -0.1,0 -0.3,0.1 -0.3,0.3 v 1.9 h 7.8 v -1.9 c 0.1,-0.2 0,-0.3 -0.2,-0.3 z"
         id="path490" />
      <path
         fill="#7a7874"
         d="m 48.8,259.1 1.1,3.4 v 4.1 l -1.1,-5.7 z m -7.8,0 -1.1,3.4 v 4.1 l 1.1,-5.7 z"
         id="path492" />
    </g>
    <g
       id="g502">
      <path
         fill="#706f6d"
         d="m 59.6,260.9 h -7.8 l -1.1,5.7 h 10 z"
         id="path496" />
      <path
         fill="#9e9c9a"
         d="M 59.3,258.8 H 52 c -0.1,0 -0.3,0.1 -0.3,0.3 v 1.9 h 7.8 v -1.9 c 0.1,-0.2 0,-0.3 -0.2,-0.3 z"
         id="path498" />
      <path
         fill="#7a7874"
         d="m 59.6,259.1 1.1,3.4 v 4.1 l -1.1,-5.7 z m -7.8,0 -1.1,3.4 v 4.1 l 1.1,-5.7 z"
         id="path500" />
    </g>
    <g
       id="g510">
      <path
         fill="#706f6d"
         d="m 70.4,260.9 h -7.8 l -1.1,5.7 h 10 z"
         id="path504" />
      <path
         fill="#9e9c9a"
         d="m 70.1,258.8 h -7.3 c -0.1,0 -0.3,0.1 -0.3,0.3 v 1.9 h 7.8 v -1.9 c 0.1,-0.2 0,-0.3 -0.2,-0.3 z"
         id="path506" />
      <path
         fill="#7a7874"
         d="m 70.4,259.1 1.1,3.4 v 4.1 l -1.1,-5.7 z m -7.8,0 -1.1,3.4 v 4.1 l 1.1,-5.7 z"
         id="path508" />
    </g>
    <g
       id="g518">
      <path
         fill="#706f6d"
         d="m 81.2,260.9 h -7.8 l -1.1,5.7 h 10 z"
         id="path512" />
      <path
         fill="#9e9c9a"
         d="m 80.9,258.8 h -7.3 c -0.1,0 -0.3,0.1 -0.3,0.3 v 1.9 h 7.8 v -1.9 c 0.1,-0.2 0,-0.3 -0.2,-0.3 z"
         id="path514" />
      <path
         fill="#7a7874"
         d="m 81.2,259.1 1.1,3.4 v 4.1 l -1.1,-5.7 z m -7.8,0 -1.1,3.4 v 4.1 l 1.1,-5.7 z"
         id="path516" />
    </g>
    <g
       id="g526">
      <path
         fill="#706f6d"
         d="m 92,261.1 h -7.8 l -1.1,5.6 h 10 z"
         id="path520" />
      <path
         fill="#9e9c9a"
         d="m 91.7,258.9 h -7.3 c -0.1,0 -0.3,0.1 -0.3,0.3 v 1.9 H 92 v -1.9 c 0,-0.1 -0.1,-0.3 -0.3,-0.3 z"
         id="path522" />
      <path
         fill="#7a7874"
         d="m 92,259.2 1.1,3.4 v 4.1 L 92,261.1 Z m -7.8,0 -1.1,3.4 v 4.1 l 1.1,-5.6 z"
         id="path524" />
    </g>
    <g
       id="g534">
      <path
         fill="#706f6d"
         d="M 102.8,261.1 H 95 l -1.1,5.6 h 10 z"
         id="path528" />
      <path
         fill="#9e9c9a"
         d="m 102.5,258.9 h -7.3 c -0.1,0 -0.3,0.1 -0.3,0.3 v 1.9 h 7.8 v -1.9 c 0.1,-0.1 0,-0.3 -0.2,-0.3 z"
         id="path530" />
      <path
         fill="#7a7874"
         d="m 102.8,259.2 1.1,3.4 v 4.1 l -1.1,-5.6 z m -7.8,0 -1.1,3.4 v 4.1 l 1.1,-5.6 z"
         id="path532" />
    </g>
    <g
       id="g542">
      <path
         fill="#706f6d"
         d="m 113.6,261.1 h -7.7 l -1.1,5.6 h 9.9 z"
         id="path536" />
      <path
         fill="#9e9c9a"
         d="m 113.4,258.9 h -7.3 c -0.1,0 -0.3,0.1 -0.3,0.3 v 1.9 h 7.8 v -1.9 c 0,-0.1 -0.1,-0.3 -0.2,-0.3 z"
         id="path538" />
      <path
         fill="#7a7874"
         d="m 113.6,259.2 1.1,3.4 v 4.1 l -1.1,-5.6 z m -7.7,0 -1.1,3.4 v 4.1 l 1.1,-5.6 z"
         id="path540" />
    </g>
    <g
       id="g550">
      <path
         fill="#706f6d"
         d="m 124.4,261.1 h -7.7 l -1.1,5.6 h 9.9 z"
         id="path544" />
      <path
         fill="#9e9c9a"
         d="m 124.2,258.9 h -7.3 c -0.1,0 -0.3,0.1 -0.3,0.3 v 1.9 h 7.8 v -1.9 c 0,-0.1 -0.1,-0.3 -0.2,-0.3 z"
         id="path546" />
      <path
         fill="#7a7874"
         d="m 124.4,259.2 1.1,3.4 v 4.1 l -1.1,-5.6 z m -7.7,0 -1.1,3.4 v 4.1 l 1.1,-5.6 z"
         id="path548" />
    </g>
    <g
       id="g558">
      <path
         fill="#706f6d"
         d="m 135.2,261.1 h -7.7 l -1.1,5.6 h 9.9 z"
         id="path552" />
      <path
         fill="#9e9c9a"
         d="m 135,258.9 h -7.3 c -0.1,0 -0.3,0.1 -0.3,0.3 v 1.9 h 7.8 v -1.9 c 0,-0.1 -0.1,-0.3 -0.2,-0.3 z"
         id="path554" />
      <path
         fill="#7a7874"
         d="m 135.2,259.2 1.1,3.4 v 4.1 l -1.1,-5.6 z m -7.7,0 -1.1,3.4 v 4.1 l 1.1,-5.6 z"
         id="path556" />
    </g>
    <g
       id="g566">
      <path
         fill="#706f6d"
         d="m 146.1,261.1 h -7.8 l -1.1,5.6 h 9.9 z"
         id="path560" />
      <path
         fill="#9e9c9a"
         d="m 145.8,258.9 h -7.3 c -0.1,0 -0.3,0.1 -0.3,0.3 v 1.9 h 7.8 v -1.9 c 0.1,-0.1 -0.1,-0.3 -0.2,-0.3 z"
         id="path562" />
      <path
         fill="#7a7874"
         d="m 146.1,259.2 1,3.4 v 4.1 l -1,-5.6 z m -7.8,0 -1.1,3.4 v 4.1 l 1.1,-5.6 z"
         id="path564" />
    </g>
    <g
       id="g574">
      <path
         fill="#706f6d"
         d="m 156.9,261.1 h -7.8 l -1.1,5.6 h 10 z"
         id="path568" />
      <path
         fill="#9e9c9a"
         d="m 156.6,258.9 h -7.3 c -0.1,0 -0.3,0.1 -0.3,0.3 v 1.9 h 7.8 v -1.9 c 0.1,-0.1 -0.1,-0.3 -0.2,-0.3 z"
         id="path570" />
      <path
         fill="#7a7874"
         d="m 156.9,259.2 1.1,3.4 v 4.1 l -1.1,-5.6 z m -7.8,0 -1.1,3.4 v 4.1 l 1.1,-5.6 z"
         id="path572" />
    </g>
    <g
       id="g582">
      <path
         fill="#706f6d"
         d="m 167.7,261.1 h -7.8 l -1.1,5.6 h 10 z"
         id="path576" />
      <path
         fill="#9e9c9a"
         d="m 167.4,258.9 h -7.3 c -0.1,0 -0.3,0.1 -0.3,0.3 v 1.9 h 7.8 v -1.9 c 0.1,-0.1 -0.1,-0.3 -0.2,-0.3 z"
         id="path578" />
      <path
         fill="#7a7874"
         d="m 167.7,259.2 1.1,3.4 v 4.1 l -1.1,-5.6 z m -7.8,0 -1.1,3.4 v 4.1 l 1.1,-5.6 z"
         id="path580" />
    </g>
    <g
       id="g590">
      <path
         fill="#706f6d"
         d="m 51.5,267.5 h -7.9 l -1.1,5.7 h 10.1 z"
         id="path584" />
      <path
         fill="#9e9c9a"
         d="m 51.3,265.4 h -7.4 c -0.1,0 -0.3,0.1 -0.3,0.3 v 1.9 h 7.9 v -1.9 c 0,-0.2 -0.1,-0.3 -0.2,-0.3 z"
         id="path586" />
      <path
         fill="#7a7874"
         d="m 51.5,265.6 1.1,3.4 v 4.2 l -1.1,-5.7 z m -7.9,0 -1.1,3.4 v 4.2 l 1.1,-5.7 z"
         id="path588" />
    </g>
    <g
       id="g598">
      <path
         fill="#706f6d"
         d="m 62.6,267.5 h -8 l -1.1,5.7 h 10.2 z"
         id="path592" />
      <path
         fill="#9e9c9a"
         d="m 62.3,265.4 h -7.4 c -0.1,0 -0.3,0.1 -0.3,0.3 v 1.9 h 7.9 v -1.9 c 0.1,-0.2 -0.1,-0.3 -0.2,-0.3 z"
         id="path594" />
      <path
         fill="#7a7874"
         d="m 62.6,265.6 1.1,3.4 v 4.2 l -1.1,-5.7 z m -8,0 -1.1,3.4 v 4.2 l 1.1,-5.7 z"
         id="path596" />
    </g>
    <g
       id="g606">
      <path
         fill="#706f6d"
         d="m 73.6,267.5 h -7.9 l -1.2,5.7 h 10.2 z"
         id="path600" />
      <path
         fill="#9e9c9a"
         d="m 73.3,265.4 h -7.4 c -0.1,0 -0.3,0.1 -0.3,0.3 v 1.9 h 7.9 v -1.9 c 0.1,-0.2 0,-0.3 -0.2,-0.3 z"
         id="path602" />
      <path
         fill="#7a7874"
         d="m 73.6,265.6 1.1,3.4 v 4.2 l -1.1,-5.7 z m -7.9,0 -1.2,3.4 v 4.2 l 1.2,-5.7 z"
         id="path604" />
    </g>
    <g
       id="g614">
      <path
         fill="#706f6d"
         d="m 84.6,267.5 h -7.9 l -1.1,5.7 h 10.2 z"
         id="path608" />
      <path
         fill="#9e9c9a"
         d="M 84.4,265.4 H 77 c -0.1,0 -0.3,0.1 -0.3,0.3 v 1.9 h 7.9 v -1.9 c 0,-0.2 -0.1,-0.3 -0.2,-0.3 z"
         id="path610" />
      <path
         fill="#7a7874"
         d="m 84.6,265.6 1.2,3.4 v 4.2 l -1.2,-5.7 z m -7.9,0 -1.1,3.4 v 4.2 l 1.1,-5.7 z"
         id="path612" />
    </g>
    <g
       id="g622">
      <path
         fill="#706f6d"
         d="m 95.7,267.6 h -8 l -1.1,5.7 h 10.2 z"
         id="path616" />
      <path
         fill="#9e9c9a"
         d="M 95.4,265.5 H 88 c -0.1,0 -0.3,0.1 -0.3,0.3 v 1.9 h 7.9 v -1.9 c 0.1,-0.2 0,-0.3 -0.2,-0.3 z"
         id="path618" />
      <path
         fill="#7a7874"
         d="m 95.7,265.8 1.1,3.4 v 4.1 l -1.1,-5.7 z m -8,0 -1.1,3.4 v 4.1 l 1.1,-5.7 z"
         id="path620" />
    </g>
    <g
       id="g630">
      <path
         fill="#706f6d"
         d="m 106.7,267.6 h -7.9 l -1.1,5.7 h 10.1 z"
         id="path624" />
      <path
         fill="#9e9c9a"
         d="M 106.4,265.5 H 99 c -0.1,0 -0.3,0.1 -0.3,0.3 v 1.9 h 7.9 v -1.9 c 0.1,-0.2 0,-0.3 -0.2,-0.3 z"
         id="path626" />
      <path
         fill="#7a7874"
         d="m 106.7,265.8 1.1,3.4 v 4.1 l -1.1,-5.7 z m -7.9,0 -1.1,3.4 v 4.1 l 1.1,-5.7 z"
         id="path628" />
    </g>
    <g
       id="g638">
      <path
         fill="#706f6d"
         d="m 117.8,267.6 h -8 l -1.1,5.7 h 10.2 z"
         id="path632" />
      <path
         fill="#9e9c9a"
         d="m 117.5,265.5 h -7.4 c -0.1,0 -0.3,0.1 -0.3,0.3 v 1.9 h 7.9 v -1.9 c 0.1,-0.2 -0.1,-0.3 -0.2,-0.3 z"
         id="path634" />
      <path
         fill="#7a7874"
         d="m 117.8,265.8 1.1,3.4 v 4.1 l -1.1,-5.7 z m -8,0 -1.1,3.4 v 4.1 l 1.1,-5.7 z"
         id="path636" />
    </g>
    <g
       id="g646">
      <path
         fill="#706f6d"
         d="m 128.8,267.6 h -7.9 l -1.2,5.7 h 10.2 z"
         id="path640" />
      <path
         fill="#9e9c9a"
         d="m 128.5,265.5 h -7.4 c -0.1,0 -0.3,0.1 -0.3,0.3 v 1.9 h 7.9 v -1.9 c 0.1,-0.2 0,-0.3 -0.2,-0.3 z"
         id="path642" />
      <path
         fill="#7a7874"
         d="m 128.8,265.8 1.1,3.4 v 4.1 l -1.1,-5.7 z m -7.9,0 -1.2,3.4 v 4.1 l 1.2,-5.7 z"
         id="path644" />
    </g>
    <g
       id="g654">
      <path
         fill="#706f6d"
         d="m 139.8,267.6 h -7.9 l -1.1,5.7 h 10.1 z"
         id="path648" />
      <path
         fill="#9e9c9a"
         d="m 139.6,265.5 h -7.4 c -0.1,0 -0.3,0.1 -0.3,0.3 v 1.9 h 7.9 v -1.9 c 0,-0.2 -0.1,-0.3 -0.2,-0.3 z"
         id="path650" />
      <path
         fill="#7a7874"
         d="m 139.8,265.8 1.1,3.4 v 4.1 l -1.1,-5.7 z m -7.9,0 -1.1,3.4 v 4.1 l 1.1,-5.7 z"
         id="path652" />
    </g>
    <g
       id="g662">
      <path
         fill="#706f6d"
         d="m 150.9,267.6 h -8 l -1.1,5.7 H 152 Z"
         id="path656" />
      <path
         fill="#9e9c9a"
         d="m 150.6,265.5 h -7.4 c -0.1,0 -0.3,0.1 -0.3,0.3 v 1.9 h 7.9 v -1.9 c 0.1,-0.2 -0.1,-0.3 -0.2,-0.3 z"
         id="path658" />
      <path
         fill="#7a7874"
         d="m 150.9,265.8 1.1,3.4 v 4.1 l -1.1,-5.7 z m -8,0 -1.1,3.4 v 4.1 l 1.1,-5.7 z"
         id="path660" />
    </g>
    <g
       id="g670">
      <path
         fill="#706f6d"
         d="M 161.9,267.6 H 154 l -1.2,5.7 H 163 Z"
         id="path664" />
      <path
         fill="#9e9c9a"
         d="m 161.6,265.5 h -7.4 c -0.1,0 -0.3,0.1 -0.3,0.3 v 1.9 h 7.9 v -1.9 c 0.1,-0.2 0,-0.3 -0.2,-0.3 z"
         id="path666" />
      <path
         fill="#7a7874"
         d="m 161.9,265.8 1.1,3.4 v 4.1 l -1.1,-5.7 z m -7.9,0 -1.2,3.4 v 4.1 l 1.2,-5.7 z"
         id="path668" />
    </g>
    <g
       id="g678">
      <path
         fill="#706f6d"
         d="m 53.8,273 h -8.1 l -1.1,5.7 H 55 Z"
         id="path672" />
      <path
         fill="#9e9c9a"
         d="M 53.6,270.9 H 46 c -0.1,0 -0.3,0.1 -0.3,0.3 v 1.9 h 8.1 v -1.9 c 0,-0.2 -0.1,-0.3 -0.2,-0.3 z"
         id="path674" />
      <path
         fill="#7a7874"
         d="m 53.8,271.2 1.2,3.3 v 4.2 L 53.8,273 Z m -8,0 -1.2,3.3 v 4.2 l 1.2,-5.7 z"
         id="path676" />
    </g>
    <g
       id="g686">
      <path
         fill="#706f6d"
         d="M 65.1,273 H 57 l -1.1,5.7 h 10.3 z"
         id="path680" />
      <path
         fill="#9e9c9a"
         d="m 64.8,270.9 h -7.6 c -0.1,0 -0.3,0.1 -0.3,0.3 v 1.9 H 65 v -1.9 c 0.1,-0.2 0,-0.3 -0.2,-0.3 z"
         id="path682" />
      <path
         fill="#7a7874"
         d="m 65.1,271.2 1.1,3.3 v 4.2 L 65.1,273 Z m -8.1,0 -1.1,3.3 v 4.2 L 57,273 Z"
         id="path684" />
    </g>
    <g
       id="g694">
      <path
         fill="#706f6d"
         d="m 76.3,273 h -8.1 l -1.1,5.7 h 10.4 z"
         id="path688" />
      <path
         fill="#9e9c9a"
         d="m 76.1,270.9 h -7.6 c -0.1,0 -0.3,0.1 -0.3,0.3 v 1.9 h 8.1 v -1.9 c 0,-0.2 -0.1,-0.3 -0.2,-0.3 z"
         id="path690" />
      <path
         fill="#7a7874"
         d="m 76.3,271.2 1.2,3.3 v 4.2 L 76.3,273 Z m -8,0 -1.2,3.3 v 4.2 l 1.2,-5.7 z"
         id="path692" />
    </g>
    <g
       id="g702">
      <path
         fill="#706f6d"
         d="m 87.6,273 h -8.1 l -1.1,5.7 h 10.3 z"
         id="path696" />
      <path
         fill="#9e9c9a"
         d="m 87.3,270.9 h -7.6 c -0.1,0 -0.3,0.1 -0.3,0.3 v 1.9 h 8.1 v -1.9 c 0.1,-0.2 0,-0.3 -0.2,-0.3 z"
         id="path698" />
      <path
         fill="#7a7874"
         d="m 87.6,271.2 1.1,3.3 v 4.2 L 87.6,273 Z m -8.1,0 -1.1,3.3 v 4.2 l 1.1,-5.7 z"
         id="path700" />
    </g>
    <g
       id="g710">
      <path
         fill="#706f6d"
         d="m 98.8,273.2 h -8.1 l -1.1,5.6 H 100 Z"
         id="path704" />
      <path
         fill="#9e9c9a"
         d="M 98.6,271 H 91 c -0.1,0 -0.3,0.1 -0.3,0.3 v 1.9 h 8.1 v -1.9 c 0,-0.2 -0.1,-0.3 -0.2,-0.3 z"
         id="path706" />
      <path
         fill="#7a7874"
         d="m 98.8,271.3 1.2,3.4 v 4.1 l -1.2,-5.6 z m -8,0 -1.2,3.4 v 4.1 l 1.2,-5.6 z"
         id="path708" />
    </g>
    <g
       id="g718">
      <path
         fill="#706f6d"
         d="M 110.1,273.2 H 102 l -1.1,5.6 h 10.3 z"
         id="path712" />
      <path
         fill="#9e9c9a"
         d="m 109.8,271 h -7.6 c -0.1,0 -0.3,0.1 -0.3,0.3 v 1.9 h 8.1 v -1.9 c 0.1,-0.2 0,-0.3 -0.2,-0.3 z"
         id="path714" />
      <path
         fill="#7a7874"
         d="m 110.1,271.3 1.1,3.4 v 4.1 l -1.1,-5.6 z m -8.1,0 -1.1,3.4 v 4.1 l 1.1,-5.6 z"
         id="path716" />
    </g>
    <g
       id="g726">
      <path
         fill="#706f6d"
         d="m 121.4,273.2 h -8.1 l -1.2,5.6 h 10.4 z"
         id="path720" />
      <path
         fill="#9e9c9a"
         d="m 121.1,271 h -7.6 c -0.1,0 -0.3,0.1 -0.3,0.3 v 1.9 h 8.1 v -1.9 c 0.1,-0.2 -0.1,-0.3 -0.2,-0.3 z"
         id="path722" />
      <path
         fill="#7a7874"
         d="m 121.4,271.3 1.1,3.4 v 4.1 l -1.1,-5.6 z m -8.1,0 -1.2,3.4 v 4.1 l 1.2,-5.6 z"
         id="path724" />
    </g>
    <g
       id="g734">
      <path
         fill="#706f6d"
         d="m 132.6,273.2 h -8.1 l -1.1,5.6 h 10.4 z"
         id="path728" />
      <path
         fill="#9e9c9a"
         d="m 132.3,271 h -7.6 c -0.1,0 -0.3,0.1 -0.3,0.3 v 1.9 h 8.1 v -1.9 c 0.1,-0.2 0,-0.3 -0.2,-0.3 z"
         id="path730" />
      <path
         fill="#7a7874"
         d="m 132.6,271.3 1.2,3.4 v 4.1 l -1.2,-5.6 z m -8.1,0 -1.1,3.4 v 4.1 l 1.1,-5.6 z"
         id="path732" />
    </g>
    <g
       id="g742">
      <path
         fill="#706f6d"
         d="m 143.9,273.2 h -8.1 l -1.2,5.6 H 145 Z"
         id="path736" />
      <path
         fill="#9e9c9a"
         d="M 143.6,271 H 136 c -0.1,0 -0.3,0.1 -0.3,0.3 v 1.9 h 8.1 v -1.9 c 0.1,-0.2 -0.1,-0.3 -0.2,-0.3 z"
         id="path738" />
      <path
         fill="#7a7874"
         d="m 143.9,271.3 1.1,3.4 v 4.1 l -1.1,-5.6 z m -8.1,0 -1.2,3.4 v 4.1 l 1.2,-5.6 z"
         id="path740" />
    </g>
    <g
       id="g750">
      <path
         fill="#706f6d"
         d="M 155.1,273.2 H 147 l -1.1,5.6 h 10.4 z"
         id="path744" />
      <path
         fill="#9e9c9a"
         d="m 154.8,271 h -7.6 c -0.1,0 -0.3,0.1 -0.3,0.3 v 1.9 h 8.1 v -1.9 c 0.1,-0.2 0,-0.3 -0.2,-0.3 z"
         id="path746" />
      <path
         fill="#7a7874"
         d="m 155.1,271.3 1.2,3.4 v 4.1 l -1.2,-5.6 z m -8.1,0 -1.1,3.4 v 4.1 l 1.1,-5.6 z"
         id="path748" />
    </g>
    <g
       id="g762">
      <path
         fill="#282219"
         d="m 187.9,267.6 h -11.3 l 0.1,-4 h -5.3 v -3.7 c 0,-0.2 0.1,-0.3 0.3,-0.3 h 15.9 c 0.2,0 0.3,0.1 0.3,0.3 z"
         id="path752" />
      <path
         fill="#241f16"
         d="m 187.9,267.6 h -11.3 l -1.5,5.6 h 14.3 z"
         id="path754" />
      <path
         fill="#38312a"
         d="m 171.4,259.9 -1.5,3.4 v 3.4 l 1.5,-3.1 z"
         id="path756" />
      <path
         fill="#241f16"
         d="m 169.9,266.7 h 5.2 l 1.6,-3.1 h -5.3 z"
         id="path758" />
      <path
         fill="#38312a"
         d="m 176.7,263.6 -1.6,3.1 v 6.5 l 1.5,-5.6 z m 11.2,-3.7 1,3.1 0.5,10.2 -1.5,-5.6 z"
         id="path760" />
    </g>
    <g
       id="g770">
      <path
         fill="#706f6d"
         d="M 172.9,267.6 H 165 l -1.1,5.7 h 10.2 z"
         id="path764" />
      <path
         fill="#9e9c9a"
         d="m 172.7,265.5 h -7.4 c -0.1,0 -0.3,0.1 -0.3,0.3 v 1.9 h 7.9 v -1.9 c 0,-0.2 -0.1,-0.3 -0.2,-0.3 z"
         id="path766" />
      <path
         fill="#7a7874"
         d="m 172.9,265.8 1.2,3.4 v 4.1 l -1.2,-5.7 z m -7.9,0 -1.1,3.4 v 4.1 l 1.1,-5.7 z"
         id="path768" />
    </g>
    <g
       id="g778">
      <path
         fill="#706f6d"
         d="m 166.4,273.2 h -8.1 l -1.2,5.6 h 10.4 z"
         id="path772" />
      <path
         fill="#9e9c9a"
         d="m 166.1,271 h -7.6 c -0.1,0 -0.3,0.1 -0.3,0.3 v 1.9 h 8.1 v -1.9 c 0.1,-0.2 -0.1,-0.3 -0.2,-0.3 z"
         id="path774" />
      <path
         fill="#7a7874"
         d="m 166.4,271.3 1.1,3.4 v 4.1 l -1.1,-5.6 z m -8.1,0 -1.2,3.4 v 4.1 l 1.2,-5.6 z"
         id="path776" />
    </g>
    <g
       id="g786">
      <path
         fill="#241f16"
         d="m 188.6,273.3 h -18.3 l -1.5,5.6 H 190 Z"
         id="path780" />
      <path
         fill="#282219"
         d="m 188.2,271.2 h -17.5 c -0.2,0 -0.4,0.2 -0.4,0.4 v 1.7 h 18.3 v -1.7 c 0,-0.3 -0.2,-0.4 -0.4,-0.4 z"
         id="path782" />
      <path
         fill="#38312a"
         d="m 188.6,271.4 1.4,3.4 v 4.1 l -1.4,-5.6 z m -18.3,0 -1.5,3.4 v 4.1 l 1.5,-5.6 z"
         id="path784" />
    </g>
    <g
       id="g794">
      <path
         fill="#241f16"
         d="m 203.5,255.4 h -7.6 l -1.1,5.7 h 9.8 z"
         id="path788" />
      <path
         fill="#282219"
         d="m 203.3,253.3 h -7.1 c -0.1,0 -0.3,0.1 -0.3,0.3 v 1.9 h 7.6 v -1.9 c 0,-0.2 -0.1,-0.3 -0.2,-0.3 z"
         id="path790" />
      <path
         fill="#38312a"
         d="m 203.5,253.6 1.1,3.3 v 4.2 l -1.1,-5.7 z m -7.6,0 -1.1,3.3 v 4.2 l 1.1,-5.7 z"
         id="path792" />
    </g>
    <g
       id="g802">
      <path
         fill="#241f16"
         d="m 213.9,255.4 h -7.7 l -1,5.7 h 9.7 z"
         id="path796" />
      <path
         fill="#282219"
         d="m 213.6,253.3 h -7.1 c -0.1,0 -0.3,0.1 -0.3,0.3 v 1.9 h 7.6 v -1.9 c 0.1,-0.2 -0.1,-0.3 -0.2,-0.3 z"
         id="path798" />
      <path
         fill="#38312a"
         d="m 213.9,253.6 1,3.3 v 4.2 l -1,-5.7 z m -7.7,0 -1,3.3 v 4.2 l 1,-5.7 z"
         id="path800" />
    </g>
    <g
       id="g810">
      <path
         fill="#241f16"
         d="m 204.3,267.4 h -8.1 l -1.1,5.6 h 10.3 z"
         id="path804" />
      <path
         fill="#282219"
         d="m 204,265.3 h -7.5 c -0.1,0 -0.3,0.1 -0.3,0.3 v 1.9 h 8.1 v -1.9 c 0,-0.2 -0.1,-0.3 -0.3,-0.3 z"
         id="path806" />
      <path
         fill="#38312a"
         d="m 204.3,265.5 1.1,3.4 v 4.1 l -1.1,-5.6 z m -8.1,0 -1.1,3.4 v 4.1 l 1.1,-5.6 z"
         id="path808" />
    </g>
    <g
       id="g818">
      <path
         fill="#241f16"
         d="m 215.2,267.4 h -8.1 L 206,273 h 10.3 z"
         id="path812" />
      <path
         fill="#282219"
         d="m 214.9,265.3 h -7.5 c -0.1,0 -0.3,0.1 -0.3,0.3 v 1.9 h 8.1 v -1.9 c 0,-0.2 -0.1,-0.3 -0.3,-0.3 z"
         id="path814" />
      <path
         fill="#38312a"
         d="m 215.2,265.5 1.1,3.4 v 4.1 l -1.1,-5.6 z m -8.1,0 -1.1,3.4 v 4.1 l 1.1,-5.6 z"
         id="path816" />
    </g>
    <g
       id="g826">
      <path
         fill="#241f16"
         d="m 204.9,273.4 h -8.1 l -1.1,5.7 H 206 Z"
         id="path820" />
      <path
         fill="#282219"
         d="m 204.6,271.3 h -7.5 c -0.1,0 -0.3,0.1 -0.3,0.3 v 1.9 h 8.1 v -1.9 c 0,-0.2 -0.2,-0.3 -0.3,-0.3 z"
         id="path822" />
      <path
         fill="#38312a"
         d="m 204.9,271.5 1.1,3.4 v 4.2 l -1.1,-5.7 z m -8.1,0 -1.1,3.4 v 4.2 l 1.1,-5.7 z"
         id="path824" />
    </g>
    <g
       id="g834">
      <path
         fill="#241f16"
         d="m 215.8,273.4 h -8.1 l -1.1,5.7 h 10.3 z"
         id="path828" />
      <path
         fill="#282219"
         d="M 215.5,271.3 H 208 c -0.1,0 -0.3,0.1 -0.3,0.3 v 1.9 h 8.1 v -1.9 c 0,-0.2 -0.2,-0.3 -0.3,-0.3 z"
         id="path830" />
      <path
         fill="#38312a"
         d="m 215.8,271.5 1.1,3.4 v 4.2 l -1.1,-5.7 z m -8.1,0 -1.1,3.4 v 4.2 l 1.1,-5.7 z"
         id="path832" />
    </g>
    <g
       id="g842">
      <path
         fill="#241f16"
         d="m 216.1,279.6 h -18.7 l -1.5,5.7 h 21.7 z"
         id="path836" />
      <path
         fill="#282219"
         d="m 215.7,277.5 h -17.9 c -0.2,0 -0.4,0.2 -0.4,0.4 v 1.7 h 18.8 v -1.7 c -0.1,-0.2 -0.2,-0.4 -0.5,-0.4 z"
         id="path838" />
      <path
         fill="#38312a"
         d="m 216.1,277.8 1.5,3.4 v 4.1 l -1.5,-5.7 z m -18.7,0 -1.5,3.4 v 4.1 l 1.5,-5.7 z"
         id="path840" />
    </g>
    <g
       id="g850">
      <path
         fill="#241f16"
         d="M 37.8,261.1 H 22.6 l -1.3,5.6 H 39 Z"
         id="path844" />
      <path
         fill="#282219"
         d="M 37.4,258.9 H 22.9 c -0.2,0 -0.4,0.2 -0.4,0.4 v 1.8 h 15.2 v -1.8 c 0.1,-0.2 -0.1,-0.4 -0.3,-0.4 z"
         id="path846" />
      <path
         fill="#38312a"
         d="m 37.8,259.2 1.2,3.4 v 4.1 l -1.2,-5.6 z m -15.2,0 -1.3,3.4 v 4.1 l 1.3,-5.6 z"
         id="path848" />
    </g>
    <g
       id="g858">
      <path
         fill="#241f16"
         d="M 29.3,267.6 H 21 l -1.1,5.7 h 10.6 z"
         id="path852" />
      <path
         fill="#282219"
         d="m 29,265.5 h -7.7 c -0.1,0 -0.3,0.1 -0.3,0.3 v 1.9 h 8.3 v -1.9 c 0,-0.2 -0.1,-0.3 -0.3,-0.3 z"
         id="path854" />
      <path
         fill="#38312a"
         d="m 29.3,265.8 1.2,3.4 v 4.1 l -1.2,-5.7 z m -8.3,0 -1.1,3.4 v 4.1 l 1.1,-5.7 z"
         id="path856" />
    </g>
    <g
       id="g866">
      <path
         fill="#241f16"
         d="m 40.5,267.6 h -8.3 l -1.1,5.7 h 10.6 z"
         id="path860" />
      <path
         fill="#282219"
         d="m 40.2,265.5 h -7.7 c -0.1,0 -0.3,0.1 -0.3,0.3 v 1.9 h 8.3 v -1.9 c 0,-0.2 -0.1,-0.3 -0.3,-0.3 z"
         id="path862" />
      <path
         fill="#38312a"
         d="m 40.5,265.8 1.2,3.4 v 4.1 l -1.2,-5.7 z m -8.3,0 -1.1,3.4 v 4.1 l 1.1,-5.7 z"
         id="path864" />
    </g>
    <g
       id="g874">
      <path
         fill="#241f16"
         d="M 41.8,273.2 H 20.4 l -1.7,5.6 h 24.8 z"
         id="path868" />
      <path
         fill="#282219"
         d="M 41.4,271 H 20.8 c -0.2,0 -0.4,0.2 -0.4,0.4 v 1.7 h 21.4 v -1.7 c 0,-0.2 -0.2,-0.4 -0.4,-0.4 z"
         id="path870" />
      <path
         fill="#38312a"
         d="m 41.8,271.3 1.7,3.4 v 4.1 l -1.7,-5.6 z m -21.4,0 -1.7,3.4 v 4.1 l 1.7,-5.6 z"
         id="path872" />
    </g>
    <g
       id="g882">
      <path
         fill="#241f16"
         d="m 49.8,279.9 h -8.1 l -1.1,5.6 H 51 Z"
         id="path876" />
      <path
         fill="#282219"
         d="M 49.6,277.7 H 42 c -0.1,0 -0.3,0.1 -0.3,0.3 v 1.9 h 8.1 V 278 c 0,-0.1 -0.1,-0.3 -0.2,-0.3 z"
         id="path878" />
      <path
         fill="#38312a"
         d="m 49.8,278 1.2,3.4 v 4.1 l -1.2,-5.6 z m -8.1,0 -1.1,3.4 v 4.1 l 1.1,-5.6 z"
         id="path880" />
    </g>
    <g
       id="g890">
      <path
         fill="#241f16"
         d="m 60.8,279.9 h -8.1 l -1.2,5.6 h 10.4 z"
         id="path884" />
      <path
         fill="#282219"
         d="m 60.5,277.7 h -7.6 c -0.1,0 -0.3,0.1 -0.3,0.3 v 1.9 h 8.1 V 278 c 0.1,-0.1 0,-0.3 -0.2,-0.3 z"
         id="path886" />
      <path
         fill="#38312a"
         d="m 60.8,278 1.1,3.4 v 4.1 l -1.1,-5.6 z m -8.1,0 -1.2,3.4 v 4.1 l 1.2,-5.6 z"
         id="path888" />
    </g>
    <g
       id="g898">
      <path
         fill="#241f16"
         d="m 166.9,279.8 h -14.3 l -1.2,5.6 h 16.7 z"
         id="path892" />
      <path
         fill="#282219"
         d="m 166.6,277.6 h -13.7 c -0.2,0 -0.4,0.2 -0.4,0.4 v 1.8 h 14.4 V 278 c 0,-0.2 -0.1,-0.4 -0.3,-0.4 z"
         id="path894" />
      <path
         fill="#38312a"
         d="m 166.9,277.9 1.2,3.4 v 4.1 l -1.2,-5.6 z m -14.3,0 -1.2,3.4 v 4.1 l 1.2,-5.6 z"
         id="path896" />
    </g>
    <g
       id="g906">
      <path
         fill="#706f6d"
         d="M 149.8,279.9 H 63.6 l -1.1,5.6 h 88.4 z"
         id="path900" />
      <path
         fill="#9e9c9a"
         d="M 149.5,277.8 H 63.9 c -0.1,0 -0.3,0.1 -0.3,0.3 v 1.9 h 86.1 v -2 c 0.1,-0.1 -0.1,-0.2 -0.2,-0.2 z"
         id="path902" />
      <path
         fill="#7a7874"
         d="m 149.8,278 1.1,3.4 v 4.1 l -1.1,-5.6 z m -86.2,0 -1.1,3.4 v 4.1 l 1.1,-5.6 z"
         id="path904" />
    </g>
    <g
       id="g920">
      <g
         fill="#1b1610"
         id="g910">
        <path
           d="m 231.8,240.6 0.5,-0.7 -0.4,-0.1 0.8,-0.2 1.8,0.5 0.5,-0.5 0.8,0.1 -0.7,0.1 -0.6,0.8 -2,-0.6 -0.2,0.3 0.4,0.2 z m 5.6,-0.9 h 1 c 0.2,0 0.2,0 0.3,0.1 0.1,0 0.2,0.1 0.2,0.1 l 0.3,-0.3 h -3.2 0.4 l -0.1,0.1 -0.2,0.3 h -0.3 0.2 l -0.2,0.2 -0.1,0.1 h -0.3 3 l 0.2,-0.3 -0.4,0.2 c -0.2,0 -0.5,0.1 -0.8,0.1 h -0.4 -0.1 l 0.1,-0.1 0.2,-0.2 h 0.6 c 0.1,0 0.2,0.1 0.2,0.1 l 0.3,-0.4 c -0.1,0.1 -0.3,0.1 -0.4,0.1 h -0.7 z m 4.1,0.8 0.6,-0.3 c 0,0 -0.7,0.1 -1.2,0.1 -0.5,0 -1,-0.1 -0.9,-0.3 0.1,-0.3 1.3,-0.4 1.3,-0.4 l 0.5,0.2 h 0.5 l -0.4,-0.3 c 0,0 -0.7,0 -1.4,0.1 -0.7,0.1 -1.5,0.3 -1.4,0.5 0.2,0.5 1.7,0.4 1.9,0.4 0.1,0.1 0.5,0 0.5,0 z"
           id="path908" />
      </g>
      <path
         fill="#1b1610"
         d="m 243.3,239.6 h 0.6 v 1.9 h -0.6 z"
         id="path912" />
      <path
         d="m 244.7,239.6 h 1.2 c 0.6,0 1,0 1.3,0.1 0.3,0.1 0.4,0.1 0.4,0.2 0,0.1 -0.1,0.2 -0.4,0.3 -0.3,0.1 -0.8,0.1 -1.4,0.1 h -0.5 v 0.5 h -0.6 z m 0.6,0.6 h 0.5 c 0.7,0 1.2,-0.1 1.2,-0.3 0,-0.2 -0.4,-0.2 -1.1,-0.2 h -0.6 z m 6.5,0.6 c -0.2,0 -0.7,0.1 -1.2,0.1 -1.3,0 -2.3,-0.2 -2.3,-0.6 0,-0.4 1,-0.6 2.5,-0.6 0.6,0 1,0 1.1,0.1 l -0.1,0.1 h -1 c -1.1,0 -1.8,0.2 -1.8,0.5 0,0.3 0.7,0.5 1.8,0.5 h 1 z m 2.1,-0.5 v 0.1 h -1.7 v -0.1 z m 0.9,0.4 h 0.5 c 0.4,0 0.7,0 1,-0.1 0.3,-0.1 0.5,-0.2 0.6,-0.3 -0.3,0.1 -0.6,0.1 -1.1,0.1 -0.8,0 -1.3,-0.2 -1.3,-0.4 0,-0.2 0.6,-0.4 1.6,-0.4 0.9,0 1.5,0.2 1.5,0.5 0,0.3 -0.3,0.4 -0.8,0.5 -0.4,0.1 -0.8,0.1 -1.3,0.2 h -0.6 v -0.1 z m 0.2,-0.6 c 0,0.1 0.3,0.2 0.9,0.2 0.4,0 0.7,-0.1 0.9,-0.1 0,0 0.1,0 0.1,-0.1 0,-0.2 -0.3,-0.3 -0.9,-0.3 -0.6,0 -1,0.1 -1,0.3 z m 3,0.4 c 0,-0.1 0.3,-0.2 0.9,-0.3 -0.5,-0.1 -0.7,-0.2 -0.7,-0.3 0,-0.2 0.6,-0.3 1.4,-0.3 0.9,0 1.3,0.1 1.3,0.3 0,0.1 -0.2,0.2 -0.8,0.3 0.6,0.1 0.9,0.2 0.9,0.3 0,0.2 -0.7,0.3 -1.6,0.3 -0.8,0 -1.4,-0.1 -1.4,-0.3 z m 2.5,0 c 0,-0.1 -0.4,-0.2 -1,-0.3 -0.5,0 -0.8,0.1 -0.8,0.2 0,0.1 0.3,0.2 0.9,0.2 0.5,0.1 0.9,0 0.9,-0.1 z m -1.7,-0.6 c 0,0.1 0.3,0.2 0.9,0.2 0.4,0 0.7,-0.1 0.7,-0.2 0,-0.1 -0.2,-0.2 -0.8,-0.2 -0.6,0.1 -0.8,0.1 -0.8,0.2 z m 5.9,0.3 c 0,0.4 -0.6,0.6 -1.6,0.6 -0.9,0 -1.5,-0.2 -1.5,-0.6 0,-0.4 0.7,-0.6 1.6,-0.6 0.9,0.1 1.5,0.3 1.5,0.6 z m -2.5,0.1 c 0,0.3 0.4,0.5 0.9,0.5 0.6,0 0.9,-0.2 0.9,-0.5 0,-0.3 -0.3,-0.5 -0.9,-0.5 -0.5,0 -0.9,0.1 -0.9,0.5 z m 4.4,-0.5 -0.8,0.1 -0.1,-0.1 1,-0.1 h 0.5 v 1.2 h -0.6 z"
         id="path914" />
      <g
         id="g918">
        <path
           d="m 244.7,241 h 0.9 c 0.1,0 0.1,0.1 0.1,0.1 0,0 0,0.1 -0.1,0.1 h -0.7 v 0.2 h -0.2 z m 0.2,0.2 h 0.2 c 0.3,0 0.4,0 0.4,-0.1 0,-0.1 -0.2,-0.1 -0.4,-0.1 h -0.2 z m 1.9,0.1 h -0.6 v 0.2 h 0.7 -0.9 V 241 h 0.9 -0.7 v 0.1 z m 0.4,-0.3 h 0.9 c 0.1,0 0.1,0 0.1,0.1 0,0.1 -0.1,0.1 -0.3,0.1 0.1,0 0.2,0 0.2,0.1 l 0.1,0.1 H 248 c 0,0 -0.1,0 -0.1,-0.1 0,-0.1 -0.1,-0.1 -0.3,-0.1 h -0.2 v 0.2 h -0.2 z m 0.2,0.2 h 0.2 c 0.2,0 0.4,0 0.4,-0.1 0,-0.1 -0.2,-0.1 -0.4,-0.1 h -0.2 z m 1.1,0.2 h 0.4 c 0.2,0 0.3,0 0.3,-0.1 0,0 -0.1,-0.1 -0.3,-0.1 -0.3,0 -0.4,-0.1 -0.4,-0.1 0,-0.1 0.2,-0.1 0.5,-0.1 h 0.4 -0.4 c -0.2,0 -0.3,0 -0.3,0.1 0,0 0.1,0.1 0.3,0.1 0.3,0 0.4,0.1 0.4,0.1 0,0.1 -0.2,0.1 -0.6,0.1 -0.1,0.1 -0.3,0 -0.3,0 z m 2.5,-0.2 c 0,0.1 -0.3,0.2 -0.8,0.2 -0.4,0 -0.7,-0.1 -0.7,-0.2 0,-0.1 0.3,-0.2 0.8,-0.2 0.5,0 0.7,0.1 0.7,0.2 z m -1.2,0 c 0,0.1 0.2,0.2 0.5,0.2 0.3,0 0.5,-0.1 0.5,-0.2 0,-0.1 -0.2,-0.2 -0.5,-0.2 -0.3,0.1 -0.5,0.1 -0.5,0.2 z m 1.5,0.3 V 241 h 0.2 l 0.5,0.2 c 0.1,0 0.2,0.1 0.3,0.1 V 241 h 0.2 v 0.4 h -0.2 l -0.5,-0.2 c -0.1,0 -0.2,-0.1 -0.3,-0.1 v 0.4 z m 1.9,-0.2 -0.2,0.1 h -0.2 l 0.6,-0.4 h 0.3 l 0.6,0.4 h -0.2 l -0.2,-0.1 z m 0.5,0 -0.2,-0.1 -0.1,-0.1 -0.1,0.1 -0.2,0.1 z m 0.7,-0.3 h 0.2 v 0.4 h 0.7 -0.9 z m 2.7,0.4 h -0.4 c -0.5,0 -0.8,-0.1 -0.8,-0.2 0,-0.1 0.3,-0.2 0.8,-0.2 h 0.4 -0.4 c -0.4,0 -0.6,0.1 -0.6,0.2 0,0.1 0.2,0.2 0.6,0.2 z m 1.6,-0.2 c 0,0.1 -0.3,0.2 -0.8,0.2 -0.4,0 -0.7,-0.1 -0.7,-0.2 0,-0.1 0.3,-0.2 0.8,-0.2 0.5,0 0.7,0.1 0.7,0.2 z m -1.2,0 c 0,0.1 0.2,0.2 0.5,0.2 0.3,0 0.5,-0.1 0.5,-0.2 0,-0.1 -0.2,-0.2 -0.5,-0.2 -0.3,0.1 -0.5,0.1 -0.5,0.2 z m 2.9,0.1 v -0.2 c -0.1,0 -0.1,0.1 -0.2,0.2 l -0.3,0.2 h -0.2 l -0.3,-0.2 -0.2,-0.2 v 0.4 H 259 l 0.1,-0.4 h 0.3 l 0.3,0.2 c 0.1,0.1 0.1,0.1 0.2,0.1 0,0 0.1,-0.1 0.2,-0.1 l 0.3,-0.2 h 0.3 l 0.1,0.4 h -0.2 z m 0.5,-0.3 h 0.9 c 0.1,0 0.1,0.1 0.1,0.1 0,0 0,0.1 -0.1,0.1 h -0.7 v 0.2 h -0.2 z m 0.2,0.2 h 0.2 c 0.3,0 0.4,0 0.4,-0.1 0,-0.1 -0.2,-0.1 -0.4,-0.1 h -0.2 z m 1.3,-0.2 v 0.3 c 0,0.1 0.2,0.1 0.4,0.1 0.2,0 0.4,0 0.4,-0.1 V 241 h 0.2 v 0.2 c 0,0.1 -0.3,0.2 -0.6,0.2 -0.3,0 -0.6,0 -0.6,-0.2 V 241 Z m 1.7,0.1 h -0.5 1.2 -0.5 v 0.4 h -0.2 z m 1.7,0.2 h -0.6 v 0.2 h 0.7 -0.9 V 241 h 0.9 -0.7 v 0.1 z m 0.3,-0.3 h 0.9 c 0.1,0 0.1,0 0.1,0.1 0,0.1 -0.1,0.1 -0.3,0.1 0.1,0 0.2,0 0.2,0.1 l 0.1,0.1 H 267 c 0,0 -0.1,0 -0.1,-0.1 0,-0.1 -0.1,-0.1 -0.3,-0.1 h -0.2 v 0.2 h -0.2 V 241 Z m 0.3,0.2 h 0.2 c 0.2,0 0.4,0 0.4,-0.1 0,-0.1 -0.2,-0.1 -0.4,-0.1 h -0.2 z"
           id="path916" />
      </g>
    </g>
    <g
       id="g924">
      <path
         fill="#958b7c"
         d="m 32.784,242.723 0.485,-7.284 0.599,0.04 -0.486,7.284 z"
         id="path922" />
    </g>
    <g
       id="g928">
      <path
         fill="#958b7c"
         d="m 213.16,235.528 0.598,-0.04 0.485,7.284 -0.599,0.04 z"
         id="path926" />
    </g>
  </g>
</svg>
