<?xml version="1.0" encoding="UTF-8" standalone="no"?>
<svg
   version="1.1"
   id="Layer_1"
   x="0"
   y="0"
   viewBox="0 0 120.43414 226.4"
   xml:space="preserve"
   sodipodi:docname="controller.svg"
   inkscape:version="1.1 (c68e22c387, 2021-05-23)"
   width="120.43414"
   height="226.39999"
   xmlns:inkscape="http://www.inkscape.org/namespaces/inkscape"
   xmlns:sodipodi="http://sodipodi.sourceforge.net/DTD/sodipodi-0.dtd"
   xmlns="http://www.w3.org/2000/svg"
   xmlns:svg="http://www.w3.org/2000/svg"><defs
   id="defs243" /><sodipodi:namedview
   id="namedview241"
   pagecolor="#ffffff"
   bordercolor="#666666"
   borderopacity="1.0"
   inkscape:pageshadow="2"
   inkscape:pageopacity="0.0"
   inkscape:pagecheckerboard="true"
   showgrid="false"
   inkscape:zoom="1.4860492"
   inkscape:cx="13.122042"
   inkscape:cy="98.247085"
   inkscape:window-width="1920"
   inkscape:window-height="1138"
   inkscape:window-x="-8"
   inkscape:window-y="-8"
   inkscape:window-maximized="1"
   inkscape:current-layer="Layer_1"
   fit-margin-top="0"
   fit-margin-left="0"
   fit-margin-right="0"
   fit-margin-bottom="0" />
    <style
   id="style2">
        .st4{fill:#ffe75a}.st7{fill:#db324c}.st12{fill:#1ca4a9}.st14{fill:#25b6be}.st15{fill:#fff}.st22{fill:#e8cd49}.st25{fill:#fcc927}.st26{fill:#fbc82a}.st30{fill:#2a7070}.st34{fill:#3b146c}
    </style>
    
    
    
    <linearGradient
   id="SVGID_1_"
   gradientUnits="userSpaceOnUse"
   x1="557.09998"
   y1="22.044001"
   x2="557.09998"
   y2="-87.655998"
   gradientTransform="translate(-286,304.11)">
        <stop
   offset="0"
   style="stop-color:#3b1666"
   id="stop10" />
        <stop
   offset=".33"
   style="stop-color:#53277b"
   id="stop12" />
        <stop
   offset="1"
   style="stop-color:#3b146c"
   id="stop14" />
    </linearGradient>
    
    
    <linearGradient
   id="SVGID_00000162319719392299393320000014109257014912817798_"
   gradientUnits="userSpaceOnUse"
   x1="286.10001"
   y1="249.244"
   x2="828.09998"
   y2="249.244"
   gradientTransform="translate(-775.15324,621.96444)">
        <stop
   offset="0"
   style="stop-color:#25b6be"
   id="stop21" />
        <stop
   offset=".49"
   style="stop-color:#27c9c9"
   id="stop23" />
        <stop
   offset="1"
   style="stop-color:#25b6be"
   id="stop25" />
    </linearGradient>
    
    <linearGradient
   id="SVGID_00000014604713175948605690000006690221948909158834_"
   gradientUnits="userSpaceOnUse"
   x1="815.15002"
   y1="-148.95599"
   x2="815.15002"
   y2="-84.056"
   gradientTransform="translate(-286,304.11)">
        <stop
   offset="0"
   style="stop-color:#3b1666"
   id="stop30" />
        <stop
   offset="1"
   style="stop-color:#794b9a"
   id="stop32" />
    </linearGradient>
    
    
    <linearGradient
   id="SVGID_00000070819620534818077190000007880119208492352911_"
   gradientUnits="userSpaceOnUse"
   x1="312.39999"
   y1="-144.806"
   x2="358.89999"
   y2="-144.806"
   gradientTransform="translate(-286,304.11)">
        <stop
   offset="0"
   style="stop-color:#3b1666"
   id="stop39" />
        <stop
   offset=".33"
   style="stop-color:#53277b"
   id="stop41" />
        <stop
   offset=".74"
   style="stop-color:#3b146c"
   id="stop43" />
    </linearGradient>
    
    <linearGradient
   id="SVGID_00000000934933317766040550000002843867830384571022_"
   gradientUnits="userSpaceOnUse"
   x1="802.04999"
   y1="83.584"
   x2="802.04999"
   y2="52.344002"
   gradientTransform="translate(-286,304.11)">
        <stop
   offset="0"
   style="stop-color:#3b1666"
   id="stop48" />
        <stop
   offset="1"
   style="stop-color:#794b9a"
   id="stop50" />
    </linearGradient>
    
    <radialGradient
   id="SVGID_00000038390437427018665150000009871778408086835349_"
   cx="346.23599"
   cy="439.194"
   r="37.498001"
   gradientTransform="matrix(0.9998,0.01972,-0.05916,2.9994,-519.69814,-865.39442)"
   gradientUnits="userSpaceOnUse">
        <stop
   offset="0"
   style="stop-color:#25b6be"
   id="stop55" />
        <stop
   offset="1"
   style="stop-color:#1ca4a9"
   id="stop57" />
    </radialGradient>
    
    
    
    
    
    
    
    
    
    
    
    
    
    
    
    
    
    
    
    
    
    
    
    
    
    
    
    
    
    
    
    
    
    
    
    
    
    
    
    
    
    
    
    
    
    
    
    
    
    
    
    
    
    
    
    
    
    
    
    
    
    <g
   id="g1166"><circle
     class="st7"
     cx="-37.599998"
     cy="-159.75"
     r="30.6"
     id="circle62"
     transform="scale(-1)" /><path
     d="m 47.40885,131.79023 c -0.2,-0.1 -0.5,-0.1 -0.7,-0.2 13.9,5.3 21,20.8 16.1,34.8 -5.1,14.3 -20.8,21.8 -35.1,16.7 -14.1,-5 -21.6,-20.3 -17,-34.4 -0.1,0.2 -0.2,0.4 -0.3,0.7 -5.3,15.1 2.5,31.6 17.6,36.9 15.1,5.3 31.6,-2.5 36.9,-17.6 5.5,-15 -2.4,-31.6 -17.5,-36.9 z"
     style="fill:#e24b69"
     id="path64" /><g
     id="g924"
     transform="rotate(180,37.599998,73.649963)"><circle
       class="st14"
       cx="-37.599998"
       cy="-73.649963"
       r="37.599998"
       id="circle70"
       transform="scale(-1)" /><ellipse
       class="st12"
       cx="-36.799995"
       cy="-89.950012"
       rx="8"
       ry="11.8"
       id="ellipse72"
       transform="scale(-1)" /><ellipse
       class="st12"
       cx="-36.799995"
       cy="-53.450008"
       rx="8"
       ry="11.8"
       id="ellipse74"
       transform="scale(-1)" /><ellipse
       class="st12"
       cx="-18.500006"
       cy="-71.75"
       rx="11.8"
       ry="8"
       id="ellipse76"
       transform="scale(-1)" /><ellipse
       class="st12"
       cx="-55.000008"
       cy="-71.75"
       rx="11.8"
       ry="8"
       id="ellipse78"
       transform="scale(-1)" /><ellipse
       class="st15"
       cx="-37.599998"
       cy="-91.849976"
       rx="8"
       ry="11.8"
       id="ellipse80"
       transform="scale(-1)" /><ellipse
       cx="-37.599998"
       cy="-55.349972"
       rx="8"
       ry="11.8"
       style="fill:#f98d14"
       id="ellipse82"
       transform="scale(-1)" /><ellipse
       cx="-19.4"
       cy="-73.649963"
       rx="11.8"
       ry="8"
       style="fill:#3fd174"
       id="ellipse84"
       transform="scale(-1)" /><ellipse
       cx="-55.900002"
       cy="-73.649963"
       rx="11.8"
       ry="8"
       style="fill:#8250ad"
       id="ellipse86"
       transform="scale(-1)" /></g><g
     id="g1886"
     transform="translate(-381.46586,-445.1)"><path
       class="st4"
       d="m 481.1,663.2 c 0.9,1.6 1.8,3.1 2.8,4.7 1,-0.8 2.1,-1.3 3.4,-1.3 1.3,0 2.4,0.5 3.4,1.3 0.9,-1.4 1.8,-2.9 2.6,-4.3 -1.8,-1.2 -4,-2 -6.4,-2 -2.1,-0.1 -4.1,0.5 -5.8,1.6 z"
       id="path156" /><path
       class="st4"
       d="m 478.9,659 c 0.4,0.9 0.9,1.8 1.4,2.7 1.9,-1.2 4.2,-1.9 6.6,-1.9 2.7,0 5.1,0.8 7.2,2.3 0.5,-0.9 0.9,-1.8 1.4,-2.7 -2.5,-1.6 -5.4,-2.5 -8.6,-2.5 -2.9,-0.1 -5.6,0.7 -8,2.1 z"
       id="path158" /><path
       class="st4"
       d="m 477,654.5 1.2,3 c 2.6,-1.5 5.5,-2.4 8.7,-2.4 3.4,0 6.6,1 9.3,2.8 0.4,-1 0.9,-2 1.3,-3 -3.1,-1.9 -6.7,-2.9 -10.5,-2.9 -3.7,-0.1 -7.1,0.8 -10,2.5 z"
       id="path160" /><path
       class="st4"
       d="m 475.2,649.2 c 0.4,1.2 0.8,2.5 1.2,3.7 3.1,-1.8 6.7,-2.7 10.5,-2.7 4.1,0 7.9,1.1 11.1,3.1 0.4,-1.2 0.9,-2.5 1.2,-3.7 -3.7,-2.1 -7.9,-3.2 -12.4,-3.2 -4.1,-0.1 -8.1,1 -11.6,2.8 z m 24.3,-0.5 c 1.3,-4.5 2.1,-9.1 2.4,-13.8 l -4,-181.6 c 0,-4.5 -6.7,-8.2 -10.6,-8.2 -3.9,0 -10.6,3.7 -10.6,8.2 l -4,181.6 c 0.3,4.6 1,9.1 2.3,13.4 3.6,-1.9 7.7,-2.9 12,-2.9 4.5,0.1 8.8,1.3 12.5,3.3 z"
       id="path162" /><path
       class="st22"
       d="m 486.9,661.5 c 2.4,0 4.6,0.7 6.4,2 0.3,-0.5 0.5,-1 0.8,-1.4 -2.1,-1.4 -4.5,-2.3 -7.2,-2.3 -2.4,0 -4.7,0.7 -6.6,1.9 0.3,0.5 0.5,1 0.8,1.5 1.7,-1.1 3.7,-1.7 5.8,-1.7 z m 0,-4.7 c 3.1,0 6.1,0.9 8.6,2.5 0.2,-0.5 0.5,-1 0.7,-1.5 -2.7,-1.7 -5.9,-2.8 -9.3,-2.8 -3.2,0 -6.1,0.9 -8.7,2.4 0.2,0.5 0.5,1 0.7,1.5 2.4,-1.3 5.1,-2.1 8,-2.1 z m 0,-4.9 c 3.8,0 7.4,1.1 10.5,2.9 0.2,-0.5 0.4,-1 0.6,-1.6 -3.3,-2 -7.1,-3.1 -11.1,-3.1 -4,0 -7.4,1 -10.5,2.7 0.2,0.5 0.4,1.1 0.6,1.6 2.9,-1.6 6.3,-2.5 9.9,-2.5 z"
       id="path164" /><path
       class="st4"
       d="m 486.9,646.3 c 4.5,0 8.7,1.2 12.4,3.2 0.1,-0.3 0.2,-0.5 0.2,-0.8 -3.8,-2.1 -8.1,-3.3 -12.6,-3.3 -4.5,0 -8.4,1.1 -12,2.9 0.1,0.3 0.2,0.5 0.2,0.8 3.6,-1.7 7.6,-2.8 11.8,-2.8 z"
       id="path166" /><path
       d="m 486.9,646.3 c 4.5,0 8.7,1.2 12.4,3.2 0.1,-0.3 0.2,-0.5 0.2,-0.8 -3.8,-2.1 -8.1,-3.3 -12.6,-3.3 -4.5,0 -8.4,1.1 -12,2.9 0.1,0.3 0.2,0.5 0.2,0.8 3.6,-1.7 7.6,-2.8 11.8,-2.8 z"
       style="opacity:0.5;fill:#e8cd49;enable-background:new"
       id="path168" /><path
       class="st15"
       d="m 487.3,671.5 c 0.3,0 0.9,-0.1 1.3,-0.7 l 2.1,-3 c -1,-0.8 -2.1,-1.3 -3.4,-1.3 -1.3,0 -2.4,0.5 -3.4,1.3 0.7,1 1.3,2 2.1,3 0.4,0.6 1,0.7 1.3,0.7 z"
       id="path170" /><path
       class="st7"
       d="m 499.8,495 h -25 v -37.3 c 0,-6.9 5.6,-12.5 12.5,-12.5 6.9,0 12.5,5.6 12.5,12.5 z"
       id="path172" /><path
       class="st14"
       d="m 487.3,635.7 c -4,0 -7.2,-3.2 -7.2,-7.2 v -57.2 c 0,-4 3.2,-7.2 7.2,-7.2 4,0 7.2,3.2 7.2,7.2 v 57.2 c 0,3.9 -3.2,7.2 -7.2,7.2 z"
       id="path174" /><path
       style="fill:#034e95"
       d="m 491.7,611.6 -1.6,-7.4 0.1,-10 1.1,-9.8 -1.3,-4.6 -6.2,1.9 -1.3,7.2 0.8,7.4 -0.6,9 -0.1,11.4 7.3,3.2 z"
       id="path176" /><path
       class="st25"
       d="m 489.7,587.5 c 0.3,-0.9 0.3,-2.4 0.2,-3.3 0,-0.3 -0.2,-0.7 -0.5,-0.8 -0.1,-0.1 -0.3,0 -0.4,-0.1 -0.1,-0.1 -0.2,-0.2 -0.2,-0.3 0,-0.2 -0.2,-0.6 -0.6,-0.4 0,0 -0.6,0.4 -1.5,0.6 -0.9,0.2 -1.8,0.4 -1.9,1.5 -0.1,1.1 0.2,1.5 0.8,1.3 0.6,-0.2 1,-0.4 1,0 -0.1,0.4 0,1.5 0.5,2.2 0.5,0.7 0.6,0.8 1.3,0.8 0.7,-0.1 1,-0.6 1.3,-1.5 z m -1.9,-1.6 c -0.1,-0.3 0,-0.6 0.3,-0.8 l 0.2,-0.1 c 0.1,-0.1 0.3,-0.1 0.4,0.1 0.4,0.7 0.2,1.6 -0.3,1.8 -0.3,-0.2 -0.5,-0.6 -0.6,-1 z m -0.2,8.3 c 0.1,-0.3 0.1,-0.9 0.1,-0.9 0,-0.5 -0.3,-1 -0.9,-1.1 -0.6,-0.1 -1.8,-0.2 -2,-0.1 -0.4,0.1 -0.7,0.6 -0.7,1.2 0,0.5 0.4,1.1 0.9,1.2 0.5,0 2.4,0.3 2.6,-0.3 z m -1.5,10.5 c 0.1,-0.2 0.1,-0.5 0.1,-0.7 0,-0.4 -0.1,-0.7 -0.2,-1 -0.2,-0.4 -0.5,-1.1 -0.4,-1.7 0,-1 0.7,-1.2 1,-0.9 0.4,0.3 0.7,0.8 0.8,2 0.1,0.7 0.1,1 0.2,1.2 0.1,0.3 0.4,0.4 0.6,0.1 0.2,-0.2 0.3,-0.5 0.3,-0.8 0,-0.8 -0.1,-2.6 -1.1,-4.1 -0.7,-1.3 -1.7,-0.8 -2,-0.5 -0.4,0.4 -1,1.1 -1,3.1 0,1.8 0.4,2.6 0.6,3.1 0.1,0.1 0.2,0.3 0.3,0.4 l 0.1,0.1 c 0.1,0.1 0.4,0 0.4,-0.1 z m 0.7,8.5 c -0.1,-0.4 0,-0.9 0,-1.2 0,-0.3 0,-0.6 0.2,-0.9 l 0.1,-0.1 v -0.2 h -0.2 l -0.1,0.1 c -0.2,0.4 -0.3,0.7 -0.3,1.1 0,0.4 0,0.9 0.1,1.2 0,0.1 0.1,0.1 0.2,0 -0.1,0.2 0,0.1 0,0 z"
       id="path178" /><path
       class="st25"
       d="m 488.5,614.9 c 0.4,-0.7 0.6,-2 0.6,-3.2 0,0 0.1,-1.1 -0.8,-2.5 -0.9,-1.4 -1.8,-0.9 -2.2,-0.6 -0.4,0.4 -1.2,1.9 -1.1,3.8 0.2,1.8 0.7,2.8 1.5,2.9 0.9,0.3 1.6,0.2 2,-0.4 z m -1.5,-0.7 -0.1,-0.1 c -0.8,-0.3 -1,-1.1 -1,-2.1 0,-0.9 0.2,-1.4 0.5,-1.8 0.3,-0.4 0.7,-0.5 1.1,0 0.2,0.2 0.4,0.6 0.4,0.9 -0.3,0 -0.6,0.2 -0.5,0.5 0.2,0.6 0.3,0.3 0.3,0.3 0,0 0,-0.4 0.3,-0.1 v 0.6 c -0.2,-0.1 -0.5,-0.1 -0.6,0.3 -0.2,0.6 0.1,0.5 0.1,0.5 0,0 0.1,-0.3 0.4,-0.1 -0.1,0.3 -0.2,0.5 -0.3,0.7 0,0.3 -0.3,0.5 -0.6,0.4 z m 2.4,-1.3 c 0,0.6 0.6,0.9 0.9,1 0.1,0.1 0.3,0 0.3,-0.1 0,-0.4 -0.5,-0.8 -0.9,-1 -0.2,0 -0.3,0 -0.3,0.1 z m -0.7,2.3 c -0.2,0.5 0.2,1.1 0.5,1.4 0.1,0.1 0.2,0.1 0.3,0.1 0.2,-0.4 -0.2,-1 -0.4,-1.3 -0.2,-0.2 -0.3,-0.3 -0.4,-0.2 z m -1.8,2.3 c 0.5,-0.3 0.4,-1 0.3,-1.4 0,-0.1 -0.1,-0.2 -0.2,-0.2 -0.3,0.2 -0.3,0.9 -0.3,1.3 0,0.2 0.1,0.4 0.2,0.3 z m -1.4,-2.2 c 0,-0.1 0,-0.3 -0.1,-0.3 -0.4,0.1 -0.7,0.7 -0.9,1.1 -0.1,0.2 0,0.4 0.1,0.3 0.7,0 0.9,-0.7 0.9,-1.1 z m -0.7,-2 c -0.4,-0.2 -0.9,0.1 -1.3,0.3 -0.1,0.1 -0.2,0.3 -0.1,0.3 0.6,0.3 1.1,-0.1 1.3,-0.4 0.1,-0.1 0.2,-0.2 0.1,-0.2 z m -0.1,-2 c -0.1,-0.4 -0.6,-0.7 -1,-0.8 -0.2,0 -0.3,0 -0.3,0.1 0.1,0.6 0.7,0.8 1,0.8 0.2,0.1 0.3,0 0.3,-0.1 z m 0.5,-2 c 0.2,-0.4 -0.2,-0.9 -0.5,-1.2 -0.1,-0.1 -0.3,-0.2 -0.3,-0.1 -0.2,0.6 0.3,1 0.6,1.3 0.1,0.1 0.2,0.1 0.2,0 z m 1.3,-1.1 c 0.1,0 0.1,-0.1 0.2,-0.2 0.1,-0.4 0.2,-1.1 -0.2,-1.4 -0.1,-0.1 -0.2,0.1 -0.2,0.3 -0.1,0.3 -0.2,1 0.2,1.3 z m 2.1,-1 c -0.3,0.3 -0.7,0.9 -0.6,1.2 0,0.1 0.1,0 0.3,-0.1 0.3,-0.3 0.8,-0.8 0.6,-1.3 0,0 -0.1,0 -0.3,0.2 z m 0.8,3.5 c 0,0.1 0.1,0.1 0.2,0 0.3,-0.1 0.9,-0.5 0.8,-1 0,-0.1 -0.2,-0.1 -0.3,0 -0.2,0.3 -0.7,0.7 -0.7,1 z m 1.9,-18 c -0.3,-0.7 -1,-0.8 -1.4,-0.3 -0.2,0.2 -0.4,0.5 -0.7,0.7 0,0 -0.1,0.1 -0.3,0.1 V 593 c -0.2,-0.1 -0.2,0.1 -0.3,0.3 h -0.2 c -0.4,0 -0.3,0.3 -0.2,0.3 h 0.2 c -0.1,0.2 -0.1,0.4 0.1,0.4 0.1,0 0.2,-0.2 0.2,-0.3 h 0.1 c 0,0.1 0,0.2 0.1,0.3 0.1,0 0.1,-0.1 0.2,-0.2 0.1,0 0.1,0.1 0.1,0.1 0.8,0.6 1.1,0.9 1.4,0.8 0.4,0.1 1.2,-0.7 0.7,-2 z m -1.8,0.9 0.8,-0.8 c 0.3,-0.4 0.8,-0.2 0.9,0.3 0.1,0.6 -0.1,1.2 -0.4,1.3 -0.3,0 -0.6,-0.1 -1.3,-0.8 z"
       id="path180" /><path
       class="st26"
       d="m 491.4,595.3 c 0,-0.1 0,-0.1 0,0 l 0.1,-0.1 v -0.1 c 0,-0.1 -0.1,-0.1 -0.1,-0.1 l -0.1,-0.1 h -0.1 v 0.1 c 0,0 0,0.1 0.1,0.1 -0.1,0.1 0,0.2 0.1,0.2 z m 0.6,-0.9 c 0,-0.1 -0.1,-0.2 -0.1,-0.2 0,0 -0.1,0 -0.1,-0.1 h -0.1 c -0.1,0 -0.1,0.1 -0.1,0.1 v 0.1 l 0.1,0.1 0.1,0.1 c 0.1,0 0.1,-0.1 0.2,-0.1 0,0.1 0,0 0,0 z m 0,-1.2 c 0.1,0 0.1,-0.1 0,-0.2 h -0.2 c 0,0 -0.1,0 -0.1,0.1 v 0.1 c 0,0 0,0.1 0.1,0.1 0.1,-0.1 0.2,-0.1 0.2,-0.1 z m -0.3,-1 0.1,-0.1 V 592 l -0.1,-0.1 h -0.1 l -0.1,0.1 -0.1,0.1 v 0.1 c 0,0 0,0.1 0.1,0 0.1,0.1 0.1,0 0.2,0 z m -0.8,-0.5 c 0.1,-0.1 0.1,-0.2 0.1,-0.2 h -0.2 c -0.1,0 -0.1,0.1 -0.2,0.1 -0.1,0 -0.1,0.1 -0.1,0.1 0,0 -0.1,0.1 0,0.2 0,0.1 0.1,0.1 0.2,0 0,-0.1 0.1,-0.1 0.2,-0.2 z"
       id="path182" /></g></g>
    <radialGradient
   id="SVGID_00000026867123382460741390000016888828757446987177_"
   cx="1027.748"
   cy="254.194"
   r="83.836998"
   gradientTransform="matrix(0.84,0,0,1,-377.648,304.11)"
   gradientUnits="userSpaceOnUse">
        <stop
   offset="0"
   style="stop-color:#25b6be"
   id="stop184" />
        <stop
   offset="1"
   style="stop-color:#1ca4a9"
   id="stop186" />
    </radialGradient>
    
    
    <linearGradient
   id="SVGID_00000170275759068832259310000012346248831707818662_"
   gradientUnits="userSpaceOnUse"
   x1="312.25"
   y1="83.584"
   x2="312.25"
   y2="52.344002"
   gradientTransform="translate(-286,304.11)">
        <stop
   offset="0"
   style="stop-color:#3b1666"
   id="stop193" />
        <stop
   offset="1"
   style="stop-color:#794b9a"
   id="stop195" />
    </linearGradient>
    
    
    <linearGradient
   id="SVGID_00000021833064821779692620000002565595206422824321_"
   gradientUnits="userSpaceOnUse"
   x1="557.25"
   y1="96.793999"
   x2="557.25"
   y2="76.734001"
   gradientTransform="translate(-286,304.11)">
        <stop
   offset=".1"
   style="stop-color:#25b6be"
   id="stop202" />
        <stop
   offset=".55"
   style="stop-color:#85bfce"
   id="stop204" />
        <stop
   offset=".8"
   style="stop-color:#32b8c1"
   id="stop206" />
    </linearGradient>
    
    
    <linearGradient
   id="SVGID_00000067935015978015718050000005332950643125665466_"
   gradientUnits="userSpaceOnUse"
   x1="557.15002"
   y1="91.143997"
   x2="557.15002"
   y2="51.844002"
   gradientTransform="translate(-286,304.11)">
        <stop
   offset=".1"
   style="stop-color:#25b6be"
   id="stop213" />
        <stop
   offset=".55"
   style="stop-color:#85bfce"
   id="stop215" />
        <stop
   offset=".8"
   style="stop-color:#32b8c1"
   id="stop217" />
    </linearGradient>
    
    
    <linearGradient
   id="SVGID_00000059294258064281165970000011975874143303406483_"
   gradientUnits="userSpaceOnUse"
   x1="557.15002"
   y1="-272.15601"
   x2="557.15002"
   y2="-304.07599"
   gradientTransform="translate(-286,304.11)">
        <stop
   offset="0"
   style="stop-color:#3b1666"
   id="stop224" />
        <stop
   offset="1"
   style="stop-color:#794b9a"
   id="stop226" />
    </linearGradient>
    
    <linearGradient
   id="SVGID_00000092453363402522187450000012948400354402255515_"
   gradientUnits="userSpaceOnUse"
   x1="639.5"
   y1="-280.70599"
   x2="639.5"
   y2="-283.62601"
   gradientTransform="translate(-286,304.11)">
        <stop
   offset="0"
   style="stop-color:#3b1666"
   id="stop231" />
        <stop
   offset="1"
   style="stop-color:#794b9a"
   id="stop233" />
    </linearGradient>
    
    
</svg>
