<?xml version="1.0" encoding="UTF-8" standalone="no"?>
<svg
   enable-background="new 0 0 530.647 232.524"
   viewBox="0 0 232.52456 530.64654"
   version="1.1"
   id="svg642"
   sodipodi:docname="console.svg"
   width="232.52455"
   height="530.64655"
   inkscape:version="1.1 (c68e22c387, 2021-05-23)"
   xmlns:inkscape="http://www.inkscape.org/namespaces/inkscape"
   xmlns:sodipodi="http://sodipodi.sourceforge.net/DTD/sodipodi-0.dtd"
   xmlns="http://www.w3.org/2000/svg"
   xmlns:svg="http://www.w3.org/2000/svg">
  <defs
     id="defs646" />
  <sodipodi:namedview
     id="namedview644"
     pagecolor="#ffffff"
     bordercolor="#666666"
     borderopacity="1.0"
     inkscape:pageshadow="2"
     inkscape:pageopacity="0.0"
     inkscape:pagecheckerboard="0"
     showgrid="false"
     fit-margin-top="0"
     fit-margin-left="0"
     fit-margin-right="0"
     fit-margin-bottom="0"
     inkscape:zoom="0.7415569"
     inkscape:cx="116.64648"
     inkscape:cy="265.65729"
     inkscape:window-width="1920"
     inkscape:window-height="1138"
     inkscape:window-x="-8"
     inkscape:window-y="-8"
     inkscape:window-maximized="1"
     inkscape:current-layer="svg642" />
  <g
     id="g1783"
     transform="rotate(90,116.26228,116.26228)">
    <path
       d="m 95.747,0 c 0,0 -14.697,15.715 -19.391,19.635 -2.149,1.792 -16.151,0.574 -28.183,1.502 H 29.946 C 40.349,8.17 47.054,3.622 50.661,1.938 54.297,0.244 58.42,0 58.42,0 Z"
       fill="#dbdde2"
       id="path2" />
    <path
       d="M 435.322,0.015 448.71,14.82 c 5.338,5.814 5.338,5.814 13.064,6.087 4.898,0.174 11.373,0.156 17.151,0.229 h 21.816 C 495.156,14.275 490.116,9.683 487.226,6.908 481.165,1.091 472.439,0 472.439,0 Z"
       fill="#dbdde2"
       id="path4" />
    <path
       d="m 95.627,227.131 c 0,0 -6.698,-7.352 -12.29,-12.388 -1.982,-1.785 -4.549,-2.818 -7.218,-2.84 -33.397,-0.287 0,0 -33.397,-0.287 -0.506,0.029 -0.971,0.029 -1.403,0 H 31.186 c 6.77,8.003 13.115,13.293 16.446,15.879 5.938,4.603 11.515,4.89 11.515,4.89 h 2.258 l 39.473,-0.004 z m -14.271,-1.225 c -3.938,0.12 -20.845,0.004 -21.969,-0.004 -1.284,-0.007 -1.876,0.196 -5.272,-2.105 -3.393,-2.302 -3.778,-3.636 -4.141,-4.363 -0.364,-0.727 -0.204,-2.32 0.316,-2.771 0.523,-0.458 1.229,-1.065 2.545,-1.171 1.32,-0.102 9.403,0.004 9.403,0.004 h 11.875 c 0,0 3.123,-0.076 6.334,2.636 2.145,1.811 3.105,2.487 3.545,3.545 0.287,0.687 1.302,4.105 -2.636,4.229 z"
       fill="#dbdde2"
       id="path6" />
    <path
       d="m 520.678,171.74 c -10.424,35.393 -22.06,40.723 -22.06,40.723 0,0 -0.818,0.364 -1.785,0.396 -0.971,0.029 -37.484,0 -37.484,0 0,0 -2.909,-0.516 -4.727,1.24 -1.818,1.76 -18.118,18.242 -18.118,18.242 l -335.626,0.04 -5.25,-5.25 c 0,0 -6.698,-7.352 -12.29,-12.388 -1.982,-1.785 -4.549,-2.818 -7.218,-2.84 -33.397,-0.287 0,0 -33.397,-0.287 -0.506,0.029 -0.971,0.029 -1.403,0 H 31.186 C 25.888,205.355 20.329,197.439 15.755,187.862 5.334,166.046 0,138.394 0,116.193 0,93.992 5.272,68.539 9.272,58.722 c 4,-9.817 9.879,-24.059 20.424,-37.269 0.084,-0.105 0.171,-0.211 0.251,-0.316 H 48.174 C 60.206,20.21 74.208,21.428 76.357,19.635 81.051,15.715 95.747,0 95.747,0 H 262.52 L 435.322,0.015 448.71,14.82 c 5.338,5.814 5.338,5.814 13.064,6.087 4.898,0.174 11.373,0.156 17.151,0.229 h 21.816 c 6.127,7.523 12.911,17.773 18.238,31.343 10.181,25.939 10.668,45.33 11.395,53.813 0.728,8.486 0.728,30.059 -9.696,65.448 z"
       fill="#2d2d2d"
       id="path8" />
    <path
       d="m 515.467,167.74 c -10.156,33.891 -19.515,38.422 -19.515,38.422 0,0 -0.796,0.349 -1.742,0.378 -0.945,0.029 -36.556,0.229 -36.556,0.229 0,0 -2.836,-0.494 -4.607,1.189 -1.771,1.684 -18.06,19.173 -18.06,19.173 H 95.627 c 0,0 -6.698,-7.352 -12.29,-12.388 -1.982,-1.785 -4.549,-2.818 -7.218,-2.84 -33.397,-0.287 0,0 -33.397,-0.287 -0.506,0.029 -0.971,0.029 -1.403,0 -3.211,-0.196 -4.64,-1.847 -6.25,-3.781 C 29.928,201.661 23.405,191.008 19.754,183.499 9.599,162.606 5.938,135.434 5.938,114.171 c 0,-21.263 6.025,-45.545 9.919,-54.948 3.56,-8.588 8.647,-20.707 17.329,-32.382 1.8,-2.422 4.432,-4.101 7.388,-4.709 2.334,-0.476 4.916,-0.789 7.599,-0.996 12.032,-0.927 26.034,0.291 28.183,-1.502 C 81.051,15.715 95.747,0 95.747,0 H 262.52 L 435.322,0.015 448.71,14.82 c 5.338,5.814 5.338,5.814 13.064,6.087 4.898,0.174 11.373,0.156 17.151,0.229 4.432,0.055 8.454,0.16 11.032,0.44 1.604,0.178 3.094,0.916 4.203,2.091 5.6,5.948 12.326,16.173 18.296,29.579 9.919,24.838 10.875,43.345 11.584,51.472 0.71,8.126 1.583,29.131 -8.573,63.022 z"
       fill="#313131"
       id="path10" />
    <path
       d="M 42.723,211.616 H 41.32"
       fill="none"
       stroke="#ec1c24"
       stroke-miterlimit="10"
       stroke-width="0.3636"
       id="path12" />
    <path
       d="m 100.892,232.396 -0.014,-0.014"
       fill="none"
       stroke="#ec1c24"
       stroke-miterlimit="10"
       stroke-width="0.3636"
       id="path14" />
    <path
       d="M 48.359,21.136 H 48.174"
       fill="none"
       stroke="#ec1c24"
       stroke-miterlimit="10"
       stroke-width="0.3512"
       id="path16" />
    <path
       d="M 408.108,188.709 H 123.962 c -0.852,0 -1.55,-0.697 -1.55,-1.55 V 30.517 c 0,-0.852 0.697,-1.55 1.55,-1.55 h 284.146 c 0.852,0 1.55,0.697 1.55,1.55 V 187.16 c 0,0.852 -0.697,1.549 -1.55,1.549 z"
       fill="#0f0f12"
       id="path18" />
    <path
       d="m 469.773,71.811 c -18.875,0 -34.179,15.304 -34.179,34.178 0,18.875 15.304,34.179 34.179,34.179 18.875,0 34.179,-15.304 34.179,-34.179 0,-18.874 -15.304,-34.178 -34.179,-34.178 z m 0,67.267 c -18.275,0 -33.088,-14.813 -33.088,-33.088 0,-18.275 14.813,-33.088 33.088,-33.088 18.275,0 33.088,14.813 33.088,33.088 0,18.275 -14.813,33.088 -33.088,33.088 z"
       fill="#0f0f12"
       id="path20" />
    <circle
       cx="436.686"
       cy="104.717"
       fill="#0f0f12"
       r="15.756"
       id="circle22" />
    <circle
       cx="436.686"
       cy="104.717"
       fill="#232323"
       r="14.786"
       id="circle24" />
    <circle
       cx="502.86099"
       cy="104.717"
       fill="#0f0f12"
       r="15.756"
       id="circle26" />
    <circle
       cx="502.86099"
       cy="104.717"
       fill="#232323"
       r="14.665"
       id="circle28" />
    <circle
       cx="469.86401"
       cy="71.720001"
       fill="#0f0f12"
       transform="matrix(0.3481,-0.9375,0.9375,0.3481,239.0655,487.2301)"
       id="ellipse30"
       r="15.756" />
    <circle
       cx="469.86401"
       cy="71.720001"
       fill="#232323"
       transform="matrix(0.3861,-0.9225,0.9225,0.3861,222.2876,477.457)"
       id="ellipse32"
       r="14.574" />
    <circle
       cx="469.86401"
       cy="138.16901"
       fill="#0f0f12"
       r="15.756"
       id="circle34" />
    <circle
       cx="469.86401"
       cy="138.16901"
       fill="#232323"
       r="14.574"
       id="circle36" />
    <path
       d="m 364.344,207.631 v 0.894 c 0,7.01 6.599,12.712 14.711,12.712 8.112,0 14.711,-5.701 14.711,-12.712 v -0.894 z m 14.711,11.817 c -6.73,0 -12.337,-4.436 -12.879,-10.028 h 25.758 c -0.542,5.592 -6.149,10.028 -12.879,10.028 z"
       fill="#231f20"
       id="path38" />
    <path
       d="m 391.934,209.42 c -0.542,5.592 -6.148,10.028 -12.879,10.028 -6.73,0 -12.337,-4.436 -12.879,-10.028 z"
       fill="#232323"
       id="path40" />
    <path
       d="m 398.886,207.631 v 0.894 c 0,7.01 6.599,12.712 14.711,12.712 8.112,0 14.711,-5.701 14.711,-12.712 v -0.894 z m 14.711,11.817 c -6.73,0 -12.337,-4.436 -12.879,-10.028 h 25.758 c -0.542,5.592 -6.149,10.028 -12.879,10.028 z"
       fill="#231f20"
       id="path42" />
    <path
       d="m 426.476,209.42 c -0.542,5.592 -6.148,10.028 -12.879,10.028 -6.73,0 -12.337,-4.436 -12.879,-10.028 z"
       fill="#232323"
       id="path44" />
    <path
       d="m 105.459,207.631 v 0.894 c 0,7.01 6.599,12.712 14.711,12.712 8.112,0 14.711,-5.701 14.711,-12.712 v -0.894 z m 14.711,11.817 c -6.73,0 -12.337,-4.436 -12.879,-10.028 h 25.758 c -0.542,5.592 -6.148,10.028 -12.879,10.028 z"
       fill="#231f20"
       id="path46" />
    <path
       d="m 133.049,209.42 c -0.542,5.592 -6.149,10.028 -12.879,10.028 -6.73,0 -12.337,-4.436 -12.879,-10.028 z"
       fill="#232323"
       id="path48" />
    <path
       d="m 160.923,205.631 h -4.909 c -3.916,0 -7.105,3.189 -7.105,7.105 v 1.396 c 0,3.916 3.189,7.105 7.105,7.105 h 4.909 c 3.92,0 7.108,-3.189 7.108,-7.105 v -1.396 c 0,-3.916 -3.189,-7.105 -7.108,-7.105 z m 5.319,8.501 c 0,2.931 -2.385,5.316 -5.319,5.316 h -4.909 c -2.931,0 -5.316,-2.385 -5.316,-5.316 v -1.396 c 0,-2.931 2.385,-5.316 5.316,-5.316 h 4.909 c 2.934,0 5.319,2.385 5.319,5.316 z"
       fill="#231f20"
       id="path50" />
    <path
       d="m 166.242,212.736 v 1.396 c 0,2.931 -2.385,5.316 -5.319,5.316 h -4.909 c -2.931,0 -5.316,-2.385 -5.316,-5.316 v -1.396 c 0,-2.931 2.385,-5.316 5.316,-5.316 h 4.909 c 2.934,0 5.319,2.385 5.319,5.316 z"
       fill="#232323"
       id="path52" />
    <path
       d="m 195.436,205.631 h -4.909 c -3.92,0 -7.105,3.189 -7.105,7.105 v 1.396 c 0,3.916 3.185,7.105 7.105,7.105 h 4.909 c 3.92,0 7.105,-3.189 7.105,-7.105 v -1.396 c 0,-3.916 -3.185,-7.105 -7.105,-7.105 z m 5.316,8.501 c 0,2.931 -2.385,5.316 -5.316,5.316 h -4.909 c -2.931,0 -5.316,-2.385 -5.316,-5.316 v -1.396 c 0,-2.931 2.385,-5.316 5.316,-5.316 h 4.909 c 2.931,0 5.316,2.385 5.316,5.316 z"
       fill="#231f20"
       id="path54" />
    <path
       d="m 200.752,212.736 v 1.396 c 0,2.931 -2.385,5.316 -5.316,5.316 h -4.909 c -2.931,0 -5.316,-2.385 -5.316,-5.316 v -1.396 c 0,-2.931 2.385,-5.316 5.316,-5.316 h 4.909 c 2.931,0 5.316,2.385 5.316,5.316 z"
       fill="#232323"
       id="path56" />
    <path
       d="m 326.318,206.631 h -5.061 c -3.876,0 -7.028,3.152 -7.028,7.028 v 1.549 c 0,3.876 3.152,7.028 7.028,7.028 h 5.061 c 3.876,0 7.029,-3.152 7.029,-7.028 v -1.549 c -10e-4,-3.875 -3.153,-7.028 -7.029,-7.028 z m 5.24,8.578 c 0,2.887 -2.349,5.24 -5.24,5.24 h -5.061 c -2.891,0 -5.24,-2.352 -5.24,-5.24 v -1.549 c 0,-2.887 2.349,-5.24 5.24,-5.24 h 5.061 c 2.891,0 5.24,2.353 5.24,5.24 z"
       fill="#231f20"
       id="path58" />
    <path
       d="m 331.558,213.66 v 1.549 c 0,2.887 -2.349,5.24 -5.24,5.24 h -5.061 c -2.891,0 -5.24,-2.352 -5.24,-5.24 v -1.549 c 0,-2.887 2.349,-5.24 5.24,-5.24 h 5.061 c 2.891,0 5.24,2.353 5.24,5.24 z"
       fill="#232323"
       id="path60" />
    <path
       d="m 348.556,206.631 h -4.814 c -3.945,0 -7.152,3.207 -7.152,7.152 v 1.302 c 0,3.945 3.207,7.152 7.152,7.152 h 4.814 c 3.945,0 7.152,-3.207 7.152,-7.152 v -1.302 c 0,-3.945 -3.207,-7.152 -7.152,-7.152 z m 5.363,8.454 c 0,2.956 -2.403,5.363 -5.363,5.363 h -4.814 c -2.96,0 -5.363,-2.407 -5.363,-5.363 v -1.302 c 0,-2.956 2.403,-5.363 5.363,-5.363 h 4.814 c 2.96,0 5.363,2.407 5.363,5.363 z"
       fill="#231f20"
       id="path62" />
    <path
       d="m 353.919,213.783 v 1.302 c 0,2.956 -2.403,5.363 -5.363,5.363 h -4.814 c -2.96,0 -5.363,-2.407 -5.363,-5.363 v -1.302 c 0,-2.956 2.403,-5.363 5.363,-5.363 h 4.814 c 2.96,0 5.363,2.407 5.363,5.363 z"
       fill="#232323"
       id="path64" />
    <path
       d="m 348.558,221.515 h -4.818 c -3.545,0 -6.43,-2.884 -6.43,-6.43 v -1.303 c 0,-3.546 2.885,-6.43 6.43,-6.43 h 4.818 c 3.545,0 6.43,2.884 6.43,6.43 v 1.303 c 0,3.546 -2.885,6.43 -6.43,6.43 z m -4.818,-13.816 c -3.355,0 -6.084,2.729 -6.084,6.084 v 1.303 c 0,3.355 2.729,6.084 6.084,6.084 h 4.818 c 3.355,0 6.084,-2.729 6.084,-6.084 v -1.303 c 0,-3.355 -2.729,-6.084 -6.084,-6.084 z"
       fill="#231f20"
       id="path66" />
    <path
       d="m 154.849,212.98 h 6.954 v 1.636 h -6.954 z"
       fill="#d0d2d3"
       id="path68" />
    <path
       d="m 192.3,210.48 v 2.682 h -2.636 v 1.454 h 2.636 v 2.545 h 1.318 v -2.545 h 2.681 v -1.363 h -2.681 v -2.773 z"
       fill="#d0d2d3"
       id="path70" />
    <path
       d="m 325.893,211.525 h -3.789 c -1.156,0 -2.105,0.949 -2.105,2.105 v 2.062 c 0,1.156 0.949,2.105 2.109,2.105 h 3.785 c 1.16,0 2.105,-0.949 2.105,-2.105 v -2.062 c 0,-1.156 -0.946,-2.105 -2.105,-2.105 z m 1.014,3.887 c 0,0.84 -0.687,1.531 -1.531,1.531 h -2.752 c -0.844,0 -1.534,-0.691 -1.534,-1.531 v -1.502 c 0,-0.84 0.691,-1.531 1.534,-1.531 h 2.752 c 0.844,0 1.531,0.691 1.531,1.531 z"
       fill="#d0d2d3"
       id="path72" />
    <path
       d="m 440.913,201.708 h -3.727 c -2.925,0 -5.318,-2.393 -5.318,-5.318 0,-2.925 2.393,-5.318 5.318,-5.318 h 3.727 c 2.925,0 5.318,2.393 5.318,5.318 -10e-4,2.925 -2.394,5.318 -5.318,5.318 z"
       fill="#0f0f12"
       id="path74" />
    <path
       d="M 95.747,201.708 H 92.02 c -2.925,0 -5.318,-2.393 -5.318,-5.318 0,-2.925 2.393,-5.318 5.318,-5.318 h 3.727 c 2.925,0 5.318,2.393 5.318,5.318 0,2.925 -2.393,5.318 -5.318,5.318 z"
       fill="#0f0f12"
       id="path76" />
    <path
       d="m 502.225,184.71 c 0,-1.28 1.038,-2.318 2.318,-2.318 1.28,0 2.318,1.038 2.318,2.318 0,1.28 -1.038,2.318 -2.318,2.318 -1.28,0 -2.318,-1.038 -2.318,-2.318 z"
       fill="#ba8d5e"
       id="path78" />
    <path
       d="m 510.633,160.348 c 0,-1.28 1.038,-2.318 2.318,-2.318 1.28,0 2.318,1.038 2.318,2.318 0,1.28 -1.038,2.318 -2.318,2.318 -1.28,0 -2.318,-1.037 -2.318,-2.318 z"
       fill="#55bfa2"
       id="path80" />
    <path
       d="m 503.087,99.536 c -3.062,0 -5.541,2.483 -5.541,5.545 0,3.062 2.48,5.545 5.541,5.545 3.065,0 5.549,-2.483 5.549,-5.545 0,-3.062 -2.484,-5.545 -5.549,-5.545 z m 0,9.635 c -2.258,0 -4.087,-1.833 -4.087,-4.09 0,-2.258 1.829,-4.09 4.087,-4.09 2.262,0 4.094,1.833 4.094,4.09 0,2.258 -1.833,4.09 -4.094,4.09 z"
       fill="#d0d2d3"
       id="path82" />
    <path
       d="m 469.773,64.219 -5.454,9.185 h 10.683 z m 0,2.727 2.803,4.978 h -5.607 z"
       fill="#d0d2d3"
       id="path84" />
    <path
       d="m 432.261,100.383 v 9.061 h 8.788 v -9.061 z m 7.304,7.425 h -5.88 v -5.879 h 5.88 z"
       fill="#d0d2d3"
       id="path86" />
    <path
       d="m 469.773,136.957 3.273,-3.273 1.091,1.091 -3.348,3.348 3.136,3.136 -0.97,0.97 -3.136,-3.136 -3.182,3.181 -1.045,-1.045 3.216,-3.216 -3.242,-3.242 1.041,-1.041 z"
       fill="#d0d2d3"
       id="path88" />
    <path
       d="m 65.357,159.712 c -9.188,0 -16.635,7.447 -16.635,16.635 0,9.188 7.447,16.635 16.635,16.635 9.188,0 16.635,-7.447 16.635,-16.635 0,-9.188 -7.446,-16.635 -16.635,-16.635 z m 0,31.633 c -8.283,0 -14.999,-6.716 -14.999,-14.999 0,-8.283 6.716,-14.999 14.999,-14.999 8.283,0 14.999,6.716 14.999,14.999 0,8.284 -6.716,14.999 -14.999,14.999 z"
       fill="#0f0f12"
       id="path90" />
    <circle
       cx="65.357002"
       cy="176.347"
       fill="#232323"
       transform="matrix(0.1609,-0.987,0.987,0.1609,-119.209,212.4722)"
       id="ellipse92"
       r="14.999" />
    <path
       d="m 25.316,184.801 c 0,-1.431 1.16,-2.591 2.591,-2.591 1.431,0 2.591,1.16 2.591,2.591 0,1.431 -1.16,2.591 -2.591,2.591 -1.431,-0.001 -2.591,-1.161 -2.591,-2.591 z"
       fill="#55bfa2"
       id="path94" />
    <circle
       cx="19.452999"
       cy="160.34801"
       fill="#f6921e"
       r="2.5450001"
       id="circle96" />
    <path
       d="m 63.387,64.721 c -22.623,0 -40.963,18.34 -40.963,40.967 0,22.623 18.34,40.963 40.963,40.963 22.627,0 40.967,-18.34 40.967,-40.963 0,-22.627 -18.34,-40.967 -40.967,-40.967 z m -11.959,6.203 c 0,-1.873 1.52,-3.392 3.392,-3.392 h 17.758 c 1.873,0 3.392,1.52 3.392,3.392 v 14.053 c 0,0.585 -0.236,1.149 -0.651,1.563 l -9.225,9.126 c -1.32,1.331 -3.469,1.335 -4.796,0.015 l -9.206,-9.166 c -0.425,-0.425 -0.665,-1 -0.665,-1.6 V 70.924 Z M 25.452,96.536 c 0,-1.872 1.52,-3.393 3.392,-3.393 h 14.053 c 0.585,0 1.149,0.236 1.564,0.651 l 9.126,9.225 c 1.331,1.32 1.334,3.469 0.015,4.796 l -9.166,9.206 c -0.425,0.425 -1,0.665 -1.6,0.665 H 28.845 c -1.873,0 -3.392,-1.52 -3.392,-3.392 V 96.536 Z m 47.127,46.763 H 54.82 c -1.872,0 -3.392,-1.52 -3.392,-3.392 v -14.053 c 0,-0.585 0.236,-1.149 0.651,-1.563 l 9.225,-9.126 c 1.32,-1.331 3.469,-1.334 4.796,-0.015 l 9.206,9.166 c 0.425,0.425 0.665,1 0.665,1.6 v 13.991 c 0,1.872 -1.52,3.392 -3.392,3.392 z m 3.297,0.073 c 0.658,-0.662 1.065,-1.574 1.065,-2.582 v -15.097 c 0,-0.651 -0.258,-1.269 -0.716,-1.727 l -9.934,-9.89 c -1.436,-1.425 -3.752,-1.422 -5.181,0.011 l -9.948,9.854 c -0.451,0.444 -0.705,1.054 -0.705,1.687 v 15.162 c 0,1.174 0.553,2.218 1.411,2.887 -12.471,-3.771 -22.343,-13.515 -26.296,-25.907 0.64,0.553 1.476,0.887 2.389,0.887 h 15.097 c 0.651,0 1.269,-0.258 1.727,-0.716 l 9.89,-9.934 c 1.425,-1.436 1.422,-3.752 -0.011,-5.181 L 44.81,92.878 C 44.366,92.427 43.755,92.173 43.123,92.173 H 27.961 c -0.803,0 -1.545,0.258 -2.149,0.694 4.021,-11.795 13.442,-21.092 25.318,-24.939 -0.426,0.596 -0.673,1.327 -0.673,2.113 v 15.097 c 0,0.651 0.258,1.269 0.716,1.727 l 9.934,9.89 c 1.436,1.425 3.752,1.422 5.181,-0.011 l 9.948,-9.854 c 0.451,-0.444 0.705,-1.054 0.705,-1.687 V 70.041 c 0,-0.673 -0.182,-1.305 -0.502,-1.847 11.537,4.011 20.649,13.202 24.561,24.783 -0.629,-0.502 -1.425,-0.803 -2.291,-0.803 H 83.614 c -0.651,0 -1.269,0.258 -1.727,0.716 l -9.89,9.934 c -1.425,1.436 -1.422,3.752 0.011,5.181 l 9.854,9.948 c 0.444,0.451 1.054,0.705 1.687,0.705 h 15.162 c 0.985,0 1.88,-0.389 2.538,-1.025 -3.822,12.133 -13.315,21.75 -25.373,25.739 z m 25.343,-46.836 v 17.758 c 0,1.872 -1.52,3.392 -3.392,3.392 H 83.774 c -0.585,0 -1.149,-0.236 -1.563,-0.651 l -9.126,-9.225 c -1.331,-1.32 -1.334,-3.469 -0.015,-4.796 l 9.166,-9.206 c 0.425,-0.425 1,-0.666 1.6,-0.666 h 13.991 c 1.873,0.002 3.392,1.522 3.392,3.394 z"
       fill="#0f0f12"
       id="path98" />
    <path
       d="m 53.602,107.815 -9.166,9.206 c -0.425,0.425 -1,0.665 -1.6,0.665 H 28.845 c -1.873,0 -3.392,-1.52 -3.392,-3.392 V 96.536 c 0,-1.872 1.52,-3.393 3.392,-3.393 h 14.053 c 0.585,0 1.149,0.236 1.564,0.651 l 9.126,9.225 c 1.33,1.32 1.334,3.469 0.014,4.796 z"
       fill="#232323"
       id="path100" />
    <path
       d="m 30.815,105.172 v 0.454 l 5.181,5.181 v -10.635 z m 4.007,2.847 -2.341,-2.531 2.341,-2.338 z"
       fill="#d0d2d3"
       id="path102" />
    <path
       d="m 101.219,96.536 v 17.758 c 0,1.872 -1.52,3.392 -3.392,3.392 H 83.774 c -0.585,0 -1.149,-0.236 -1.563,-0.651 l -9.126,-9.225 c -1.331,-1.32 -1.334,-3.469 -0.015,-4.796 l 9.166,-9.206 c 0.425,-0.425 1,-0.666 1.6,-0.666 h 13.991 c 1.873,0.002 3.392,1.522 3.392,3.394 z"
       fill="#232323"
       id="path104" />
    <path
       d="m 95.856,105.659 v -0.455 l -5.181,-5.181 v 10.635 z m -4.007,-2.847 2.342,2.531 -2.342,2.338 z"
       fill="#d0d2d3"
       id="path106" />
    <path
       d="m 75.971,70.924 v 14.053 c 0,0.585 -0.236,1.149 -0.651,1.563 l -9.225,9.126 c -1.32,1.331 -3.469,1.335 -4.796,0.015 l -9.206,-9.166 c -0.425,-0.425 -0.665,-1 -0.665,-1.6 V 70.924 c 0,-1.873 1.52,-3.392 3.392,-3.392 h 17.758 c 1.873,0 3.393,1.52 3.393,3.392 z"
       fill="#232323"
       id="path108" />
    <path
       d="m 63.943,72.895 h -0.454 l -5.181,5.181 h 10.635 z m -2.847,4.007 2.531,-2.342 2.338,2.342 z"
       fill="#d0d2d3"
       id="path110" />
    <path
       d="m 75.971,125.915 v 13.991 c 0,1.873 -1.52,3.392 -3.392,3.392 H 54.82 c -1.872,0 -3.392,-1.52 -3.392,-3.392 v -14.053 c 0,-0.585 0.236,-1.149 0.651,-1.563 l 9.225,-9.126 c 1.32,-1.331 3.469,-1.334 4.796,-0.015 l 9.206,9.166 c 0.425,0.426 0.665,1 0.665,1.6 z"
       fill="#232323"
       id="path112" />
    <path
       d="m 63.456,137.936 h 0.455 l 5.181,-5.181 H 58.456 Z m 2.847,-4.007 -2.531,2.342 -2.338,-2.342 z"
       fill="#d0d2d3"
       id="path114" />
    <g
       fill="#0f0f12"
       id="g548">
      <circle
         cx="91.385002"
         cy="15.09"
         r="1.515"
         id="circle116" />
      <path
         d="m 93.143,10.863 c 0,-0.837 0.678,-1.515 1.515,-1.515 0.837,0 1.515,0.678 1.515,1.515 0,0.837 -0.678,1.515 -1.515,1.515 -0.837,0 -1.515,-0.679 -1.515,-1.515 z"
         id="path118" />
      <circle
         cx="99.566002"
         cy="10.863"
         r="1.515"
         id="circle120" />
      <circle
         cx="104.596"
         cy="10.863"
         r="1.515"
         id="circle122" />
      <circle
         cx="109.353"
         cy="10.863"
         r="1.515"
         id="circle124" />
      <circle
         cx="114.11"
         cy="10.863"
         r="1.515"
         id="circle126" />
      <circle
         cx="118.898"
         cy="10.863"
         r="1.515"
         id="circle128" />
      <circle
         cx="123.806"
         cy="10.863"
         r="1.515"
         id="circle130" />
      <circle
         cx="128.351"
         cy="10.863"
         r="1.515"
         id="circle132" />
      <circle
         cx="133.306"
         cy="10.863"
         r="1.515"
         id="circle134" />
      <circle
         cx="137.896"
         cy="10.863"
         r="1.515"
         id="circle136" />
      <circle
         cx="142.896"
         cy="10.863"
         r="1.515"
         id="circle138" />
      <circle
         cx="147.804"
         cy="10.863"
         r="1.515"
         id="circle140" />
      <circle
         cx="152.62199"
         cy="10.863"
         r="1.515"
         id="circle142" />
      <circle
         cx="157.21201"
         cy="10.863"
         r="1.515"
         id="circle144" />
      <circle
         cx="162.30299"
         cy="10.863"
         r="1.515"
         id="circle146" />
      <circle
         cx="166.89301"
         cy="10.863"
         r="1.515"
         id="circle148" />
      <circle
         cx="171.681"
         cy="10.863"
         r="1.515"
         id="circle150" />
      <path
         d="m 175.074,10.863 c 0,-0.837 0.678,-1.515 1.515,-1.515 0.837,0 1.515,0.678 1.515,1.515 0,0.837 -0.678,1.515 -1.515,1.515 -0.836,0 -1.515,-0.679 -1.515,-1.515 z"
         id="path152" />
      <circle
         cx="181.134"
         cy="10.863"
         r="1.515"
         id="circle154" />
      <circle
         cx="186.164"
         cy="10.863"
         r="1.515"
         id="circle156" />
      <circle
         cx="191.133"
         cy="10.863"
         r="1.515"
         id="circle158" />
      <circle
         cx="195.66299"
         cy="10.863"
         r="1.515"
         id="circle160" />
      <circle
         cx="200.481"
         cy="10.863"
         r="1.515"
         id="circle162" />
      <circle
         cx="205.34399"
         cy="10.863"
         r="1.515"
         id="circle164" />
      <circle
         cx="209.98"
         cy="10.863"
         r="1.515"
         id="circle166" />
      <path
         d="m 213.374,10.863 c 0,-0.837 0.678,-1.515 1.515,-1.515 0.837,0 1.515,0.678 1.515,1.515 0,0.837 -0.678,1.515 -1.515,1.515 -0.837,0 -1.515,-0.679 -1.515,-1.515 z"
         id="path168" />
      <circle
         cx="219.70599"
         cy="10.863"
         r="1.515"
         id="circle170" />
      <circle
         cx="224.524"
         cy="10.863"
         r="1.515"
         id="circle172" />
      <circle
         cx="229.342"
         cy="10.863"
         r="1.515"
         id="circle174" />
      <circle
         cx="233.978"
         cy="10.863"
         r="1.515"
         id="circle176" />
      <circle
         cx="238.841"
         cy="10.863"
         r="1.515"
         id="circle178" />
      <circle
         cx="243.795"
         cy="10.863"
         r="1.515"
         id="circle180" />
      <circle
         cx="248.431"
         cy="10.863"
         r="1.515"
         id="circle182" />
      <circle
         cx="253.112"
         cy="10.863"
         r="1.515"
         id="circle184" />
      <circle
         cx="258.112"
         cy="10.863"
         r="1.515"
         id="circle186" />
      <circle
         cx="431.32999"
         cy="10.863"
         r="1.515"
         id="circle188" />
      <circle
         cx="435.83701"
         cy="10.863"
         r="1.515"
         id="circle190" />
      <circle
         cx="426.422"
         cy="10.863"
         r="1.515"
         id="circle192" />
      <path
         d="m 422.907,10.863 c 0,0.837 -0.678,1.515 -1.515,1.515 -0.837,0 -1.515,-0.678 -1.515,-1.515 0,-0.837 0.678,-1.515 1.515,-1.515 0.837,0 1.515,0.678 1.515,1.515 z"
         id="path194" />
      <circle
         cx="416.63501"
         cy="10.863"
         r="1.515"
         id="circle196" />
      <circle
         cx="411.87799"
         cy="10.863"
         r="1.515"
         id="circle198" />
      <circle
         cx="407.09"
         cy="10.863"
         r="1.515"
         id="circle200" />
      <path
         d="m 403.697,10.863 c 0,0.837 -0.678,1.515 -1.515,1.515 -0.837,0 -1.515,-0.678 -1.515,-1.515 0,-0.837 0.678,-1.515 1.515,-1.515 0.836,0 1.515,0.678 1.515,1.515 z"
         id="path202" />
      <circle
         cx="397.63599"
         cy="10.863"
         r="1.515"
         id="circle204" />
      <path
         d="m 394.197,10.863 c 0,0.837 -0.678,1.515 -1.515,1.515 -0.837,0 -1.515,-0.678 -1.515,-1.515 0,-0.837 0.678,-1.515 1.515,-1.515 0.837,0 1.515,0.678 1.515,1.515 z"
         id="path206" />
      <circle
         cx="388.09201"
         cy="10.863"
         r="1.515"
         id="circle208" />
      <path
         d="m 384.607,10.863 c 0,0.837 -0.678,1.515 -1.515,1.515 -0.837,0 -1.515,-0.678 -1.515,-1.515 0,-0.837 0.678,-1.515 1.515,-1.515 0.837,0 1.515,0.678 1.515,1.515 z"
         id="path210" />
      <circle
         cx="378.18399"
         cy="10.863"
         r="1.515"
         id="circle212" />
      <circle
         cx="373.366"
         cy="10.863"
         r="1.515"
         id="circle214" />
      <circle
         cx="368.776"
         cy="10.863"
         r="1.515"
         id="circle216" />
      <circle
         cx="363.685"
         cy="10.863"
         r="1.515"
         id="circle218" />
      <circle
         cx="359.095"
         cy="10.863"
         r="1.515"
         id="circle220" />
      <circle
         cx="354.30701"
         cy="10.863"
         r="1.515"
         id="circle222" />
      <circle
         cx="349.39899"
         cy="10.863"
         r="1.515"
         id="circle224" />
      <circle
         cx="344.854"
         cy="10.863"
         r="1.515"
         id="circle226" />
      <circle
         cx="339.82401"
         cy="10.863"
         r="1.515"
         id="circle228" />
      <circle
         cx="334.854"
         cy="10.863"
         r="1.515"
         id="circle230" />
      <path
         d="m 331.84,10.863 c 0,0.837 -0.678,1.515 -1.515,1.515 -0.837,0 -1.515,-0.678 -1.515,-1.515 0,-0.837 0.678,-1.515 1.515,-1.515 0.836,0 1.515,0.678 1.515,1.515 z"
         id="path232" />
      <circle
         cx="325.50699"
         cy="10.863"
         r="1.515"
         id="circle234" />
      <path
         d="m 322.159,10.863 c 0,0.837 -0.678,1.515 -1.515,1.515 -0.837,0 -1.515,-0.678 -1.515,-1.515 0,-0.837 0.678,-1.515 1.515,-1.515 0.836,0 1.515,0.678 1.515,1.515 z"
         id="path236" />
      <circle
         cx="316.008"
         cy="10.863"
         r="1.515"
         id="circle238" />
      <circle
         cx="311.099"
         cy="10.863"
         r="1.515"
         id="circle240" />
      <circle
         cx="306.28101"
         cy="10.863"
         r="1.515"
         id="circle242" />
      <path
         d="m 302.979,10.863 c 0,0.837 -0.678,1.515 -1.515,1.515 -0.837,0 -1.515,-0.678 -1.515,-1.515 0,-0.837 0.678,-1.515 1.515,-1.515 0.837,0 1.515,0.678 1.515,1.515 z"
         id="path244" />
      <circle
         cx="296.646"
         cy="10.863"
         r="1.515"
         id="circle246" />
      <circle
         cx="292.01001"
         cy="10.863"
         r="1.515"
         id="circle248" />
      <circle
         cx="287.147"
         cy="10.863"
         r="1.515"
         id="circle250" />
      <path
         d="m 283.708,10.863 c 0,0.837 -0.678,1.515 -1.515,1.515 -0.837,0 -1.515,-0.678 -1.515,-1.515 0,-0.837 0.678,-1.515 1.515,-1.515 0.837,0 1.515,0.678 1.515,1.515 z"
         id="path252" />
      <circle
         cx="277.55701"
         cy="10.863"
         r="1.515"
         id="circle254" />
      <circle
         cx="272.87601"
         cy="10.863"
         r="1.515"
         id="circle256" />
      <circle
         cx="267.87601"
         cy="10.863"
         r="1.515"
         id="circle258" />
      <path
         d="m 261.323,10.863 c 0,-0.837 0.678,-1.515 1.515,-1.515 0.837,0 1.515,0.678 1.515,1.515 0,0.837 -0.678,1.515 -1.515,1.515 -0.836,0 -1.515,-0.679 -1.515,-1.515 z"
         id="path260" />
      <circle
         cx="244.05299"
         cy="6.9689999"
         r="1.515"
         id="circle262" />
      <circle
         cx="248.689"
         cy="6.9689999"
         r="1.515"
         id="circle264" />
      <circle
         cx="253.37"
         cy="6.9689999"
         r="1.515"
         id="circle266" />
      <circle
         cx="258.36899"
         cy="6.9689999"
         r="1.515"
         id="circle268" />
      <circle
         cx="429.043"
         cy="6.9689999"
         r="1.515"
         id="circle270" />
      <circle
         cx="433.54999"
         cy="6.9689999"
         r="1.515"
         id="circle272" />
      <circle
         cx="424.134"
         cy="6.9689999"
         r="1.515"
         id="circle274" />
      <circle
         cx="419.104"
         cy="6.9689999"
         r="1.515"
         id="circle276" />
      <circle
         cx="414.34698"
         cy="6.9689999"
         r="1.515"
         id="circle278" />
      <circle
         cx="409.953"
         cy="6.9689999"
         r="1.515"
         id="circle280" />
      <circle
         cx="405.16599"
         cy="6.9689999"
         r="1.515"
         id="circle282" />
      <circle
         cx="400.25699"
         cy="6.9689999"
         r="1.515"
         id="circle284" />
      <circle
         cx="395.71201"
         cy="6.9689999"
         r="1.515"
         id="circle286" />
      <circle
         cx="390.758"
         cy="6.9689999"
         r="1.515"
         id="circle288" />
      <circle
         cx="386.168"
         cy="6.9689999"
         r="1.515"
         id="circle290" />
      <circle
         cx="381.53201"
         cy="6.9689999"
         r="1.515"
         id="circle292" />
      <circle
         cx="376.62299"
         cy="6.9689999"
         r="1.515"
         id="circle294" />
      <path
         d="m 373.321,6.969 c 0,0.837 -0.678,1.515 -1.515,1.515 -0.837,0 -1.515,-0.678 -1.515,-1.515 0,-0.837 0.678,-1.515 1.515,-1.515 0.836,0 1.515,0.678 1.515,1.515 z"
         id="path296" />
      <circle
         cx="367.215"
         cy="6.9689999"
         r="1.515"
         id="circle298" />
      <path
         d="m 364.003,6.969 c 0,0.837 -0.678,1.515 -1.515,1.515 -0.837,0 -1.515,-0.678 -1.515,-1.515 0,-0.837 0.678,-1.515 1.515,-1.515 0.837,0 1.515,0.678 1.515,1.515 z"
         id="path300" />
      <circle
         cx="357.89801"
         cy="6.9689999"
         r="1.515"
         id="circle302" />
      <path
         d="m 354.625,6.969 c 0,0.837 -0.678,1.515 -1.515,1.515 -0.837,0 -1.515,-0.678 -1.515,-1.515 0,-0.837 0.678,-1.515 1.515,-1.515 0.837,0 1.515,0.678 1.515,1.515 z"
         id="path304" />
      <circle
         cx="348.202"
         cy="6.9689999"
         r="1.515"
         id="circle306" />
      <circle
         cx="343.65701"
         cy="6.9689999"
         r="1.515"
         id="circle308" />
      <circle
         cx="338.991"
         cy="6.9689999"
         r="1.515"
         id="circle310" />
      <circle
         cx="334.021"
         cy="6.9689999"
         r="1.515"
         id="circle312" />
      <circle
         cx="329.491"
         cy="6.9689999"
         r="1.515"
         id="circle314" />
      <circle
         cx="324.67401"
         cy="6.9689999"
         r="1.515"
         id="circle316" />
      <circle
         cx="319.811"
         cy="6.9689999"
         r="1.515"
         id="circle318" />
      <circle
         cx="315.17499"
         cy="6.9689999"
         r="1.515"
         id="circle320" />
      <path
         d="m 311.781,6.969 c 0,0.837 -0.678,1.515 -1.515,1.515 -0.837,0 -1.515,-0.678 -1.515,-1.515 0,-0.837 0.678,-1.515 1.515,-1.515 0.837,0 1.515,0.678 1.515,1.515 z"
         id="path322" />
      <circle
         cx="305.81201"
         cy="6.9689999"
         r="1.515"
         id="circle324" />
      <circle
         cx="300.99399"
         cy="6.9689999"
         r="1.515"
         id="circle326" />
      <circle
         cx="296.17599"
         cy="6.9689999"
         r="1.515"
         id="circle328" />
      <path
         d="m 293.056,6.969 c 0,0.837 -0.678,1.515 -1.515,1.515 -0.837,0 -1.515,-0.678 -1.515,-1.515 0,-0.837 0.678,-1.515 1.515,-1.515 0.836,0 1.515,0.678 1.515,1.515 z"
         id="path330" />
      <circle
         cx="286.677"
         cy="6.9689999"
         r="1.515"
         id="circle332" />
      <circle
         cx="282.08701"
         cy="6.9689999"
         r="1.515"
         id="circle334" />
      <circle
         cx="277.08701"
         cy="6.9689999"
         r="1.515"
         id="circle336" />
      <circle
         cx="272.595"
         cy="6.9689999"
         r="1.515"
         id="circle338" />
      <circle
         cx="267.76999"
         cy="6.9689999"
         r="1.515"
         id="circle340" />
      <circle
         cx="263.09601"
         cy="6.9689999"
         r="1.515"
         id="circle342" />
      <circle
         cx="101.911"
         cy="6.908"
         r="1.515"
         id="circle344" />
      <circle
         cx="97.403999"
         cy="6.908"
         r="1.515"
         id="circle346" />
      <circle
         cx="106.819"
         cy="6.908"
         r="1.515"
         id="circle348" />
      <circle
         cx="111.849"
         cy="6.908"
         r="1.515"
         id="circle350" />
      <circle
         cx="116.606"
         cy="6.908"
         r="1.515"
         id="circle352" />
      <circle
         cx="121"
         cy="6.908"
         r="1.515"
         id="circle354" />
      <circle
         cx="125.787"
         cy="6.908"
         r="1.515"
         id="circle356" />
      <circle
         cx="130.696"
         cy="6.908"
         r="1.515"
         id="circle358" />
      <circle
         cx="135.241"
         cy="6.908"
         r="1.515"
         id="circle360" />
      <circle
         cx="140.19501"
         cy="6.908"
         r="1.515"
         id="circle362" />
      <path
         d="m 143.27,6.908 c 0,-0.837 0.678,-1.515 1.515,-1.515 0.837,0 1.515,0.678 1.515,1.515 0,0.837 -0.678,1.515 -1.515,1.515 -0.836,0 -1.515,-0.678 -1.515,-1.515 z"
         id="path364" />
      <circle
         cx="149.42101"
         cy="6.908"
         r="1.515"
         id="circle366" />
      <circle
         cx="154.33"
         cy="6.908"
         r="1.515"
         id="circle368" />
      <circle
         cx="159.14799"
         cy="6.908"
         r="1.515"
         id="circle370" />
      <circle
         cx="163.73801"
         cy="6.908"
         r="1.515"
         id="circle372" />
      <circle
         cx="168.465"
         cy="6.908"
         r="1.515"
         id="circle374" />
      <circle
         cx="173.056"
         cy="6.908"
         r="1.515"
         id="circle376" />
      <circle
         cx="177.843"
         cy="6.908"
         r="1.515"
         id="circle378" />
      <path
         d="m 181.237,6.908 c 0,-0.837 0.678,-1.515 1.515,-1.515 0.837,0 1.515,0.678 1.515,1.515 0,0.837 -0.678,1.515 -1.515,1.515 -0.837,0 -1.515,-0.678 -1.515,-1.515 z"
         id="path380" />
      <circle
         cx="187.297"
         cy="6.908"
         r="1.515"
         id="circle382" />
      <circle
         cx="191.963"
         cy="6.908"
         r="1.515"
         id="circle384" />
      <circle
         cx="196.93201"
         cy="6.908"
         r="1.515"
         id="circle386" />
      <circle
         cx="201.46201"
         cy="6.908"
         r="1.515"
         id="circle388" />
      <circle
         cx="206.28"
         cy="6.908"
         r="1.515"
         id="circle390" />
      <circle
         cx="211.14301"
         cy="6.908"
         r="1.515"
         id="circle392" />
      <circle
         cx="215.77901"
         cy="6.908"
         r="1.515"
         id="circle394" />
      <circle
         cx="220.687"
         cy="6.908"
         r="1.515"
         id="circle396" />
      <path
         d="m 223.626,6.908 c 0,-0.837 0.678,-1.515 1.515,-1.515 0.837,0 1.515,0.678 1.515,1.515 0,0.837 -0.678,1.515 -1.515,1.515 -0.836,0 -1.515,-0.678 -1.515,-1.515 z"
         id="path398" />
      <circle
         cx="229.959"
         cy="6.908"
         r="1.515"
         id="circle400" />
      <circle
         cx="234.77699"
         cy="6.908"
         r="1.515"
         id="circle402" />
      <circle
         cx="239.41299"
         cy="6.908"
         r="1.515"
         id="circle404" />
      <path
         d="m 94.658,15.09 c 0,-0.837 0.678,-1.515 1.515,-1.515 0.837,0 1.515,0.678 1.515,1.515 0,0.837 -0.678,1.515 -1.515,1.515 -0.837,-0.001 -1.515,-0.679 -1.515,-1.515 z"
         id="path406" />
      <circle
         cx="101.081"
         cy="15.09"
         r="1.515"
         id="circle408" />
      <circle
         cx="106.111"
         cy="15.09"
         r="1.515"
         id="circle410" />
      <circle
         cx="111.08"
         cy="15.09"
         r="1.515"
         id="circle412" />
      <path
         d="m 114.353,15.09 c 0,-0.837 0.678,-1.515 1.515,-1.515 0.837,0 1.515,0.678 1.515,1.515 0,0.837 -0.678,1.515 -1.515,1.515 -0.837,-0.001 -1.515,-0.679 -1.515,-1.515 z"
         id="path414" />
      <circle
         cx="120.776"
         cy="15.09"
         r="1.515"
         id="circle416" />
      <circle
         cx="125.806"
         cy="15.09"
         r="1.515"
         id="circle418" />
      <circle
         cx="130.533"
         cy="15.09"
         r="1.515"
         id="circle420" />
      <path
         d="m 133.805,15.09 c 0,-0.837 0.678,-1.515 1.515,-1.515 0.837,0 1.515,0.678 1.515,1.515 0,0.837 -0.678,1.515 -1.515,1.515 -0.836,-0.001 -1.515,-0.679 -1.515,-1.515 z"
         id="path422" />
      <circle
         cx="140.229"
         cy="15.09"
         r="1.515"
         id="circle424" />
      <circle
         cx="145.259"
         cy="15.09"
         r="1.515"
         id="circle426" />
      <circle
         cx="150.228"
         cy="15.09"
         r="1.515"
         id="circle428" />
      <path
         d="m 153.501,15.09 c 0,-0.837 0.678,-1.515 1.515,-1.515 0.837,0 1.515,0.678 1.515,1.515 0,0.837 -0.678,1.515 -1.515,1.515 -0.837,-0.001 -1.515,-0.679 -1.515,-1.515 z"
         id="path430" />
      <circle
         cx="159.924"
         cy="15.09"
         r="1.515"
         id="circle432" />
      <circle
         cx="164.95399"
         cy="15.09"
         r="1.515"
         id="circle434" />
      <circle
         cx="169.923"
         cy="15.09"
         r="1.515"
         id="circle436" />
      <path
         d="m 173.196,15.09 c 0,-0.837 0.678,-1.515 1.515,-1.515 0.837,0 1.515,0.678 1.515,1.515 0,0.837 -0.678,1.515 -1.515,1.515 -0.837,-0.001 -1.515,-0.679 -1.515,-1.515 z"
         id="path438" />
      <circle
         cx="179.619"
         cy="15.09"
         r="1.515"
         id="circle440" />
      <circle
         cx="184.649"
         cy="15.09"
         r="1.515"
         id="circle442" />
      <circle
         cx="189.618"
         cy="15.09"
         r="1.515"
         id="circle444" />
      <circle
         cx="194.40601"
         cy="15.09"
         r="1.515"
         id="circle446" />
      <circle
         cx="199.314"
         cy="15.09"
         r="1.515"
         id="circle448" />
      <circle
         cx="204.34399"
         cy="15.09"
         r="1.515"
         id="circle450" />
      <circle
         cx="209.071"
         cy="15.09"
         r="1.515"
         id="circle452" />
      <circle
         cx="213.858"
         cy="15.09"
         r="1.515"
         id="circle454" />
      <circle
         cx="218.767"
         cy="15.09"
         r="1.515"
         id="circle456" />
      <circle
         cx="223.797"
         cy="15.09"
         r="1.515"
         id="circle458" />
      <circle
         cx="228.76601"
         cy="15.09"
         r="1.515"
         id="circle460" />
      <circle
         cx="233.554"
         cy="15.09"
         r="1.515"
         id="circle462" />
      <circle
         cx="238.46201"
         cy="15.09"
         r="1.515"
         id="circle464" />
      <circle
         cx="243.492"
         cy="15.09"
         r="1.515"
         id="circle466" />
      <circle
         cx="248.11301"
         cy="15.09"
         r="1.515"
         id="circle468" />
      <circle
         cx="252.89999"
         cy="15.09"
         r="1.515"
         id="circle470" />
      <circle
         cx="257.80899"
         cy="15.09"
         r="1.515"
         id="circle472" />
      <path
         d="m 261.323,15.09 c 0,-0.837 0.678,-1.515 1.515,-1.515 0.837,0 1.515,0.678 1.515,1.515 0,0.837 -0.678,1.515 -1.515,1.515 -0.836,-0.001 -1.515,-0.679 -1.515,-1.515 z"
         id="path474" />
      <circle
         cx="267.80801"
         cy="15.09"
         r="1.515"
         id="circle476" />
      <circle
         cx="272.595"
         cy="15.09"
         r="1.515"
         id="circle478" />
      <circle
         cx="277.504"
         cy="15.09"
         r="1.515"
         id="circle480" />
      <path
         d="m 281.018,15.09 c 0,-0.837 0.678,-1.515 1.515,-1.515 0.837,0 1.515,0.678 1.515,1.515 0,0.837 -0.678,1.515 -1.515,1.515 -0.836,-0.001 -1.515,-0.679 -1.515,-1.515 z"
         id="path482" />
      <circle
         cx="287.367"
         cy="15.09"
         r="1.515"
         id="circle484" />
      <circle
         cx="292.15399"
         cy="15.09"
         r="1.515"
         id="circle486" />
      <path
         d="m 295.548,15.09 c 0,-0.837 0.678,-1.515 1.515,-1.515 0.837,0 1.515,0.678 1.515,1.515 0,0.837 -0.678,1.515 -1.515,1.515 -0.837,-0.001 -1.515,-0.679 -1.515,-1.515 z"
         id="path488" />
      <circle
         cx="302.09201"
         cy="15.09"
         r="1.515"
         id="circle490" />
      <circle
         cx="307.06201"
         cy="15.09"
         r="1.515"
         id="circle492" />
      <circle
         cx="311.849"
         cy="15.09"
         r="1.515"
         id="circle494" />
      <path
         d="m 315.243,15.09 c 0,-0.837 0.678,-1.515 1.515,-1.515 0.837,0 1.515,0.678 1.515,1.515 0,0.837 -0.678,1.515 -1.515,1.515 -0.837,-0.001 -1.515,-0.679 -1.515,-1.515 z"
         id="path496" />
      <circle
         cx="321.78799"
         cy="15.09"
         r="1.515"
         id="circle498" />
      <circle
         cx="326.63599"
         cy="15.09"
         r="1.515"
         id="circle500" />
      <circle
         cx="331.423"
         cy="15.09"
         r="1.515"
         id="circle502" />
      <path
         d="m 334.817,15.09 c 0,-0.837 0.678,-1.515 1.515,-1.515 0.837,0 1.515,0.678 1.515,1.515 0,0.837 -0.678,1.515 -1.515,1.515 -0.837,-0.001 -1.515,-0.679 -1.515,-1.515 z"
         id="path504" />
      <circle
         cx="341.362"
         cy="15.09"
         r="1.515"
         id="circle506" />
      <circle
         cx="346.33099"
         cy="15.09"
         r="1.515"
         id="circle508" />
      <circle
         cx="351.11801"
         cy="15.09"
         r="1.515"
         id="circle510" />
      <path
         d="m 354.512,15.09 c 0,-0.837 0.678,-1.515 1.515,-1.515 0.837,0 1.515,0.678 1.515,1.515 0,0.837 -0.678,1.515 -1.515,1.515 -0.837,-0.001 -1.515,-0.679 -1.515,-1.515 z"
         id="path512" />
      <circle
         cx="361.05701"
         cy="15.09"
         r="1.515"
         id="circle514" />
      <circle
         cx="365.84399"
         cy="15.09"
         r="1.515"
         id="circle516" />
      <circle
         cx="370.63101"
         cy="15.09"
         r="1.515"
         id="circle518" />
      <circle
         cx="375.54001"
         cy="15.09"
         r="1.515"
         id="circle520" />
      <circle
         cx="380.57001"
         cy="15.09"
         r="1.515"
         id="circle522" />
      <circle
         cx="385.539"
         cy="15.09"
         r="1.515"
         id="circle524" />
      <circle
         cx="390.327"
         cy="15.09"
         r="1.515"
         id="circle526" />
      <circle
         cx="395.23499"
         cy="15.09"
         r="1.515"
         id="circle528" />
      <circle
         cx="400.26501"
         cy="15.09"
         r="1.515"
         id="circle530" />
      <circle
         cx="404.81"
         cy="15.09"
         r="1.515"
         id="circle532" />
      <circle
         cx="409.59698"
         cy="15.09"
         r="1.515"
         id="circle534" />
      <circle
         cx="414.50601"
         cy="15.09"
         r="1.515"
         id="circle536" />
      <path
         d="m 418.021,15.09 c 0,-0.837 0.678,-1.515 1.515,-1.515 0.837,0 1.515,0.678 1.515,1.515 0,0.837 -0.678,1.515 -1.515,1.515 -0.837,-0.001 -1.515,-0.679 -1.515,-1.515 z"
         id="path538" />
      <circle
         cx="424.505"
         cy="15.09"
         r="1.515"
         id="circle540" />
      <circle
         cx="429.293"
         cy="15.09"
         r="1.515"
         id="circle542" />
      <circle
         cx="434.20099"
         cy="15.09"
         r="1.515"
         id="circle544" />
      <path
         d="m 437.716,15.09 c 0,-0.837 0.678,-1.515 1.515,-1.515 0.837,0 1.515,0.678 1.515,1.515 0,0.837 -0.678,1.515 -1.515,1.515 -0.837,-0.001 -1.515,-0.679 -1.515,-1.515 z"
         id="path546" />
    </g>
    <path
       d="m 115.458,214.972 h -0.863 v -1.555 h -1.582 v 1.555 h -0.86 v -3.819 h 0.86 v 1.523 h 1.582 v -1.523 h 0.863 z"
       fill="#d0d2d3"
       id="path550" />
    <path
       d="m 117.946,215.038 c -0.547,0 -0.992,-0.178 -1.337,-0.534 -0.344,-0.356 -0.517,-0.82 -0.517,-1.392 0,-0.604 0.175,-1.092 0.525,-1.465 0.35,-0.373 0.813,-0.559 1.39,-0.559 0.545,0 0.986,0.178 1.322,0.535 0.336,0.357 0.505,0.827 0.505,1.411 0,0.6 -0.175,1.084 -0.523,1.451 -0.349,0.37 -0.804,0.553 -1.365,0.553 z m 0.037,-3.209 c -0.302,0 -0.541,0.113 -0.719,0.339 -0.178,0.227 -0.266,0.526 -0.266,0.899 0,0.378 0.089,0.677 0.266,0.898 0.177,0.22 0.41,0.33 0.698,0.33 0.297,0 0.532,-0.107 0.706,-0.321 0.174,-0.214 0.261,-0.511 0.261,-0.891 0,-0.396 -0.084,-0.704 -0.253,-0.924 -0.169,-0.22 -0.4,-0.33 -0.693,-0.33 z"
       fill="#d0d2d3"
       id="path552" />
    <path
       d="m 124.819,214.972 h -0.85 v -2.285 c 0,-0.247 0.011,-0.519 0.032,-0.818 h -0.021 c -0.044,0.234 -0.084,0.403 -0.12,0.506 l -0.895,2.597 h -0.703 l -0.911,-2.57 c -0.025,-0.069 -0.065,-0.247 -0.12,-0.533 h -0.024 c 0.023,0.376 0.035,0.707 0.035,0.991 v 2.112 h -0.775 v -3.819 h 1.26 l 0.78,2.264 c 0.062,0.181 0.107,0.363 0.136,0.546 h 0.016 c 0.048,-0.211 0.099,-0.395 0.152,-0.551 l 0.78,-2.258 h 1.228 z"
       fill="#d0d2d3"
       id="path554" />
    <path
       d="m 127.978,214.972 h -2.29 v -3.819 h 2.202 v 0.7 h -1.342 v 0.85 h 1.249 v 0.698 h -1.249 v 0.874 h 1.43 z"
       fill="#d0d2d3"
       id="path556" />
    <path
       d="m 174.115,212.335 -1.316,3.819 h -0.975 l -1.3,-3.819 h 0.927 l 0.796,2.658 c 0.043,0.144 0.068,0.271 0.077,0.381 h 0.016 c 0.013,-0.119 0.04,-0.249 0.083,-0.391 l 0.791,-2.647 h 0.901 z"
       fill="#d0d2d3"
       id="path558" />
    <path
       d="m 176.187,216.22 c -0.547,0 -0.992,-0.178 -1.337,-0.534 -0.345,-0.356 -0.517,-0.82 -0.517,-1.392 0,-0.604 0.175,-1.092 0.525,-1.465 0.35,-0.373 0.813,-0.559 1.39,-0.559 0.545,0 0.986,0.178 1.322,0.535 0.336,0.357 0.505,0.827 0.505,1.412 0,0.6 -0.174,1.084 -0.523,1.451 -0.349,0.368 -0.804,0.552 -1.365,0.552 z m 0.038,-3.209 c -0.302,0 -0.542,0.113 -0.719,0.339 -0.178,0.227 -0.266,0.526 -0.266,0.899 0,0.378 0.089,0.677 0.266,0.898 0.177,0.22 0.41,0.33 0.698,0.33 0.296,0 0.532,-0.107 0.706,-0.321 0.174,-0.214 0.261,-0.511 0.261,-0.891 0,-0.396 -0.084,-0.704 -0.253,-0.924 -0.17,-0.22 -0.4,-0.33 -0.693,-0.33 z"
       fill="#d0d2d3"
       id="path560" />
    <path
       d="m 180.984,216.154 h -2.274 v -3.819 h 0.86 v 3.121 h 1.414 z"
       fill="#d0d2d3"
       id="path562" />
    <path
       d="m 370.213,214.842 v -0.909 c 0.165,0.138 0.344,0.242 0.537,0.311 0.193,0.069 0.388,0.104 0.585,0.104 0.115,0 0.216,-0.01 0.302,-0.031 0.086,-0.021 0.158,-0.05 0.216,-0.087 0.058,-0.037 0.101,-0.08 0.129,-0.131 0.028,-0.05 0.043,-0.105 0.043,-0.163 0,-0.08 -0.023,-0.151 -0.068,-0.213 -0.046,-0.063 -0.108,-0.12 -0.186,-0.173 -0.079,-0.053 -0.172,-0.104 -0.28,-0.153 -0.108,-0.049 -0.224,-0.099 -0.349,-0.15 -0.318,-0.132 -0.555,-0.294 -0.712,-0.486 -0.156,-0.191 -0.234,-0.422 -0.234,-0.693 0,-0.212 0.043,-0.394 0.128,-0.547 0.085,-0.152 0.201,-0.278 0.348,-0.376 0.147,-0.098 0.317,-0.171 0.51,-0.217 0.193,-0.046 0.398,-0.07 0.614,-0.07 0.212,0 0.4,0.013 0.564,0.038 0.164,0.026 0.315,0.065 0.453,0.118 v 0.849 c -0.068,-0.047 -0.142,-0.089 -0.223,-0.125 -0.081,-0.036 -0.163,-0.066 -0.248,-0.09 -0.085,-0.024 -0.17,-0.041 -0.254,-0.052 -0.084,-0.011 -0.164,-0.017 -0.24,-0.017 -0.104,0 -0.199,0.01 -0.284,0.03 -0.085,0.02 -0.157,0.048 -0.216,0.084 -0.059,0.036 -0.104,0.079 -0.136,0.129 -0.032,0.05 -0.048,0.106 -0.048,0.169 0,0.068 0.018,0.129 0.054,0.183 0.036,0.054 0.087,0.105 0.153,0.153 0.066,0.048 0.147,0.096 0.241,0.142 0.095,0.047 0.202,0.094 0.321,0.143 0.163,0.068 0.309,0.141 0.439,0.217 0.13,0.077 0.241,0.163 0.334,0.26 0.093,0.096 0.164,0.207 0.213,0.331 0.049,0.124 0.074,0.268 0.074,0.433 0,0.227 -0.043,0.418 -0.129,0.572 -0.086,0.154 -0.203,0.279 -0.351,0.375 -0.148,0.096 -0.32,0.164 -0.516,0.206 -0.196,0.042 -0.403,0.063 -0.621,0.063 -0.224,0 -0.436,-0.019 -0.638,-0.057 -0.203,-0.037 -0.377,-0.094 -0.525,-0.17 z"
       fill="#d0d2d3"
       id="path564" />
    <path
       d="m 376.104,214.999 h -2.443 v -4.074 h 2.349 v 0.747 h -1.432 v 0.906 h 1.332 v 0.744 h -1.332 v 0.932 h 1.525 v 0.745 z"
       fill="#d0d2d3"
       id="path566" />
    <path
       d="m 379.184,214.999 h -2.426 v -4.074 h 0.918 v 3.329 h 1.508 z"
       fill="#d0d2d3"
       id="path568" />
    <path
       d="m 382.175,214.999 h -2.443 v -4.074 h 2.349 v 0.747 h -1.432 v 0.906 h 1.332 v 0.744 h -1.332 v 0.932 h 1.526 z"
       fill="#d0d2d3"
       id="path570" />
    <path
       d="m 385.748,214.854 c -0.297,0.144 -0.686,0.216 -1.165,0.216 -0.625,0 -1.116,-0.184 -1.474,-0.551 -0.358,-0.367 -0.537,-0.857 -0.537,-1.469 0,-0.651 0.201,-1.18 0.604,-1.585 0.402,-0.405 0.925,-0.608 1.567,-0.608 0.398,0 0.733,0.05 1.006,0.151 v 0.883 c -0.273,-0.163 -0.583,-0.244 -0.932,-0.244 -0.383,0 -0.691,0.12 -0.926,0.361 -0.235,0.24 -0.352,0.566 -0.352,0.977 0,0.394 0.111,0.708 0.332,0.942 0.222,0.234 0.52,0.351 0.895,0.351 0.358,0 0.686,-0.087 0.983,-0.261 v 0.837 z"
       fill="#d0d2d3"
       id="path572" />
    <path
       d="m 389.319,211.672 h -1.162 v 3.326 h -0.92 v -3.326 h -1.156 v -0.747 h 3.238 z"
       fill="#d0d2d3"
       id="path574" />
    <path
       d="m 405.119,214.842 v -0.909 c 0.165,0.138 0.344,0.242 0.537,0.311 0.193,0.069 0.388,0.104 0.585,0.104 0.115,0 0.216,-0.01 0.302,-0.031 0.086,-0.021 0.158,-0.05 0.216,-0.087 0.058,-0.037 0.101,-0.08 0.129,-0.131 0.028,-0.05 0.043,-0.105 0.043,-0.163 0,-0.08 -0.023,-0.151 -0.068,-0.213 -0.046,-0.063 -0.108,-0.12 -0.186,-0.173 -0.079,-0.053 -0.172,-0.104 -0.28,-0.153 -0.108,-0.049 -0.224,-0.099 -0.349,-0.15 -0.318,-0.132 -0.555,-0.294 -0.712,-0.486 -0.156,-0.191 -0.234,-0.422 -0.234,-0.693 0,-0.212 0.043,-0.394 0.128,-0.547 0.085,-0.152 0.201,-0.278 0.348,-0.376 0.147,-0.098 0.317,-0.171 0.51,-0.217 0.193,-0.046 0.398,-0.07 0.613,-0.07 0.212,0 0.4,0.013 0.564,0.038 0.164,0.026 0.315,0.065 0.453,0.118 v 0.849 c -0.068,-0.047 -0.143,-0.089 -0.223,-0.125 -0.081,-0.036 -0.163,-0.066 -0.249,-0.09 -0.085,-0.024 -0.17,-0.041 -0.254,-0.052 -0.084,-0.011 -0.164,-0.017 -0.24,-0.017 -0.104,0 -0.199,0.01 -0.284,0.03 -0.085,0.02 -0.157,0.048 -0.216,0.084 -0.059,0.036 -0.104,0.079 -0.136,0.129 -0.032,0.05 -0.048,0.106 -0.048,0.169 0,0.068 0.018,0.129 0.054,0.183 0.036,0.054 0.087,0.105 0.153,0.153 0.066,0.048 0.147,0.096 0.242,0.142 0.095,0.047 0.202,0.094 0.321,0.143 0.163,0.068 0.309,0.141 0.439,0.217 0.13,0.077 0.241,0.163 0.334,0.26 0.093,0.096 0.164,0.207 0.213,0.331 0.049,0.124 0.074,0.268 0.074,0.433 0,0.227 -0.043,0.418 -0.129,0.572 -0.086,0.154 -0.203,0.279 -0.351,0.375 -0.148,0.096 -0.32,0.164 -0.516,0.206 -0.196,0.042 -0.403,0.063 -0.621,0.063 -0.224,0 -0.436,-0.019 -0.638,-0.057 -0.202,-0.037 -0.377,-0.094 -0.524,-0.17 z"
       fill="#d0d2d3"
       id="path576" />
    <path
       d="m 411.428,211.672 h -1.162 v 3.326 h -0.92 v -3.326 h -1.156 v -0.747 h 3.238 z"
       fill="#d0d2d3"
       id="path578" />
    <path
       d="m 415.558,214.999 h -1 l -0.29,-0.906 h -1.449 l -0.287,0.906 h -0.994 l 1.483,-4.074 h 1.088 z m -1.5,-1.611 -0.438,-1.369 c -0.032,-0.102 -0.055,-0.224 -0.068,-0.366 h -0.023 c -0.009,0.119 -0.033,0.238 -0.071,0.355 l -0.443,1.38 z"
       fill="#d0d2d3"
       id="path580" />
    <path
       d="m 419.484,214.999 h -1.054 l -0.633,-1.048 c -0.047,-0.08 -0.093,-0.151 -0.136,-0.213 -0.044,-0.063 -0.088,-0.116 -0.132,-0.161 -0.044,-0.044 -0.091,-0.078 -0.139,-0.102 -0.048,-0.024 -0.101,-0.036 -0.158,-0.036 h -0.247 v 1.56 h -0.918 v -4.074 h 1.454 c 0.989,0 1.483,0.369 1.483,1.108 0,0.142 -0.022,0.273 -0.065,0.394 -0.044,0.12 -0.105,0.229 -0.185,0.325 -0.08,0.097 -0.176,0.18 -0.288,0.25 -0.113,0.07 -0.238,0.125 -0.376,0.165 v 0.011 c 0.061,0.019 0.119,0.05 0.176,0.092 0.057,0.043 0.112,0.092 0.165,0.149 0.053,0.057 0.104,0.118 0.152,0.183 0.048,0.065 0.092,0.129 0.132,0.192 z m -2.5,-3.386 v 1.133 h 0.398 c 0.197,0 0.355,-0.057 0.474,-0.17 0.121,-0.115 0.182,-0.258 0.182,-0.429 0,-0.356 -0.213,-0.534 -0.639,-0.534 z"
       fill="#d0d2d3"
       id="path582" />
    <path
       d="m 422.725,211.672 h -1.162 v 3.326 h -0.92 v -3.326 h -1.156 v -0.747 h 3.238 z"
       fill="#d0d2d3"
       id="path584" />
    <path
       d="m 487.004,160.934 v 1.403 h -0.918 v -4.073 h 1.437 c 1.026,0 1.54,0.433 1.54,1.298 0,0.409 -0.147,0.74 -0.442,0.993 -0.294,0.253 -0.688,0.379 -1.18,0.379 z m 0,-1.966 v 1.27 h 0.361 c 0.489,0 0.733,-0.214 0.733,-0.642 0,-0.418 -0.244,-0.628 -0.733,-0.628 z"
       fill="#d0d2d3"
       id="path586" />
    <path
       d="m 491.381,162.408 c -0.583,0 -1.059,-0.19 -1.426,-0.57 -0.368,-0.38 -0.551,-0.874 -0.551,-1.484 0,-0.644 0.186,-1.165 0.56,-1.562 0.373,-0.398 0.867,-0.596 1.483,-0.596 0.581,0 1.051,0.19 1.41,0.571 0.359,0.381 0.538,0.882 0.538,1.505 0,0.64 -0.186,1.156 -0.558,1.548 -0.372,0.392 -0.858,0.588 -1.456,0.588 z m 0.04,-3.423 c -0.322,0 -0.578,0.121 -0.767,0.362 -0.189,0.241 -0.284,0.561 -0.284,0.959 0,0.403 0.095,0.723 0.284,0.957 0.189,0.235 0.437,0.352 0.744,0.352 0.316,0 0.567,-0.114 0.753,-0.342 0.186,-0.228 0.278,-0.545 0.278,-0.95 0,-0.422 -0.09,-0.751 -0.27,-0.986 -0.18,-0.235 -0.426,-0.352 -0.738,-0.352 z"
       fill="#d0d2d3"
       id="path588" />
    <path
       d="m 499.4,158.263 -1.077,4.073 h -1.017 l -0.676,-2.613 c -0.036,-0.136 -0.058,-0.289 -0.065,-0.457 h -0.011 c -0.017,0.186 -0.042,0.338 -0.074,0.457 l -0.693,2.613 h -1.059 l -1.071,-4.073 h 1.003 l 0.574,2.713 c 0.025,0.116 0.043,0.271 0.054,0.466 h 0.017 c 0.008,-0.146 0.035,-0.305 0.082,-0.477 l 0.738,-2.701 h 0.983 l 0.668,2.736 c 0.024,0.1 0.046,0.246 0.065,0.438 h 0.011 c 0.007,-0.15 0.027,-0.301 0.06,-0.454 l 0.563,-2.719 h 0.925 z"
       fill="#d0d2d3"
       id="path590" />
    <path
       d="m 502.36,162.337 h -2.443 v -4.073 h 2.349 v 0.747 h -1.432 v 0.906 h 1.332 v 0.744 h -1.332 v 0.932 h 1.526 z"
       fill="#d0d2d3"
       id="path592" />
    <path
       d="m 506.431,162.337 h -1.054 l -0.633,-1.048 c -0.047,-0.079 -0.093,-0.15 -0.136,-0.213 -0.044,-0.063 -0.088,-0.116 -0.132,-0.161 -0.044,-0.044 -0.091,-0.079 -0.139,-0.102 -0.048,-0.024 -0.101,-0.036 -0.158,-0.036 h -0.247 v 1.56 h -0.918 v -4.073 h 1.454 c 0.989,0 1.483,0.369 1.483,1.108 0,0.142 -0.022,0.273 -0.065,0.393 -0.044,0.12 -0.105,0.229 -0.185,0.325 -0.079,0.097 -0.176,0.18 -0.288,0.25 -0.113,0.07 -0.238,0.125 -0.376,0.165 v 0.011 c 0.061,0.019 0.119,0.05 0.176,0.092 0.057,0.043 0.112,0.092 0.165,0.149 0.053,0.057 0.104,0.118 0.152,0.183 0.048,0.065 0.092,0.129 0.132,0.192 z m -2.5,-3.386 v 1.133 h 0.398 c 0.197,0 0.355,-0.057 0.474,-0.17 0.121,-0.115 0.182,-0.258 0.182,-0.429 0,-0.356 -0.213,-0.534 -0.639,-0.534 z"
       fill="#d0d2d3"
       id="path594" />
    <path
       d="m 485.339,186.244 h -0.92 v -1.659 h -1.687 v 1.659 h -0.918 v -4.074 h 0.918 v 1.625 h 1.687 v -1.625 h 0.92 z"
       fill="#d0d2d3"
       id="path596" />
    <path
       d="m 487.992,186.315 c -0.583,0 -1.059,-0.19 -1.426,-0.57 -0.367,-0.38 -0.551,-0.874 -0.551,-1.484 0,-0.644 0.186,-1.165 0.56,-1.562 0.373,-0.398 0.867,-0.596 1.483,-0.596 0.581,0 1.051,0.19 1.41,0.571 0.359,0.381 0.538,0.882 0.538,1.505 0,0.64 -0.186,1.156 -0.558,1.548 -0.372,0.392 -0.857,0.588 -1.456,0.588 z m 0.04,-3.423 c -0.322,0 -0.578,0.121 -0.767,0.362 -0.189,0.241 -0.284,0.561 -0.284,0.959 0,0.403 0.095,0.723 0.284,0.957 0.189,0.235 0.438,0.352 0.744,0.352 0.316,0 0.567,-0.114 0.753,-0.342 0.186,-0.228 0.278,-0.545 0.278,-0.95 0,-0.422 -0.09,-0.751 -0.27,-0.986 -0.179,-0.235 -0.425,-0.352 -0.738,-0.352 z"
       fill="#d0d2d3"
       id="path598" />
    <path
       d="m 493.108,186.244 h -2.426 v -4.074 h 0.918 v 3.329 h 1.508 z"
       fill="#d0d2d3"
       id="path600" />
    <path
       d="m 493.656,186.244 v -4.074 h 1.443 c 1.447,0 2.17,0.662 2.17,1.986 0,0.634 -0.197,1.141 -0.592,1.52 -0.395,0.379 -0.921,0.568 -1.578,0.568 z m 0.918,-3.327 v 2.582 h 0.454 c 0.398,0 0.71,-0.119 0.936,-0.358 0.226,-0.239 0.339,-0.563 0.339,-0.974 0,-0.388 -0.112,-0.694 -0.337,-0.916 -0.224,-0.222 -0.539,-0.334 -0.944,-0.334 z"
       fill="#d0d2d3"
       id="path602" />
    <path
       d="m 299.974,207.886 c 0,-1.25 0,-2.382 0,-3.633 -6.397,0 -12.779,0 -19.197,0 0,-0.403 0,-0.688 0,-1.037 h 20.65 v 6.099 c -6.267,0 -12.528,0 -18.849,0 v 5.038 c -0.63,0 -1.2,0 -1.804,0 0,-2.146 0,-4.247 0,-6.466 6.401,-0.001 12.783,-0.001 19.2,-0.001 z"
       fill="#d0d2d3"
       id="path604" />
    <path
       d="m 237.144,204.296 c 0,-0.467 0,-0.752 0,-1.091 h 20.305 c 0.042,0.94 0.013,1.948 0.018,2.954 0.005,1.02 0.001,2.04 0.001,3.116 -6.283,0 -12.499,0 -18.812,0 -0.186,0.859 -0.07,1.693 -0.091,2.514 -0.021,0.838 -0.005,1.678 -0.005,2.574 -0.468,0 -0.875,0 -1.368,0 0,-2.09 0,-4.235 0,-6.434 h 19.094 c 0,-1.225 0,-2.401 0,-3.633 -6.32,0 -12.658,0 -19.142,0 z"
       fill="#d0d2d3"
       id="path606" />
    <path
       d="m 257.138,214.361 c 0,-0.465 0,-0.871 0,-1.335 h 9.782 c 0.006,-3.288 0,-6.522 0.004,-9.815 h 11.602 v 0.972 c -3.342,0 -6.653,0 -9.917,0 -0.093,0.098 -0.142,0.137 -0.174,0.187 -0.029,0.046 -0.055,0.104 -0.055,0.157 -0.003,3.258 -0.002,6.516 -0.002,9.835 -3.733,-0.001 -7.406,-0.001 -11.24,-0.001 z"
       fill="#d0d2d3"
       id="path608" />
    <path
       d="m 47.554,45.276 c -0.917,-0.293 -1.814,-0.58 -2.723,-0.87 0,-3.916 0,-7.846 0,-11.803 0.457,0.105 0.907,0.189 1.346,0.313 0.79,0.223 1.578,0.453 2.357,0.711 0.644,0.213 1.264,0.483 1.811,0.904 0.526,0.404 0.849,0.93 1.036,1.553 0.156,0.517 0.171,1.053 0.161,1.583 -0.011,0.573 -0.103,1.138 -0.453,1.625 -0.417,0.58 -0.964,0.761 -1.652,0.651 -0.242,-0.038 -0.475,-0.125 -0.715,-0.177 -0.161,-0.035 -0.203,-0.12 -0.203,-0.279 0.006,-1.332 0.005,-2.664 0.002,-3.996 -10e-4,-0.335 -0.134,-0.59 -0.457,-0.737 -0.21,-0.096 -0.415,-0.021 -0.507,0.362 -0.014,0.06 -0.003,0.126 -0.003,0.189 v 9.107 z"
       fill="#d0d2d3"
       id="path610" />
    <path
       d="m 47.977,42.562 c 0,-0.549 -0.003,-1.06 0.005,-1.57 10e-4,-0.045 0.069,-0.118 0.118,-0.129 0.606,-0.146 1.207,-0.337 1.822,-0.408 0.61,-0.07 1.235,-0.024 1.853,-0.018 0.568,0.006 1.12,0.125 1.659,0.297 0.467,0.149 0.954,0.268 1.341,0.588 0.425,0.351 0.438,0.821 -0.119,1.22 -0.494,0.354 -1.066,0.528 -1.628,0.729 -1.444,0.518 -2.887,1.037 -4.33,1.555 -0.23,0.083 -0.461,0.166 -0.722,0.26 0,-0.521 -0.005,-1.009 0.007,-1.497 0.001,-0.056 0.091,-0.136 0.156,-0.159 1.075,-0.385 2.153,-0.762 3.229,-1.144 0.348,-0.124 0.694,-0.252 1.038,-0.386 0.074,-0.029 0.161,-0.082 0.192,-0.148 0.026,-0.057 0.002,-0.196 -0.037,-0.213 -0.148,-0.064 -0.309,-0.109 -0.469,-0.134 -0.72,-0.113 -1.356,0.194 -2.007,0.417 -0.691,0.238 -1.379,0.484 -2.108,0.74 z"
       fill="#d0d2d3"
       id="path612" />
    <path
       d="m 44.357,39.701 c 0,0.527 0.004,1.017 -0.006,1.507 -10e-4,0.051 -0.073,0.127 -0.128,0.147 -0.874,0.315 -1.752,0.621 -2.627,0.934 -0.095,0.034 -0.188,0.087 -0.268,0.149 -0.051,0.04 -0.114,0.118 -0.105,0.168 0.01,0.056 0.086,0.118 0.147,0.143 0.384,0.154 0.786,0.175 1.176,0.06 0.562,-0.165 1.113,-0.369 1.669,-0.553 0.037,-0.012 0.082,-0.002 0.131,-0.002 v 1.463 c -0.756,0.028 -1.506,0.106 -2.25,0.067 -0.604,-0.032 -1.207,-0.179 -1.799,-0.324 -0.374,-0.091 -0.743,-0.24 -1.083,-0.422 -0.185,-0.099 -0.371,-0.3 -0.436,-0.495 -0.146,-0.437 0.01,-0.595 0.37,-0.836 0.316,-0.211 0.672,-0.372 1.028,-0.508 0.829,-0.319 1.668,-0.613 2.505,-0.912 0.457,-0.164 0.918,-0.319 1.377,-0.478 0.092,-0.032 0.182,-0.066 0.299,-0.108 z"
       fill="#d0d2d3"
       id="path614" />
    <path
       d="m 429.922,39.479 c 0.169,-1.448 1.209,-2.006 2.439,-2.306 1.324,-0.323 2.669,-0.346 4.002,-0.019 0.352,0.086 0.694,0.231 1.022,0.388 0.515,0.247 0.552,0.241 0.66,-0.337 h 1.188 v 2.707 c -0.37,0 -0.732,0 -1.095,0 -0.378,-0.936 -1.161,-1.402 -2.056,-1.709 -1.038,-0.357 -2.092,-0.374 -3.138,-0.019 -0.191,0.065 -0.382,0.157 -0.542,0.278 -0.424,0.319 -0.403,0.79 0.083,0.996 0.459,0.194 0.958,0.314 1.451,0.406 1.268,0.236 2.547,0.413 3.812,0.666 0.399,0.08 0.79,0.287 1.141,0.505 1.184,0.734 0.898,2.169 0.307,2.814 -0.61,0.665 -1.418,0.905 -2.262,1.071 -0.071,0.014 -0.139,0.043 -0.208,0.066 -0.928,0 -1.857,0 -2.785,0 -0.058,-0.022 -0.115,-0.047 -0.175,-0.065 -0.626,-0.188 -1.261,-0.349 -1.876,-0.569 -0.443,-0.158 -0.465,-0.174 -0.609,0.27 -0.024,0.075 -0.104,0.184 -0.163,0.187 -0.37,0.017 -0.742,0.009 -1.106,0.009 0,-0.973 0,-1.895 0,-2.841 0.332,0 0.644,-0.009 0.954,0.007 0.076,0.004 0.182,0.071 0.216,0.139 0.457,0.903 1.24,1.367 2.173,1.633 0.852,0.243 1.723,0.281 2.593,0.175 0.408,-0.049 0.824,-0.174 1.19,-0.358 0.175,-0.088 0.328,-0.392 0.33,-0.6 10e-4,-0.167 -0.22,-0.359 -0.38,-0.496 -0.106,-0.091 -0.275,-0.122 -0.421,-0.149 -1.089,-0.198 -2.184,-0.369 -3.269,-0.589 -0.776,-0.157 -1.55,-0.342 -2.305,-0.578 -0.485,-0.152 -0.847,-0.509 -1.03,-1.006 -0.057,-0.157 -0.093,-0.321 -0.139,-0.482 -0.002,-0.065 -0.002,-0.13 -0.002,-0.194 z"
       fill="#d0d2d3"
       id="path616" />
    <path
       d="m 445.728,44.985 c -0.584,-0.133 -1.181,-0.227 -1.749,-0.409 -0.989,-0.317 -1.837,-0.858 -2.38,-1.778 -1.044,-1.77 -0.397,-4.028 1.456,-5.064 1.21,-0.677 2.536,-0.857 3.899,-0.852 1.243,0.004 2.446,0.201 3.56,0.784 1.008,0.527 1.768,1.284 2.01,2.432 0.385,1.819 -0.466,3.45 -2.179,4.236 -0.709,0.326 -1.458,0.512 -2.234,0.59 -0.083,0.008 -0.164,0.04 -0.245,0.061 -0.713,0 -1.426,0 -2.138,0 z m 4.223,-4 c -0.001,-0.787 -0.173,-1.514 -0.676,-2.144 -0.974,-1.22 -3.293,-1.221 -4.422,-0.392 -0.999,0.734 -1.215,1.783 -1.1,2.935 0.104,1.042 0.548,1.888 1.558,2.313 1.043,0.438 2.111,0.423 3.137,-0.039 1.138,-0.512 1.488,-1.508 1.503,-2.673 z"
       fill="#d0d2d3"
       id="path618" />
    <path
       d="m 452.945,38.199 c 0,-0.348 0,-0.644 0,-0.979 h 0.721 c 0.982,0 1.965,0.008 2.947,-0.006 0.237,-0.003 0.404,0.074 0.571,0.231 1.483,1.399 2.971,2.792 4.458,4.186 0.023,0.021 0.051,0.036 0.107,0.074 0.014,-0.084 0.034,-0.15 0.034,-0.215 0.005,-0.896 0.008,-1.792 0.009,-2.688 0,-0.406 -0.083,-0.524 -0.488,-0.578 -0.317,-0.043 -0.641,-0.036 -0.982,-0.051 0,-0.305 0,-0.603 0,-0.927 h 4.411 V 38.2 c -0.256,0 -0.514,-0.019 -0.767,0.004 -0.48,0.045 -0.589,0.18 -0.589,0.664 v 5.603 0.39 c -0.571,0 -1.118,0.006 -1.665,-0.006 -0.081,-0.002 -0.173,-0.077 -0.239,-0.139 -1.201,-1.132 -2.399,-2.267 -3.598,-3.401 -0.602,-0.569 -1.206,-1.137 -1.842,-1.736 -0.019,0.113 -0.039,0.181 -0.04,0.249 -10e-4,1.144 -0.003,2.289 0.002,3.433 0.002,0.489 0.143,0.635 0.632,0.656 0.301,0.013 0.603,0.002 0.928,0.002 v 0.925 c -1.53,0 -3.057,0 -4.607,0 0,-0.291 0,-0.576 0,-0.924 0.263,0 0.526,0.002 0.789,0 0.644,-0.007 0.768,-0.133 0.768,-0.78 0,-1.425 10e-4,-2.85 10e-4,-4.275 0,-0.483 -0.106,-0.617 -0.593,-0.66 -0.309,-0.028 -0.623,-0.006 -0.968,-0.006 z"
       fill="#d0d2d3"
       id="path620" />
    <path
       d="m 473.899,43.854 v 0.942 c -1.851,0 -3.689,0 -5.545,0 0,-0.302 0,-0.599 0,-0.944 0.309,0 0.618,0.009 0.926,-0.002 0.573,-0.019 0.674,-0.129 0.675,-0.694 0,-0.022 -0.003,-0.044 0.001,-0.065 0.162,-0.919 -0.189,-1.609 -0.852,-2.247 -0.751,-0.724 -1.391,-1.562 -2.116,-2.313 -0.181,-0.187 -0.5,-0.259 -0.769,-0.334 -0.178,-0.049 -0.381,-0.009 -0.593,-0.009 0,-0.339 0,-0.646 0,-0.98 h 5.02 v 0.977 c -0.187,0 -0.378,-0.013 -0.566,0.003 -0.296,0.026 -0.368,0.179 -0.175,0.398 0.471,0.534 0.953,1.057 1.44,1.575 0.155,0.165 0.339,0.175 0.508,-0.004 0.495,-0.526 0.993,-1.049 1.481,-1.582 0.065,-0.07 0.124,-0.211 0.095,-0.282 -0.026,-0.063 -0.175,-0.093 -0.274,-0.106 -0.138,-0.017 -0.279,-0.004 -0.445,-0.004 0,-0.328 0,-0.642 0,-0.979 h 3.962 v 0.979 c -0.173,0 -0.352,0.011 -0.529,-0.002 -0.363,-0.027 -0.648,0.108 -0.887,0.374 -0.755,0.843 -1.481,1.717 -2.283,2.512 -0.513,0.509 -0.742,1.028 -0.695,1.758 0.065,1 0.042,1.029 1.044,1.031 0.181,-0.002 0.363,-0.002 0.577,-0.002 z"
       fill="#d0d2d3"
       id="path622" />
    <path
       d="m 347.108,211.998 v 0.091 c 0,1.792 0,3.585 -10e-4,5.377 0,0.109 -0.001,0.219 -0.012,0.328 -0.025,0.239 -0.121,0.452 -0.259,0.647 -0.152,0.214 -0.343,0.387 -0.557,0.536 -0.282,0.196 -0.585,0.346 -0.919,0.428 -0.285,0.07 -0.57,0.08 -0.855,-0.005 -0.143,-0.043 -0.274,-0.108 -0.386,-0.207 -0.176,-0.154 -0.265,-0.351 -0.276,-0.582 -0.017,-0.37 0.114,-0.69 0.346,-0.972 0.23,-0.28 0.518,-0.487 0.838,-0.652 0.206,-0.106 0.42,-0.189 0.649,-0.232 0.286,-0.054 0.57,-0.054 0.846,0.052 0.074,0.028 0.142,0.07 0.213,0.106 0.014,0.007 0.026,0.016 0.048,0.029 0,-0.034 0,-0.059 0,-0.084 0,-2.428 0,-4.855 0,-7.283 0,-0.024 -0.001,-0.048 10e-4,-0.072 0.005,-0.055 0.042,-0.091 0.097,-0.094 0.042,-0.002 0.084,-0.002 0.125,0 0.063,0.002 0.097,0.038 0.101,0.102 0.003,0.046 0.004,0.091 0.006,0.137 0.013,0.325 0.088,0.638 0.199,0.942 0.123,0.338 0.286,0.657 0.47,0.964 0.204,0.34 0.414,0.675 0.62,1.014 0.192,0.316 0.372,0.64 0.514,0.983 0.115,0.279 0.201,0.566 0.241,0.865 0.024,0.18 0.031,0.361 0.023,0.542 -0.026,0.641 -0.169,1.256 -0.4,1.852 -0.029,0.074 -0.076,0.127 -0.151,0.149 -0.091,0.026 -0.17,-0.003 -0.232,-0.072 -0.058,-0.064 -0.071,-0.14 -0.037,-0.222 0.11,-0.263 0.201,-0.532 0.269,-0.809 0.08,-0.324 0.124,-0.653 0.134,-0.986 0.01,-0.335 -0.07,-0.651 -0.205,-0.955 -0.146,-0.33 -0.342,-0.629 -0.56,-0.914 -0.264,-0.346 -0.558,-0.664 -0.859,-0.978 -0.006,-0.005 -0.014,-0.011 -0.031,-0.025 z"
       fill="#d0d2d3"
       id="path624" />
    <path
       d="m 33.814,177.842 c -0.012,-0.343 -0.023,-0.683 -0.035,-1.022 3.612,-0.218 7.624,2.757 7.534,7.518 -0.344,-0.011 -0.689,-0.023 -1.037,-0.034 0.036,-1.802 -0.56,-3.362 -1.835,-4.63 -1.272,-1.265 -2.832,-1.856 -4.627,-1.832 z"
       fill="#d0d2d3"
       id="path626" />
    <path
       d="m 39.222,184.347 c -0.345,-0.017 -0.683,-0.033 -1.029,-0.05 0.027,-1.222 -0.36,-2.283 -1.225,-3.148 -0.864,-0.863 -1.922,-1.25 -3.147,-1.221 -0.017,-0.343 -0.034,-0.684 -0.051,-1.024 2.801,-0.213 5.614,2.18 5.452,5.443 z"
       fill="#d0d2d3"
       id="path628" />
    <path
       d="m 33.841,182.017 c -0.03,-0.344 -0.06,-0.687 -0.091,-1.029 1.929,-0.176 3.559,1.446 3.381,3.385 -0.34,-0.03 -0.68,-0.061 -1.028,-0.092 0.039,-0.643 -0.182,-1.187 -0.626,-1.632 -0.444,-0.445 -0.987,-0.67 -1.636,-0.632 z"
       fill="#d0d2d3"
       id="path630" />
    <path
       d="m 34.762,183.362 c 0.403,0.407 0.401,1.067 -0.004,1.468 -0.406,0.402 -1.07,0.4 -1.47,-0.003 -0.403,-0.406 -0.398,-1.07 0.013,-1.477 0.399,-0.395 1.063,-0.39 1.461,0.012 z"
       fill="#d0d2d3"
       id="path632" />
    <path
       d="m 30.732,157.885 c 3.398,0 7.132,-0.215 7.132,-0.585 0,-0.12 -3.234,-0.154 -7.132,-0.154 -3.898,0 -7.132,0.034 -7.132,0.154 0,0.369 3.734,0.585 7.132,0.585"
       fill="#d0d2d3"
       id="path634" />
    <path
       d="m 30.732,159.05 c 1.627,0 5.313,-0.213 5.313,-0.505 0,-0.087 -2.477,-0.108 -5.313,-0.108 -2.836,0 -5.313,0.021 -5.313,0.108 0,0.292 3.686,0.505 5.313,0.505"
       fill="#d0d2d3"
       id="path636" />
    <path
       d="m 30.732,160.06 c 1.799,0 3.841,-0.199 3.841,-0.425 0,-0.095 -1.742,-0.076 -3.841,-0.076 -2.099,0 -3.842,-0.019 -3.842,0.076 0,0.226 2.042,0.425 3.842,0.425"
       fill="#d0d2d3"
       id="path638" />
    <path
       d="m 30.734,156.492 c 0.212,0 0.457,-0.006 0.695,-0.051 0.269,-0.051 0.383,-0.169 0.42,-0.421 0.034,-0.232 -0.086,-0.601 -0.149,-0.928 -0.089,-0.461 0.126,-0.681 0.715,-0.681 0.708,0 0.868,0.34 1.189,1.189 0.193,0.51 0.395,0.709 1.131,0.782 0.661,0.065 1.491,0.113 2.515,0.113 0.843,0 0.93,-0.242 -0.333,-0.448 -0.8,-0.13 -1.276,-0.322 -1.556,-0.655 -0.308,-0.367 -0.38,-0.595 -0.584,-0.84 -0.229,-0.275 -0.531,-0.4 -0.908,-0.447 -0.919,-0.115 -1.976,-0.18 -3.135,-0.18 -1.159,0 -2.216,0.065 -3.135,0.18 -0.378,0.048 -0.679,0.172 -0.908,0.447 -0.204,0.245 -0.275,0.472 -0.584,0.84 -0.28,0.333 -0.755,0.525 -1.555,0.655 -1.263,0.206 -1.176,0.448 -0.333,0.448 1.024,0 1.854,-0.048 2.515,-0.113 0.735,-0.073 0.938,-0.272 1.13,-0.782 0.321,-0.849 0.481,-1.189 1.19,-1.189 0.589,0 0.803,0.219 0.715,0.681 -0.063,0.327 -0.184,0.696 -0.149,0.928 0.037,0.252 0.152,0.37 0.42,0.421 0.237,0.045 0.482,0.051 0.694,0.051"
       fill="#d0d2d3"
       id="path640" />
  </g>
</svg>
