<?xml version="1.0" encoding="UTF-8" standalone="no"?>
<svg
   viewBox="0 0 218.52 317.48"
   version="1.1"
   id="svg610"
   sodipodi:docname="game.svg"
   inkscape:version="1.1 (c68e22c387, 2021-05-23)"
   xmlns:inkscape="http://www.inkscape.org/namespaces/inkscape"
   xmlns:sodipodi="http://sodipodi.sourceforge.net/DTD/sodipodi-0.dtd"
   xmlns="http://www.w3.org/2000/svg"
   xmlns:svg="http://www.w3.org/2000/svg">
  <defs
     id="defs614">
    <linearGradient
       id="a"
       gradientTransform="rotate(90,602.18396,390.31957)"
       gradientUnits="userSpaceOnUse"
       x1="312.93539"
       x2="291.9762"
       y1="1095.2787"
       y2="1074.3195">
      <stop
         offset="0"
         stop-color="#a4a5a9"
         id="stop2" />
      <stop
         offset="1"
         stop-color="#e6e6e7"
         id="stop4" />
    </linearGradient>
    <linearGradient
       id="b"
       gradientTransform="rotate(90,602.18396,390.31957)"
       gradientUnits="userSpaceOnUse"
       x1="292.05191"
       x2="312.9278"
       y1="1095.271"
       y2="1074.3951">
      <stop
         offset="0"
         stop-color="#211c1d"
         stop-opacity="0"
         id="stop7" />
      <stop
         offset=".0448"
         stop-color="#211c1d"
         stop-opacity=".0896"
         id="stop9" />
      <stop
         offset=".5"
         stop-color="#211c1d"
         id="stop11" />
      <stop
         offset=".9552"
         stop-color="#211c1d"
         stop-opacity=".0896"
         id="stop13" />
      <stop
         offset="1"
         stop-color="#211c1d"
         stop-opacity="0"
         id="stop15" />
    </linearGradient>
    <linearGradient
       id="c"
       gradientTransform="rotate(-90,-717.02648,-3093.8286)"
       gradientUnits="userSpaceOnUse"
       x1="-3911.9182"
       x2="-3891.0425"
       y1="-2458.6936"
       y2="-2479.5693">
      <stop
         offset="0"
         stop-color="#fff"
         stop-opacity="0"
         id="stop18" />
      <stop
         offset=".5"
         stop-color="#fff"
         id="stop20" />
      <stop
         offset="1"
         stop-color="#fff"
         stop-opacity="0"
         id="stop22" />
    </linearGradient>
  </defs>
  <sodipodi:namedview
     id="namedview612"
     pagecolor="#ffffff"
     bordercolor="#666666"
     borderopacity="1.0"
     inkscape:pageshadow="2"
     inkscape:pageopacity="0.0"
     inkscape:pagecheckerboard="true"
     showgrid="false"
     inkscape:zoom="1.6771178"
     inkscape:cx="160.69235"
     inkscape:cy="152.64283"
     inkscape:window-width="1920"
     inkscape:window-height="1138"
     inkscape:window-x="-8"
     inkscape:window-y="-8"
     inkscape:window-maximized="1"
     inkscape:current-layer="svg610"
     inkscape:snap-global="false" />
  <path
     d="M 5.0900021,20.831 H 213.43 v 218.63 H 5.0900021 Z"
     fill="#1229b8"
     id="path2"
     style="fill:#8c786a;fill-opacity:1;stroke-width:1.24817" />
  <path
     d="m 5.09,264.961 h 208.246 v 48.75 H 5.09 Z"
     fill="#bcc9a7"
     stroke="#000000"
     id="path6"
     style="fill:#8c786a;fill-opacity:1" />
  <path
     d="m 14.463,313.711 h 12.805 v 3.769 H 14.463 Z m 176.605,0 h 12.805 v 3.769 h -12.805 z"
     fill="#1a1818"
     id="path8"
     style="fill:#000000" />
  <path
     d="m 5.09,258.461 h 208.246 v 6.5 H 5.09 Z"
     fill="#18111c"
     id="path10"
     style="fill:#000000" />
  <path
     d="m 5.09,239.461 h 208.246 v 19 H 5.09 Z"
     fill="#acb5a2"
     stroke="#000000"
     stroke-miterlimit="10"
     id="path12"
     style="fill:#e8e8e8;fill-opacity:1" />
  <path
     d="m 213.43,0 h 5.09 v 317.48 h -5.09 z"
     fill="#18111c"
     id="path16"
     style="fill:#000000" />
  <path
     d="m 111.178,305.003 h -3.231 c -1.408,0 -2.553,-1.374 -2.553,-3.063 v -3.063 h 8.337 v 3.063 c 0,1.689 -1.145,3.063 -2.553,3.063 z"
     fill="#1a1818"
     id="path20" />
  <path
     d="M 5.137,0 H 213.383 V 26.188 H 5.137 Z"
     fill="#18111c"
     id="path78"
     style="fill:#000000" />
  <path
     d="M 0,0 H 5.09 V 317.48 H 0 Z"
     fill="#18111c"
     id="path480"
     style="fill:#000000" />
  <path
     d="m 141.372,282.946 h -4.867 a 1.321,1.321 0 0 1 -1.317,-1.317 v -3.033 c 0,-0.724 0.593,-1.317 1.317,-1.317 h 4.867 c 0.724,0 1.317,0.593 1.317,1.317 v 3.033 c 0,0.724 -0.593,1.317 -1.317,1.317 z"
     fill="#5e5353"
     id="path540" />
  <path
     d="m 136.595,278.883 h 4.688 v 1.229 h -4.688 z"
     fill="#1a1818"
     id="path542" />
  <path
     d="m 70.415,267.836 h 77.596 v 43 H 70.415 Z"
     fill="#1a1818"
     id="path18" />
  <path
     d="m 91.199,281.522 h -6.785 a 1.235,1.235 0 0 1 -1.231,-1.231 v -3.205 c 0,-0.677 0.554,-1.231 1.231,-1.231 h 6.785 c 0.677,0 1.231,0.554 1.231,1.231 v 3.205 c 0,0.677 -0.554,1.231 -1.231,1.231 z"
     fill="#5b2a2a"
     id="path530" />
  <path
     d="m 84.729,276.835 h 1.313 v 3.937 h -1.313 z"
     fill="#471313"
     id="path536" />
  <path
     d="m 100.483,281.522 h -4.867 a 1.321,1.321 0 0 1 -1.317,-1.317 v -3.033 c 0,-0.724 0.593,-1.317 1.317,-1.317 h 4.867 c 0.724,0 1.317,0.593 1.317,1.317 v 3.033 c 0,0.724 -0.593,1.317 -1.317,1.317 z"
     fill="#5e5353"
     id="path532" />
  <path
     d="m 95.705,277.46 h 4.688 v 1.229 h -4.688 z"
     fill="#1a1818"
     id="path534" />
  <path
     d="m 94.064,287.147 h 26.414 v 6.25 H 94.064 Z"
     fill="#595757"
     id="path538" />
  <path
     d="m 130.199,281.637 h -6.785 a 1.235,1.235 0 0 1 -1.231,-1.231 v -3.205 c 0,-0.677 0.554,-1.231 1.231,-1.231 h 6.785 c 0.677,0 1.231,0.554 1.231,1.231 v 3.205 c 0,0.677 -0.554,1.231 -1.231,1.231 z"
     fill="#5b2a2a"
     id="path544" />
  <path
     d="m 123.729,276.949 h 1.313 v 3.938 h -1.313 z"
     fill="#471313"
     id="path546" />
  <path
     d="m 126.195,303.309 h 2.378 a 2.57,2.57 0 0 0 2.563,-2.563 v -2.563 h -7.503 v 2.563 a 2.57,2.57 0 0 0 2.562,2.563 z"
     fill="#353434"
     id="path550" />
  <path
     d="m 114.253,281.637 h 4.867 c 0.724,0 1.317,-0.593 1.317,-1.317 v -3.033 c 0,-0.724 -0.593,-1.317 -1.317,-1.317 h -4.867 c -0.724,0 -1.317,0.593 -1.317,1.317 v 3.033 c 0,0.724 0.593,1.317 1.317,1.317 z"
     fill="#5e5353"
     id="path552" />
  <path
     d="m 119.03,278.803 h -4.688 v -1.229 h 4.688 z"
     fill="#1a1818"
     id="path554" />
  <ellipse
     cx="133.68201"
     cy="286.92902"
     fill="#c6c6c6"
     rx="2.546"
     ry="2.4070001"
     id="ellipse556" />
  <path
     d="m 133.197,285.21 h 0.938 v 3.594 h -0.938 z"
     fill="#353535"
     id="path558" />
  <path
     d="M 88.541,303.194 H 86.163 A 2.57,2.57 0 0 1 83.6,300.632 v -2.563 h 7.503 v 2.563 a 2.57,2.57 0 0 1 -2.562,2.562 z"
     fill="#353434"
     id="path22" />
  <g
     id="g16735"
     transform="matrix(0.74486512,0,0,0.74486512,10.278808,-61.522184)"
     style="display:inline">
    <path
       d="m 40.815121,417.6366 c 0,2.679 -4.776,4.85 -10.667,4.85 -5.891,0 -10.667,-2.172 -10.667,-4.85"
       fill="#848383"
       id="path37" />
    <path
       d="m 30.149121,422.9876 c -6.262,0 -11.167,-2.351 -11.167,-5.351 h 1 c 0,2.358 4.656,4.351 10.167,4.351 5.511,0 10.166,-1.992 10.166,-4.351 h 1 c 0,3.001 -4.904,5.351 -11.166,5.351 z"
       id="path39" />
    <ellipse
       cx="30.148113"
       cy="417.6366"
       fill="#666565"
       rx="10.667"
       ry="3.017"
       id="ellipse41" />
    <path
       d="m 30.149121,421.1536 c -5.549,0 -11.167,-1.208 -11.167,-3.517 0,-2.31 5.618,-3.518 11.167,-3.518 5.549,0 11.166,1.208 11.166,3.518 0,2.309 -5.617,3.517 -11.166,3.517 z m 0,-6.034 c -6.206,0 -10.167,1.491 -10.167,2.518 0,1.027 3.961,2.517 10.167,2.517 6.206,0 10.166,-1.49 10.166,-2.517 0,-1.027 -3.96,-2.518 -10.166,-2.518 z"
       id="path43" />
    <path
       d="m 196.36912,417.4456 v -4.085 c 0,0.721 -2.728,1.306 -6.094,1.306 -3.366,0 -6.094,-0.585 -6.094,-1.306 v 4.085 -0.078 c 1.558,0.367 3.71,0.594 6.087,0.594 2.385,0 4.543,-0.228 6.102,-0.597"
       fill="#ae0009"
       id="path45" />
    <path
       d="m 190.26712,418.4616 c -2.338,0 -4.54,-0.216 -6.201,-0.607 l 0.096,-0.409 h -0.481 v -4.085 h 1 c 0.193,0.212 2.12,0.807 5.595,0.807 3.474,0 5.4,-0.595 5.616,-0.897 l 0.978,0.091 v 4.085 h -0.48 l 0.096,0.405 c -1.666,0.393 -3.874,0.61 -6.219,0.61 z m -5.587,-1.495 c 1.539,0.32 3.503,0.495 5.587,0.495 2.091,0 4.061,-0.176 5.602,-0.498 v -2.54 c -1.638,0.696 -4.789,0.743 -5.594,0.743 -0.805,0 -3.957,-0.047 -5.595,-0.743 z"
       fill="#020202"
       id="path47" />
    <path
       d="m 184.16512,417.3676 v -2.568 c -1.537,0.329 -2.487,0.782 -2.487,1.282 0,0.502 0.956,0.957 2.502,1.286"
       fill="#ae0009"
       id="path49" />
    <path
       d="m 184.07612,417.8566 c -1.977,-0.421 -2.897,-0.985 -2.897,-1.775 0,-0.787 0.916,-1.35 2.883,-1.771 l 0.604,-0.129 v 3.187 h -0.485 z m -0.411,-2.424 c -1.093,0.292 -1.448,0.58 -1.492,0.679 0.043,0.048 0.399,0.328 1.492,0.619 z"
       fill="#020202"
       id="path51" />
    <path
       d="m 196.37012,417.3636 v -2.564 c 1.546,0.329 2.501,0.782 2.501,1.282 0,0.501 -0.956,0.954 -2.501,1.282 z"
       fill="#ae0009"
       id="path53" />
    <path
       d="m 195.87012,417.9806 v -3.799 l 0.604,0.128 c 1.976,0.421 2.896,0.983 2.896,1.771 0,0.789 -0.921,1.352 -2.897,1.771 z m 1,-2.549 v 1.3 c 1.103,-0.293 1.462,-0.582 1.506,-0.681 -0.044,-0.046 -0.405,-0.327 -1.506,-0.619 z"
       fill="#020202"
       id="path55" />
    <ellipse
       cx="190.27512"
       cy="413.31061"
       fill="#ae0009"
       rx="6.0939999"
       ry="1.306"
       id="ellipse57" />
    <path
       d="m 190.27512,415.1166 c -1.102,0 -6.595,-0.087 -6.595,-1.807 0,-1.719 5.493,-1.806 6.595,-1.806 1.102,0 6.594,0.087 6.594,1.806 0,1.72 -5.493,1.807 -6.594,1.807 z m -5.513,-1.807 c 0.483,0.317 2.361,0.807 5.513,0.807 3.152,0 5.028,-0.489 5.512,-0.807 -0.483,-0.316 -2.361,-0.806 -5.512,-0.806 -3.151,0 -5.029,0.49 -5.513,0.806 z"
       fill="#020202"
       id="path59" />
    <path
       d="m 196.36912,422.5696 v -4.085 c 0,0.721 -2.728,1.306 -6.094,1.306 -3.366,0 -6.094,-0.585 -6.094,-1.306 v 4.085 -0.078 c 1.558,0.367 3.71,0.594 6.087,0.594 2.385,0 4.543,-0.228 6.102,-0.597"
       fill="#ae0009"
       id="path61" />
    <path
       d="m 190.26712,423.5856 c -2.338,0 -4.54,-0.216 -6.2,-0.607 l 0.096,-0.408 h -0.481 v -4.085 h 1 c 0.193,0.212 2.12,0.806 5.594,0.806 3.474,0 5.4,-0.594 5.616,-0.897 l 0.978,0.092 v 4.085 h -0.48 l 0.094,0.402 c -1.664,0.395 -3.872,0.612 -6.217,0.612 z m -5.586,-1.495 c 1.538,0.32 3.502,0.495 5.586,0.495 2.091,0 4.061,-0.176 5.602,-0.498 v -2.54 c -1.638,0.696 -4.789,0.743 -5.594,0.743 -0.805,0 -3.956,-0.047 -5.594,-0.743 z"
       fill="#020202"
       id="path63" />
    <path
       d="m 184.16512,422.4916 v -2.568 c -1.537,0.329 -2.487,0.782 -2.487,1.282 0,0.502 0.956,0.957 2.502,1.286"
       fill="#ae0009"
       id="path65" />
    <path
       d="m 184.07712,422.9806 c -1.978,-0.421 -2.898,-0.984 -2.898,-1.774 0,-0.788 0.916,-1.352 2.883,-1.771 l 0.604,-0.129 v 3.186 h -0.484 z m -0.412,-2.424 c -1.093,0.292 -1.449,0.58 -1.492,0.679 0.044,0.048 0.4,0.329 1.492,0.619 z"
       fill="#020202"
       id="path67" />
    <path
       d="m 196.37012,422.4886 v -2.564 c 1.546,0.329 2.501,0.782 2.501,1.282 0,0.5 -0.956,0.953 -2.501,1.282 z"
       fill="#ae0009"
       id="path69" />
    <path
       d="m 195.87012,423.1046 v -3.798 l 0.604,0.128 c 1.977,0.42 2.897,0.982 2.897,1.771 0,0.789 -0.921,1.352 -2.897,1.771 z m 1,-2.548 v 1.3 c 1.103,-0.293 1.462,-0.582 1.506,-0.681 -0.044,-0.047 -0.405,-0.328 -1.506,-0.619 z"
       fill="#020202"
       id="path71" />
    <ellipse
       cx="190.27512"
       cy="418.4346"
       fill="#ae0009"
       rx="6.0939999"
       ry="1.306"
       id="ellipse73" />
    <path
       d="m 190.27512,420.2406 c -1.102,0 -6.594,-0.087 -6.594,-1.806 0,-1.72 5.492,-1.807 6.594,-1.807 1.102,0 6.594,0.087 6.594,1.807 0,1.719 -5.493,1.806 -6.594,1.806 z m -5.512,-1.806 c 0.483,0.316 2.361,0.806 5.512,0.806 3.151,0 5.028,-0.489 5.512,-0.806 -0.483,-0.317 -2.36,-0.807 -5.512,-0.807 -3.152,0 -5.029,0.49 -5.512,0.807 z"
       fill="#020202"
       id="path75" />
    <path
       d="m 59.234121,417.5096 v -4.085 c 0,0.721 -2.728,1.306 -6.094,1.306 -3.366,0 -6.094,-0.585 -6.094,-1.306 v 4.085 -0.078 c 1.558,0.367 3.71,0.594 6.087,0.594 2.385,0 4.543,-0.228 6.102,-0.597"
       fill="#ae0009"
       id="path77" />
    <path
       d="m 53.132121,418.5256 c -2.334,0 -4.536,-0.216 -6.201,-0.607 l 0.096,-0.409 h -0.481 v -4.085 h 1 c 0.193,0.212 2.12,0.806 5.594,0.806 3.475,0 5.401,-0.594 5.617,-0.896 l 0.978,0.091 v 4.085 h -0.48 l 0.096,0.405 c -1.666,0.393 -3.874,0.61 -6.219,0.61 z m -5.587,-1.495 c 1.541,0.32 3.506,0.495 5.587,0.495 2.091,0 4.061,-0.176 5.602,-0.498 v -2.541 c -1.638,0.696 -4.79,0.743 -5.595,0.743 -0.805,0 -3.956,-0.047 -5.594,-0.743 z"
       fill="#020202"
       id="path79" />
    <path
       d="m 47.030121,417.4316 v -2.568 c -1.537,0.329 -2.487,0.782 -2.487,1.282 0,0.502 0.956,0.957 2.502,1.286"
       fill="#ae0009"
       id="path81" />
    <path
       d="m 46.941121,417.9216 c -1.949,-0.415 -2.897,-0.996 -2.897,-1.775 0,-0.787 0.916,-1.351 2.882,-1.771 l 0.604,-0.129 v 3.187 h -0.484 z m -0.411,-2.424 c -1.092,0.292 -1.447,0.58 -1.491,0.679 0.044,0.048 0.399,0.328 1.491,0.619 z"
       fill="#020202"
       id="path83" />
    <path
       d="m 59.235121,417.4286 v -2.564 c 1.546,0.329 2.501,0.782 2.501,1.282 0,0.5 -0.956,0.953 -2.501,1.282 z"
       fill="#ae0009"
       id="path85" />
    <path
       d="m 58.735121,418.0466 v -3.8 l 0.604,0.128 c 1.976,0.421 2.896,0.983 2.896,1.771 0,0.787 -0.921,1.351 -2.896,1.771 z m 1,-2.55 v 1.299 c 1.102,-0.293 1.462,-0.581 1.506,-0.681 -0.044,-0.046 -0.405,-0.327 -1.506,-0.618 z"
       fill="#020202"
       id="path87" />
    <ellipse
       cx="53.140118"
       cy="413.3746"
       fill="#ae0009"
       rx="6.0939999"
       ry="1.306"
       id="ellipse89" />
    <path
       d="m 53.139121,415.1806 c -1.102,0 -6.594,-0.087 -6.594,-1.806 0,-1.719 5.492,-1.806 6.594,-1.806 1.102,0 6.595,0.087 6.595,1.806 0,1.719 -5.493,1.806 -6.595,1.806 z m -5.512,-1.806 c 0.483,0.317 2.361,0.806 5.512,0.806 3.151,0 5.029,-0.488 5.513,-0.806 -0.483,-0.317 -2.362,-0.806 -5.513,-0.806 -3.151,0 -5.028,0.488 -5.512,0.806 z"
       fill="#020202"
       id="path91" />
    <path
       d="m 59.234121,422.6336 v -4.085 c 0,0.721 -2.728,1.306 -6.094,1.306 -3.366,0 -6.094,-0.585 -6.094,-1.306 v 4.085 -0.078 c 1.558,0.367 3.71,0.594 6.087,0.594 2.385,0 4.543,-0.228 6.102,-0.597"
       fill="#ae0009"
       id="path93" />
    <path
       d="m 53.132121,423.6496 c -2.334,0 -4.536,-0.216 -6.201,-0.607 l 0.096,-0.409 h -0.481 v -4.085 h 1 c 0.193,0.212 2.12,0.807 5.595,0.807 3.474,0 5.4,-0.595 5.616,-0.897 l 0.978,0.091 v 4.085 h -0.48 l 0.096,0.405 c -1.666,0.393 -3.874,0.61 -6.219,0.61 z m -5.587,-1.495 c 1.541,0.32 3.506,0.495 5.587,0.495 2.091,0 4.061,-0.176 5.602,-0.498 v -2.54 c -1.638,0.696 -4.789,0.743 -5.594,0.743 -0.805,0 -3.957,-0.047 -5.595,-0.743 z"
       fill="#020202"
       id="path95" />
    <path
       d="m 47.030121,422.5556 v -2.568 c -1.537,0.329 -2.487,0.782 -2.487,1.282 0,0.502 0.956,0.957 2.502,1.286"
       fill="#ae0009"
       id="path97" />
    <path
       d="m 46.941121,423.0456 c -1.949,-0.415 -2.897,-0.996 -2.897,-1.775 0,-0.787 0.916,-1.35 2.882,-1.771 l 0.604,-0.129 v 3.187 h -0.484 z m -0.411,-2.424 c -1.092,0.292 -1.447,0.58 -1.491,0.679 0.044,0.048 0.399,0.328 1.491,0.619 z"
       fill="#020202"
       id="path99" />
    <path
       d="m 59.235121,422.5526 v -2.564 c 1.546,0.329 2.501,0.782 2.501,1.282 0,0.5 -0.956,0.953 -2.501,1.282 z"
       fill="#ae0009"
       id="path101" />
    <path
       d="m 58.735121,423.1696 v -3.799 l 0.604,0.128 c 1.976,0.421 2.896,0.983 2.896,1.771 0,0.778 -0.947,1.357 -2.897,1.771 z m 1,-2.549 v 1.3 c 1.102,-0.293 1.462,-0.582 1.506,-0.682 -0.044,-0.046 -0.405,-0.327 -1.506,-0.618 z"
       fill="#020202"
       id="path103" />
    <ellipse
       cx="53.140118"
       cy="418.4986"
       fill="#ae0009"
       rx="6.0939999"
       ry="1.306"
       id="ellipse105" />
    <path
       d="m 53.140121,420.3046 c -1.102,0 -6.595,-0.087 -6.595,-1.806 0,-1.719 5.493,-1.806 6.595,-1.806 1.102,0 6.594,0.087 6.594,1.806 0,1.719 -5.492,1.806 -6.594,1.806 z m -5.513,-1.806 c 0.483,0.317 2.361,0.806 5.513,0.806 3.15,0 5.028,-0.488 5.512,-0.806 -0.483,-0.317 -2.361,-0.806 -5.512,-0.806 -3.151,0 -5.029,0.489 -5.513,0.806 z"
       fill="#020202"
       id="path107" />
    <path
       d="m 82.730121,417.9256 v -4.085 c 0,0.721 -2.728,1.306 -6.094,1.306 -3.366,0 -6.094,-0.585 -6.094,-1.306 v 4.085 -0.078 c 1.558,0.367 3.71,0.594 6.087,0.594 2.385,0 4.543,-0.228 6.102,-0.597"
       fill="#ffffff"
       id="path109" />
    <path
       d="m 76.628121,418.9416 c -2.339,0 -4.541,-0.216 -6.201,-0.607 l 0.096,-0.409 h -0.481 v -4.084 h 1 c 0.193,0.212 2.12,0.806 5.594,0.806 3.474,0 5.401,-0.594 5.617,-0.897 l 0.978,0.092 v 4.084 h -0.48 l 0.096,0.405 c -1.667,0.393 -3.875,0.61 -6.219,0.61 z m -5.587,-1.495 c 1.538,0.32 3.502,0.495 5.587,0.495 2.091,0 4.06,-0.176 5.602,-0.499 v -2.539 c -1.638,0.696 -4.79,0.743 -5.595,0.743 -0.805,0 -3.956,-0.047 -5.594,-0.743 z"
       fill="#020202"
       id="path111" />
    <path
       d="m 70.526121,417.8476 v -2.568 c -1.537,0.329 -2.487,0.782 -2.487,1.282 0,0.502 0.956,0.957 2.502,1.286"
       fill="#ffffff"
       id="path113" />
    <path
       d="m 70.437121,418.3376 c -1.977,-0.421 -2.897,-0.985 -2.897,-1.775 0,-0.787 0.916,-1.351 2.882,-1.771 l 0.604,-0.129 v 3.187 h -0.484 z m -0.411,-2.424 c -1.092,0.292 -1.447,0.58 -1.491,0.679 0.043,0.048 0.399,0.328 1.491,0.619 z"
       fill="#020202"
       id="path115" />
    <path
       d="m 82.731121,417.8446 v -2.564 c 1.546,0.329 2.501,0.782 2.501,1.282 0,0.5 -0.956,0.953 -2.501,1.282 z"
       fill="#ffffff"
       id="path117" />
    <path
       d="m 82.231121,418.4616 v -3.799 l 0.604,0.128 c 1.976,0.421 2.896,0.983 2.896,1.771 0,0.789 -0.921,1.352 -2.897,1.771 z m 1,-2.549 v 1.3 c 1.103,-0.293 1.462,-0.582 1.506,-0.681 -0.044,-0.047 -0.405,-0.328 -1.506,-0.619 z"
       fill="#020202"
       id="path119" />
    <ellipse
       cx="76.636116"
       cy="413.79059"
       fill="#ffffff"
       rx="6.0939999"
       ry="1.306"
       id="ellipse121" />
    <path
       d="m 76.635121,415.5976 c -1.102,0 -6.594,-0.087 -6.594,-1.807 0,-1.719 5.492,-1.806 6.594,-1.806 1.102,0 6.595,0.087 6.595,1.806 0,1.72 -5.493,1.807 -6.595,1.807 z m -5.512,-1.807 c 0.483,0.317 2.36,0.807 5.512,0.807 3.152,0 5.029,-0.489 5.513,-0.807 -0.483,-0.316 -2.362,-0.806 -5.513,-0.806 -3.151,0 -5.028,0.489 -5.512,0.806 z"
       fill="#020202"
       id="path123" />
    <path
       d="m 82.730121,423.0496 v -4.085 c 0,0.721 -2.728,1.306 -6.094,1.306 -3.366,0 -6.094,-0.585 -6.094,-1.306 v 4.085 -0.078 c 1.558,0.367 3.71,0.594 6.087,0.594 2.385,0 4.543,-0.228 6.102,-0.597"
       fill="#ffffff"
       id="path125" />
    <path
       d="m 76.628121,424.0656 c -2.339,0 -4.541,-0.216 -6.201,-0.607 l 0.096,-0.408 h -0.481 v -4.085 h 1 c 0.193,0.212 2.12,0.806 5.594,0.806 3.474,0 5.401,-0.594 5.617,-0.897 l 0.978,0.092 v 4.085 h -0.48 l 0.096,0.404 c -1.667,0.393 -3.875,0.61 -6.219,0.61 z m -5.587,-1.495 c 1.538,0.32 3.502,0.495 5.587,0.495 2.091,0 4.06,-0.176 5.602,-0.499 v -2.539 c -1.638,0.696 -4.79,0.743 -5.595,0.743 -0.805,0 -3.956,-0.047 -5.594,-0.743 z"
       fill="#020202"
       id="path127" />
    <path
       d="m 70.526121,422.9726 v -2.568 c -1.537,0.329 -2.487,0.782 -2.487,1.282 0,0.502 0.956,0.957 2.502,1.286"
       fill="#ffffff"
       id="path129" />
    <path
       d="m 70.437121,423.4616 c -1.977,-0.421 -2.897,-0.985 -2.897,-1.774 0,-0.789 0.916,-1.352 2.882,-1.771 l 0.604,-0.129 v 3.186 h -0.484 z m -0.411,-2.424 c -1.093,0.292 -1.448,0.58 -1.491,0.679 0.044,0.048 0.399,0.328 1.491,0.619 z"
       fill="#020202"
       id="path131" />
    <path
       d="m 82.731121,422.9686 v -2.564 c 1.546,0.329 2.501,0.782 2.501,1.282 0,0.5 -0.956,0.953 -2.501,1.282 z"
       fill="#ffffff"
       id="path133" />
    <path
       d="m 82.231121,423.5856 v -3.798 l 0.604,0.128 c 1.977,0.42 2.897,0.982 2.897,1.771 0,0.789 -0.921,1.352 -2.897,1.771 z m 1,-2.549 v 1.3 c 1.103,-0.293 1.462,-0.582 1.506,-0.681 -0.044,-0.047 -0.405,-0.328 -1.506,-0.619 z"
       fill="#020202"
       id="path135" />
    <ellipse
       cx="76.636116"
       cy="418.91458"
       fill="#ffffff"
       rx="6.0939999"
       ry="1.306"
       id="ellipse137" />
    <path
       d="m 76.635121,420.7216 c -1.102,0 -6.594,-0.087 -6.594,-1.806 0,-1.72 5.492,-1.807 6.594,-1.807 1.102,0 6.595,0.087 6.595,1.807 0,1.719 -5.493,1.806 -6.595,1.806 z m -5.512,-1.806 c 0.483,0.316 2.361,0.806 5.512,0.806 3.151,0 5.029,-0.489 5.513,-0.806 -0.483,-0.317 -2.361,-0.807 -5.513,-0.807 -3.152,0 -5.028,0.49 -5.512,0.807 z"
       fill="#020202"
       id="path139" />
    <path
       d="m 106.16212,417.9256 v -4.085 c 0,0.721 -2.728,1.306 -6.094,1.306 -3.365999,0 -6.093999,-0.585 -6.093999,-1.306 v 4.085 -0.078 c 1.558,0.367 3.71,0.594 6.086999,0.594 2.385,0 4.543,-0.228 6.102,-0.597"
       fill="#4b92e2"
       id="path141" />
    <path
       d="m 100.06112,418.9416 c -2.338999,0 -4.540999,-0.216 -6.200999,-0.607 l 0.096,-0.409 h -0.482 v -4.084 h 1 c 0.193,0.212 2.12,0.806 5.593999,0.806 3.474,0 5.4,-0.594 5.616,-0.897 l 0.978,0.092 v 4.084 h -0.479 l 0.096,0.405 c -1.666,0.393 -3.874,0.61 -6.218,0.61 z m -5.586999,-1.495 c 1.538,0.32 3.502,0.495 5.586999,0.495 2.09,0 4.059,-0.176 5.601,-0.498 v -2.54 c -1.638,0.696 -4.789,0.743 -5.594,0.743 -0.804999,0 -3.955999,-0.047 -5.593999,-0.743 z"
       fill="#020202"
       id="path143" />
    <path
       d="m 93.958121,417.8476 v -2.568 c -1.537,0.329 -2.487,0.782 -2.487,1.282 0,0.502 0.956,0.957 2.502,1.286"
       fill="#4b92e2"
       id="path145" />
    <path
       d="m 93.870121,418.3376 c -1.977,-0.421 -2.897,-0.985 -2.897,-1.775 0,-0.787 0.916,-1.351 2.882,-1.771 l 0.604,-0.129 v 3.187 h -0.485 z m -0.412,-2.424 c -1.092,0.292 -1.447,0.58 -1.491,0.679 0.043,0.048 0.399,0.328 1.491,0.619 z"
       fill="#020202"
       id="path147" />
    <path
       d="m 106.16312,417.8446 v -2.564 c 1.546,0.329 2.501,0.782 2.501,1.282 0,0.5 -0.955,0.953 -2.501,1.282 z"
       fill="#4b92e2"
       id="path149" />
    <path
       d="m 105.66412,418.4616 v -3.8 l 0.604,0.129 c 1.976,0.421 2.896,0.984 2.896,1.771 0,0.789 -0.921,1.352 -2.897,1.771 z m 1,-2.549 v 1.3 c 1.103,-0.293 1.462,-0.582 1.506,-0.681 -0.045,-0.046 -0.405,-0.328 -1.506,-0.619 z"
       fill="#020202"
       id="path151" />
    <ellipse
       cx="100.06812"
       cy="413.79059"
       fill="#4b92e2"
       rx="6.0939999"
       ry="1.306"
       id="ellipse153" />
    <path
       d="m 100.06812,415.5976 c -1.101999,0 -6.593999,-0.087 -6.593999,-1.807 0,-1.719 5.492,-1.806 6.593999,-1.806 1.102,0 6.594,0.087 6.594,1.806 0,1.72 -5.493,1.807 -6.594,1.807 z m -5.511999,-1.807 c 0.483,0.317 2.36,0.807 5.511999,0.807 3.152,0 5.029,-0.489 5.512,-0.807 -0.483,-0.316 -2.361,-0.806 -5.512,-0.806 -3.150999,0 -5.027999,0.489 -5.511999,0.806 z"
       fill="#020202"
       id="path155" />
    <path
       d="m 106.16212,423.0496 v -4.085 c 0,0.721 -2.728,1.306 -6.094,1.306 -3.365999,0 -6.093999,-0.585 -6.093999,-1.306 v 4.085 -0.078 c 1.558,0.367 3.71,0.594 6.086999,0.594 2.385,0 4.543,-0.228 6.102,-0.597"
       fill="#4b92e2"
       id="path157" />
    <path
       d="m 100.06112,424.0656 c -2.338999,0 -4.540999,-0.216 -6.200999,-0.607 l 0.096,-0.408 h -0.482 v -4.085 h 1 c 0.193,0.212 2.12,0.806 5.593999,0.806 3.474,0 5.401,-0.594 5.617,-0.897 l 0.978,0.092 v 4.085 h -0.48 l 0.096,0.404 c -1.666,0.393 -3.874,0.61 -6.218,0.61 z m -5.586999,-1.495 c 1.538,0.32 3.502,0.495 5.586999,0.495 2.091,0 4.06,-0.176 5.602,-0.499 v -2.539 c -1.638,0.696 -4.79,0.743 -5.595,0.743 -0.804999,0 -3.955999,-0.047 -5.593999,-0.743 z"
       fill="#020202"
       id="path159" />
    <path
       d="m 93.958121,422.9726 v -2.568 c -1.537,0.329 -2.487,0.782 -2.487,1.282 0,0.502 0.956,0.957 2.502,1.286"
       fill="#4b92e2"
       id="path161" />
    <path
       d="m 93.870121,423.4616 c -1.977,-0.421 -2.897,-0.985 -2.897,-1.774 0,-0.789 0.916,-1.352 2.882,-1.771 l 0.604,-0.129 v 3.186 h -0.485 z m -0.412,-2.424 c -1.093,0.292 -1.448,0.58 -1.491,0.679 0.044,0.048 0.399,0.328 1.491,0.619 z"
       fill="#020202"
       id="path163" />
    <path
       d="m 106.16312,422.9686 v -2.564 c 1.546,0.329 2.501,0.782 2.501,1.282 0,0.5 -0.955,0.953 -2.501,1.282 z"
       fill="#4b92e2"
       id="path165" />
    <path
       d="m 105.66412,423.5856 v -3.798 l 0.604,0.128 c 1.977,0.42 2.897,0.982 2.897,1.771 0,0.789 -0.921,1.352 -2.897,1.771 z m 1,-2.549 v 1.3 c 1.103,-0.293 1.462,-0.582 1.506,-0.681 -0.045,-0.047 -0.405,-0.328 -1.506,-0.619 z"
       fill="#020202"
       id="path167" />
    <ellipse
       cx="100.06812"
       cy="418.91458"
       fill="#4b92e2"
       rx="6.0939999"
       ry="1.306"
       id="ellipse169" />
    <path
       d="m 100.06812,420.7216 c -1.101999,0 -6.593999,-0.087 -6.593999,-1.806 0,-1.72 5.492,-1.807 6.593999,-1.807 1.102,0 6.595,0.087 6.595,1.807 0,1.719 -5.494,1.806 -6.595,1.806 z m -5.511999,-1.806 c 0.483,0.316 2.361,0.806 5.511999,0.806 3.151,0 5.029,-0.489 5.513,-0.806 -0.483,-0.317 -2.361,-0.807 -5.513,-0.807 -3.151999,0 -5.027999,0.49 -5.511999,0.807 z"
       fill="#020202"
       id="path171" />
    <path
       d="m 27.636121,400.0996 h 5.02 v 15.706 h -5.02 z"
       fill="#b2aaab"
       id="path173" />
    <path
       d="m 27.136121,399.7516 h 1 v 16.054 h -1 z"
       id="path175" />
    <path
       d="m 32.156121,399.7516 h 1 v 16.054 h -1 z"
       id="path177" />
    <path
       d="m 128.17812,413.4276 v -4.085 c 0,0.721 -2.728,1.306 -6.094,1.306 -3.366,0 -6.094,-0.585 -6.094,-1.306 v 4.085 -0.078 c 1.558,0.367 3.71,0.594 6.087,0.594 2.385,0 4.543,-0.228 6.102,-0.597"
       fill="#ffffff"
       id="path503" />
    <path
       d="m 122.07712,414.4436 c -2.339,0 -4.541,-0.216 -6.201,-0.607 l 0.096,-0.408 h -0.481 v -4.085 h 1 c 0.193,0.212 2.121,0.806 5.595,0.806 3.474,0 5.4,-0.594 5.616,-0.897 l 0.978,0.092 v 4.085 h -0.48 l 0.096,0.404 c -1.667,0.393 -3.875,0.61 -6.219,0.61 z m -5.587,-1.495 c 1.538,0.32 3.502,0.495 5.587,0.495 2.091,0 4.061,-0.176 5.602,-0.498 v -2.54 c -1.638,0.696 -4.789,0.743 -5.594,0.743 -0.805,0 -3.957,-0.047 -5.595,-0.743 z"
       fill="#020202"
       id="path505" />
    <path
       d="m 115.97412,413.3496 v -2.568 c -1.537,0.329 -2.487,0.782 -2.487,1.282 0,0.502 0.956,0.957 2.502,1.286"
       fill="#ffffff"
       id="path507" />
    <path
       d="m 115.88512,413.8396 c -1.977,-0.421 -2.897,-0.985 -2.897,-1.774 0,-0.788 0.916,-1.351 2.882,-1.772 l 0.604,-0.129 v 3.187 h -0.484 z m -0.411,-2.424 c -1.093,0.292 -1.448,0.58 -1.491,0.679 0.044,0.048 0.399,0.328 1.491,0.619 z"
       fill="#020202"
       id="path509" />
    <path
       d="m 128.17912,413.3466 v -2.564 c 1.546,0.329 2.501,0.782 2.501,1.282 0,0.5 -0.955,0.953 -2.501,1.282 z"
       fill="#ffffff"
       id="path511" />
    <path
       d="m 127.67912,413.9636 v -3.799 l 0.604,0.128 c 1.976,0.421 2.896,0.983 2.896,1.771 0,0.789 -0.921,1.352 -2.897,1.771 z m 1,-2.549 v 1.3 c 1.103,-0.293 1.462,-0.582 1.506,-0.681 -0.044,-0.047 -0.404,-0.328 -1.506,-0.619 z"
       fill="#020202"
       id="path513" />
    <ellipse
       cx="122.08411"
       cy="409.2926"
       fill="#ffffff"
       rx="6.0939999"
       ry="1.306"
       id="ellipse515" />
    <path
       d="m 122.08412,411.0986 c -1.102,0 -6.595,-0.087 -6.595,-1.807 0,-1.719 5.493,-1.806 6.595,-1.806 1.102,0 6.594,0.087 6.594,1.806 0,1.721 -5.492,1.807 -6.594,1.807 z m -5.512,-1.806 c 0.483,0.317 2.361,0.807 5.513,0.807 3.152,0 5.028,-0.489 5.512,-0.807 -0.483,-0.316 -2.361,-0.806 -5.512,-0.806 -3.151,0 -5.03,0.489 -5.513,0.806 z"
       fill="#020202"
       id="path517" />
    <path
       d="m 153.23512,413.4916 v -4.085 c 0,0.721 -2.728,1.306 -6.094,1.306 -3.366,0 -6.094,-0.585 -6.094,-1.306 v 4.085 -0.078 c 1.558,0.367 3.71,0.594 6.087,0.594 2.385,0 4.543,-0.228 6.102,-0.597"
       fill="#ffffff"
       id="path519" />
    <path
       d="m 147.13312,414.5086 c -2.333,0 -4.535,-0.216 -6.2,-0.607 l 0.096,-0.409 h -0.481 v -4.085 h 1 c 0.193,0.212 2.12,0.807 5.594,0.807 3.474,0 5.4,-0.595 5.616,-0.897 l 0.978,0.091 v 4.085 h -0.48 l 0.096,0.405 c -1.666,0.393 -3.874,0.61 -6.219,0.61 z m -5.586,-1.495 c 1.541,0.32 3.505,0.495 5.586,0.495 2.091,0 4.061,-0.176 5.602,-0.498 v -2.54 c -1.638,0.696 -4.789,0.743 -5.594,0.743 -0.805,0 -3.956,-0.047 -5.594,-0.743 z"
       fill="#020202"
       id="path521" />
    <path
       d="m 141.03112,413.4146 v -2.568 c -1.537,0.329 -2.487,0.782 -2.487,1.282 0,0.502 0.956,0.957 2.502,1.286"
       fill="#ffffff"
       id="path523" />
    <path
       d="m 140.94312,413.9036 c -1.95,-0.415 -2.898,-0.996 -2.898,-1.775 0,-0.787 0.916,-1.35 2.883,-1.771 l 0.604,-0.129 v 3.187 h -0.484 z m -0.411,-2.424 c -1.093,0.292 -1.448,0.58 -1.492,0.679 0.044,0.048 0.4,0.328 1.492,0.619 z"
       fill="#020202"
       id="path525" />
    <path
       d="m 153.23612,413.4106 v -2.564 c 1.546,0.329 2.501,0.782 2.501,1.282 0,0.5 -0.955,0.953 -2.501,1.282 z"
       fill="#ffffff"
       id="path527" />
    <path
       d="m 152.73612,414.0276 v -3.799 l 0.604,0.128 c 1.977,0.421 2.897,0.984 2.897,1.771 0,0.789 -0.921,1.352 -2.898,1.771 z m 1,-2.549 v 1.3 c 1.103,-0.293 1.463,-0.582 1.507,-0.682 -0.044,-0.044 -0.405,-0.327 -1.507,-0.618 z"
       fill="#020202"
       id="path529" />
    <ellipse
       cx="147.14111"
       cy="409.3566"
       fill="#ffffff"
       rx="6.0939999"
       ry="1.306"
       id="ellipse531" />
    <path
       d="m 147.14112,411.1626 c -1.102,0 -6.594,-0.087 -6.594,-1.806 0,-1.719 5.492,-1.806 6.594,-1.806 1.102,0 6.594,0.087 6.594,1.806 0,1.719 -5.492,1.806 -6.594,1.806 z m -5.512,-1.806 c 0.483,0.317 2.361,0.806 5.512,0.806 3.151,0 5.028,-0.488 5.512,-0.806 -0.483,-0.317 -2.361,-0.806 -5.512,-0.806 -3.151,0 -5.028,0.489 -5.512,0.806 z"
       fill="#020202"
       id="path533" />
    <ellipse
       cx="30.148113"
       cy="390.84961"
       fill="#1a1818"
       rx="9.2670002"
       ry="9.25"
       id="ellipse775" />
    <path
       d="m 30.149121,400.5996 c -5.386,0 -9.768,-4.374 -9.768,-9.75 0,-5.376 4.382,-9.75 9.768,-9.75 5.386,0 9.767,4.374 9.767,9.75 0,5.376 -4.381,9.75 -9.767,9.75 z m 0,-18.5 c -4.834,0 -8.768,3.925 -8.768,8.75 0,4.825 3.934,8.75 8.768,8.75 4.834,0 8.767,-3.925 8.767,-8.75 0,-4.825 -3.933,-8.75 -8.767,-8.75 z"
       id="path777" />
    <path
       d="m 220.22712,417.7176 v -4.085 c 0,0.721 -2.728,1.306 -6.094,1.306 -3.366,0 -6.094,-0.585 -6.094,-1.306 v 4.085 -0.078 c 1.558,0.367 3.71,0.594 6.087,0.594 2.385,0 4.543,-0.228 6.102,-0.597"
       fill="#ffffff"
       id="path807" />
    <path
       d="m 214.12512,418.7336 c -2.334,0 -4.536,-0.216 -6.201,-0.607 l 0.096,-0.409 h -0.481 v -4.085 h 1 c 0.193,0.212 2.12,0.807 5.595,0.807 3.474,0 5.4,-0.595 5.616,-0.897 l 0.978,0.091 v 4.085 h -0.48 l 0.096,0.405 c -1.666,0.393 -3.874,0.61 -6.219,0.61 z m -5.586,-1.495 c 1.541,0.32 3.506,0.495 5.587,0.495 2.091,0 4.061,-0.176 5.602,-0.498 v -2.54 c -1.638,0.696 -4.789,0.743 -5.594,0.743 -0.805,0 -3.957,-0.047 -5.595,-0.743 z"
       fill="#020202"
       id="path809" />
    <path
       d="m 208.02312,417.6396 v -2.568 c -1.537,0.329 -2.487,0.782 -2.487,1.282 0,0.502 0.956,0.957 2.502,1.286"
       fill="#ffffff"
       id="path811" />
    <path
       d="m 207.93412,418.1296 c -1.949,-0.415 -2.897,-0.996 -2.897,-1.775 0,-0.787 0.916,-1.35 2.882,-1.771 l 0.604,-0.129 v 3.187 h -0.484 z m -0.411,-2.424 c -1.092,0.292 -1.447,0.58 -1.491,0.679 0.044,0.048 0.399,0.328 1.491,0.619 z"
       fill="#020202"
       id="path813" />
    <path
       d="m 220.22812,417.6366 v -2.564 c 1.546,0.329 2.501,0.782 2.501,1.282 0,0.5 -0.956,0.953 -2.501,1.282 z"
       fill="#ffffff"
       id="path815" />
    <path
       d="m 219.72812,418.2536 v -3.799 l 0.604,0.128 c 1.976,0.421 2.896,0.983 2.896,1.771 0,0.778 -0.947,1.357 -2.897,1.771 z m 1,-2.549 v 1.3 c 1.102,-0.293 1.462,-0.582 1.506,-0.682 -0.044,-0.046 -0.404,-0.327 -1.506,-0.618 z"
       fill="#020202"
       id="path817" />
    <ellipse
       cx="214.13312"
       cy="413.58258"
       fill="#ffffff"
       rx="6.0939999"
       ry="1.306"
       id="ellipse819" />
    <path
       d="m 214.13312,415.3886 c -1.102,0 -6.595,-0.087 -6.595,-1.806 0,-1.719 5.493,-1.806 6.595,-1.806 1.102,0 6.594,0.087 6.594,1.806 0,1.719 -5.492,1.806 -6.594,1.806 z m -5.512,-1.806 c 0.483,0.317 2.361,0.806 5.513,0.806 3.15,0 5.028,-0.488 5.512,-0.806 -0.483,-0.317 -2.361,-0.806 -5.512,-0.806 -3.151,0 -5.03,0.489 -5.513,0.806 z"
       fill="#020202"
       id="path821" />
    <path
       d="m 220.22712,422.8416 v -4.085 c 0,0.721 -2.728,1.306 -6.094,1.306 -3.366,0 -6.094,-0.585 -6.094,-1.306 v 4.085 -0.078 c 1.558,0.367 3.71,0.594 6.087,0.594 2.385,0 4.543,-0.228 6.102,-0.597"
       fill="#ffffff"
       id="path823" />
    <path
       d="m 214.12512,423.8576 c -2.339,0 -4.541,-0.216 -6.201,-0.607 l 0.096,-0.409 h -0.481 v -4.084 h 1 c 0.193,0.212 2.121,0.806 5.595,0.806 3.474,0 5.4,-0.594 5.616,-0.897 l 0.978,0.092 v 4.084 h -0.48 l 0.096,0.405 c -1.666,0.393 -3.874,0.61 -6.219,0.61 z m -5.586,-1.495 c 1.538,0.32 3.502,0.495 5.587,0.495 2.091,0 4.061,-0.176 5.602,-0.498 v -2.54 c -1.638,0.696 -4.789,0.743 -5.594,0.743 -0.805,0 -3.957,-0.047 -5.595,-0.743 z"
       fill="#020202"
       id="path825" />
    <path
       d="m 208.02312,422.7636 v -2.568 c -1.537,0.329 -2.487,0.782 -2.487,1.282 0,0.502 0.956,0.957 2.502,1.286"
       fill="#ffffff"
       id="path827" />
    <path
       d="m 207.93412,423.2536 c -1.977,-0.421 -2.897,-0.985 -2.897,-1.775 0,-0.787 0.916,-1.35 2.882,-1.771 l 0.604,-0.129 v 3.187 h -0.484 z m -0.411,-2.424 c -1.092,0.292 -1.447,0.58 -1.491,0.679 0.043,0.048 0.399,0.328 1.491,0.619 z"
       fill="#020202"
       id="path829" />
    <path
       d="m 220.22812,422.7606 v -2.564 c 1.546,0.329 2.501,0.782 2.501,1.282 0,0.5 -0.955,0.953 -2.501,1.282 z"
       fill="#ffffff"
       id="path831" />
    <path
       d="m 219.72812,423.3776 v -3.799 l 0.604,0.128 c 1.976,0.421 2.896,0.983 2.896,1.771 0,0.789 -0.921,1.352 -2.897,1.771 z m 1,-2.549 v 1.3 c 1.103,-0.293 1.462,-0.582 1.506,-0.681 -0.044,-0.047 -0.404,-0.328 -1.506,-0.619 z"
       fill="#020202"
       id="path833" />
    <ellipse
       cx="214.13312"
       cy="418.7066"
       fill="#ffffff"
       rx="6.0939999"
       ry="1.306"
       id="ellipse835" />
    <path
       d="m 214.13312,420.5136 c -1.102,0 -6.595,-0.087 -6.595,-1.807 0,-1.719 5.493,-1.806 6.595,-1.806 1.102,0 6.594,0.087 6.594,1.806 0,1.72 -5.492,1.807 -6.594,1.807 z m -5.512,-1.807 c 0.483,0.317 2.361,0.807 5.513,0.807 3.152,0 5.028,-0.489 5.512,-0.807 -0.483,-0.316 -2.361,-0.806 -5.512,-0.806 -3.151,0 -5.03,0.49 -5.513,0.806 z"
       fill="#020202"
       id="path837" />
    <path
       d="m 243.65912,417.7176 v -4.085 c 0,0.721 -2.728,1.306 -6.094,1.306 -3.366,0 -6.094,-0.585 -6.094,-1.306 v 4.085 -0.078 c 1.558,0.367 3.71,0.594 6.087,0.594 2.385,0 4.543,-0.228 6.102,-0.597"
       fill="#4b92e2"
       id="path839" />
    <path
       d="m 237.55812,418.7336 c -2.334,0 -4.536,-0.216 -6.201,-0.607 l 0.096,-0.409 h -0.481 v -4.085 h 1 c 0.193,0.212 2.12,0.807 5.594,0.807 3.475,0 5.401,-0.595 5.617,-0.897 l 0.978,0.091 v 4.085 h -0.48 l 0.096,0.405 c -1.666,0.393 -3.874,0.61 -6.219,0.61 z m -5.587,-1.495 c 1.541,0.32 3.506,0.495 5.587,0.495 2.091,0 4.061,-0.176 5.602,-0.498 v -2.54 c -1.638,0.696 -4.79,0.743 -5.595,0.743 -0.805,0 -3.956,-0.047 -5.594,-0.743 z"
       fill="#020202"
       id="path841" />
    <path
       d="m 231.45612,417.6396 v -2.568 c -1.537,0.329 -2.487,0.782 -2.487,1.282 0,0.502 0.956,0.957 2.502,1.286"
       fill="#4b92e2"
       id="path843" />
    <path
       d="m 231.36712,418.1296 c -1.949,-0.415 -2.897,-0.996 -2.897,-1.775 0,-0.787 0.916,-1.35 2.882,-1.771 l 0.604,-0.129 v 3.187 h -0.484 z m -0.411,-2.424 c -1.092,0.292 -1.447,0.58 -1.491,0.679 0.044,0.048 0.399,0.328 1.491,0.619 z"
       fill="#020202"
       id="path845" />
    <path
       d="m 243.66012,417.6366 v -2.564 c 1.546,0.329 2.501,0.782 2.501,1.282 10e-4,0.5 -0.955,0.953 -2.501,1.282 z"
       fill="#4b92e2"
       id="path847" />
    <path
       d="m 243.16112,418.2536 v -3.799 l 0.604,0.128 c 1.976,0.421 2.896,0.983 2.896,1.771 0,0.778 -0.947,1.357 -2.897,1.771 z m 1,-2.549 v 1.3 c 1.102,-0.293 1.462,-0.582 1.506,-0.682 -0.044,-0.046 -0.405,-0.327 -1.506,-0.618 z"
       fill="#020202"
       id="path849" />
    <ellipse
       cx="237.56512"
       cy="413.58258"
       fill="#4b92e2"
       rx="6.0939999"
       ry="1.306"
       id="ellipse851" />
    <path
       d="m 237.56512,415.3886 c -1.102,0 -6.594,-0.087 -6.594,-1.806 0,-1.719 5.492,-1.806 6.594,-1.806 1.102,0 6.595,0.087 6.595,1.806 0,1.719 -5.494,1.806 -6.595,1.806 z m -5.512,-1.806 c 0.483,0.317 2.361,0.806 5.512,0.806 3.151,0 5.029,-0.488 5.513,-0.806 -0.483,-0.317 -2.362,-0.806 -5.513,-0.806 -3.151,0 -5.028,0.489 -5.512,0.806 z"
       fill="#020202"
       id="path853" />
    <path
       d="m 243.66012,422.8416 v -4.085 c 0,0.721 -2.728,1.306 -6.094,1.306 -3.366,0 -6.094,-0.585 -6.094,-1.306 v 4.085 -0.078 c 1.558,0.367 3.71,0.594 6.087,0.594 2.385,0 4.543,-0.228 6.102,-0.597"
       fill="#4b92e2"
       id="path855" />
    <path
       d="m 237.55812,423.8576 c -2.339,0 -4.541,-0.216 -6.201,-0.607 l 0.096,-0.409 h -0.481 v -4.084 h 1 c 0.193,0.212 2.121,0.806 5.595,0.806 3.474,0 5.4,-0.594 5.616,-0.897 l 0.978,0.092 v 4.084 h -0.48 l 0.096,0.405 c -1.666,0.393 -3.874,0.61 -6.219,0.61 z m -5.587,-1.495 c 1.538,0.32 3.502,0.495 5.587,0.495 2.091,0 4.061,-0.176 5.602,-0.498 v -2.54 c -1.638,0.696 -4.789,0.743 -5.594,0.743 -0.805,0 -3.957,-0.047 -5.595,-0.743 z"
       fill="#020202"
       id="path857" />
    <path
       d="m 231.45612,422.7636 v -2.568 c -1.537,0.329 -2.487,0.782 -2.487,1.282 0,0.502 0.956,0.957 2.502,1.286"
       fill="#4b92e2"
       id="path859" />
    <path
       d="m 231.36712,423.2536 c -1.977,-0.421 -2.897,-0.985 -2.897,-1.775 0,-0.787 0.916,-1.35 2.882,-1.771 l 0.604,-0.129 v 3.187 h -0.484 z m -0.411,-2.424 c -1.092,0.292 -1.447,0.58 -1.491,0.679 0.043,0.048 0.399,0.328 1.491,0.619 z"
       fill="#020202"
       id="path861" />
    <path
       d="m 243.66012,422.7606 v -2.564 c 1.546,0.329 2.501,0.782 2.501,1.282 10e-4,0.5 -0.955,0.953 -2.501,1.282 z"
       fill="#4b92e2"
       id="path863" />
    <path
       d="m 243.16112,423.3776 v -3.799 l 0.604,0.128 c 1.976,0.421 2.896,0.983 2.896,1.771 0,0.789 -0.921,1.352 -2.897,1.771 z m 1,-2.549 v 1.3 c 1.103,-0.293 1.462,-0.582 1.506,-0.681 -0.044,-0.047 -0.405,-0.328 -1.506,-0.619 z"
       fill="#020202"
       id="path865" />
    <ellipse
       cx="237.56512"
       cy="418.7066"
       fill="#4b92e2"
       rx="6.0939999"
       ry="1.306"
       id="ellipse867" />
    <path
       d="m 237.56612,420.5136 c -1.102,0 -6.595,-0.087 -6.595,-1.807 0,-1.719 5.493,-1.806 6.595,-1.806 1.102,0 6.594,0.087 6.594,1.806 0,1.72 -5.493,1.807 -6.594,1.807 z m -5.513,-1.807 c 0.483,0.317 2.361,0.807 5.513,0.807 3.152,0 5.028,-0.489 5.512,-0.807 -0.483,-0.316 -2.361,-0.806 -5.512,-0.806 -3.151,0 -5.029,0.49 -5.513,0.806 z"
       fill="#020202"
       id="path869" />
    <path
       d="m 178.01412,417.6366 c 0,2.679 -4.776,4.85 -10.667,4.85 -5.891,0 -10.667,-2.172 -10.667,-4.85"
       fill="#848383"
       id="path871" />
    <path
       d="m 167.34712,422.9876 c -6.262,0 -11.167,-2.351 -11.167,-5.351 h 1 c 0,2.358 4.656,4.351 10.167,4.351 5.511,0 10.167,-1.992 10.167,-4.351 h 1 c 0,3.001 -4.905,5.351 -11.167,5.351 z"
       id="path873" />
    <ellipse
       cx="167.34712"
       cy="417.6366"
       fill="#666565"
       rx="10.667"
       ry="3.017"
       id="ellipse875" />
    <path
       d="m 167.34712,421.1536 c -5.549,0 -11.167,-1.208 -11.167,-3.517 0,-2.31 5.618,-3.518 11.167,-3.518 5.549,0 11.167,1.208 11.167,3.518 0,2.309 -5.618,3.517 -11.167,3.517 z m 0,-6.034 c -6.206,0 -10.167,1.491 -10.167,2.518 0,1.027 3.961,2.517 10.167,2.517 6.206,0 10.167,-1.49 10.167,-2.517 0,-1.027 -3.961,-2.518 -10.167,-2.518 z"
       id="path877" />
    <path
       d="m 164.83512,400.0996 h 5.02 v 15.706 h -5.02 z"
       fill="#b2aaab"
       id="path879" />
    <path
       d="m 164.33412,399.7516 h 1 v 16.054 h -1 z"
       id="path881" />
    <path
       d="m 169.35512,399.7516 h 1 v 16.054 h -1 z"
       id="path883" />
    <ellipse
       cx="167.34712"
       cy="390.84961"
       fill="#1a1818"
       rx="9.2670002"
       ry="9.25"
       id="ellipse885" />
    <path
       d="m 167.34712,400.5996 c -5.386,0 -9.768,-4.374 -9.768,-9.75 0,-5.376 4.382,-9.75 9.768,-9.75 5.386,0 9.767,4.374 9.767,9.75 0,5.376 -4.381,9.75 -9.767,9.75 z m 0,-18.5 c -4.834,0 -8.768,3.925 -8.768,8.75 0,4.825 3.934,8.75 8.768,8.75 4.834,0 8.767,-3.925 8.767,-8.75 0,-4.825 -3.933,-8.75 -8.767,-8.75 z"
       id="path887" />
  </g>
  <path
     d="M 29.358,109.456 H 188.975 V 212.831 H 29.358 Z"
     stroke="#000000"
     stroke-miterlimit="10"
     id="path14" />
  <g
     id="g2246"
     transform="matrix(4.9133165,0,0,4.9133165,1020.3816,-4.7220109)"
     style="fill:#ffffff;fill-opacity:1;stroke:none;stroke-width:1.70985;stroke-linecap:round;stroke-linejoin:round;stroke-miterlimit:4;stroke-dasharray:none"
     inkscape:export-filename="C:\Users\BUCH\Desktop\Retrogaming\Recalbox\travail thèmes\Dark Slide !!!!!!!\auto-arcade-toaplan\g2246.png"
     inkscape:export-xdpi="8052.7632"
     inkscape:export-ydpi="8052.7632">
    <path
       inkscape:connector-curvature="0"
       id="path2232"
       style="font-style:normal;font-variant:normal;font-weight:normal;font-stretch:normal;font-size:medium;line-height:1.25;font-family:Eurostile;-inkscape-font-specification:Eurostile;letter-spacing:0px;word-spacing:0px;fill:#ffffff;fill-opacity:1;stroke:none;stroke-width:1.70985;stroke-linecap:round;stroke-linejoin:round;stroke-miterlimit:4;stroke-dasharray:none;stroke-opacity:1"
       d="m -202.46566,12.665688 v 4.303841 h -1.16464 v -4.303841 h -1.77166 v -0.881281 h 4.77092 v 0.881281 z" />
    <path
       inkscape:connector-curvature="0"
       id="path2234"
       style="font-style:normal;font-variant:normal;font-weight:normal;font-stretch:normal;font-size:medium;line-height:1.25;font-family:Eurostile;-inkscape-font-specification:Eurostile;letter-spacing:0px;word-spacing:0px;fill:#ffffff;fill-opacity:1;stroke:none;stroke-width:1.70985;stroke-linecap:round;stroke-linejoin:round;stroke-miterlimit:4;stroke-dasharray:none;stroke-opacity:1"
       d="m -197.4879,11.738823 q 1.67275,0 2.15389,0.471029 0.48114,0.467231 0.48114,2.096842 0,1.781554 -0.48564,2.244986 -0.48114,0.463432 -2.33824,0.463432 -1.67275,0 -2.16288,-0.455834 -0.49014,-0.459634 -0.49014,-2.01707 0,-1.853728 0.48114,-2.328556 0.48114,-0.474829 2.36073,-0.474829 z m -0.0899,0.843295 q -1.17362,0 -1.37148,0.254508 -0.19785,0.254507 -0.19785,1.762562 0,1.116795 0.22933,1.344713 0.23382,0.227917 1.36698,0.227917 1.08368,0 1.29952,-0.254508 0.21584,-0.258306 0.21584,-1.557436 0,-1.302928 -0.20685,-1.538443 -0.20234,-0.239313 -1.33549,-0.239313 z" />
    <path
       inkscape:connector-curvature="0"
       id="path2236"
       style="font-style:normal;font-variant:normal;font-weight:normal;font-stretch:normal;font-size:medium;line-height:1.25;font-family:Eurostile;-inkscape-font-specification:Eurostile;letter-spacing:0px;word-spacing:0px;fill:#ffffff;fill-opacity:1;stroke:none;stroke-width:1.70985;stroke-linecap:round;stroke-linejoin:round;stroke-miterlimit:4;stroke-dasharray:none;stroke-opacity:1"
       d="m -190.35174,15.97429 h -2.64852 l -0.38221,0.995239 h -1.23208 l 2.04147,-5.185122 h 1.74919 l 2.07295,5.185122 h -1.2096 z m -0.2698,-0.725538 -1.06121,-2.700822 -1.04322,2.700822 z" />
    <path
       inkscape:connector-curvature="0"
       id="path2238"
       style="font-style:normal;font-variant:normal;font-weight:normal;font-stretch:normal;font-size:medium;line-height:1.25;font-family:Eurostile;-inkscape-font-specification:Eurostile;letter-spacing:0px;word-spacing:0px;fill:#ffffff;fill-opacity:1;stroke:none;stroke-width:1.70985;stroke-linecap:round;stroke-linejoin:round;stroke-miterlimit:4;stroke-dasharray:none;stroke-opacity:1"
       d="m -188.22034,16.969529 v -5.185122 h 2.47314 0.30578 q 1.24556,0 1.67724,0.368466 0.43617,0.364668 0.43617,1.413089 0,1.040822 -0.41369,1.382698 -0.41369,0.341877 -1.67274,0.341877 l -0.2698,0.0039 h -1.37147 V 16.9696 Z m 1.16463,-2.503293 h 1.3265 q 0.79141,0 1.00275,-0.151945 0.21584,-0.155744 0.21584,-0.729336 0,-0.657162 -0.17987,-0.812905 -0.17537,-0.159543 -0.92181,-0.159543 h -1.44341 z" />
    <path
       inkscape:connector-curvature="0"
       id="path2240"
       style="font-style:normal;font-variant:normal;font-weight:normal;font-stretch:normal;font-size:medium;line-height:1.25;font-family:Eurostile;-inkscape-font-specification:Eurostile;letter-spacing:0px;word-spacing:0px;fill:#ffffff;fill-opacity:1;stroke:none;stroke-width:1.70985;stroke-linecap:round;stroke-linejoin:round;stroke-miterlimit:4;stroke-dasharray:none;stroke-opacity:1"
       d="m -181.42593,11.784407 v 4.303841 h 2.87784 v 0.881281 h -4.04247 v -5.185122 z" />
    <path
       inkscape:connector-curvature="0"
       id="path2242"
       style="font-style:normal;font-variant:normal;font-weight:normal;font-stretch:normal;font-size:medium;line-height:1.25;font-family:Eurostile;-inkscape-font-specification:Eurostile;letter-spacing:0px;word-spacing:0px;fill:#ffffff;fill-opacity:1;stroke:none;stroke-width:1.70985;stroke-linecap:round;stroke-linejoin:round;stroke-miterlimit:4;stroke-dasharray:none;stroke-opacity:1"
       d="m -173.5959,15.97429 h -2.64851 l -0.38222,0.995239 h -1.23207 l 2.04147,-5.185122 h 1.74918 l 2.07295,5.185122 h -1.20959 z m -0.2698,-0.725538 -1.0612,-2.700822 -1.04322,2.700822 z" />
    <path
       inkscape:connector-curvature="0"
       id="path2244"
       style="font-style:normal;font-variant:normal;font-weight:normal;font-stretch:normal;font-size:medium;line-height:1.25;font-family:Eurostile;-inkscape-font-specification:Eurostile;letter-spacing:0px;word-spacing:0px;fill:#ffffff;fill-opacity:1;stroke:none;stroke-width:1.70985;stroke-linecap:round;stroke-linejoin:round;stroke-miterlimit:4;stroke-dasharray:none;stroke-opacity:1"
       d="m -165.4765,11.784407 v 5.185122 h -1.97403 l -1.75368,-2.845169 q -0.1304,-0.212724 -0.4092,-0.744531 l -0.19785,-0.372265 -0.19335,-0.372265 h -0.045 l 0.018,0.341876 0.0135,0.338078 0.009,0.679952 v 2.974324 h -1.16462 v -5.185122 h 1.97402 l 1.5963,2.628648 q 0.21134,0.349473 0.49013,0.847094 l 0.23383,0.421647 0.23382,0.425446 h 0.0405 l -0.0135,-0.33428 -0.0135,-0.334279 -0.009,-0.668558 v -2.985718 z" />
  </g>
  <g
     id="g1166"
     inkscape:export-filename="C:\Users\BUCH\Desktop\Retrogaming\Recalbox\travail thèmes\Dark Slide !!!!!!!\auto-arcade-toaplan\g1gb166.png"
     inkscape:export-xdpi="32372.357"
     inkscape:export-ydpi="32372.357"
     style="fill:#ffffff;fill-opacity:1"
     transform="matrix(103.86396,0,0,103.86396,15473.089,-3660.5091)">
    <path
       inkscape:connector-curvature="0"
       id="path1194"
       d="m -147.91476,36.404569 v 0.181971 h 0.18196 v -0.181971 z m 0.0361,0.03591 h 0.10977 v 0.110409 h -0.10977 z"
       style="fill:#ffffff;fill-opacity:1;fill-rule:nonzero;stroke:none;stroke-width:0.0377408;stroke-linecap:round;stroke-linejoin:miter;stroke-miterlimit:4;stroke-dasharray:none;stroke-opacity:1;paint-order:stroke fill markers" />
    <path
       sodipodi:nodetypes="ccssccccccc"
       inkscape:connector-curvature="0"
       id="path1196"
       d="m -147.71528,36.586539 h 0.18407 v -0.01783 c 0,-0.09045 -0.0745,-0.164135 -0.16603,-0.164135 h -0.018 v 0.01781 z m 0.0361,-0.03565 V 36.44048 c 0.0568,0.0081 0.10157,0.05421 0.10976,0.110409 z"
       style="color:#000000;font-style:normal;font-variant:normal;font-weight:normal;font-stretch:normal;font-size:medium;line-height:normal;font-family:sans-serif;font-variant-ligatures:normal;font-variant-position:normal;font-variant-caps:normal;font-variant-numeric:normal;font-variant-alternates:normal;font-feature-settings:normal;text-indent:0;text-align:start;text-decoration:none;text-decoration-line:none;text-decoration-style:solid;text-decoration-color:#000000;letter-spacing:normal;word-spacing:normal;text-transform:none;writing-mode:lr-tb;direction:ltr;text-orientation:mixed;dominant-baseline:auto;baseline-shift:baseline;text-anchor:start;white-space:normal;shape-padding:0;clip-rule:nonzero;display:inline;overflow:visible;visibility:visible;isolation:auto;mix-blend-mode:normal;color-interpolation:sRGB;color-interpolation-filters:linearRGB;solid-color:#000000;solid-opacity:1;vector-effect:none;fill:#ffffff;fill-opacity:1;fill-rule:nonzero;stroke:none;stroke-width:0.0358644;stroke-linecap:round;stroke-linejoin:miter;stroke-miterlimit:4;stroke-dasharray:none;stroke-dashoffset:0;stroke-opacity:1;paint-order:stroke fill markers;color-rendering:auto;image-rendering:auto;shape-rendering:auto;text-rendering:auto;enable-background:accumulate" />
    <path
       inkscape:connector-curvature="0"
       id="path1198"
       d="m -147.91476,36.786027 v -0.181971 h 0.18196 v 0.181971 z m 0.0361,-0.03591 h 0.10977 v -0.110409 h -0.10977 z"
       style="fill:#ffffff;fill-opacity:1;fill-rule:nonzero;stroke:none;stroke-width:0.0377408;stroke-linecap:round;stroke-linejoin:miter;stroke-miterlimit:4;stroke-dasharray:none;stroke-opacity:1;paint-order:stroke fill markers" />
    <path
       sodipodi:nodetypes="ccssccccccc"
       inkscape:connector-curvature="0"
       id="path1200"
       d="m -147.71528,36.604057 h 0.18407 v 0.01783 c 0,0.09045 -0.0745,0.164135 -0.16603,0.164135 h -0.018 v -0.01781 z m 0.0361,0.03565 v 0.110409 c 0.0568,-0.0081 0.10157,-0.05421 0.10976,-0.110409 z"
       style="color:#000000;font-style:normal;font-variant:normal;font-weight:normal;font-stretch:normal;font-size:medium;line-height:normal;font-family:sans-serif;font-variant-ligatures:normal;font-variant-position:normal;font-variant-caps:normal;font-variant-numeric:normal;font-variant-alternates:normal;font-feature-settings:normal;text-indent:0;text-align:start;text-decoration:none;text-decoration-line:none;text-decoration-style:solid;text-decoration-color:#000000;letter-spacing:normal;word-spacing:normal;text-transform:none;writing-mode:lr-tb;direction:ltr;text-orientation:mixed;dominant-baseline:auto;baseline-shift:baseline;text-anchor:start;white-space:normal;shape-padding:0;clip-rule:nonzero;display:inline;overflow:visible;visibility:visible;isolation:auto;mix-blend-mode:normal;color-interpolation:sRGB;color-interpolation-filters:linearRGB;solid-color:#000000;solid-opacity:1;vector-effect:none;fill:#ffffff;fill-opacity:1;fill-rule:nonzero;stroke:none;stroke-width:0.0358644;stroke-linecap:round;stroke-linejoin:miter;stroke-miterlimit:4;stroke-dasharray:none;stroke-dashoffset:0;stroke-opacity:1;paint-order:stroke fill markers;color-rendering:auto;image-rendering:auto;shape-rendering:auto;text-rendering:auto;enable-background:accumulate" />
    <path
       inkscape:connector-curvature="0"
       id="path1202"
       d="m -148.11425,36.404569 v 0.181971 h 0.18197 v -0.181971 z m 0.0361,0.03591 h 0.10976 v 0.110409 h -0.10976 z"
       style="fill:#ffffff;fill-opacity:1;fill-rule:nonzero;stroke:none;stroke-width:0.0377408;stroke-linecap:round;stroke-linejoin:miter;stroke-miterlimit:4;stroke-dasharray:none;stroke-opacity:1;paint-order:stroke fill markers" />
    <path
       inkscape:connector-curvature="0"
       id="path1204"
       d="m -148.11425,36.786027 v -0.181971 h 0.18197 v 0.181971 z m 0.0361,-0.03591 h 0.10976 v -0.110409 h -0.10976 z"
       style="fill:#ffffff;fill-opacity:1;fill-rule:nonzero;stroke:none;stroke-width:0.0377408;stroke-linecap:round;stroke-linejoin:miter;stroke-miterlimit:4;stroke-dasharray:none;stroke-opacity:1;paint-order:stroke fill markers" />
    <path
       sodipodi:nodetypes="ccssccccccc"
       inkscape:connector-curvature="0"
       id="path1206"
       d="m -148.13176,36.586539 h -0.18407 v -0.01783 c 0,-0.09045 0.0745,-0.164135 0.16603,-0.164135 h 0.018 v 0.01781 z m -0.0361,-0.03565 V 36.44048 c -0.0568,0.0081 -0.10158,0.05421 -0.10977,0.110409 z"
       style="color:#000000;font-style:normal;font-variant:normal;font-weight:normal;font-stretch:normal;font-size:medium;line-height:normal;font-family:sans-serif;font-variant-ligatures:normal;font-variant-position:normal;font-variant-caps:normal;font-variant-numeric:normal;font-variant-alternates:normal;font-feature-settings:normal;text-indent:0;text-align:start;text-decoration:none;text-decoration-line:none;text-decoration-style:solid;text-decoration-color:#000000;letter-spacing:normal;word-spacing:normal;text-transform:none;writing-mode:lr-tb;direction:ltr;text-orientation:mixed;dominant-baseline:auto;baseline-shift:baseline;text-anchor:start;white-space:normal;shape-padding:0;clip-rule:nonzero;display:inline;overflow:visible;visibility:visible;isolation:auto;mix-blend-mode:normal;color-interpolation:sRGB;color-interpolation-filters:linearRGB;solid-color:#000000;solid-opacity:1;vector-effect:none;fill:#ffffff;fill-opacity:1;fill-rule:nonzero;stroke:none;stroke-width:0.0358644;stroke-linecap:round;stroke-linejoin:miter;stroke-miterlimit:4;stroke-dasharray:none;stroke-dashoffset:0;stroke-opacity:1;paint-order:stroke fill markers;color-rendering:auto;image-rendering:auto;shape-rendering:auto;text-rendering:auto;enable-background:accumulate" />
    <path
       inkscape:connector-curvature="0"
       id="path1208"
       d="m -148.31373,36.786029 v -0.181972 h 0.18197 v 0.181972 z m 0.0361,-0.03591 h 0.10976 V 36.63971 h -0.10976 z"
       style="fill:#ffffff;fill-opacity:1;fill-rule:nonzero;stroke:none;stroke-width:0.0377408;stroke-linecap:round;stroke-linejoin:miter;stroke-miterlimit:4;stroke-dasharray:none;stroke-opacity:1;paint-order:stroke fill markers" />
    <path
       inkscape:connector-curvature="0"
       id="path1210"
       d="m -148.11425,36.985517 v -0.181971 h 0.18197 v 0.181971 z m 0.0361,-0.03591 h 0.10976 v -0.110409 h -0.10976 z"
       style="fill:#ffffff;fill-opacity:1;fill-rule:nonzero;stroke:none;stroke-width:0.0377408;stroke-linecap:round;stroke-linejoin:miter;stroke-miterlimit:4;stroke-dasharray:none;stroke-opacity:1;paint-order:stroke fill markers" />
    <path
       inkscape:connector-curvature="0"
       id="path1212"
       d="m -148.31373,36.985519 v -0.181972 h 0.18197 v 0.181972 z m 0.0361,-0.03591 h 0.10976 V 36.8392 h -0.10976 z"
       style="fill:#ffffff;fill-opacity:1;fill-rule:nonzero;stroke:none;stroke-width:0.0377408;stroke-linecap:round;stroke-linejoin:miter;stroke-miterlimit:4;stroke-dasharray:none;stroke-opacity:1;paint-order:stroke fill markers" />
    <path
       inkscape:connector-curvature="0"
       id="path1214"
       d="m -147.91476,37.185007 v -0.181971 h 0.18196 v 0.181971 z m 0.0361,-0.03591 h 0.10977 v -0.110409 h -0.10977 z"
       style="fill:#ffffff;fill-opacity:1;fill-rule:nonzero;stroke:none;stroke-width:0.0377408;stroke-linecap:round;stroke-linejoin:miter;stroke-miterlimit:4;stroke-dasharray:none;stroke-opacity:1;paint-order:stroke fill markers" />
    <path
       sodipodi:nodetypes="ccssccccccc"
       inkscape:connector-curvature="0"
       id="path1216"
       d="m -147.71528,37.003037 h 0.18407 v 0.01784 c 0,0.09045 -0.0745,0.164135 -0.16603,0.164135 h -0.018 v -0.01781 z m 0.0361,0.03565 v 0.110409 c 0.0568,-0.0081 0.10157,-0.05421 0.10976,-0.110409 z"
       style="color:#000000;font-style:normal;font-variant:normal;font-weight:normal;font-stretch:normal;font-size:medium;line-height:normal;font-family:sans-serif;font-variant-ligatures:normal;font-variant-position:normal;font-variant-caps:normal;font-variant-numeric:normal;font-variant-alternates:normal;font-feature-settings:normal;text-indent:0;text-align:start;text-decoration:none;text-decoration-line:none;text-decoration-style:solid;text-decoration-color:#000000;letter-spacing:normal;word-spacing:normal;text-transform:none;writing-mode:lr-tb;direction:ltr;text-orientation:mixed;dominant-baseline:auto;baseline-shift:baseline;text-anchor:start;white-space:normal;shape-padding:0;clip-rule:nonzero;display:inline;overflow:visible;visibility:visible;isolation:auto;mix-blend-mode:normal;color-interpolation:sRGB;color-interpolation-filters:linearRGB;solid-color:#000000;solid-opacity:1;vector-effect:none;fill:#ffffff;fill-opacity:1;fill-rule:nonzero;stroke:none;stroke-width:0.0358644;stroke-linecap:round;stroke-linejoin:miter;stroke-miterlimit:4;stroke-dasharray:none;stroke-dashoffset:0;stroke-opacity:1;paint-order:stroke fill markers;color-rendering:auto;image-rendering:auto;shape-rendering:auto;text-rendering:auto;enable-background:accumulate" />
    <path
       inkscape:connector-curvature="0"
       id="path1218"
       d="m -148.11425,37.185007 v -0.181971 h 0.18197 v 0.181971 z m 0.0361,-0.03591 h 0.10976 v -0.110409 h -0.10976 z"
       style="fill:#ffffff;fill-opacity:1;fill-rule:nonzero;stroke:none;stroke-width:0.0377408;stroke-linecap:round;stroke-linejoin:miter;stroke-miterlimit:4;stroke-dasharray:none;stroke-opacity:1;paint-order:stroke fill markers" />
    <path
       sodipodi:nodetypes="ccssccccccc"
       inkscape:connector-curvature="0"
       id="path1220"
       d="m -148.13176,37.003037 h -0.18407 v 0.01784 c 0,0.09045 0.0745,0.164135 0.16603,0.164135 h 0.018 v -0.01781 z m -0.0361,0.03565 v 0.110409 c -0.0568,-0.0081 -0.10158,-0.05421 -0.10977,-0.110409 z"
       style="color:#000000;font-style:normal;font-variant:normal;font-weight:normal;font-stretch:normal;font-size:medium;line-height:normal;font-family:sans-serif;font-variant-ligatures:normal;font-variant-position:normal;font-variant-caps:normal;font-variant-numeric:normal;font-variant-alternates:normal;font-feature-settings:normal;text-indent:0;text-align:start;text-decoration:none;text-decoration-line:none;text-decoration-style:solid;text-decoration-color:#000000;letter-spacing:normal;word-spacing:normal;text-transform:none;writing-mode:lr-tb;direction:ltr;text-orientation:mixed;dominant-baseline:auto;baseline-shift:baseline;text-anchor:start;white-space:normal;shape-padding:0;clip-rule:nonzero;display:inline;overflow:visible;visibility:visible;isolation:auto;mix-blend-mode:normal;color-interpolation:sRGB;color-interpolation-filters:linearRGB;solid-color:#000000;solid-opacity:1;vector-effect:none;fill:#ffffff;fill-opacity:1;fill-rule:nonzero;stroke:none;stroke-width:0.0358644;stroke-linecap:round;stroke-linejoin:miter;stroke-miterlimit:4;stroke-dasharray:none;stroke-dashoffset:0;stroke-opacity:1;paint-order:stroke fill markers;color-rendering:auto;image-rendering:auto;shape-rendering:auto;text-rendering:auto;enable-background:accumulate" />
  </g>
</svg>
