<?xml version="1.0" encoding="UTF-8" standalone="no"?>
<svg
   viewBox="0 0 218.52 317.48"
   version="1.1"
   id="svg610"
   sodipodi:docname="auto-arcade-itech.svg"
   inkscape:version="1.1 (c68e22c387, 2021-05-23)"
   xmlns:inkscape="http://www.inkscape.org/namespaces/inkscape"
   xmlns:sodipodi="http://sodipodi.sourceforge.net/DTD/sodipodi-0.dtd"
   xmlns="http://www.w3.org/2000/svg"
   xmlns:svg="http://www.w3.org/2000/svg">
  <defs
     id="defs614">
    <linearGradient
       id="a"
       gradientTransform="rotate(90,602.18396,390.31957)"
       gradientUnits="userSpaceOnUse"
       x1="312.93539"
       x2="291.9762"
       y1="1095.2787"
       y2="1074.3195">
      <stop
         offset="0"
         stop-color="#a4a5a9"
         id="stop2" />
      <stop
         offset="1"
         stop-color="#e6e6e7"
         id="stop4" />
    </linearGradient>
    <linearGradient
       id="b"
       gradientTransform="rotate(90,602.18396,390.31957)"
       gradientUnits="userSpaceOnUse"
       x1="292.05191"
       x2="312.9278"
       y1="1095.271"
       y2="1074.3951">
      <stop
         offset="0"
         stop-color="#211c1d"
         stop-opacity="0"
         id="stop7" />
      <stop
         offset=".0448"
         stop-color="#211c1d"
         stop-opacity=".0896"
         id="stop9" />
      <stop
         offset=".5"
         stop-color="#211c1d"
         id="stop11" />
      <stop
         offset=".9552"
         stop-color="#211c1d"
         stop-opacity=".0896"
         id="stop13" />
      <stop
         offset="1"
         stop-color="#211c1d"
         stop-opacity="0"
         id="stop15" />
    </linearGradient>
    <linearGradient
       id="c"
       gradientTransform="rotate(-90,-717.02648,-3093.8286)"
       gradientUnits="userSpaceOnUse"
       x1="-3911.9182"
       x2="-3891.0425"
       y1="-2458.6936"
       y2="-2479.5693">
      <stop
         offset="0"
         stop-color="#fff"
         stop-opacity="0"
         id="stop18" />
      <stop
         offset=".5"
         stop-color="#fff"
         id="stop20" />
      <stop
         offset="1"
         stop-color="#fff"
         stop-opacity="0"
         id="stop22" />
    </linearGradient>
  </defs>
  <sodipodi:namedview
     id="namedview612"
     pagecolor="#ffffff"
     bordercolor="#666666"
     borderopacity="1.0"
     inkscape:pageshadow="2"
     inkscape:pageopacity="0.0"
     inkscape:pagecheckerboard="true"
     showgrid="false"
     inkscape:zoom="1.1859014"
     inkscape:cx="99.92399"
     inkscape:cy="161.05892"
     inkscape:window-width="1920"
     inkscape:window-height="1138"
     inkscape:window-x="-8"
     inkscape:window-y="-8"
     inkscape:window-maximized="1"
     inkscape:current-layer="svg610"
     inkscape:snap-global="false" />
  <path
     d="M 5.0900021,20.831 H 213.43 v 218.63 H 5.0900021 Z"
     fill="#1229b8"
     id="path2"
     style="fill:#666666;fill-opacity:1;stroke-width:1.24817" />
  <path
     d="m5.09 264.961h208.246v48.75h-208.246z"
     fill="#bcc9a7"
     stroke="#000"
     id="path6"
     style="fill:#666666;fill-opacity:1" />
  <path
     d="m14.463 313.711h12.805v3.769h-12.805zm176.605 0h12.805v3.769h-12.805z"
     fill="#1a1818"
     id="path8"
     style="fill:#000000" />
  <path
     d="m5.09 258.461h208.246v6.5h-208.246z"
     fill="#18111c"
     id="path10"
     style="fill:#000000" />
  <path
     d="m5.09 239.461h208.246v19h-208.246z"
     fill="#acb5a2"
     stroke="#000"
     stroke-miterlimit="10"
     id="path12"
     style="fill:#ffd100;fill-opacity:1" />
  <path
     d="m213.43 0h5.09v317.48h-5.09z"
     fill="#18111c"
     id="path16"
     style="fill:#000000" />
  <path
     d="m111.178 305.003h-3.231c-1.408 0-2.553-1.374-2.553-3.063v-3.063h8.337v3.063c0 1.689-1.145 3.063-2.553 3.063z"
     fill="#1a1818"
     id="path20" />
  <path
     d="m5.137 0h208.246v26.188h-208.246z"
     fill="#18111c"
     id="path78"
     style="fill:#000000" />
  <path
     d="m0 0h5.09v317.48h-5.09z"
     fill="#18111c"
     id="path480"
     style="fill:#000000" />
  <path
     d="m141.372 282.946h-4.867a1.321 1.321 0 0 1 -1.317-1.317v-3.033c0-.724.593-1.317 1.317-1.317h4.867c.724 0 1.317.593 1.317 1.317v3.033c0 .724-.593 1.317-1.317 1.317z"
     fill="#5e5353"
     id="path540" />
  <path
     d="m136.595 278.883h4.688v1.229h-4.688z"
     fill="#1a1818"
     id="path542" />
  <path
     d="m 70.415,267.836 h 77.596 v 43 H 70.415 Z"
     fill="#1a1818"
     id="path18" />
  <path
     d="m 91.199,281.522 h -6.785 a 1.235,1.235 0 0 1 -1.231,-1.231 v -3.205 c 0,-0.677 0.554,-1.231 1.231,-1.231 h 6.785 c 0.677,0 1.231,0.554 1.231,1.231 v 3.205 c 0,0.677 -0.554,1.231 -1.231,1.231 z"
     fill="#5b2a2a"
     id="path530" />
  <path
     d="m 84.729,276.835 h 1.313 v 3.937 h -1.313 z"
     fill="#471313"
     id="path536" />
  <path
     d="m 100.483,281.522 h -4.867 a 1.321,1.321 0 0 1 -1.317,-1.317 v -3.033 c 0,-0.724 0.593,-1.317 1.317,-1.317 h 4.867 c 0.724,0 1.317,0.593 1.317,1.317 v 3.033 c 0,0.724 -0.593,1.317 -1.317,1.317 z"
     fill="#5e5353"
     id="path532" />
  <path
     d="m 95.705,277.46 h 4.688 v 1.229 h -4.688 z"
     fill="#1a1818"
     id="path534" />
  <path
     d="m 94.064,287.147 h 26.414 v 6.25 H 94.064 Z"
     fill="#595757"
     id="path538" />
  <path
     d="m 130.199,281.637 h -6.785 a 1.235,1.235 0 0 1 -1.231,-1.231 v -3.205 c 0,-0.677 0.554,-1.231 1.231,-1.231 h 6.785 c 0.677,0 1.231,0.554 1.231,1.231 v 3.205 c 0,0.677 -0.554,1.231 -1.231,1.231 z"
     fill="#5b2a2a"
     id="path544" />
  <path
     d="m 123.729,276.949 h 1.313 v 3.938 h -1.313 z"
     fill="#471313"
     id="path546" />
  <path
     d="m 126.195,303.309 h 2.378 a 2.57,2.57 0 0 0 2.563,-2.563 v -2.563 h -7.503 v 2.563 a 2.57,2.57 0 0 0 2.562,2.563 z"
     fill="#353434"
     id="path550" />
  <path
     d="m 114.253,281.637 h 4.867 c 0.724,0 1.317,-0.593 1.317,-1.317 v -3.033 c 0,-0.724 -0.593,-1.317 -1.317,-1.317 h -4.867 c -0.724,0 -1.317,0.593 -1.317,1.317 v 3.033 c 0,0.724 0.593,1.317 1.317,1.317 z"
     fill="#5e5353"
     id="path552" />
  <path
     d="m 119.03,278.803 h -4.688 v -1.229 h 4.688 z"
     fill="#1a1818"
     id="path554" />
  <ellipse
     cx="133.68201"
     cy="286.92902"
     fill="#c6c6c6"
     rx="2.546"
     ry="2.4070001"
     id="ellipse556" />
  <path
     d="m 133.197,285.21 h 0.938 v 3.594 h -0.938 z"
     fill="#353535"
     id="path558" />
  <path
     d="M 88.541,303.194 H 86.163 A 2.57,2.57 0 0 1 83.6,300.632 v -2.563 h 7.503 v 2.563 a 2.57,2.57 0 0 1 -2.562,2.562 z"
     fill="#353434"
     id="path22" />
  <g
     id="g16735"
     transform="matrix(0.74486512,0,0,0.74486512,10.278808,-61.522184)">
    <path
       d="m 40.815121,417.6366 c 0,2.679 -4.776,4.85 -10.667,4.85 -5.891,0 -10.667,-2.172 -10.667,-4.85"
       fill="#848383"
       id="path37" />
    <path
       d="m 30.149121,422.9876 c -6.262,0 -11.167,-2.351 -11.167,-5.351 h 1 c 0,2.358 4.656,4.351 10.167,4.351 5.511,0 10.166,-1.992 10.166,-4.351 h 1 c 0,3.001 -4.904,5.351 -11.166,5.351 z"
       id="path39" />
    <ellipse
       cx="30.148113"
       cy="417.6366"
       fill="#666565"
       rx="10.667"
       ry="3.017"
       id="ellipse41" />
    <path
       d="m 30.149121,421.1536 c -5.549,0 -11.167,-1.208 -11.167,-3.517 0,-2.31 5.618,-3.518 11.167,-3.518 5.549,0 11.166,1.208 11.166,3.518 0,2.309 -5.617,3.517 -11.166,3.517 z m 0,-6.034 c -6.206,0 -10.167,1.491 -10.167,2.518 0,1.027 3.961,2.517 10.167,2.517 6.206,0 10.166,-1.49 10.166,-2.517 0,-1.027 -3.96,-2.518 -10.166,-2.518 z"
       id="path43" />
    <path
       d="m 196.36912,417.4456 v -4.085 c 0,0.721 -2.728,1.306 -6.094,1.306 -3.366,0 -6.094,-0.585 -6.094,-1.306 v 4.085 -0.078 c 1.558,0.367 3.71,0.594 6.087,0.594 2.385,0 4.543,-0.228 6.102,-0.597"
       fill="#ae0009"
       id="path45" />
    <path
       d="m 190.26712,418.4616 c -2.338,0 -4.54,-0.216 -6.201,-0.607 l 0.096,-0.409 h -0.481 v -4.085 h 1 c 0.193,0.212 2.12,0.807 5.595,0.807 3.474,0 5.4,-0.595 5.616,-0.897 l 0.978,0.091 v 4.085 h -0.48 l 0.096,0.405 c -1.666,0.393 -3.874,0.61 -6.219,0.61 z m -5.587,-1.495 c 1.539,0.32 3.503,0.495 5.587,0.495 2.091,0 4.061,-0.176 5.602,-0.498 v -2.54 c -1.638,0.696 -4.789,0.743 -5.594,0.743 -0.805,0 -3.957,-0.047 -5.595,-0.743 z"
       fill="#020202"
       id="path47" />
    <path
       d="m 184.16512,417.3676 v -2.568 c -1.537,0.329 -2.487,0.782 -2.487,1.282 0,0.502 0.956,0.957 2.502,1.286"
       fill="#ae0009"
       id="path49" />
    <path
       d="m 184.07612,417.8566 c -1.977,-0.421 -2.897,-0.985 -2.897,-1.775 0,-0.787 0.916,-1.35 2.883,-1.771 l 0.604,-0.129 v 3.187 h -0.485 z m -0.411,-2.424 c -1.093,0.292 -1.448,0.58 -1.492,0.679 0.043,0.048 0.399,0.328 1.492,0.619 z"
       fill="#020202"
       id="path51" />
    <path
       d="m 196.37012,417.3636 v -2.564 c 1.546,0.329 2.501,0.782 2.501,1.282 0,0.501 -0.956,0.954 -2.501,1.282 z"
       fill="#ae0009"
       id="path53" />
    <path
       d="m 195.87012,417.9806 v -3.799 l 0.604,0.128 c 1.976,0.421 2.896,0.983 2.896,1.771 0,0.789 -0.921,1.352 -2.897,1.771 z m 1,-2.549 v 1.3 c 1.103,-0.293 1.462,-0.582 1.506,-0.681 -0.044,-0.046 -0.405,-0.327 -1.506,-0.619 z"
       fill="#020202"
       id="path55" />
    <ellipse
       cx="190.27512"
       cy="413.31061"
       fill="#ae0009"
       rx="6.0939999"
       ry="1.306"
       id="ellipse57" />
    <path
       d="m 190.27512,415.1166 c -1.102,0 -6.595,-0.087 -6.595,-1.807 0,-1.719 5.493,-1.806 6.595,-1.806 1.102,0 6.594,0.087 6.594,1.806 0,1.72 -5.493,1.807 -6.594,1.807 z m -5.513,-1.807 c 0.483,0.317 2.361,0.807 5.513,0.807 3.152,0 5.028,-0.489 5.512,-0.807 -0.483,-0.316 -2.361,-0.806 -5.512,-0.806 -3.151,0 -5.029,0.49 -5.513,0.806 z"
       fill="#020202"
       id="path59" />
    <path
       d="m 196.36912,422.5696 v -4.085 c 0,0.721 -2.728,1.306 -6.094,1.306 -3.366,0 -6.094,-0.585 -6.094,-1.306 v 4.085 -0.078 c 1.558,0.367 3.71,0.594 6.087,0.594 2.385,0 4.543,-0.228 6.102,-0.597"
       fill="#ae0009"
       id="path61" />
    <path
       d="m 190.26712,423.5856 c -2.338,0 -4.54,-0.216 -6.2,-0.607 l 0.096,-0.408 h -0.481 v -4.085 h 1 c 0.193,0.212 2.12,0.806 5.594,0.806 3.474,0 5.4,-0.594 5.616,-0.897 l 0.978,0.092 v 4.085 h -0.48 l 0.094,0.402 c -1.664,0.395 -3.872,0.612 -6.217,0.612 z m -5.586,-1.495 c 1.538,0.32 3.502,0.495 5.586,0.495 2.091,0 4.061,-0.176 5.602,-0.498 v -2.54 c -1.638,0.696 -4.789,0.743 -5.594,0.743 -0.805,0 -3.956,-0.047 -5.594,-0.743 z"
       fill="#020202"
       id="path63" />
    <path
       d="m 184.16512,422.4916 v -2.568 c -1.537,0.329 -2.487,0.782 -2.487,1.282 0,0.502 0.956,0.957 2.502,1.286"
       fill="#ae0009"
       id="path65" />
    <path
       d="m 184.07712,422.9806 c -1.978,-0.421 -2.898,-0.984 -2.898,-1.774 0,-0.788 0.916,-1.352 2.883,-1.771 l 0.604,-0.129 v 3.186 h -0.484 z m -0.412,-2.424 c -1.093,0.292 -1.449,0.58 -1.492,0.679 0.044,0.048 0.4,0.329 1.492,0.619 z"
       fill="#020202"
       id="path67" />
    <path
       d="m 196.37012,422.4886 v -2.564 c 1.546,0.329 2.501,0.782 2.501,1.282 0,0.5 -0.956,0.953 -2.501,1.282 z"
       fill="#ae0009"
       id="path69" />
    <path
       d="m 195.87012,423.1046 v -3.798 l 0.604,0.128 c 1.977,0.42 2.897,0.982 2.897,1.771 0,0.789 -0.921,1.352 -2.897,1.771 z m 1,-2.548 v 1.3 c 1.103,-0.293 1.462,-0.582 1.506,-0.681 -0.044,-0.047 -0.405,-0.328 -1.506,-0.619 z"
       fill="#020202"
       id="path71" />
    <ellipse
       cx="190.27512"
       cy="418.4346"
       fill="#ae0009"
       rx="6.0939999"
       ry="1.306"
       id="ellipse73" />
    <path
       d="m 190.27512,420.2406 c -1.102,0 -6.594,-0.087 -6.594,-1.806 0,-1.72 5.492,-1.807 6.594,-1.807 1.102,0 6.594,0.087 6.594,1.807 0,1.719 -5.493,1.806 -6.594,1.806 z m -5.512,-1.806 c 0.483,0.316 2.361,0.806 5.512,0.806 3.151,0 5.028,-0.489 5.512,-0.806 -0.483,-0.317 -2.36,-0.807 -5.512,-0.807 -3.152,0 -5.029,0.49 -5.512,0.807 z"
       fill="#020202"
       id="path75" />
    <path
       d="m 59.234121,417.5096 v -4.085 c 0,0.721 -2.728,1.306 -6.094,1.306 -3.366,0 -6.094,-0.585 -6.094,-1.306 v 4.085 -0.078 c 1.558,0.367 3.71,0.594 6.087,0.594 2.385,0 4.543,-0.228 6.102,-0.597"
       fill="#ae0009"
       id="path77" />
    <path
       d="m 53.132121,418.5256 c -2.334,0 -4.536,-0.216 -6.201,-0.607 l 0.096,-0.409 h -0.481 v -4.085 h 1 c 0.193,0.212 2.12,0.806 5.594,0.806 3.475,0 5.401,-0.594 5.617,-0.896 l 0.978,0.091 v 4.085 h -0.48 l 0.096,0.405 c -1.666,0.393 -3.874,0.61 -6.219,0.61 z m -5.587,-1.495 c 1.541,0.32 3.506,0.495 5.587,0.495 2.091,0 4.061,-0.176 5.602,-0.498 v -2.541 c -1.638,0.696 -4.79,0.743 -5.595,0.743 -0.805,0 -3.956,-0.047 -5.594,-0.743 z"
       fill="#020202"
       id="path79" />
    <path
       d="m 47.030121,417.4316 v -2.568 c -1.537,0.329 -2.487,0.782 -2.487,1.282 0,0.502 0.956,0.957 2.502,1.286"
       fill="#ae0009"
       id="path81" />
    <path
       d="m 46.941121,417.9216 c -1.949,-0.415 -2.897,-0.996 -2.897,-1.775 0,-0.787 0.916,-1.351 2.882,-1.771 l 0.604,-0.129 v 3.187 h -0.484 z m -0.411,-2.424 c -1.092,0.292 -1.447,0.58 -1.491,0.679 0.044,0.048 0.399,0.328 1.491,0.619 z"
       fill="#020202"
       id="path83" />
    <path
       d="m 59.235121,417.4286 v -2.564 c 1.546,0.329 2.501,0.782 2.501,1.282 0,0.5 -0.956,0.953 -2.501,1.282 z"
       fill="#ae0009"
       id="path85" />
    <path
       d="m 58.735121,418.0466 v -3.8 l 0.604,0.128 c 1.976,0.421 2.896,0.983 2.896,1.771 0,0.787 -0.921,1.351 -2.896,1.771 z m 1,-2.55 v 1.299 c 1.102,-0.293 1.462,-0.581 1.506,-0.681 -0.044,-0.046 -0.405,-0.327 -1.506,-0.618 z"
       fill="#020202"
       id="path87" />
    <ellipse
       cx="53.140118"
       cy="413.3746"
       fill="#ae0009"
       rx="6.0939999"
       ry="1.306"
       id="ellipse89" />
    <path
       d="m 53.139121,415.1806 c -1.102,0 -6.594,-0.087 -6.594,-1.806 0,-1.719 5.492,-1.806 6.594,-1.806 1.102,0 6.595,0.087 6.595,1.806 0,1.719 -5.493,1.806 -6.595,1.806 z m -5.512,-1.806 c 0.483,0.317 2.361,0.806 5.512,0.806 3.151,0 5.029,-0.488 5.513,-0.806 -0.483,-0.317 -2.362,-0.806 -5.513,-0.806 -3.151,0 -5.028,0.488 -5.512,0.806 z"
       fill="#020202"
       id="path91" />
    <path
       d="m 59.234121,422.6336 v -4.085 c 0,0.721 -2.728,1.306 -6.094,1.306 -3.366,0 -6.094,-0.585 -6.094,-1.306 v 4.085 -0.078 c 1.558,0.367 3.71,0.594 6.087,0.594 2.385,0 4.543,-0.228 6.102,-0.597"
       fill="#ae0009"
       id="path93" />
    <path
       d="m 53.132121,423.6496 c -2.334,0 -4.536,-0.216 -6.201,-0.607 l 0.096,-0.409 h -0.481 v -4.085 h 1 c 0.193,0.212 2.12,0.807 5.595,0.807 3.474,0 5.4,-0.595 5.616,-0.897 l 0.978,0.091 v 4.085 h -0.48 l 0.096,0.405 c -1.666,0.393 -3.874,0.61 -6.219,0.61 z m -5.587,-1.495 c 1.541,0.32 3.506,0.495 5.587,0.495 2.091,0 4.061,-0.176 5.602,-0.498 v -2.54 c -1.638,0.696 -4.789,0.743 -5.594,0.743 -0.805,0 -3.957,-0.047 -5.595,-0.743 z"
       fill="#020202"
       id="path95" />
    <path
       d="m 47.030121,422.5556 v -2.568 c -1.537,0.329 -2.487,0.782 -2.487,1.282 0,0.502 0.956,0.957 2.502,1.286"
       fill="#ae0009"
       id="path97" />
    <path
       d="m 46.941121,423.0456 c -1.949,-0.415 -2.897,-0.996 -2.897,-1.775 0,-0.787 0.916,-1.35 2.882,-1.771 l 0.604,-0.129 v 3.187 h -0.484 z m -0.411,-2.424 c -1.092,0.292 -1.447,0.58 -1.491,0.679 0.044,0.048 0.399,0.328 1.491,0.619 z"
       fill="#020202"
       id="path99" />
    <path
       d="m 59.235121,422.5526 v -2.564 c 1.546,0.329 2.501,0.782 2.501,1.282 0,0.5 -0.956,0.953 -2.501,1.282 z"
       fill="#ae0009"
       id="path101" />
    <path
       d="m 58.735121,423.1696 v -3.799 l 0.604,0.128 c 1.976,0.421 2.896,0.983 2.896,1.771 0,0.778 -0.947,1.357 -2.897,1.771 z m 1,-2.549 v 1.3 c 1.102,-0.293 1.462,-0.582 1.506,-0.682 -0.044,-0.046 -0.405,-0.327 -1.506,-0.618 z"
       fill="#020202"
       id="path103" />
    <ellipse
       cx="53.140118"
       cy="418.4986"
       fill="#ae0009"
       rx="6.0939999"
       ry="1.306"
       id="ellipse105" />
    <path
       d="m 53.140121,420.3046 c -1.102,0 -6.595,-0.087 -6.595,-1.806 0,-1.719 5.493,-1.806 6.595,-1.806 1.102,0 6.594,0.087 6.594,1.806 0,1.719 -5.492,1.806 -6.594,1.806 z m -5.513,-1.806 c 0.483,0.317 2.361,0.806 5.513,0.806 3.15,0 5.028,-0.488 5.512,-0.806 -0.483,-0.317 -2.361,-0.806 -5.512,-0.806 -3.151,0 -5.029,0.489 -5.513,0.806 z"
       fill="#020202"
       id="path107" />
    <path
       d="m 82.730121,417.9256 v -4.085 c 0,0.721 -2.728,1.306 -6.094,1.306 -3.366,0 -6.094,-0.585 -6.094,-1.306 v 4.085 -0.078 c 1.558,0.367 3.71,0.594 6.087,0.594 2.385,0 4.543,-0.228 6.102,-0.597"
       fill="#ffffff"
       id="path109" />
    <path
       d="m 76.628121,418.9416 c -2.339,0 -4.541,-0.216 -6.201,-0.607 l 0.096,-0.409 h -0.481 v -4.084 h 1 c 0.193,0.212 2.12,0.806 5.594,0.806 3.474,0 5.401,-0.594 5.617,-0.897 l 0.978,0.092 v 4.084 h -0.48 l 0.096,0.405 c -1.667,0.393 -3.875,0.61 -6.219,0.61 z m -5.587,-1.495 c 1.538,0.32 3.502,0.495 5.587,0.495 2.091,0 4.06,-0.176 5.602,-0.499 v -2.539 c -1.638,0.696 -4.79,0.743 -5.595,0.743 -0.805,0 -3.956,-0.047 -5.594,-0.743 z"
       fill="#020202"
       id="path111" />
    <path
       d="m 70.526121,417.8476 v -2.568 c -1.537,0.329 -2.487,0.782 -2.487,1.282 0,0.502 0.956,0.957 2.502,1.286"
       fill="#ffffff"
       id="path113" />
    <path
       d="m 70.437121,418.3376 c -1.977,-0.421 -2.897,-0.985 -2.897,-1.775 0,-0.787 0.916,-1.351 2.882,-1.771 l 0.604,-0.129 v 3.187 h -0.484 z m -0.411,-2.424 c -1.092,0.292 -1.447,0.58 -1.491,0.679 0.043,0.048 0.399,0.328 1.491,0.619 z"
       fill="#020202"
       id="path115" />
    <path
       d="m 82.731121,417.8446 v -2.564 c 1.546,0.329 2.501,0.782 2.501,1.282 0,0.5 -0.956,0.953 -2.501,1.282 z"
       fill="#ffffff"
       id="path117" />
    <path
       d="m 82.231121,418.4616 v -3.799 l 0.604,0.128 c 1.976,0.421 2.896,0.983 2.896,1.771 0,0.789 -0.921,1.352 -2.897,1.771 z m 1,-2.549 v 1.3 c 1.103,-0.293 1.462,-0.582 1.506,-0.681 -0.044,-0.047 -0.405,-0.328 -1.506,-0.619 z"
       fill="#020202"
       id="path119" />
    <ellipse
       cx="76.636116"
       cy="413.79059"
       fill="#ffffff"
       rx="6.0939999"
       ry="1.306"
       id="ellipse121" />
    <path
       d="m 76.635121,415.5976 c -1.102,0 -6.594,-0.087 -6.594,-1.807 0,-1.719 5.492,-1.806 6.594,-1.806 1.102,0 6.595,0.087 6.595,1.806 0,1.72 -5.493,1.807 -6.595,1.807 z m -5.512,-1.807 c 0.483,0.317 2.36,0.807 5.512,0.807 3.152,0 5.029,-0.489 5.513,-0.807 -0.483,-0.316 -2.362,-0.806 -5.513,-0.806 -3.151,0 -5.028,0.489 -5.512,0.806 z"
       fill="#020202"
       id="path123" />
    <path
       d="m 82.730121,423.0496 v -4.085 c 0,0.721 -2.728,1.306 -6.094,1.306 -3.366,0 -6.094,-0.585 -6.094,-1.306 v 4.085 -0.078 c 1.558,0.367 3.71,0.594 6.087,0.594 2.385,0 4.543,-0.228 6.102,-0.597"
       fill="#ffffff"
       id="path125" />
    <path
       d="m 76.628121,424.0656 c -2.339,0 -4.541,-0.216 -6.201,-0.607 l 0.096,-0.408 h -0.481 v -4.085 h 1 c 0.193,0.212 2.12,0.806 5.594,0.806 3.474,0 5.401,-0.594 5.617,-0.897 l 0.978,0.092 v 4.085 h -0.48 l 0.096,0.404 c -1.667,0.393 -3.875,0.61 -6.219,0.61 z m -5.587,-1.495 c 1.538,0.32 3.502,0.495 5.587,0.495 2.091,0 4.06,-0.176 5.602,-0.499 v -2.539 c -1.638,0.696 -4.79,0.743 -5.595,0.743 -0.805,0 -3.956,-0.047 -5.594,-0.743 z"
       fill="#020202"
       id="path127" />
    <path
       d="m 70.526121,422.9726 v -2.568 c -1.537,0.329 -2.487,0.782 -2.487,1.282 0,0.502 0.956,0.957 2.502,1.286"
       fill="#ffffff"
       id="path129" />
    <path
       d="m 70.437121,423.4616 c -1.977,-0.421 -2.897,-0.985 -2.897,-1.774 0,-0.789 0.916,-1.352 2.882,-1.771 l 0.604,-0.129 v 3.186 h -0.484 z m -0.411,-2.424 c -1.093,0.292 -1.448,0.58 -1.491,0.679 0.044,0.048 0.399,0.328 1.491,0.619 z"
       fill="#020202"
       id="path131" />
    <path
       d="m 82.731121,422.9686 v -2.564 c 1.546,0.329 2.501,0.782 2.501,1.282 0,0.5 -0.956,0.953 -2.501,1.282 z"
       fill="#ffffff"
       id="path133" />
    <path
       d="m 82.231121,423.5856 v -3.798 l 0.604,0.128 c 1.977,0.42 2.897,0.982 2.897,1.771 0,0.789 -0.921,1.352 -2.897,1.771 z m 1,-2.549 v 1.3 c 1.103,-0.293 1.462,-0.582 1.506,-0.681 -0.044,-0.047 -0.405,-0.328 -1.506,-0.619 z"
       fill="#020202"
       id="path135" />
    <ellipse
       cx="76.636116"
       cy="418.91458"
       fill="#ffffff"
       rx="6.0939999"
       ry="1.306"
       id="ellipse137" />
    <path
       d="m 76.635121,420.7216 c -1.102,0 -6.594,-0.087 -6.594,-1.806 0,-1.72 5.492,-1.807 6.594,-1.807 1.102,0 6.595,0.087 6.595,1.807 0,1.719 -5.493,1.806 -6.595,1.806 z m -5.512,-1.806 c 0.483,0.316 2.361,0.806 5.512,0.806 3.151,0 5.029,-0.489 5.513,-0.806 -0.483,-0.317 -2.361,-0.807 -5.513,-0.807 -3.152,0 -5.028,0.49 -5.512,0.807 z"
       fill="#020202"
       id="path139" />
    <path
       d="m 106.16212,417.9256 v -4.085 c 0,0.721 -2.728,1.306 -6.094,1.306 -3.365999,0 -6.093999,-0.585 -6.093999,-1.306 v 4.085 -0.078 c 1.558,0.367 3.71,0.594 6.086999,0.594 2.385,0 4.543,-0.228 6.102,-0.597"
       fill="#4b92e2"
       id="path141" />
    <path
       d="m 100.06112,418.9416 c -2.338999,0 -4.540999,-0.216 -6.200999,-0.607 l 0.096,-0.409 h -0.482 v -4.084 h 1 c 0.193,0.212 2.12,0.806 5.593999,0.806 3.474,0 5.4,-0.594 5.616,-0.897 l 0.978,0.092 v 4.084 h -0.479 l 0.096,0.405 c -1.666,0.393 -3.874,0.61 -6.218,0.61 z m -5.586999,-1.495 c 1.538,0.32 3.502,0.495 5.586999,0.495 2.09,0 4.059,-0.176 5.601,-0.498 v -2.54 c -1.638,0.696 -4.789,0.743 -5.594,0.743 -0.804999,0 -3.955999,-0.047 -5.593999,-0.743 z"
       fill="#020202"
       id="path143" />
    <path
       d="m 93.958121,417.8476 v -2.568 c -1.537,0.329 -2.487,0.782 -2.487,1.282 0,0.502 0.956,0.957 2.502,1.286"
       fill="#4b92e2"
       id="path145" />
    <path
       d="m 93.870121,418.3376 c -1.977,-0.421 -2.897,-0.985 -2.897,-1.775 0,-0.787 0.916,-1.351 2.882,-1.771 l 0.604,-0.129 v 3.187 h -0.485 z m -0.412,-2.424 c -1.092,0.292 -1.447,0.58 -1.491,0.679 0.043,0.048 0.399,0.328 1.491,0.619 z"
       fill="#020202"
       id="path147" />
    <path
       d="m 106.16312,417.8446 v -2.564 c 1.546,0.329 2.501,0.782 2.501,1.282 0,0.5 -0.955,0.953 -2.501,1.282 z"
       fill="#4b92e2"
       id="path149" />
    <path
       d="m 105.66412,418.4616 v -3.8 l 0.604,0.129 c 1.976,0.421 2.896,0.984 2.896,1.771 0,0.789 -0.921,1.352 -2.897,1.771 z m 1,-2.549 v 1.3 c 1.103,-0.293 1.462,-0.582 1.506,-0.681 -0.045,-0.046 -0.405,-0.328 -1.506,-0.619 z"
       fill="#020202"
       id="path151" />
    <ellipse
       cx="100.06812"
       cy="413.79059"
       fill="#4b92e2"
       rx="6.0939999"
       ry="1.306"
       id="ellipse153" />
    <path
       d="m 100.06812,415.5976 c -1.101999,0 -6.593999,-0.087 -6.593999,-1.807 0,-1.719 5.492,-1.806 6.593999,-1.806 1.102,0 6.594,0.087 6.594,1.806 0,1.72 -5.493,1.807 -6.594,1.807 z m -5.511999,-1.807 c 0.483,0.317 2.36,0.807 5.511999,0.807 3.152,0 5.029,-0.489 5.512,-0.807 -0.483,-0.316 -2.361,-0.806 -5.512,-0.806 -3.150999,0 -5.027999,0.489 -5.511999,0.806 z"
       fill="#020202"
       id="path155" />
    <path
       d="m 106.16212,423.0496 v -4.085 c 0,0.721 -2.728,1.306 -6.094,1.306 -3.365999,0 -6.093999,-0.585 -6.093999,-1.306 v 4.085 -0.078 c 1.558,0.367 3.71,0.594 6.086999,0.594 2.385,0 4.543,-0.228 6.102,-0.597"
       fill="#4b92e2"
       id="path157" />
    <path
       d="m 100.06112,424.0656 c -2.338999,0 -4.540999,-0.216 -6.200999,-0.607 l 0.096,-0.408 h -0.482 v -4.085 h 1 c 0.193,0.212 2.12,0.806 5.593999,0.806 3.474,0 5.401,-0.594 5.617,-0.897 l 0.978,0.092 v 4.085 h -0.48 l 0.096,0.404 c -1.666,0.393 -3.874,0.61 -6.218,0.61 z m -5.586999,-1.495 c 1.538,0.32 3.502,0.495 5.586999,0.495 2.091,0 4.06,-0.176 5.602,-0.499 v -2.539 c -1.638,0.696 -4.79,0.743 -5.595,0.743 -0.804999,0 -3.955999,-0.047 -5.593999,-0.743 z"
       fill="#020202"
       id="path159" />
    <path
       d="m 93.958121,422.9726 v -2.568 c -1.537,0.329 -2.487,0.782 -2.487,1.282 0,0.502 0.956,0.957 2.502,1.286"
       fill="#4b92e2"
       id="path161" />
    <path
       d="m 93.870121,423.4616 c -1.977,-0.421 -2.897,-0.985 -2.897,-1.774 0,-0.789 0.916,-1.352 2.882,-1.771 l 0.604,-0.129 v 3.186 h -0.485 z m -0.412,-2.424 c -1.093,0.292 -1.448,0.58 -1.491,0.679 0.044,0.048 0.399,0.328 1.491,0.619 z"
       fill="#020202"
       id="path163" />
    <path
       d="m 106.16312,422.9686 v -2.564 c 1.546,0.329 2.501,0.782 2.501,1.282 0,0.5 -0.955,0.953 -2.501,1.282 z"
       fill="#4b92e2"
       id="path165" />
    <path
       d="m 105.66412,423.5856 v -3.798 l 0.604,0.128 c 1.977,0.42 2.897,0.982 2.897,1.771 0,0.789 -0.921,1.352 -2.897,1.771 z m 1,-2.549 v 1.3 c 1.103,-0.293 1.462,-0.582 1.506,-0.681 -0.045,-0.047 -0.405,-0.328 -1.506,-0.619 z"
       fill="#020202"
       id="path167" />
    <ellipse
       cx="100.06812"
       cy="418.91458"
       fill="#4b92e2"
       rx="6.0939999"
       ry="1.306"
       id="ellipse169" />
    <path
       d="m 100.06812,420.7216 c -1.101999,0 -6.593999,-0.087 -6.593999,-1.806 0,-1.72 5.492,-1.807 6.593999,-1.807 1.102,0 6.595,0.087 6.595,1.807 0,1.719 -5.494,1.806 -6.595,1.806 z m -5.511999,-1.806 c 0.483,0.316 2.361,0.806 5.511999,0.806 3.151,0 5.029,-0.489 5.513,-0.806 -0.483,-0.317 -2.361,-0.807 -5.513,-0.807 -3.151999,0 -5.027999,0.49 -5.511999,0.807 z"
       fill="#020202"
       id="path171" />
    <path
       d="m 27.636121,400.0996 h 5.02 v 15.706 h -5.02 z"
       fill="#b2aaab"
       id="path173" />
    <path
       d="m 27.136121,399.7516 h 1 v 16.054 h -1 z"
       id="path175" />
    <path
       d="m 32.156121,399.7516 h 1 v 16.054 h -1 z"
       id="path177" />
    <path
       d="m 128.17812,413.4276 v -4.085 c 0,0.721 -2.728,1.306 -6.094,1.306 -3.366,0 -6.094,-0.585 -6.094,-1.306 v 4.085 -0.078 c 1.558,0.367 3.71,0.594 6.087,0.594 2.385,0 4.543,-0.228 6.102,-0.597"
       fill="#ffffff"
       id="path503" />
    <path
       d="m 122.07712,414.4436 c -2.339,0 -4.541,-0.216 -6.201,-0.607 l 0.096,-0.408 h -0.481 v -4.085 h 1 c 0.193,0.212 2.121,0.806 5.595,0.806 3.474,0 5.4,-0.594 5.616,-0.897 l 0.978,0.092 v 4.085 h -0.48 l 0.096,0.404 c -1.667,0.393 -3.875,0.61 -6.219,0.61 z m -5.587,-1.495 c 1.538,0.32 3.502,0.495 5.587,0.495 2.091,0 4.061,-0.176 5.602,-0.498 v -2.54 c -1.638,0.696 -4.789,0.743 -5.594,0.743 -0.805,0 -3.957,-0.047 -5.595,-0.743 z"
       fill="#020202"
       id="path505" />
    <path
       d="m 115.97412,413.3496 v -2.568 c -1.537,0.329 -2.487,0.782 -2.487,1.282 0,0.502 0.956,0.957 2.502,1.286"
       fill="#ffffff"
       id="path507" />
    <path
       d="m 115.88512,413.8396 c -1.977,-0.421 -2.897,-0.985 -2.897,-1.774 0,-0.788 0.916,-1.351 2.882,-1.772 l 0.604,-0.129 v 3.187 h -0.484 z m -0.411,-2.424 c -1.093,0.292 -1.448,0.58 -1.491,0.679 0.044,0.048 0.399,0.328 1.491,0.619 z"
       fill="#020202"
       id="path509" />
    <path
       d="m 128.17912,413.3466 v -2.564 c 1.546,0.329 2.501,0.782 2.501,1.282 0,0.5 -0.955,0.953 -2.501,1.282 z"
       fill="#ffffff"
       id="path511" />
    <path
       d="m 127.67912,413.9636 v -3.799 l 0.604,0.128 c 1.976,0.421 2.896,0.983 2.896,1.771 0,0.789 -0.921,1.352 -2.897,1.771 z m 1,-2.549 v 1.3 c 1.103,-0.293 1.462,-0.582 1.506,-0.681 -0.044,-0.047 -0.404,-0.328 -1.506,-0.619 z"
       fill="#020202"
       id="path513" />
    <ellipse
       cx="122.08411"
       cy="409.2926"
       fill="#ffffff"
       rx="6.0939999"
       ry="1.306"
       id="ellipse515" />
    <path
       d="m 122.08412,411.0986 c -1.102,0 -6.595,-0.087 -6.595,-1.807 0,-1.719 5.493,-1.806 6.595,-1.806 1.102,0 6.594,0.087 6.594,1.806 0,1.721 -5.492,1.807 -6.594,1.807 z m -5.512,-1.806 c 0.483,0.317 2.361,0.807 5.513,0.807 3.152,0 5.028,-0.489 5.512,-0.807 -0.483,-0.316 -2.361,-0.806 -5.512,-0.806 -3.151,0 -5.03,0.489 -5.513,0.806 z"
       fill="#020202"
       id="path517" />
    <path
       d="m 153.23512,413.4916 v -4.085 c 0,0.721 -2.728,1.306 -6.094,1.306 -3.366,0 -6.094,-0.585 -6.094,-1.306 v 4.085 -0.078 c 1.558,0.367 3.71,0.594 6.087,0.594 2.385,0 4.543,-0.228 6.102,-0.597"
       fill="#ffffff"
       id="path519" />
    <path
       d="m 147.13312,414.5086 c -2.333,0 -4.535,-0.216 -6.2,-0.607 l 0.096,-0.409 h -0.481 v -4.085 h 1 c 0.193,0.212 2.12,0.807 5.594,0.807 3.474,0 5.4,-0.595 5.616,-0.897 l 0.978,0.091 v 4.085 h -0.48 l 0.096,0.405 c -1.666,0.393 -3.874,0.61 -6.219,0.61 z m -5.586,-1.495 c 1.541,0.32 3.505,0.495 5.586,0.495 2.091,0 4.061,-0.176 5.602,-0.498 v -2.54 c -1.638,0.696 -4.789,0.743 -5.594,0.743 -0.805,0 -3.956,-0.047 -5.594,-0.743 z"
       fill="#020202"
       id="path521" />
    <path
       d="m 141.03112,413.4146 v -2.568 c -1.537,0.329 -2.487,0.782 -2.487,1.282 0,0.502 0.956,0.957 2.502,1.286"
       fill="#ffffff"
       id="path523" />
    <path
       d="m 140.94312,413.9036 c -1.95,-0.415 -2.898,-0.996 -2.898,-1.775 0,-0.787 0.916,-1.35 2.883,-1.771 l 0.604,-0.129 v 3.187 h -0.484 z m -0.411,-2.424 c -1.093,0.292 -1.448,0.58 -1.492,0.679 0.044,0.048 0.4,0.328 1.492,0.619 z"
       fill="#020202"
       id="path525" />
    <path
       d="m 153.23612,413.4106 v -2.564 c 1.546,0.329 2.501,0.782 2.501,1.282 0,0.5 -0.955,0.953 -2.501,1.282 z"
       fill="#ffffff"
       id="path527" />
    <path
       d="m 152.73612,414.0276 v -3.799 l 0.604,0.128 c 1.977,0.421 2.897,0.984 2.897,1.771 0,0.789 -0.921,1.352 -2.898,1.771 z m 1,-2.549 v 1.3 c 1.103,-0.293 1.463,-0.582 1.507,-0.682 -0.044,-0.044 -0.405,-0.327 -1.507,-0.618 z"
       fill="#020202"
       id="path529" />
    <ellipse
       cx="147.14111"
       cy="409.3566"
       fill="#ffffff"
       rx="6.0939999"
       ry="1.306"
       id="ellipse531" />
    <path
       d="m 147.14112,411.1626 c -1.102,0 -6.594,-0.087 -6.594,-1.806 0,-1.719 5.492,-1.806 6.594,-1.806 1.102,0 6.594,0.087 6.594,1.806 0,1.719 -5.492,1.806 -6.594,1.806 z m -5.512,-1.806 c 0.483,0.317 2.361,0.806 5.512,0.806 3.151,0 5.028,-0.488 5.512,-0.806 -0.483,-0.317 -2.361,-0.806 -5.512,-0.806 -3.151,0 -5.028,0.489 -5.512,0.806 z"
       fill="#020202"
       id="path533" />
    <ellipse
       cx="30.148113"
       cy="390.84961"
       fill="#1a1818"
       rx="9.2670002"
       ry="9.25"
       id="ellipse775" />
    <path
       d="m 30.149121,400.5996 c -5.386,0 -9.768,-4.374 -9.768,-9.75 0,-5.376 4.382,-9.75 9.768,-9.75 5.386,0 9.767,4.374 9.767,9.75 0,5.376 -4.381,9.75 -9.767,9.75 z m 0,-18.5 c -4.834,0 -8.768,3.925 -8.768,8.75 0,4.825 3.934,8.75 8.768,8.75 4.834,0 8.767,-3.925 8.767,-8.75 0,-4.825 -3.933,-8.75 -8.767,-8.75 z"
       id="path777" />
    <path
       d="m 220.22712,417.7176 v -4.085 c 0,0.721 -2.728,1.306 -6.094,1.306 -3.366,0 -6.094,-0.585 -6.094,-1.306 v 4.085 -0.078 c 1.558,0.367 3.71,0.594 6.087,0.594 2.385,0 4.543,-0.228 6.102,-0.597"
       fill="#ffffff"
       id="path807" />
    <path
       d="m 214.12512,418.7336 c -2.334,0 -4.536,-0.216 -6.201,-0.607 l 0.096,-0.409 h -0.481 v -4.085 h 1 c 0.193,0.212 2.12,0.807 5.595,0.807 3.474,0 5.4,-0.595 5.616,-0.897 l 0.978,0.091 v 4.085 h -0.48 l 0.096,0.405 c -1.666,0.393 -3.874,0.61 -6.219,0.61 z m -5.586,-1.495 c 1.541,0.32 3.506,0.495 5.587,0.495 2.091,0 4.061,-0.176 5.602,-0.498 v -2.54 c -1.638,0.696 -4.789,0.743 -5.594,0.743 -0.805,0 -3.957,-0.047 -5.595,-0.743 z"
       fill="#020202"
       id="path809" />
    <path
       d="m 208.02312,417.6396 v -2.568 c -1.537,0.329 -2.487,0.782 -2.487,1.282 0,0.502 0.956,0.957 2.502,1.286"
       fill="#ffffff"
       id="path811" />
    <path
       d="m 207.93412,418.1296 c -1.949,-0.415 -2.897,-0.996 -2.897,-1.775 0,-0.787 0.916,-1.35 2.882,-1.771 l 0.604,-0.129 v 3.187 h -0.484 z m -0.411,-2.424 c -1.092,0.292 -1.447,0.58 -1.491,0.679 0.044,0.048 0.399,0.328 1.491,0.619 z"
       fill="#020202"
       id="path813" />
    <path
       d="m 220.22812,417.6366 v -2.564 c 1.546,0.329 2.501,0.782 2.501,1.282 0,0.5 -0.956,0.953 -2.501,1.282 z"
       fill="#ffffff"
       id="path815" />
    <path
       d="m 219.72812,418.2536 v -3.799 l 0.604,0.128 c 1.976,0.421 2.896,0.983 2.896,1.771 0,0.778 -0.947,1.357 -2.897,1.771 z m 1,-2.549 v 1.3 c 1.102,-0.293 1.462,-0.582 1.506,-0.682 -0.044,-0.046 -0.404,-0.327 -1.506,-0.618 z"
       fill="#020202"
       id="path817" />
    <ellipse
       cx="214.13312"
       cy="413.58258"
       fill="#ffffff"
       rx="6.0939999"
       ry="1.306"
       id="ellipse819" />
    <path
       d="m 214.13312,415.3886 c -1.102,0 -6.595,-0.087 -6.595,-1.806 0,-1.719 5.493,-1.806 6.595,-1.806 1.102,0 6.594,0.087 6.594,1.806 0,1.719 -5.492,1.806 -6.594,1.806 z m -5.512,-1.806 c 0.483,0.317 2.361,0.806 5.513,0.806 3.15,0 5.028,-0.488 5.512,-0.806 -0.483,-0.317 -2.361,-0.806 -5.512,-0.806 -3.151,0 -5.03,0.489 -5.513,0.806 z"
       fill="#020202"
       id="path821" />
    <path
       d="m 220.22712,422.8416 v -4.085 c 0,0.721 -2.728,1.306 -6.094,1.306 -3.366,0 -6.094,-0.585 -6.094,-1.306 v 4.085 -0.078 c 1.558,0.367 3.71,0.594 6.087,0.594 2.385,0 4.543,-0.228 6.102,-0.597"
       fill="#ffffff"
       id="path823" />
    <path
       d="m 214.12512,423.8576 c -2.339,0 -4.541,-0.216 -6.201,-0.607 l 0.096,-0.409 h -0.481 v -4.084 h 1 c 0.193,0.212 2.121,0.806 5.595,0.806 3.474,0 5.4,-0.594 5.616,-0.897 l 0.978,0.092 v 4.084 h -0.48 l 0.096,0.405 c -1.666,0.393 -3.874,0.61 -6.219,0.61 z m -5.586,-1.495 c 1.538,0.32 3.502,0.495 5.587,0.495 2.091,0 4.061,-0.176 5.602,-0.498 v -2.54 c -1.638,0.696 -4.789,0.743 -5.594,0.743 -0.805,0 -3.957,-0.047 -5.595,-0.743 z"
       fill="#020202"
       id="path825" />
    <path
       d="m 208.02312,422.7636 v -2.568 c -1.537,0.329 -2.487,0.782 -2.487,1.282 0,0.502 0.956,0.957 2.502,1.286"
       fill="#ffffff"
       id="path827" />
    <path
       d="m 207.93412,423.2536 c -1.977,-0.421 -2.897,-0.985 -2.897,-1.775 0,-0.787 0.916,-1.35 2.882,-1.771 l 0.604,-0.129 v 3.187 h -0.484 z m -0.411,-2.424 c -1.092,0.292 -1.447,0.58 -1.491,0.679 0.043,0.048 0.399,0.328 1.491,0.619 z"
       fill="#020202"
       id="path829" />
    <path
       d="m 220.22812,422.7606 v -2.564 c 1.546,0.329 2.501,0.782 2.501,1.282 0,0.5 -0.955,0.953 -2.501,1.282 z"
       fill="#ffffff"
       id="path831" />
    <path
       d="m 219.72812,423.3776 v -3.799 l 0.604,0.128 c 1.976,0.421 2.896,0.983 2.896,1.771 0,0.789 -0.921,1.352 -2.897,1.771 z m 1,-2.549 v 1.3 c 1.103,-0.293 1.462,-0.582 1.506,-0.681 -0.044,-0.047 -0.404,-0.328 -1.506,-0.619 z"
       fill="#020202"
       id="path833" />
    <ellipse
       cx="214.13312"
       cy="418.7066"
       fill="#ffffff"
       rx="6.0939999"
       ry="1.306"
       id="ellipse835" />
    <path
       d="m 214.13312,420.5136 c -1.102,0 -6.595,-0.087 -6.595,-1.807 0,-1.719 5.493,-1.806 6.595,-1.806 1.102,0 6.594,0.087 6.594,1.806 0,1.72 -5.492,1.807 -6.594,1.807 z m -5.512,-1.807 c 0.483,0.317 2.361,0.807 5.513,0.807 3.152,0 5.028,-0.489 5.512,-0.807 -0.483,-0.316 -2.361,-0.806 -5.512,-0.806 -3.151,0 -5.03,0.49 -5.513,0.806 z"
       fill="#020202"
       id="path837" />
    <path
       d="m 243.65912,417.7176 v -4.085 c 0,0.721 -2.728,1.306 -6.094,1.306 -3.366,0 -6.094,-0.585 -6.094,-1.306 v 4.085 -0.078 c 1.558,0.367 3.71,0.594 6.087,0.594 2.385,0 4.543,-0.228 6.102,-0.597"
       fill="#4b92e2"
       id="path839" />
    <path
       d="m 237.55812,418.7336 c -2.334,0 -4.536,-0.216 -6.201,-0.607 l 0.096,-0.409 h -0.481 v -4.085 h 1 c 0.193,0.212 2.12,0.807 5.594,0.807 3.475,0 5.401,-0.595 5.617,-0.897 l 0.978,0.091 v 4.085 h -0.48 l 0.096,0.405 c -1.666,0.393 -3.874,0.61 -6.219,0.61 z m -5.587,-1.495 c 1.541,0.32 3.506,0.495 5.587,0.495 2.091,0 4.061,-0.176 5.602,-0.498 v -2.54 c -1.638,0.696 -4.79,0.743 -5.595,0.743 -0.805,0 -3.956,-0.047 -5.594,-0.743 z"
       fill="#020202"
       id="path841" />
    <path
       d="m 231.45612,417.6396 v -2.568 c -1.537,0.329 -2.487,0.782 -2.487,1.282 0,0.502 0.956,0.957 2.502,1.286"
       fill="#4b92e2"
       id="path843" />
    <path
       d="m 231.36712,418.1296 c -1.949,-0.415 -2.897,-0.996 -2.897,-1.775 0,-0.787 0.916,-1.35 2.882,-1.771 l 0.604,-0.129 v 3.187 h -0.484 z m -0.411,-2.424 c -1.092,0.292 -1.447,0.58 -1.491,0.679 0.044,0.048 0.399,0.328 1.491,0.619 z"
       fill="#020202"
       id="path845" />
    <path
       d="m 243.66012,417.6366 v -2.564 c 1.546,0.329 2.501,0.782 2.501,1.282 10e-4,0.5 -0.955,0.953 -2.501,1.282 z"
       fill="#4b92e2"
       id="path847" />
    <path
       d="m 243.16112,418.2536 v -3.799 l 0.604,0.128 c 1.976,0.421 2.896,0.983 2.896,1.771 0,0.778 -0.947,1.357 -2.897,1.771 z m 1,-2.549 v 1.3 c 1.102,-0.293 1.462,-0.582 1.506,-0.682 -0.044,-0.046 -0.405,-0.327 -1.506,-0.618 z"
       fill="#020202"
       id="path849" />
    <ellipse
       cx="237.56512"
       cy="413.58258"
       fill="#4b92e2"
       rx="6.0939999"
       ry="1.306"
       id="ellipse851" />
    <path
       d="m 237.56512,415.3886 c -1.102,0 -6.594,-0.087 -6.594,-1.806 0,-1.719 5.492,-1.806 6.594,-1.806 1.102,0 6.595,0.087 6.595,1.806 0,1.719 -5.494,1.806 -6.595,1.806 z m -5.512,-1.806 c 0.483,0.317 2.361,0.806 5.512,0.806 3.151,0 5.029,-0.488 5.513,-0.806 -0.483,-0.317 -2.362,-0.806 -5.513,-0.806 -3.151,0 -5.028,0.489 -5.512,0.806 z"
       fill="#020202"
       id="path853" />
    <path
       d="m 243.66012,422.8416 v -4.085 c 0,0.721 -2.728,1.306 -6.094,1.306 -3.366,0 -6.094,-0.585 -6.094,-1.306 v 4.085 -0.078 c 1.558,0.367 3.71,0.594 6.087,0.594 2.385,0 4.543,-0.228 6.102,-0.597"
       fill="#4b92e2"
       id="path855" />
    <path
       d="m 237.55812,423.8576 c -2.339,0 -4.541,-0.216 -6.201,-0.607 l 0.096,-0.409 h -0.481 v -4.084 h 1 c 0.193,0.212 2.121,0.806 5.595,0.806 3.474,0 5.4,-0.594 5.616,-0.897 l 0.978,0.092 v 4.084 h -0.48 l 0.096,0.405 c -1.666,0.393 -3.874,0.61 -6.219,0.61 z m -5.587,-1.495 c 1.538,0.32 3.502,0.495 5.587,0.495 2.091,0 4.061,-0.176 5.602,-0.498 v -2.54 c -1.638,0.696 -4.789,0.743 -5.594,0.743 -0.805,0 -3.957,-0.047 -5.595,-0.743 z"
       fill="#020202"
       id="path857" />
    <path
       d="m 231.45612,422.7636 v -2.568 c -1.537,0.329 -2.487,0.782 -2.487,1.282 0,0.502 0.956,0.957 2.502,1.286"
       fill="#4b92e2"
       id="path859" />
    <path
       d="m 231.36712,423.2536 c -1.977,-0.421 -2.897,-0.985 -2.897,-1.775 0,-0.787 0.916,-1.35 2.882,-1.771 l 0.604,-0.129 v 3.187 h -0.484 z m -0.411,-2.424 c -1.092,0.292 -1.447,0.58 -1.491,0.679 0.043,0.048 0.399,0.328 1.491,0.619 z"
       fill="#020202"
       id="path861" />
    <path
       d="m 243.66012,422.7606 v -2.564 c 1.546,0.329 2.501,0.782 2.501,1.282 10e-4,0.5 -0.955,0.953 -2.501,1.282 z"
       fill="#4b92e2"
       id="path863" />
    <path
       d="m 243.16112,423.3776 v -3.799 l 0.604,0.128 c 1.976,0.421 2.896,0.983 2.896,1.771 0,0.789 -0.921,1.352 -2.897,1.771 z m 1,-2.549 v 1.3 c 1.103,-0.293 1.462,-0.582 1.506,-0.681 -0.044,-0.047 -0.405,-0.328 -1.506,-0.619 z"
       fill="#020202"
       id="path865" />
    <ellipse
       cx="237.56512"
       cy="418.7066"
       fill="#4b92e2"
       rx="6.0939999"
       ry="1.306"
       id="ellipse867" />
    <path
       d="m 237.56612,420.5136 c -1.102,0 -6.595,-0.087 -6.595,-1.807 0,-1.719 5.493,-1.806 6.595,-1.806 1.102,0 6.594,0.087 6.594,1.806 0,1.72 -5.493,1.807 -6.594,1.807 z m -5.513,-1.807 c 0.483,0.317 2.361,0.807 5.513,0.807 3.152,0 5.028,-0.489 5.512,-0.807 -0.483,-0.316 -2.361,-0.806 -5.512,-0.806 -3.151,0 -5.029,0.49 -5.513,0.806 z"
       fill="#020202"
       id="path869" />
    <path
       d="m 178.01412,417.6366 c 0,2.679 -4.776,4.85 -10.667,4.85 -5.891,0 -10.667,-2.172 -10.667,-4.85"
       fill="#848383"
       id="path871" />
    <path
       d="m 167.34712,422.9876 c -6.262,0 -11.167,-2.351 -11.167,-5.351 h 1 c 0,2.358 4.656,4.351 10.167,4.351 5.511,0 10.167,-1.992 10.167,-4.351 h 1 c 0,3.001 -4.905,5.351 -11.167,5.351 z"
       id="path873" />
    <ellipse
       cx="167.34712"
       cy="417.6366"
       fill="#666565"
       rx="10.667"
       ry="3.017"
       id="ellipse875" />
    <path
       d="m 167.34712,421.1536 c -5.549,0 -11.167,-1.208 -11.167,-3.517 0,-2.31 5.618,-3.518 11.167,-3.518 5.549,0 11.167,1.208 11.167,3.518 0,2.309 -5.618,3.517 -11.167,3.517 z m 0,-6.034 c -6.206,0 -10.167,1.491 -10.167,2.518 0,1.027 3.961,2.517 10.167,2.517 6.206,0 10.167,-1.49 10.167,-2.517 0,-1.027 -3.961,-2.518 -10.167,-2.518 z"
       id="path877" />
    <path
       d="m 164.83512,400.0996 h 5.02 v 15.706 h -5.02 z"
       fill="#b2aaab"
       id="path879" />
    <path
       d="m 164.33412,399.7516 h 1 v 16.054 h -1 z"
       id="path881" />
    <path
       d="m 169.35512,399.7516 h 1 v 16.054 h -1 z"
       id="path883" />
    <ellipse
       cx="167.34712"
       cy="390.84961"
       fill="#1a1818"
       rx="9.2670002"
       ry="9.25"
       id="ellipse885" />
    <path
       d="m 167.34712,400.5996 c -5.386,0 -9.768,-4.374 -9.768,-9.75 0,-5.376 4.382,-9.75 9.768,-9.75 5.386,0 9.767,4.374 9.767,9.75 0,5.376 -4.381,9.75 -9.767,9.75 z m 0,-18.5 c -4.834,0 -8.768,3.925 -8.768,8.75 0,4.825 3.934,8.75 8.768,8.75 4.834,0 8.767,-3.925 8.767,-8.75 0,-4.825 -3.933,-8.75 -8.767,-8.75 z"
       id="path887" />
  </g>
  <path
     d="M 29.358,109.456 H 188.975 V 212.831 H 29.358 Z"
     stroke="#000000"
     stroke-miterlimit="10"
     id="path14" />
  <g
     id="g854"
     transform="matrix(53.05897,0,0,53.05897,-59.146536,-148.6949)">
    <g
       id="g873"
       transform="matrix(0.005401,0,0,0.005401,2.6154416,3.7932241)"
       style="stroke:#ffffff;stroke-width:9.79757;stroke-linecap:round;stroke-linejoin:round;stroke-miterlimit:4;stroke-dasharray:none">
      <path
         d="m -32.527076,59.65684 h -28.95534 v -2.57381 h 8.6866 V 18.154226 h -7.3997 v -2.573808 h 7.21696 c 1.44134,0 3.243,-0.07979 5.405,-0.241938 2.162,-0.16215 4.44239,-0.401514 6.84376,-0.72324 l 0.0541,42.46779 h 8.14867 z m -21.55564,-66.731082 c 0,-1.80424 0.60999,-3.333082 1.83512,-4.583953 1.22256,-1.250871 2.74626,-1.876306 4.57109,-1.876306 1.78879,0 3.31249,0.625435 4.57108,1.876306 1.25859,1.250871 1.88918,2.779713 1.88918,4.583953 0,1.804239 -0.63059,3.32536 -1.88918,4.558214 a 6.2929612,6.2929612 0 0 1 -4.57108,1.850568 c -1.82483,0 -3.3511,-0.61514 -4.57109,-1.850568 -1.22513,-1.232854 -1.83512,-2.753975 -1.83512,-4.558214 z m 52.42847,66.731082 h -26.86541 v -2.57381 h 7.72143 V 18.154226 h -7.72143 v -2.573808 h 7.27616 c 1.43876,0 3.22755,-0.07979 5.36896,-0.241938 a 123.99836,123.99836 0 0 0 6.86435,-0.72324 v 10.115048 h 1.04496 c 2.14141,-3.482348 4.50417,-6.038136 7.08827,-7.667357 2.58411,-1.62922 5.55428,-2.445118 8.91567,-2.445118 4.61227,0 8.09206,1.093869 10.4368,3.276458 2.34216,2.185163 3.51582,5.441011 3.51582,9.775295 V 57.0856 h 7.07797 v 2.57381 H 3.009494 V 57.0856 h 6.75625 V 25.564194 c 0,-2.733368 -0.39637,-4.568494 -1.1891,-5.51308 -0.79273,-0.939436 -2.19803,-1.413012 -4.22362,-1.413012 -3.27646,0 -6.27494,1.765632 -9.00061,5.291726 -2.72566,3.528678 -4.0872,7.507772 -4.0872,11.939872 v 21.2159 h 7.07797 v 2.57124 z m 76.84362,-14.15595 h 2.76942 c -1.33323,5.16306 -3.70371,9.0804 -7.12173,11.75458 -3.41544,2.67162 -7.78319,4.01 -13.10326,4.01 -6.16684,0 -11.28615,-2.14656 -15.34761,-6.43967 -4.06147,-4.29311 -6.09221,-9.62604 -6.09221,-16.00137 0,-6.92612 2.21348,-12.694 6.64815,-17.3011 4.4321,-4.604532 10.04557,-6.910664 16.843,-6.910664 4.98804,0 8.97487,1.088721 11.96563,3.263589 2.99077,2.174859 4.48873,5.085827 4.48873,8.730325 0,1.806812 -0.53536,3.263578 -1.60606,4.367744 -1.07071,1.104156 -2.51204,1.657526 -4.32143,1.657526 -1.88402,0 -3.3897,-0.54307 -4.51703,-1.631796 -1.12733,-1.088716 -1.68842,-2.519742 -1.68842,-4.290514 0,-1.624076 0.48645,-3.060248 1.46707,-4.318834 0.97805,-1.253446 1.46707,-1.938072 1.46707,-2.048752 0,-0.996056 -0.59969,-1.770771 -1.79909,-2.321566 -1.20197,-0.553369 -2.87237,-0.83134 -5.01378,-0.83134 -3.76805,0 -6.49886,1.153066 -8.20015,3.461766 -1.70129,2.308698 -2.5455,6.025266 -2.5455,11.152266 v 16.51356 c 0,3.3511 0.86738,5.89144 2.6047,7.62104 1.73475,1.7296 4.30083,2.5944 7.69826,2.5944 3.47207,0 6.66616,-1.24057 9.58486,-3.7243 a 17.803032,17.803032 0 0 0 5.81938,-9.30689 z m 10.07903,14.15595 v -2.57381 h 7.721425 V 18.154226 h -7.721425 v -2.573808 h 7.276155 c 1.40787,0 3.1941,-0.07979 5.36382,-0.241938 a 119.34491,119.34491 0 0 0 6.866921,-0.72324 l 0.0566,11.021024 h 0.88796 c 1.87374,-3.693408 4.07692,-6.452516 6.60954,-8.279919 2.53263,-1.827403 5.4153,-2.741105 8.64543,-2.741105 2.49659,0 4.48614,0.656321 5.97381,1.966389 1.48766,1.312642 2.23149,3.073129 2.23149,5.289167 0,1.884016 -0.52506,3.397408 -1.57003,4.542754 -1.04496,1.145336 -2.43223,1.716722 -4.1567,1.716722 -2.09508,0 -3.67539,-0.442696 -4.74095,-1.328082 -1.06556,-0.885386 -1.59576,-2.198022 -1.59576,-3.930184 v -0.99864 c 0,-0.774716 -0.0927,-1.346092 -0.27539,-1.716722 -0.18275,-0.368046 -0.45814,-0.553366 -0.82362,-0.553366 -2.60985,0 -5.09099,1.706432 -7.44088,5.11671 -2.34988,3.410284 -3.52355,7.142292 -3.52355,11.201192 V 57.0856 h 9.97351 v 2.57381 H 85.268384 Z M 174.95533,45.50089 h 2.72051 c -1.40272,5.20167 -3.83497,9.1293 -7.30189,11.78289 -3.46692,2.65103 -7.88872,3.98169 -13.27056,3.98169 -6.19258,0 -11.36593,-2.14656 -15.51234,-6.43967 -4.1464,-4.29311 -6.22089,-9.5514 -6.22089,-15.78002 0,-6.66874 2.11825,-12.40574 6.35988,-17.21616 4.23906,-4.80787 9.36608,-7.21438 15.37593,-7.21438 5.89659,0 10.7997,1.827403 14.70931,5.477064 3.90962,3.652218 5.86314,8.243868 5.86314,13.777546 v 1.01666 h -28.95535 v 13.4327 c 0,3.09114 0.90341,5.56715 2.70765,7.42801 1.80424,1.86086 4.2159,2.78744 7.23497,2.78744 3.7938,0 7.16291,-1.17623 10.10992,-3.53384 2.93929,-2.36019 5.00091,-5.5234 6.17972,-9.49993 z m -9.98894,-13.83422 v -6.058716 c 0,-2.826028 -0.66148,-4.90824 -1.98442,-6.249186 -1.32294,-1.340954 -3.36139,-2.010144 -6.11279,-2.010144 -2.72052,0 -4.75898,0.689781 -6.11537,2.066764 -1.3564,1.376986 -2.03588,3.441178 -2.03588,6.192566 v 6.058716 z m 69.24572,25.41636 h 7.24014 v 2.57381 h -7.24014 c -1.39756,0 -3.16063,0.0901 -5.28917,0.27797 -2.13112,0.18274 -4.38835,0.4221 -6.77684,0.71809 v -6.16684 h -1.60348 c -1.73989,2.27782 -3.71658,3.97653 -5.9352,5.09614 -2.21863,1.12218 -4.73581,1.68069 -7.5464,1.68069 -5.73188,0 -10.57579,-2.22892 -14.53173,-6.68933 -3.95594,-4.46041 -5.9352,-10.00439 -5.9352,-16.63709 0,-6.70477 2.01272,-12.269326 6.04587,-16.69111 4.03059,-4.421793 9.06238,-6.632694 15.08767,-6.632694 2.69992,0 5.07555,0.537926 7.12945,1.611204 2.05132,1.075852 4.02286,2.815748 5.90689,5.21967 h 1.38213 v -34.983189 h -7.24012 v -2.573808 h 7.12946 c 1.4336,0 3.22241,-0.102952 5.37153,-0.311431 a 166.52539,166.52539 0 0 0 6.80515,-0.813323 z M 222.03544,43.49075 v -11.9888 c 0,-3.644494 -1.39243,-6.969852 -4.17215,-9.9709 -2.78228,-3.001048 -5.84511,-4.504152 -9.18077,-4.504152 -3.18895,0 -5.44103,0.957457 -6.75882,2.872366 -1.31779,1.914906 -1.9767,5.48991 -1.9767,10.7173 V 46.41974 c 0,4.3137 0.62802,7.43573 1.88919,9.37124 1.26116,1.9355 3.28161,2.90068 6.06389,2.90068 3.85814,0 7.17835,-1.42847 9.96064,-4.28282 2.77971,-2.85435 4.17214,-6.41908 4.17214,-10.69417 v -0.22392 z m 53.18002,16.16609 h -28.95534 v -2.57381 h 8.6866 V 18.154226 h -7.3997 v -2.573808 h 7.21696 c 1.44134,0 3.243,-0.07979 5.40499,-0.241938 2.162,-0.16215 4.44239,-0.401514 6.84376,-0.72324 l 0.0541,42.46779 h 8.14867 z M 253.65981,-7.074242 c 0,-1.80424 0.60999,-3.333082 1.83513,-4.583953 1.22255,-1.250871 2.74626,-1.876306 4.57109,-1.876306 1.78879,0 3.31249,0.625435 4.57108,1.876306 1.25859,1.250871 1.88918,2.779713 1.88918,4.583953 0,1.804239 -0.63059,3.32536 -1.88918,4.558214 a 6.2929612,6.2929612 0 0 1 -4.57108,1.850568 c -1.82483,0 -3.3511,-0.61514 -4.57109,-1.850568 -1.22256,-1.232854 -1.83513,-2.753975 -1.83513,-4.558214 z m 45.30675,67.616472 -7.28131,-0.66662 h -0.2754 a 153.17762,153.17762 0 0 0 -8.64026,-0.22135 c -0.37063,0 -0.94201,0.018 -1.71673,0.054 -0.77729,0.036 -1.38471,0.0541 -1.8274,0.0541 v -2.68448 h 7.72141 v -70.620103 h -7.72141 v -2.573808 h 7.27614 c 1.43361,0 3.22498,-0.102952 5.37669,-0.311431 a 165.66574,165.66574 0 0 0 6.81029,-0.813323 V 21.44097 h 1.61636 c 1.9252,-2.442532 3.89675,-4.192725 5.91203,-5.247986 2.0153,-1.055261 4.37548,-1.582892 7.08055,-1.582892 6.03301,0 11.08539,2.210901 15.15716,6.632698 4.07176,4.424354 6.10764,9.98633 6.10764,16.6911 0,6.59667 -1.99985,12.13294 -5.99697,16.60879 -3.99712,4.47843 -8.8642,6.71506 -14.60121,6.71506 -2.81318,0 -5.30977,-0.56109 -7.49493,-1.68069 -2.18517,-1.11961 -4.16443,-2.8209 -5.94035,-5.09614 h -1.55973 v 6.06132 z m 0,-17.05148 c 0,4.3137 1.41044,7.92218 4.23648,10.83316 2.82605,2.91097 6.16942,4.36517 10.03529,4.36517 2.63558,0 4.62514,-0.92914 5.96094,-2.79258 1.33838,-1.86086 2.00757,-4.66889 2.00757,-8.42922 V 30.616564 c 0,-5.22739 -0.67176,-8.802394 -2.00757,-10.7173 -1.3358,-1.914909 -3.60333,-2.872366 -6.8,-2.872366 -3.30734,0 -6.37532,1.503104 -9.19879,4.504152 -2.82347,3.001048 -4.23649,6.326406 -4.23649,9.9709 v 11.9888 z M 349.668,-13.537075 h -8.6866 v -2.573808 h 8.46526 c 1.43876,0 3.24814,-0.102953 5.42301,-0.311431 a 165.12782,165.12782 0 0 0 6.86177,-0.813323 V 57.08303 h 8.2053 v 2.57381 H 340.9814 v -2.57381 h 8.6866 z m 64.82909,59.037965 h 2.72051 c -1.40272,5.20167 -3.83497,9.1293 -7.30189,11.78289 -3.46691,2.65103 -7.88872,3.98169 -13.27056,3.98169 -6.19258,0 -11.36593,-2.14656 -15.51234,-6.43967 -4.14641,-4.29311 -6.22089,-9.5514 -6.22089,-15.78002 0,-6.66874 2.11824,-12.40574 6.35988,-17.21616 4.23906,-4.80787 9.36608,-7.21438 15.37593,-7.21438 5.89659,0 10.7997,1.827403 14.70931,5.477064 3.90961,3.652218 5.86314,8.243868 5.86314,13.777546 v 1.01666 h -28.95535 v 13.4327 c 0,3.09114 0.90341,5.56715 2.70765,7.42801 1.80424,1.86086 4.2159,2.78744 7.23497,2.78744 3.7938,0 7.16291,-1.17623 10.10992,-3.53384 2.93929,-2.36019 5.00091,-5.5234 6.17972,-9.49993 z m -9.98895,-13.83422 v -6.058716 c 0,-2.826028 -0.66147,-4.90824 -1.98441,-6.249186 -1.32294,-1.340954 -3.36139,-2.010144 -6.11279,-2.010144 -2.72052,0 -4.75898,0.689781 -6.11537,2.066764 -1.3564,1.376986 -2.03588,3.441178 -2.03588,6.192566 V 31.66667 Z M 47.577564,113.60129 V 83.11711 h -11.42256 v -4.10265 h 27.4265 v 4.10265 h -11.42256 v 30.48418 z m 20.96624,0 V 79.01446 h 25.014835 v 4.10265 H 73.127754 v 10.53717 h 19.143985 v 4.10265 H 73.127754 v 11.74428 h 21.233925 v 4.10265 H 68.543804 Z m 56.821956,-12.1458 4.58396,1.15049 c -0.96261,3.75776 -2.69221,6.62241 -5.19138,8.59652 -2.49916,1.97411 -5.55427,2.95988 -9.16275,2.95988 -3.73717,0 -6.77427,-0.75927 -9.11643,-2.27525 -2.34217,-1.51597 -4.12324,-3.70885 -5.34323,-6.5838 a 23.444819,23.444819 0 0 1 -1.832551,-9.25799 c 0,-3.59561 0.68978,-6.73308 2.071921,-9.40984 1.37956,-2.67676 3.34337,-4.71264 5.89402,-6.1025 2.55064,-1.38985 5.35352,-2.08478 8.41378,-2.08478 3.47206,0 6.38819,0.88024 8.75609,2.64072 2.36533,1.76306 4.01514,4.23907 4.94686,7.43316 l -4.50416,1.05784 c -0.8056,-2.50689 -1.97411,-4.33172 -3.50296,-5.47449 -1.52884,-1.14277 -3.45662,-1.71673 -5.77562,-1.71673 -2.66647,0 -4.89538,0.63315 -6.68676,1.90204 a 10.055869,10.055869 0 0 0 -3.77577,5.11159 20.454054,20.454054 0 0 0 -1.08872,6.61726 c 0,2.93156 0.42982,5.48736 1.2869,7.67252 0.85708,2.18516 2.19289,3.81953 4.00485,4.90053 1.81196,1.081 3.7732,1.6215 5.8863,1.6215 2.56608,0 4.74095,-0.73611 6.52203,-2.20833 1.7785,-1.46707 2.98304,-3.65223 3.61362,-6.55034 z m 10.43165,12.1458 V 79.01446 h 4.58395 V 93.1704 h 17.93687 V 79.01446 h 4.58395 v 34.58683 h -4.58395 V 97.27305 h -17.93687 v 16.32824 z m 34.72067,0 V 79.01446 h 4.73066 l 18.19168,27.14852 V 79.01446 h 4.42437 v 34.58683 h -4.73066 l -18.19167,-27.1511 v 27.1511 z m 33.51356,-16.83528 c 0,-5.7293 1.54686,-10.21287 4.64315,-13.45329 3.09629,-3.24043 7.09341,-4.86193 11.9888,-4.86193 3.20696,0 6.09735,0.75927 8.67116,2.28297 a 14.969269,14.969269 0 0 1 5.88887,6.3676 c 1.34868,2.72566 2.02559,5.81166 2.02559,9.26571 0,3.49781 -0.71037,6.63013 -2.13369,9.39183 -1.42332,2.76169 -3.43603,4.8542 -6.0433,6.27494 a 17.339746,17.339746 0 0 1 -8.4318,2.13111 c -3.27131,0 -6.19258,-0.78501 -8.76639,-2.35503 a 15.13914,15.13914 0 0 1 -5.85284,-6.4268 19.367907,19.367907 0 0 1 -1.98955,-8.61711 z m 4.7461,0.0566 c 0,4.15413 1.12476,7.42544 3.37426,9.81394 2.24951,2.38849 5.07298,3.58531 8.46526,3.58531 3.4592,0 6.30326,-1.20969 8.53732,-3.62135 2.23149,-2.41423 3.3511,-5.83739 3.3511,-10.26949 0,-2.80545 -0.47873,-5.25315 -1.43361,-7.34565 -0.95488,-2.09251 -2.35246,-3.71143 -4.19274,-4.8645 -1.84027,-1.15307 -3.90446,-1.72702 -6.19,-1.72702 -3.2533,0 -6.0536,1.10931 -8.39577,3.32536 -2.34474,2.21604 -3.51582,5.91718 -3.51582,11.1034 z m 34.19819,16.77609 V 79.01186 h 4.58395 v 30.48419 h 17.13127 v 4.10265 z m 25.6377,-16.83271 c 0,-5.7293 1.54686,-10.21287 4.64316,-13.45587 3.09629,-3.24042 7.09341,-4.86192 11.98879,-4.86192 3.20697,0 6.09736,0.76184 8.67116,2.28554 a 14.969269,14.969269 0 0 1 5.88888,6.3676 c 1.34867,2.72566 2.02558,5.81166 2.02558,9.26571 0,3.49781 -0.71037,6.63013 -2.13368,9.39183 -1.42332,2.76169 -3.43604,4.8542 -6.0433,6.27494 a 17.337172,17.337172 0 0 1 -8.4318,2.12854 c -3.27131,0 -6.19258,-0.78501 -8.76639,-2.35246 a 15.154583,15.154583 0 0 1 -5.85284,-6.4268 19.40394,19.40394 0 0 1 -1.98956,-8.61711 z m 4.74611,0.0566 c 0,4.15156 1.12475,7.42544 3.37426,9.81394 2.24951,2.39106 5.07298,3.58531 8.46526,3.58531 3.45919,0 6.30325,-1.20712 8.53732,-3.61877 2.23149,-2.41424 3.3511,-5.8374 3.3511,-10.2695 0,-2.80545 -0.47873,-5.25314 -1.43362,-7.34565 -0.95488,-2.0925 -2.35246,-3.71143 -4.19273,-4.8645 -1.84027,-1.15306 -3.90447,-1.72959 -6.19001,-1.72959 -3.25329,0 -6.0536,1.11188 -8.39576,3.32793 -2.34474,2.21347 -3.51582,5.91461 -3.51582,11.10083 z m 50.60622,3.26359 v -4.10265 h 14.63982 v 12.7944 c -2.25209,1.78623 -4.57109,3.13233 -6.96473,4.03059 a 20.693418,20.693418 0 0 1 -7.36366,1.35125 c -3.4,0 -6.48857,-0.72582 -9.26829,-2.18002 a 14.392736,14.392736 0 0 1 -6.29038,-6.30068 c -1.41817,-2.74625 -2.1234,-5.81681 -2.1234,-9.20909 a 21.33687,21.33687 0 0 1 2.11053,-9.40984 c 1.40787,-2.91355 3.43346,-5.07812 6.07676,-6.48857 2.64072,-1.41302 5.68554,-2.12082 9.13188,-2.12082 2.50174,0 4.76412,0.40666 6.78713,1.21741 2.02044,0.81075 3.60333,1.94323 4.75383,3.38971 1.14791,1.44905 2.02301,3.3408 2.62271,5.6701 l -4.21848,1.13247 c -0.51733,-1.76048 -1.16079,-3.14262 -1.92778,-4.1464 -0.76699,-1.00379 -1.86344,-1.80939 -3.28418,-2.41423 a 12.071161,12.071161 0 0 0 -4.74353,-0.90856 c -2.08478,0 -3.88387,0.31915 -5.40242,0.95488 -1.51855,0.63574 -2.74368,1.47222 -3.6754,2.50947 a 11.92188,11.92188 0 0 0 -2.17229,3.41287 18.086151,18.086151 0 0 0 -1.31522,6.94671 c 0,3.0757 0.52763,5.64951 1.58289,7.72399 a 10.156247,10.156247 0 0 0 4.61484,4.61484 14.228012,14.228012 0 0 0 6.43452,1.50568 c 1.97154,0 3.89675,-0.37578 5.77563,-1.13505 1.8763,-0.75927 3.30219,-1.56745 4.27252,-2.42967 v -6.40621 h -10.05329 z m 22.21453,13.5125 V 79.01184 h 4.58396 v 34.58684 z m 12.88449,0 V 79.01184 h 25.01484 v 4.10265 h -20.43089 v 10.53717 h 19.14399 v 4.10265 h -19.14399 v 11.74429 h 21.23392 v 4.10265 h -25.81787 z m 30.60258,-11.10084 4.34459,-0.40151 c 0.20333,1.7296 0.67948,3.14777 1.42331,4.25193 0.74383,1.10931 1.89947,2.00242 3.4695,2.68705 1.57002,0.68464 3.3305,1.02181 5.29175,1.02181 1.73989,0 3.27388,-0.25996 4.60711,-0.77729 1.33325,-0.51734 2.32415,-1.23028 2.97532,-2.13112 0.65118,-0.90083 0.97548,-1.88402 0.97548,-2.94958 0,-1.07843 -0.31915,-2.02044 -0.95746,-2.82604 -0.6383,-0.8056 -1.67812,-1.47994 -3.12203,-2.02816 -0.924,-0.36034 -2.97275,-0.91885 -6.1411,-1.67813 -3.16836,-0.75927 -5.39213,-1.47736 -6.66617,-2.15685 -1.65496,-0.8648 -2.88524,-1.93808 -3.69599,-3.21983 a 7.8990175,7.8990175 0 0 1 -1.21741,-4.30856 c 0,-1.74761 0.49417,-3.37941 1.48766,-4.89538 0.99092,-1.51855 2.4374,-2.67161 4.34202,-3.4592 1.90462,-0.78758 4.0203,-1.18138 6.34701,-1.18138 2.56351,0 4.82589,0.41439 6.78456,1.24315 1.95867,0.82877 3.46434,2.04875 4.51703,3.65996 1.05269,1.6112 1.6215,3.43603 1.69871,5.47191 l -4.42436,0.32173 c -0.2368,-2.17487 -1.02954,-3.81696 -2.38851,-4.92884 -1.35897,-1.11189 -3.36139,-1.66526 -6.00984,-1.66526 -2.76169,0 -4.77184,0.50447 -6.03558,1.51598 -1.26374,1.0115 -1.89432,2.22634 -1.89432,3.65223 0,1.238 0.44785,2.25723 1.34095,3.05511 0.87767,0.80046 3.16836,1.61893 6.87979,2.45541 3.71143,0.83649 6.26208,1.57003 7.65193,2.19804 2.02044,0.92399 3.51325,2.09508 4.47843,3.51325 0.9626,1.42074 1.44648,3.05511 1.44648,4.90053 0,1.83512 -0.52506,3.56472 -1.57774,5.18622 -1.05269,1.6215 -2.56609,2.88266 -4.53763,3.78607 -1.97411,0.90083 -4.19273,1.34868 -6.66101,1.34868 -3.12718,0 -5.74474,-0.45557 -7.86041,-1.36155 -2.1131,-0.91113 -3.77321,-2.27782 -4.97518,-4.10522 -1.19939,-1.82483 -1.83255,-3.88903 -1.89689,-6.19516 z m 36.17745,-23.14111 c 1.02952,0 2.03331,0.2651 3.0165,0.79273 0.98062,0.52764 1.74504,1.28176 2.29326,2.26238 0.54565,0.9832 0.81847,2.005 0.81847,3.07056 0,1.05526 -0.26767,2.07191 -0.8056,3.04481 -0.5405,0.97547 -1.2972,1.7296 -2.2701,2.2701 a 6.2183207,6.2183207 0 0 1 -3.05253,0.8056 c -1.06299,0 -2.07964,-0.26767 -3.05254,-0.8056 a 5.7061329,5.7061329 0 0 1 -2.27267,-2.2701 6.1565493,6.1565493 0 0 1 -0.81333,-3.04224 c 0,-1.06556 0.2754,-2.09251 0.8262,-3.07055 a 5.6366401,5.6366401 0 0 1 2.29583,-2.26496 6.2903873,6.2903873 0 0 1 3.01651,-0.79273 z m 0,1.00636 c -0.8648,0 -1.70386,0.22135 -2.51976,0.66404 a 4.7589714,4.7589714 0 0 0 -1.91749,1.89175 5.1476165,5.1476165 0 0 0 -0.69493,2.56609 c 0,0.88282 0.2265,1.7296 0.68206,2.53777 0.45299,0.81075 1.08872,1.44391 1.90205,1.89433 0.81332,0.45041 1.66268,0.67948 2.54807,0.67948 0.88539,0 1.73474,-0.22649 2.54807,-0.67948 0.81332,-0.45299 1.44905,-1.08358 1.89689,-1.89433 0.45299,-0.80817 0.67692,-1.65753 0.67692,-2.54034 0,-0.88797 -0.22907,-1.74247 -0.68979,-2.56352 a 4.7177905,4.7177905 0 0 0 -1.91748,-1.89432 5.2248307,5.2248307 0 0 0 -2.51461,-0.66147 z m -2.69993,8.50386 v -6.59667 h 2.27782 c 0.77729,0 1.34096,0.0592 1.68842,0.18017 0.34746,0.12354 0.62544,0.33459 0.83134,0.6383 a 1.7321729,1.7321729 0 0 1 -0.21105,2.21863 2.0616204,2.0616204 0 0 1 -1.37956,0.59969 1.7887967,1.7887967 0 0 1 0.56109,0.35004 c 0.26767,0.26253 0.59197,0.6975 0.97804,1.31264 l 0.80561,1.29463 h -1.30235 l -0.59198,-1.04239 c -0.46843,-0.81075 -0.83648,-1.32551 -1.10931,-1.53657 a 1.3744136,1.3744136 0 0 0 -0.8545,-0.23679 h -0.62544 v 2.81575 h -1.06813 z m 1.06556,-3.71915 h 1.31264 c 0.62544,0 1.05269,-0.0927 1.28176,-0.2754 a 0.88796384,0.88796384 0 0 0 0.34231,-0.73096 0.89311146,0.89311146 0 0 0 -0.16215,-0.52506 1.0037852,1.0037852 0 0 0 -0.45813,-0.34489 c -0.19561,-0.0746 -0.55852,-0.11324 -1.08615,-0.11324 h -1.23028 z"
         id="path865-1"
         style="stroke:#ffffff;stroke-width:9.79757;stroke-linecap:round;stroke-linejoin:round;stroke-miterlimit:4;stroke-dasharray:none" />
      <g
         id="g871"
         transform="translate(-225.15644,-68.84575)"
         style="stroke:#ffffff;stroke-width:9.79757;stroke-linecap:round;stroke-linejoin:round;stroke-miterlimit:4;stroke-dasharray:none">
        <path
           d="m 46.918,0 c 21.028,0 38.177,17.151 38.177,38.175 0,21.03 -17.149,38.184 -38.177,38.184 C 25.895,76.359 8.738,59.206 8.738,38.175 8.738,17.151 25.895,0 46.918,0 Z"
           fill="#ffd100"
           id="path867"
           style="stroke:#ffffff;stroke-width:9.79757;stroke-linecap:round;stroke-linejoin:round;stroke-miterlimit:4;stroke-dasharray:none" />
        <path
           d="m 135.355,124.456 -19.657,0.027 -0.02,64.82 c 0.02,2.293 -0.045,6.944 3.617,4.605 7.624,-5.25 11.009,-23.78 12.174,-27.27 l 4.382,1.617 c -5.05,18.527 -9.762,43.508 -33.624,46.607 H 69.019 v -5.319 h 8.503 c -3.632,-3.061 -6.917,-6.832 -8.503,-11.026 V 91.763 c 22.198,-7.391 40.227,-29.487 46.66,-52.21 l 0.02,78.078 h 19.657 v 6.825 z M 69.019,214.863 H 0 V 209.52 H 12.469 L 12.492,93.793 a 80.457,80.457 0 0 0 25.869,4.27 c 4.319,0 8.557,-0.343 12.702,-0.988 3.354,-0.371 6.531,-1.538 9.41,-2.167 l 0.031,22.722 h 7.468 V 92.1 a 9.933,9.933 0 0 0 1.046,-0.337 v 106.754 c -0.652,-1.691 -1.015,-3.459 -1.015,-5.288 l -0.031,-68.773 h -7.468 v 85.088 h 8.514 v 5.319 z"
           id="path869-0"
           style="stroke:#ffffff;stroke-width:9.79757;stroke-linecap:round;stroke-linejoin:round;stroke-miterlimit:4;stroke-dasharray:none" />
      </g>
    </g>
    <g
       id="g949"
       transform="matrix(0.005401,0,0,0.005401,2.6154416,3.7932241)">
      <path
         d="m -32.527076,59.65684 h -28.95534 v -2.57381 h 8.6866 V 18.154226 h -7.3997 v -2.573808 h 7.21696 c 1.44134,0 3.243,-0.07979 5.405,-0.241938 2.162,-0.16215 4.44239,-0.401514 6.84376,-0.72324 l 0.0541,42.46779 h 8.14867 z m -21.55564,-66.731082 c 0,-1.80424 0.60999,-3.333082 1.83512,-4.583953 1.22256,-1.250871 2.74626,-1.876306 4.57109,-1.876306 1.78879,0 3.31249,0.625435 4.57108,1.876306 1.25859,1.250871 1.88918,2.779713 1.88918,4.583953 0,1.804239 -0.63059,3.32536 -1.88918,4.558214 a 6.2929612,6.2929612 0 0 1 -4.57108,1.850568 c -1.82483,0 -3.3511,-0.61514 -4.57109,-1.850568 -1.22513,-1.232854 -1.83512,-2.753975 -1.83512,-4.558214 z m 52.42847,66.731082 h -26.86541 v -2.57381 h 7.72143 V 18.154226 h -7.72143 v -2.573808 h 7.27616 c 1.43876,0 3.22755,-0.07979 5.36896,-0.241938 a 123.99836,123.99836 0 0 0 6.86435,-0.72324 v 10.115048 h 1.04496 c 2.14141,-3.482348 4.50417,-6.038136 7.08827,-7.667357 2.58411,-1.62922 5.55428,-2.445118 8.91567,-2.445118 4.61227,0 8.09206,1.093869 10.4368,3.276458 2.34216,2.185163 3.51582,5.441011 3.51582,9.775295 V 57.0856 h 7.07797 v 2.57381 H 3.009494 V 57.0856 h 6.75625 V 25.564194 c 0,-2.733368 -0.39637,-4.568494 -1.1891,-5.51308 -0.79273,-0.939436 -2.19803,-1.413012 -4.22362,-1.413012 -3.27646,0 -6.27494,1.765632 -9.00061,5.291726 -2.72566,3.528678 -4.0872,7.507772 -4.0872,11.939872 v 21.2159 h 7.07797 v 2.57124 z m 76.84362,-14.15595 h 2.76942 c -1.33323,5.16306 -3.70371,9.0804 -7.12173,11.75458 -3.41544,2.67162 -7.78319,4.01 -13.10326,4.01 -6.16684,0 -11.28615,-2.14656 -15.34761,-6.43967 -4.06147,-4.29311 -6.09221,-9.62604 -6.09221,-16.00137 0,-6.92612 2.21348,-12.694 6.64815,-17.3011 4.4321,-4.604532 10.04557,-6.910664 16.843,-6.910664 4.98804,0 8.97487,1.088721 11.96563,3.263589 2.99077,2.174859 4.48873,5.085827 4.48873,8.730325 0,1.806812 -0.53536,3.263578 -1.60606,4.367744 -1.07071,1.104156 -2.51204,1.657526 -4.32143,1.657526 -1.88402,0 -3.3897,-0.54307 -4.51703,-1.631796 -1.12733,-1.088716 -1.68842,-2.519742 -1.68842,-4.290514 0,-1.624076 0.48645,-3.060248 1.46707,-4.318834 0.97805,-1.253446 1.46707,-1.938072 1.46707,-2.048752 0,-0.996056 -0.59969,-1.770771 -1.79909,-2.321566 -1.20197,-0.553369 -2.87237,-0.83134 -5.01378,-0.83134 -3.76805,0 -6.49886,1.153066 -8.20015,3.461766 -1.70129,2.308698 -2.5455,6.025266 -2.5455,11.152266 v 16.51356 c 0,3.3511 0.86738,5.89144 2.6047,7.62104 1.73475,1.7296 4.30083,2.5944 7.69826,2.5944 3.47207,0 6.66616,-1.24057 9.58486,-3.7243 a 17.803032,17.803032 0 0 0 5.81938,-9.30689 z m 10.07903,14.15595 v -2.57381 h 7.721425 V 18.154226 h -7.721425 v -2.573808 h 7.276155 c 1.40787,0 3.1941,-0.07979 5.36382,-0.241938 a 119.34491,119.34491 0 0 0 6.866921,-0.72324 l 0.0566,11.021024 h 0.88796 c 1.87374,-3.693408 4.07692,-6.452516 6.60954,-8.279919 2.53263,-1.827403 5.4153,-2.741105 8.64543,-2.741105 2.49659,0 4.48614,0.656321 5.97381,1.966389 1.48766,1.312642 2.23149,3.073129 2.23149,5.289167 0,1.884016 -0.52506,3.397408 -1.57003,4.542754 -1.04496,1.145336 -2.43223,1.716722 -4.1567,1.716722 -2.09508,0 -3.67539,-0.442696 -4.74095,-1.328082 -1.06556,-0.885386 -1.59576,-2.198022 -1.59576,-3.930184 v -0.99864 c 0,-0.774716 -0.0927,-1.346092 -0.27539,-1.716722 -0.18275,-0.368046 -0.45814,-0.553366 -0.82362,-0.553366 -2.60985,0 -5.09099,1.706432 -7.44088,5.11671 -2.34988,3.410284 -3.52355,7.142292 -3.52355,11.201192 V 57.0856 h 9.97351 v 2.57381 H 85.268384 Z M 174.95533,45.50089 h 2.72051 c -1.40272,5.20167 -3.83497,9.1293 -7.30189,11.78289 -3.46692,2.65103 -7.88872,3.98169 -13.27056,3.98169 -6.19258,0 -11.36593,-2.14656 -15.51234,-6.43967 -4.1464,-4.29311 -6.22089,-9.5514 -6.22089,-15.78002 0,-6.66874 2.11825,-12.40574 6.35988,-17.21616 4.23906,-4.80787 9.36608,-7.21438 15.37593,-7.21438 5.89659,0 10.7997,1.827403 14.70931,5.477064 3.90962,3.652218 5.86314,8.243868 5.86314,13.777546 v 1.01666 h -28.95535 v 13.4327 c 0,3.09114 0.90341,5.56715 2.70765,7.42801 1.80424,1.86086 4.2159,2.78744 7.23497,2.78744 3.7938,0 7.16291,-1.17623 10.10992,-3.53384 2.93929,-2.36019 5.00091,-5.5234 6.17972,-9.49993 z m -9.98894,-13.83422 v -6.058716 c 0,-2.826028 -0.66148,-4.90824 -1.98442,-6.249186 -1.32294,-1.340954 -3.36139,-2.010144 -6.11279,-2.010144 -2.72052,0 -4.75898,0.689781 -6.11537,2.066764 -1.3564,1.376986 -2.03588,3.441178 -2.03588,6.192566 v 6.058716 z m 69.24572,25.41636 h 7.24014 v 2.57381 h -7.24014 c -1.39756,0 -3.16063,0.0901 -5.28917,0.27797 -2.13112,0.18274 -4.38835,0.4221 -6.77684,0.71809 v -6.16684 h -1.60348 c -1.73989,2.27782 -3.71658,3.97653 -5.9352,5.09614 -2.21863,1.12218 -4.73581,1.68069 -7.5464,1.68069 -5.73188,0 -10.57579,-2.22892 -14.53173,-6.68933 -3.95594,-4.46041 -5.9352,-10.00439 -5.9352,-16.63709 0,-6.70477 2.01272,-12.269326 6.04587,-16.69111 4.03059,-4.421793 9.06238,-6.632694 15.08767,-6.632694 2.69992,0 5.07555,0.537926 7.12945,1.611204 2.05132,1.075852 4.02286,2.815748 5.90689,5.21967 h 1.38213 v -34.983189 h -7.24012 v -2.573808 h 7.12946 c 1.4336,0 3.22241,-0.102952 5.37153,-0.311431 a 166.52539,166.52539 0 0 0 6.80515,-0.813323 z M 222.03544,43.49075 v -11.9888 c 0,-3.644494 -1.39243,-6.969852 -4.17215,-9.9709 -2.78228,-3.001048 -5.84511,-4.504152 -9.18077,-4.504152 -3.18895,0 -5.44103,0.957457 -6.75882,2.872366 -1.31779,1.914906 -1.9767,5.48991 -1.9767,10.7173 V 46.41974 c 0,4.3137 0.62802,7.43573 1.88919,9.37124 1.26116,1.9355 3.28161,2.90068 6.06389,2.90068 3.85814,0 7.17835,-1.42847 9.96064,-4.28282 2.77971,-2.85435 4.17214,-6.41908 4.17214,-10.69417 v -0.22392 z m 53.18002,16.16609 h -28.95534 v -2.57381 h 8.6866 V 18.154226 h -7.3997 v -2.573808 h 7.21696 c 1.44134,0 3.243,-0.07979 5.40499,-0.241938 2.162,-0.16215 4.44239,-0.401514 6.84376,-0.72324 l 0.0541,42.46779 h 8.14867 z M 253.65981,-7.074242 c 0,-1.80424 0.60999,-3.333082 1.83513,-4.583953 1.22255,-1.250871 2.74626,-1.876306 4.57109,-1.876306 1.78879,0 3.31249,0.625435 4.57108,1.876306 1.25859,1.250871 1.88918,2.779713 1.88918,4.583953 0,1.804239 -0.63059,3.32536 -1.88918,4.558214 a 6.2929612,6.2929612 0 0 1 -4.57108,1.850568 c -1.82483,0 -3.3511,-0.61514 -4.57109,-1.850568 -1.22256,-1.232854 -1.83513,-2.753975 -1.83513,-4.558214 z m 45.30675,67.616472 -7.28131,-0.66662 h -0.2754 a 153.17762,153.17762 0 0 0 -8.64026,-0.22135 c -0.37063,0 -0.94201,0.018 -1.71673,0.054 -0.77729,0.036 -1.38471,0.0541 -1.8274,0.0541 v -2.68448 h 7.72141 v -70.620103 h -7.72141 v -2.573808 h 7.27614 c 1.43361,0 3.22498,-0.102952 5.37669,-0.311431 a 165.66574,165.66574 0 0 0 6.81029,-0.813323 V 21.44097 h 1.61636 c 1.9252,-2.442532 3.89675,-4.192725 5.91203,-5.247986 2.0153,-1.055261 4.37548,-1.582892 7.08055,-1.582892 6.03301,0 11.08539,2.210901 15.15716,6.632698 4.07176,4.424354 6.10764,9.98633 6.10764,16.6911 0,6.59667 -1.99985,12.13294 -5.99697,16.60879 -3.99712,4.47843 -8.8642,6.71506 -14.60121,6.71506 -2.81318,0 -5.30977,-0.56109 -7.49493,-1.68069 -2.18517,-1.11961 -4.16443,-2.8209 -5.94035,-5.09614 h -1.55973 v 6.06132 z m 0,-17.05148 c 0,4.3137 1.41044,7.92218 4.23648,10.83316 2.82605,2.91097 6.16942,4.36517 10.03529,4.36517 2.63558,0 4.62514,-0.92914 5.96094,-2.79258 1.33838,-1.86086 2.00757,-4.66889 2.00757,-8.42922 V 30.616564 c 0,-5.22739 -0.67176,-8.802394 -2.00757,-10.7173 -1.3358,-1.914909 -3.60333,-2.872366 -6.8,-2.872366 -3.30734,0 -6.37532,1.503104 -9.19879,4.504152 -2.82347,3.001048 -4.23649,6.326406 -4.23649,9.9709 v 11.9888 z M 349.668,-13.537075 h -8.6866 v -2.573808 h 8.46526 c 1.43876,0 3.24814,-0.102953 5.42301,-0.311431 a 165.12782,165.12782 0 0 0 6.86177,-0.813323 V 57.08303 h 8.2053 v 2.57381 H 340.9814 v -2.57381 h 8.6866 z m 64.82909,59.037965 h 2.72051 c -1.40272,5.20167 -3.83497,9.1293 -7.30189,11.78289 -3.46691,2.65103 -7.88872,3.98169 -13.27056,3.98169 -6.19258,0 -11.36593,-2.14656 -15.51234,-6.43967 -4.14641,-4.29311 -6.22089,-9.5514 -6.22089,-15.78002 0,-6.66874 2.11824,-12.40574 6.35988,-17.21616 4.23906,-4.80787 9.36608,-7.21438 15.37593,-7.21438 5.89659,0 10.7997,1.827403 14.70931,5.477064 3.90961,3.652218 5.86314,8.243868 5.86314,13.777546 v 1.01666 h -28.95535 v 13.4327 c 0,3.09114 0.90341,5.56715 2.70765,7.42801 1.80424,1.86086 4.2159,2.78744 7.23497,2.78744 3.7938,0 7.16291,-1.17623 10.10992,-3.53384 2.93929,-2.36019 5.00091,-5.5234 6.17972,-9.49993 z m -9.98895,-13.83422 v -6.058716 c 0,-2.826028 -0.66147,-4.90824 -1.98441,-6.249186 -1.32294,-1.340954 -3.36139,-2.010144 -6.11279,-2.010144 -2.72052,0 -4.75898,0.689781 -6.11537,2.066764 -1.3564,1.376986 -2.03588,3.441178 -2.03588,6.192566 V 31.66667 Z M 47.577564,113.60129 V 83.11711 h -11.42256 v -4.10265 h 27.4265 v 4.10265 h -11.42256 v 30.48418 z m 20.96624,0 V 79.01446 h 25.014835 v 4.10265 H 73.127754 v 10.53717 h 19.143985 v 4.10265 H 73.127754 v 11.74428 h 21.233925 v 4.10265 H 68.543804 Z m 56.821956,-12.1458 4.58396,1.15049 c -0.96261,3.75776 -2.69221,6.62241 -5.19138,8.59652 -2.49916,1.97411 -5.55427,2.95988 -9.16275,2.95988 -3.73717,0 -6.77427,-0.75927 -9.11643,-2.27525 -2.34217,-1.51597 -4.12324,-3.70885 -5.34323,-6.5838 a 23.444819,23.444819 0 0 1 -1.832551,-9.25799 c 0,-3.59561 0.68978,-6.73308 2.071921,-9.40984 1.37956,-2.67676 3.34337,-4.71264 5.89402,-6.1025 2.55064,-1.38985 5.35352,-2.08478 8.41378,-2.08478 3.47206,0 6.38819,0.88024 8.75609,2.64072 2.36533,1.76306 4.01514,4.23907 4.94686,7.43316 l -4.50416,1.05784 c -0.8056,-2.50689 -1.97411,-4.33172 -3.50296,-5.47449 -1.52884,-1.14277 -3.45662,-1.71673 -5.77562,-1.71673 -2.66647,0 -4.89538,0.63315 -6.68676,1.90204 a 10.055869,10.055869 0 0 0 -3.77577,5.11159 20.454054,20.454054 0 0 0 -1.08872,6.61726 c 0,2.93156 0.42982,5.48736 1.2869,7.67252 0.85708,2.18516 2.19289,3.81953 4.00485,4.90053 1.81196,1.081 3.7732,1.6215 5.8863,1.6215 2.56608,0 4.74095,-0.73611 6.52203,-2.20833 1.7785,-1.46707 2.98304,-3.65223 3.61362,-6.55034 z m 10.43165,12.1458 V 79.01446 h 4.58395 V 93.1704 h 17.93687 V 79.01446 h 4.58395 v 34.58683 h -4.58395 V 97.27305 h -17.93687 v 16.32824 z m 34.72067,0 V 79.01446 h 4.73066 l 18.19168,27.14852 V 79.01446 h 4.42437 v 34.58683 h -4.73066 l -18.19167,-27.1511 v 27.1511 z m 33.51356,-16.83528 c 0,-5.7293 1.54686,-10.21287 4.64315,-13.45329 3.09629,-3.24043 7.09341,-4.86193 11.9888,-4.86193 3.20696,0 6.09735,0.75927 8.67116,2.28297 a 14.969269,14.969269 0 0 1 5.88887,6.3676 c 1.34868,2.72566 2.02559,5.81166 2.02559,9.26571 0,3.49781 -0.71037,6.63013 -2.13369,9.39183 -1.42332,2.76169 -3.43603,4.8542 -6.0433,6.27494 a 17.339746,17.339746 0 0 1 -8.4318,2.13111 c -3.27131,0 -6.19258,-0.78501 -8.76639,-2.35503 a 15.13914,15.13914 0 0 1 -5.85284,-6.4268 19.367907,19.367907 0 0 1 -1.98955,-8.61711 z m 4.7461,0.0566 c 0,4.15413 1.12476,7.42544 3.37426,9.81394 2.24951,2.38849 5.07298,3.58531 8.46526,3.58531 3.4592,0 6.30326,-1.20969 8.53732,-3.62135 2.23149,-2.41423 3.3511,-5.83739 3.3511,-10.26949 0,-2.80545 -0.47873,-5.25315 -1.43361,-7.34565 -0.95488,-2.09251 -2.35246,-3.71143 -4.19274,-4.8645 -1.84027,-1.15307 -3.90446,-1.72702 -6.19,-1.72702 -3.2533,0 -6.0536,1.10931 -8.39577,3.32536 -2.34474,2.21604 -3.51582,5.91718 -3.51582,11.1034 z m 34.19819,16.77609 V 79.01186 h 4.58395 v 30.48419 h 17.13127 v 4.10265 z m 25.6377,-16.83271 c 0,-5.7293 1.54686,-10.21287 4.64316,-13.45587 3.09629,-3.24042 7.09341,-4.86192 11.98879,-4.86192 3.20697,0 6.09736,0.76184 8.67116,2.28554 a 14.969269,14.969269 0 0 1 5.88888,6.3676 c 1.34867,2.72566 2.02558,5.81166 2.02558,9.26571 0,3.49781 -0.71037,6.63013 -2.13368,9.39183 -1.42332,2.76169 -3.43604,4.8542 -6.0433,6.27494 a 17.337172,17.337172 0 0 1 -8.4318,2.12854 c -3.27131,0 -6.19258,-0.78501 -8.76639,-2.35246 a 15.154583,15.154583 0 0 1 -5.85284,-6.4268 19.40394,19.40394 0 0 1 -1.98956,-8.61711 z m 4.74611,0.0566 c 0,4.15156 1.12475,7.42544 3.37426,9.81394 2.24951,2.39106 5.07298,3.58531 8.46526,3.58531 3.45919,0 6.30325,-1.20712 8.53732,-3.61877 2.23149,-2.41424 3.3511,-5.8374 3.3511,-10.2695 0,-2.80545 -0.47873,-5.25314 -1.43362,-7.34565 -0.95488,-2.0925 -2.35246,-3.71143 -4.19273,-4.8645 -1.84027,-1.15306 -3.90447,-1.72959 -6.19001,-1.72959 -3.25329,0 -6.0536,1.11188 -8.39576,3.32793 -2.34474,2.21347 -3.51582,5.91461 -3.51582,11.10083 z m 50.60622,3.26359 v -4.10265 h 14.63982 v 12.7944 c -2.25209,1.78623 -4.57109,3.13233 -6.96473,4.03059 a 20.693418,20.693418 0 0 1 -7.36366,1.35125 c -3.4,0 -6.48857,-0.72582 -9.26829,-2.18002 a 14.392736,14.392736 0 0 1 -6.29038,-6.30068 c -1.41817,-2.74625 -2.1234,-5.81681 -2.1234,-9.20909 a 21.33687,21.33687 0 0 1 2.11053,-9.40984 c 1.40787,-2.91355 3.43346,-5.07812 6.07676,-6.48857 2.64072,-1.41302 5.68554,-2.12082 9.13188,-2.12082 2.50174,0 4.76412,0.40666 6.78713,1.21741 2.02044,0.81075 3.60333,1.94323 4.75383,3.38971 1.14791,1.44905 2.02301,3.3408 2.62271,5.6701 l -4.21848,1.13247 c -0.51733,-1.76048 -1.16079,-3.14262 -1.92778,-4.1464 -0.76699,-1.00379 -1.86344,-1.80939 -3.28418,-2.41423 a 12.071161,12.071161 0 0 0 -4.74353,-0.90856 c -2.08478,0 -3.88387,0.31915 -5.40242,0.95488 -1.51855,0.63574 -2.74368,1.47222 -3.6754,2.50947 a 11.92188,11.92188 0 0 0 -2.17229,3.41287 18.086151,18.086151 0 0 0 -1.31522,6.94671 c 0,3.0757 0.52763,5.64951 1.58289,7.72399 a 10.156247,10.156247 0 0 0 4.61484,4.61484 14.228012,14.228012 0 0 0 6.43452,1.50568 c 1.97154,0 3.89675,-0.37578 5.77563,-1.13505 1.8763,-0.75927 3.30219,-1.56745 4.27252,-2.42967 v -6.40621 h -10.05329 z m 22.21453,13.5125 V 79.01184 h 4.58396 v 34.58684 z m 12.88449,0 V 79.01184 h 25.01484 v 4.10265 h -20.43089 v 10.53717 h 19.14399 v 4.10265 h -19.14399 v 11.74429 h 21.23392 v 4.10265 h -25.81787 z m 30.60258,-11.10084 4.34459,-0.40151 c 0.20333,1.7296 0.67948,3.14777 1.42331,4.25193 0.74383,1.10931 1.89947,2.00242 3.4695,2.68705 1.57002,0.68464 3.3305,1.02181 5.29175,1.02181 1.73989,0 3.27388,-0.25996 4.60711,-0.77729 1.33325,-0.51734 2.32415,-1.23028 2.97532,-2.13112 0.65118,-0.90083 0.97548,-1.88402 0.97548,-2.94958 0,-1.07843 -0.31915,-2.02044 -0.95746,-2.82604 -0.6383,-0.8056 -1.67812,-1.47994 -3.12203,-2.02816 -0.924,-0.36034 -2.97275,-0.91885 -6.1411,-1.67813 -3.16836,-0.75927 -5.39213,-1.47736 -6.66617,-2.15685 -1.65496,-0.8648 -2.88524,-1.93808 -3.69599,-3.21983 a 7.8990175,7.8990175 0 0 1 -1.21741,-4.30856 c 0,-1.74761 0.49417,-3.37941 1.48766,-4.89538 0.99092,-1.51855 2.4374,-2.67161 4.34202,-3.4592 1.90462,-0.78758 4.0203,-1.18138 6.34701,-1.18138 2.56351,0 4.82589,0.41439 6.78456,1.24315 1.95867,0.82877 3.46434,2.04875 4.51703,3.65996 1.05269,1.6112 1.6215,3.43603 1.69871,5.47191 l -4.42436,0.32173 c -0.2368,-2.17487 -1.02954,-3.81696 -2.38851,-4.92884 -1.35897,-1.11189 -3.36139,-1.66526 -6.00984,-1.66526 -2.76169,0 -4.77184,0.50447 -6.03558,1.51598 -1.26374,1.0115 -1.89432,2.22634 -1.89432,3.65223 0,1.238 0.44785,2.25723 1.34095,3.05511 0.87767,0.80046 3.16836,1.61893 6.87979,2.45541 3.71143,0.83649 6.26208,1.57003 7.65193,2.19804 2.02044,0.92399 3.51325,2.09508 4.47843,3.51325 0.9626,1.42074 1.44648,3.05511 1.44648,4.90053 0,1.83512 -0.52506,3.56472 -1.57774,5.18622 -1.05269,1.6215 -2.56609,2.88266 -4.53763,3.78607 -1.97411,0.90083 -4.19273,1.34868 -6.66101,1.34868 -3.12718,0 -5.74474,-0.45557 -7.86041,-1.36155 -2.1131,-0.91113 -3.77321,-2.27782 -4.97518,-4.10522 -1.19939,-1.82483 -1.83255,-3.88903 -1.89689,-6.19516 z m 36.17745,-23.14111 c 1.02952,0 2.03331,0.2651 3.0165,0.79273 0.98062,0.52764 1.74504,1.28176 2.29326,2.26238 0.54565,0.9832 0.81847,2.005 0.81847,3.07056 0,1.05526 -0.26767,2.07191 -0.8056,3.04481 -0.5405,0.97547 -1.2972,1.7296 -2.2701,2.2701 a 6.2183207,6.2183207 0 0 1 -3.05253,0.8056 c -1.06299,0 -2.07964,-0.26767 -3.05254,-0.8056 a 5.7061329,5.7061329 0 0 1 -2.27267,-2.2701 6.1565493,6.1565493 0 0 1 -0.81333,-3.04224 c 0,-1.06556 0.2754,-2.09251 0.8262,-3.07055 a 5.6366401,5.6366401 0 0 1 2.29583,-2.26496 6.2903873,6.2903873 0 0 1 3.01651,-0.79273 z m 0,1.00636 c -0.8648,0 -1.70386,0.22135 -2.51976,0.66404 a 4.7589714,4.7589714 0 0 0 -1.91749,1.89175 5.1476165,5.1476165 0 0 0 -0.69493,2.56609 c 0,0.88282 0.2265,1.7296 0.68206,2.53777 0.45299,0.81075 1.08872,1.44391 1.90205,1.89433 0.81332,0.45041 1.66268,0.67948 2.54807,0.67948 0.88539,0 1.73474,-0.22649 2.54807,-0.67948 0.81332,-0.45299 1.44905,-1.08358 1.89689,-1.89433 0.45299,-0.80817 0.67692,-1.65753 0.67692,-2.54034 0,-0.88797 -0.22907,-1.74247 -0.68979,-2.56352 a 4.7177905,4.7177905 0 0 0 -1.91748,-1.89432 5.2248307,5.2248307 0 0 0 -2.51461,-0.66147 z m -2.69993,8.50386 v -6.59667 h 2.27782 c 0.77729,0 1.34096,0.0592 1.68842,0.18017 0.34746,0.12354 0.62544,0.33459 0.83134,0.6383 a 1.7321729,1.7321729 0 0 1 -0.21105,2.21863 2.0616204,2.0616204 0 0 1 -1.37956,0.59969 1.7887967,1.7887967 0 0 1 0.56109,0.35004 c 0.26767,0.26253 0.59197,0.6975 0.97804,1.31264 l 0.80561,1.29463 h -1.30235 l -0.59198,-1.04239 c -0.46843,-0.81075 -0.83648,-1.32551 -1.10931,-1.53657 a 1.3744136,1.3744136 0 0 0 -0.8545,-0.23679 h -0.62544 v 2.81575 h -1.06813 z m 1.06556,-3.71915 h 1.31264 c 0.62544,0 1.05269,-0.0927 1.28176,-0.2754 a 0.88796384,0.88796384 0 0 0 0.34231,-0.73096 0.89311146,0.89311146 0 0 0 -0.16215,-0.52506 1.0037852,1.0037852 0 0 0 -0.45813,-0.34489 c -0.19561,-0.0746 -0.55852,-0.11324 -1.08615,-0.11324 h -1.23028 z"
         id="path941"
         style="stroke-width:2.57381" />
      <g
         id="g947"
         transform="translate(-225.15644,-68.84575)">
        <path
           d="m 46.918,0 c 21.028,0 38.177,17.151 38.177,38.175 0,21.03 -17.149,38.184 -38.177,38.184 C 25.895,76.359 8.738,59.206 8.738,38.175 8.738,17.151 25.895,0 46.918,0 Z"
           fill="#ffd100"
           id="path943" />
        <path
           d="m 135.355,124.456 -19.657,0.027 -0.02,64.82 c 0.02,2.293 -0.045,6.944 3.617,4.605 7.624,-5.25 11.009,-23.78 12.174,-27.27 l 4.382,1.617 c -5.05,18.527 -9.762,43.508 -33.624,46.607 H 69.019 v -5.319 h 8.503 c -3.632,-3.061 -6.917,-6.832 -8.503,-11.026 V 91.763 c 22.198,-7.391 40.227,-29.487 46.66,-52.21 l 0.02,78.078 h 19.657 v 6.825 z M 69.019,214.863 H 0 V 209.52 H 12.469 L 12.492,93.793 a 80.457,80.457 0 0 0 25.869,4.27 c 4.319,0 8.557,-0.343 12.702,-0.988 3.354,-0.371 6.531,-1.538 9.41,-2.167 l 0.031,22.722 h 7.468 V 92.1 a 9.933,9.933 0 0 0 1.046,-0.337 v 106.754 c -0.652,-1.691 -1.015,-3.459 -1.015,-5.288 l -0.031,-68.773 h -7.468 v 85.088 h 8.514 v 5.319 z"
           id="path945" />
      </g>
    </g>
  </g>
  <g
     id="g871-9"
     transform="matrix(0.38824619,0,0,0.38824619,82.794703,119.43363)"
     style="stroke:#ffffff;stroke-width:9.79757;stroke-linecap:round;stroke-linejoin:round;stroke-miterlimit:4;stroke-dasharray:none">
    <path
       d="m 46.918,0 c 21.028,0 38.177,17.151 38.177,38.175 0,21.03 -17.149,38.184 -38.177,38.184 C 25.895,76.359 8.738,59.206 8.738,38.175 8.738,17.151 25.895,0 46.918,0 Z"
       fill="#ffd100"
       id="path867-0"
       style="stroke:#ffffff;stroke-width:9.79757;stroke-linecap:round;stroke-linejoin:round;stroke-miterlimit:4;stroke-dasharray:none" />
    <path
       d="m 135.355,124.456 -19.657,0.027 -0.02,64.82 c 0.02,2.293 -0.045,6.944 3.617,4.605 7.624,-5.25 11.009,-23.78 12.174,-27.27 l 4.382,1.617 c -5.05,18.527 -9.762,43.508 -33.624,46.607 H 69.019 v -5.319 h 8.503 c -3.632,-3.061 -6.917,-6.832 -8.503,-11.026 V 91.763 c 22.198,-7.391 40.227,-29.487 46.66,-52.21 l 0.02,78.078 h 19.657 v 6.825 z M 69.019,214.863 H 0 V 209.52 H 12.469 L 12.492,93.793 a 80.457,80.457 0 0 0 25.869,4.27 c 4.319,0 8.557,-0.343 12.702,-0.988 3.354,-0.371 6.531,-1.538 9.41,-2.167 l 0.031,22.722 h 7.468 V 92.1 a 9.933,9.933 0 0 0 1.046,-0.337 v 106.754 c -0.652,-1.691 -1.015,-3.459 -1.015,-5.288 l -0.031,-68.773 h -7.468 v 85.088 h 8.514 v 5.319 z"
       id="path869-8"
       style="stroke:#ffffff;stroke-width:9.79757;stroke-linecap:round;stroke-linejoin:round;stroke-miterlimit:4;stroke-dasharray:none" />
  </g>
  <g
     id="g947-3"
     transform="matrix(0.38824619,0,0,0.38824619,82.794683,119.43363)">
    <path
       d="m 46.918,0 c 21.028,0 38.177,17.151 38.177,38.175 0,21.03 -17.149,38.184 -38.177,38.184 C 25.895,76.359 8.738,59.206 8.738,38.175 8.738,17.151 25.895,0 46.918,0 Z"
       fill="#ffd100"
       id="path943-2" />
    <path
       d="m 135.355,124.456 -19.657,0.027 -0.02,64.82 c 0.02,2.293 -0.045,6.944 3.617,4.605 7.624,-5.25 11.009,-23.78 12.174,-27.27 l 4.382,1.617 c -5.05,18.527 -9.762,43.508 -33.624,46.607 H 69.019 v -5.319 h 8.503 c -3.632,-3.061 -6.917,-6.832 -8.503,-11.026 V 91.763 c 22.198,-7.391 40.227,-29.487 46.66,-52.21 l 0.02,78.078 h 19.657 v 6.825 z M 69.019,214.863 H 0 V 209.52 H 12.469 L 12.492,93.793 a 80.457,80.457 0 0 0 25.869,4.27 c 4.319,0 8.557,-0.343 12.702,-0.988 3.354,-0.371 6.531,-1.538 9.41,-2.167 l 0.031,22.722 h 7.468 V 92.1 a 9.933,9.933 0 0 0 1.046,-0.337 v 106.754 c -0.652,-1.691 -1.015,-3.459 -1.015,-5.288 l -0.031,-68.773 h -7.468 v 85.088 h 8.514 v 5.319 z"
       id="path945-1" />
  </g>
</svg>
