<?xml version="1.0" encoding="UTF-8" standalone="no"?>
<svg
   viewBox="0 0 218.52 317.48"
   version="1.1"
   id="svg610"
   sodipodi:docname="auto-arcade-sega.svg"
   inkscape:version="1.1 (c68e22c387, 2021-05-23)"
   xmlns:inkscape="http://www.inkscape.org/namespaces/inkscape"
   xmlns:sodipodi="http://sodipodi.sourceforge.net/DTD/sodipodi-0.dtd"
   xmlns="http://www.w3.org/2000/svg"
   xmlns:svg="http://www.w3.org/2000/svg">
  <defs
     id="defs614">
    <linearGradient
       id="a"
       gradientTransform="rotate(90,602.18396,390.31957)"
       gradientUnits="userSpaceOnUse"
       x1="312.93539"
       x2="291.9762"
       y1="1095.2787"
       y2="1074.3195">
      <stop
         offset="0"
         stop-color="#a4a5a9"
         id="stop2" />
      <stop
         offset="1"
         stop-color="#e6e6e7"
         id="stop4" />
    </linearGradient>
    <linearGradient
       id="b"
       gradientTransform="rotate(90,602.18396,390.31957)"
       gradientUnits="userSpaceOnUse"
       x1="292.05191"
       x2="312.9278"
       y1="1095.271"
       y2="1074.3951">
      <stop
         offset="0"
         stop-color="#211c1d"
         stop-opacity="0"
         id="stop7" />
      <stop
         offset=".0448"
         stop-color="#211c1d"
         stop-opacity=".0896"
         id="stop9" />
      <stop
         offset=".5"
         stop-color="#211c1d"
         id="stop11" />
      <stop
         offset=".9552"
         stop-color="#211c1d"
         stop-opacity=".0896"
         id="stop13" />
      <stop
         offset="1"
         stop-color="#211c1d"
         stop-opacity="0"
         id="stop15" />
    </linearGradient>
    <linearGradient
       id="c"
       gradientTransform="rotate(-90,-717.02648,-3093.8286)"
       gradientUnits="userSpaceOnUse"
       x1="-3911.9182"
       x2="-3891.0425"
       y1="-2458.6936"
       y2="-2479.5693">
      <stop
         offset="0"
         stop-color="#fff"
         stop-opacity="0"
         id="stop18" />
      <stop
         offset=".5"
         stop-color="#fff"
         id="stop20" />
      <stop
         offset="1"
         stop-color="#fff"
         stop-opacity="0"
         id="stop22" />
    </linearGradient>
  </defs>
  <sodipodi:namedview
     id="namedview612"
     pagecolor="#ffffff"
     bordercolor="#666666"
     borderopacity="1.0"
     inkscape:pageshadow="2"
     inkscape:pageopacity="0.0"
     inkscape:pagecheckerboard="true"
     showgrid="false"
     inkscape:zoom="2.3718028"
     inkscape:cx="119.52933"
     inkscape:cy="171.59943"
     inkscape:window-width="1920"
     inkscape:window-height="1138"
     inkscape:window-x="-8"
     inkscape:window-y="-8"
     inkscape:window-maximized="1"
     inkscape:current-layer="svg610"
     inkscape:snap-global="false" />
  <path
     d="M 5.0900021,20.831 H 213.43 v 218.63 H 5.0900021 Z"
     fill="#1229b8"
     id="path2"
     style="fill:#285c8a;fill-opacity:1;stroke-width:1.24817" />
  <path
     d="m5.09 264.961h208.246v48.75h-208.246z"
     fill="#bcc9a7"
     stroke="#000"
     id="path6"
     style="fill:#285c8a;fill-opacity:1" />
  <path
     d="m14.463 313.711h12.805v3.769h-12.805zm176.605 0h12.805v3.769h-12.805z"
     fill="#1a1818"
     id="path8"
     style="fill:#000000" />
  <path
     d="m5.09 258.461h208.246v6.5h-208.246z"
     fill="#18111c"
     id="path10"
     style="fill:#000000" />
  <path
     d="m5.09 239.461h208.246v19h-208.246z"
     fill="#acb5a2"
     stroke="#000"
     stroke-miterlimit="10"
     id="path12"
     style="fill:#ffffff;fill-opacity:1" />
  <path
     d="m213.43 0h5.09v317.48h-5.09z"
     fill="#18111c"
     id="path16"
     style="fill:#000000" />
  <path
     d="m111.178 305.003h-3.231c-1.408 0-2.553-1.374-2.553-3.063v-3.063h8.337v3.063c0 1.689-1.145 3.063-2.553 3.063z"
     fill="#1a1818"
     id="path20" />
  <path
     d="m5.137 0h208.246v26.188h-208.246z"
     fill="#18111c"
     id="path78"
     style="fill:#000000" />
  <path
     d="m0 0h5.09v317.48h-5.09z"
     fill="#18111c"
     id="path480"
     style="fill:#000000" />
  <path
     d="m141.372 282.946h-4.867a1.321 1.321 0 0 1 -1.317-1.317v-3.033c0-.724.593-1.317 1.317-1.317h4.867c.724 0 1.317.593 1.317 1.317v3.033c0 .724-.593 1.317-1.317 1.317z"
     fill="#5e5353"
     id="path540" />
  <path
     d="m136.595 278.883h4.688v1.229h-4.688z"
     fill="#1a1818"
     id="path542" />
  <path
     d="m 70.415,267.836 h 77.596 v 43 H 70.415 Z"
     fill="#1a1818"
     id="path18" />
  <path
     d="m 91.199,281.522 h -6.785 a 1.235,1.235 0 0 1 -1.231,-1.231 v -3.205 c 0,-0.677 0.554,-1.231 1.231,-1.231 h 6.785 c 0.677,0 1.231,0.554 1.231,1.231 v 3.205 c 0,0.677 -0.554,1.231 -1.231,1.231 z"
     fill="#5b2a2a"
     id="path530" />
  <path
     d="m 84.729,276.835 h 1.313 v 3.937 h -1.313 z"
     fill="#471313"
     id="path536" />
  <path
     d="m 100.483,281.522 h -4.867 a 1.321,1.321 0 0 1 -1.317,-1.317 v -3.033 c 0,-0.724 0.593,-1.317 1.317,-1.317 h 4.867 c 0.724,0 1.317,0.593 1.317,1.317 v 3.033 c 0,0.724 -0.593,1.317 -1.317,1.317 z"
     fill="#5e5353"
     id="path532" />
  <path
     d="m 95.705,277.46 h 4.688 v 1.229 h -4.688 z"
     fill="#1a1818"
     id="path534" />
  <path
     d="m 94.064,287.147 h 26.414 v 6.25 H 94.064 Z"
     fill="#595757"
     id="path538" />
  <path
     d="m 130.199,281.637 h -6.785 a 1.235,1.235 0 0 1 -1.231,-1.231 v -3.205 c 0,-0.677 0.554,-1.231 1.231,-1.231 h 6.785 c 0.677,0 1.231,0.554 1.231,1.231 v 3.205 c 0,0.677 -0.554,1.231 -1.231,1.231 z"
     fill="#5b2a2a"
     id="path544" />
  <path
     d="m 123.729,276.949 h 1.313 v 3.938 h -1.313 z"
     fill="#471313"
     id="path546" />
  <path
     d="m 126.195,303.309 h 2.378 a 2.57,2.57 0 0 0 2.563,-2.563 v -2.563 h -7.503 v 2.563 a 2.57,2.57 0 0 0 2.562,2.563 z"
     fill="#353434"
     id="path550" />
  <path
     d="m 114.253,281.637 h 4.867 c 0.724,0 1.317,-0.593 1.317,-1.317 v -3.033 c 0,-0.724 -0.593,-1.317 -1.317,-1.317 h -4.867 c -0.724,0 -1.317,0.593 -1.317,1.317 v 3.033 c 0,0.724 0.593,1.317 1.317,1.317 z"
     fill="#5e5353"
     id="path552" />
  <path
     d="m 119.03,278.803 h -4.688 v -1.229 h 4.688 z"
     fill="#1a1818"
     id="path554" />
  <ellipse
     cx="133.68201"
     cy="286.92902"
     fill="#c6c6c6"
     rx="2.546"
     ry="2.4070001"
     id="ellipse556" />
  <path
     d="m 133.197,285.21 h 0.938 v 3.594 h -0.938 z"
     fill="#353535"
     id="path558" />
  <path
     d="M 88.541,303.194 H 86.163 A 2.57,2.57 0 0 1 83.6,300.632 v -2.563 h 7.503 v 2.563 a 2.57,2.57 0 0 1 -2.562,2.562 z"
     fill="#353434"
     id="path22" />
  <g
     id="g16735"
     transform="matrix(0.74486512,0,0,0.74486512,10.278808,-61.522184)">
    <path
       d="m 40.815121,417.6366 c 0,2.679 -4.776,4.85 -10.667,4.85 -5.891,0 -10.667,-2.172 -10.667,-4.85"
       fill="#848383"
       id="path37" />
    <path
       d="m 30.149121,422.9876 c -6.262,0 -11.167,-2.351 -11.167,-5.351 h 1 c 0,2.358 4.656,4.351 10.167,4.351 5.511,0 10.166,-1.992 10.166,-4.351 h 1 c 0,3.001 -4.904,5.351 -11.166,5.351 z"
       id="path39" />
    <ellipse
       cx="30.148113"
       cy="417.6366"
       fill="#666565"
       rx="10.667"
       ry="3.017"
       id="ellipse41" />
    <path
       d="m 30.149121,421.1536 c -5.549,0 -11.167,-1.208 -11.167,-3.517 0,-2.31 5.618,-3.518 11.167,-3.518 5.549,0 11.166,1.208 11.166,3.518 0,2.309 -5.617,3.517 -11.166,3.517 z m 0,-6.034 c -6.206,0 -10.167,1.491 -10.167,2.518 0,1.027 3.961,2.517 10.167,2.517 6.206,0 10.166,-1.49 10.166,-2.517 0,-1.027 -3.96,-2.518 -10.166,-2.518 z"
       id="path43" />
    <path
       d="m 196.36912,417.4456 v -4.085 c 0,0.721 -2.728,1.306 -6.094,1.306 -3.366,0 -6.094,-0.585 -6.094,-1.306 v 4.085 -0.078 c 1.558,0.367 3.71,0.594 6.087,0.594 2.385,0 4.543,-0.228 6.102,-0.597"
       fill="#ae0009"
       id="path45" />
    <path
       d="m 190.26712,418.4616 c -2.338,0 -4.54,-0.216 -6.201,-0.607 l 0.096,-0.409 h -0.481 v -4.085 h 1 c 0.193,0.212 2.12,0.807 5.595,0.807 3.474,0 5.4,-0.595 5.616,-0.897 l 0.978,0.091 v 4.085 h -0.48 l 0.096,0.405 c -1.666,0.393 -3.874,0.61 -6.219,0.61 z m -5.587,-1.495 c 1.539,0.32 3.503,0.495 5.587,0.495 2.091,0 4.061,-0.176 5.602,-0.498 v -2.54 c -1.638,0.696 -4.789,0.743 -5.594,0.743 -0.805,0 -3.957,-0.047 -5.595,-0.743 z"
       fill="#020202"
       id="path47" />
    <path
       d="m 184.16512,417.3676 v -2.568 c -1.537,0.329 -2.487,0.782 -2.487,1.282 0,0.502 0.956,0.957 2.502,1.286"
       fill="#ae0009"
       id="path49" />
    <path
       d="m 184.07612,417.8566 c -1.977,-0.421 -2.897,-0.985 -2.897,-1.775 0,-0.787 0.916,-1.35 2.883,-1.771 l 0.604,-0.129 v 3.187 h -0.485 z m -0.411,-2.424 c -1.093,0.292 -1.448,0.58 -1.492,0.679 0.043,0.048 0.399,0.328 1.492,0.619 z"
       fill="#020202"
       id="path51" />
    <path
       d="m 196.37012,417.3636 v -2.564 c 1.546,0.329 2.501,0.782 2.501,1.282 0,0.501 -0.956,0.954 -2.501,1.282 z"
       fill="#ae0009"
       id="path53" />
    <path
       d="m 195.87012,417.9806 v -3.799 l 0.604,0.128 c 1.976,0.421 2.896,0.983 2.896,1.771 0,0.789 -0.921,1.352 -2.897,1.771 z m 1,-2.549 v 1.3 c 1.103,-0.293 1.462,-0.582 1.506,-0.681 -0.044,-0.046 -0.405,-0.327 -1.506,-0.619 z"
       fill="#020202"
       id="path55" />
    <ellipse
       cx="190.27512"
       cy="413.31061"
       fill="#ae0009"
       rx="6.0939999"
       ry="1.306"
       id="ellipse57" />
    <path
       d="m 190.27512,415.1166 c -1.102,0 -6.595,-0.087 -6.595,-1.807 0,-1.719 5.493,-1.806 6.595,-1.806 1.102,0 6.594,0.087 6.594,1.806 0,1.72 -5.493,1.807 -6.594,1.807 z m -5.513,-1.807 c 0.483,0.317 2.361,0.807 5.513,0.807 3.152,0 5.028,-0.489 5.512,-0.807 -0.483,-0.316 -2.361,-0.806 -5.512,-0.806 -3.151,0 -5.029,0.49 -5.513,0.806 z"
       fill="#020202"
       id="path59" />
    <path
       d="m 196.36912,422.5696 v -4.085 c 0,0.721 -2.728,1.306 -6.094,1.306 -3.366,0 -6.094,-0.585 -6.094,-1.306 v 4.085 -0.078 c 1.558,0.367 3.71,0.594 6.087,0.594 2.385,0 4.543,-0.228 6.102,-0.597"
       fill="#ae0009"
       id="path61" />
    <path
       d="m 190.26712,423.5856 c -2.338,0 -4.54,-0.216 -6.2,-0.607 l 0.096,-0.408 h -0.481 v -4.085 h 1 c 0.193,0.212 2.12,0.806 5.594,0.806 3.474,0 5.4,-0.594 5.616,-0.897 l 0.978,0.092 v 4.085 h -0.48 l 0.094,0.402 c -1.664,0.395 -3.872,0.612 -6.217,0.612 z m -5.586,-1.495 c 1.538,0.32 3.502,0.495 5.586,0.495 2.091,0 4.061,-0.176 5.602,-0.498 v -2.54 c -1.638,0.696 -4.789,0.743 -5.594,0.743 -0.805,0 -3.956,-0.047 -5.594,-0.743 z"
       fill="#020202"
       id="path63" />
    <path
       d="m 184.16512,422.4916 v -2.568 c -1.537,0.329 -2.487,0.782 -2.487,1.282 0,0.502 0.956,0.957 2.502,1.286"
       fill="#ae0009"
       id="path65" />
    <path
       d="m 184.07712,422.9806 c -1.978,-0.421 -2.898,-0.984 -2.898,-1.774 0,-0.788 0.916,-1.352 2.883,-1.771 l 0.604,-0.129 v 3.186 h -0.484 z m -0.412,-2.424 c -1.093,0.292 -1.449,0.58 -1.492,0.679 0.044,0.048 0.4,0.329 1.492,0.619 z"
       fill="#020202"
       id="path67" />
    <path
       d="m 196.37012,422.4886 v -2.564 c 1.546,0.329 2.501,0.782 2.501,1.282 0,0.5 -0.956,0.953 -2.501,1.282 z"
       fill="#ae0009"
       id="path69" />
    <path
       d="m 195.87012,423.1046 v -3.798 l 0.604,0.128 c 1.977,0.42 2.897,0.982 2.897,1.771 0,0.789 -0.921,1.352 -2.897,1.771 z m 1,-2.548 v 1.3 c 1.103,-0.293 1.462,-0.582 1.506,-0.681 -0.044,-0.047 -0.405,-0.328 -1.506,-0.619 z"
       fill="#020202"
       id="path71" />
    <ellipse
       cx="190.27512"
       cy="418.4346"
       fill="#ae0009"
       rx="6.0939999"
       ry="1.306"
       id="ellipse73" />
    <path
       d="m 190.27512,420.2406 c -1.102,0 -6.594,-0.087 -6.594,-1.806 0,-1.72 5.492,-1.807 6.594,-1.807 1.102,0 6.594,0.087 6.594,1.807 0,1.719 -5.493,1.806 -6.594,1.806 z m -5.512,-1.806 c 0.483,0.316 2.361,0.806 5.512,0.806 3.151,0 5.028,-0.489 5.512,-0.806 -0.483,-0.317 -2.36,-0.807 -5.512,-0.807 -3.152,0 -5.029,0.49 -5.512,0.807 z"
       fill="#020202"
       id="path75" />
    <path
       d="m 59.234121,417.5096 v -4.085 c 0,0.721 -2.728,1.306 -6.094,1.306 -3.366,0 -6.094,-0.585 -6.094,-1.306 v 4.085 -0.078 c 1.558,0.367 3.71,0.594 6.087,0.594 2.385,0 4.543,-0.228 6.102,-0.597"
       fill="#ae0009"
       id="path77" />
    <path
       d="m 53.132121,418.5256 c -2.334,0 -4.536,-0.216 -6.201,-0.607 l 0.096,-0.409 h -0.481 v -4.085 h 1 c 0.193,0.212 2.12,0.806 5.594,0.806 3.475,0 5.401,-0.594 5.617,-0.896 l 0.978,0.091 v 4.085 h -0.48 l 0.096,0.405 c -1.666,0.393 -3.874,0.61 -6.219,0.61 z m -5.587,-1.495 c 1.541,0.32 3.506,0.495 5.587,0.495 2.091,0 4.061,-0.176 5.602,-0.498 v -2.541 c -1.638,0.696 -4.79,0.743 -5.595,0.743 -0.805,0 -3.956,-0.047 -5.594,-0.743 z"
       fill="#020202"
       id="path79" />
    <path
       d="m 47.030121,417.4316 v -2.568 c -1.537,0.329 -2.487,0.782 -2.487,1.282 0,0.502 0.956,0.957 2.502,1.286"
       fill="#ae0009"
       id="path81" />
    <path
       d="m 46.941121,417.9216 c -1.949,-0.415 -2.897,-0.996 -2.897,-1.775 0,-0.787 0.916,-1.351 2.882,-1.771 l 0.604,-0.129 v 3.187 h -0.484 z m -0.411,-2.424 c -1.092,0.292 -1.447,0.58 -1.491,0.679 0.044,0.048 0.399,0.328 1.491,0.619 z"
       fill="#020202"
       id="path83" />
    <path
       d="m 59.235121,417.4286 v -2.564 c 1.546,0.329 2.501,0.782 2.501,1.282 0,0.5 -0.956,0.953 -2.501,1.282 z"
       fill="#ae0009"
       id="path85" />
    <path
       d="m 58.735121,418.0466 v -3.8 l 0.604,0.128 c 1.976,0.421 2.896,0.983 2.896,1.771 0,0.787 -0.921,1.351 -2.896,1.771 z m 1,-2.55 v 1.299 c 1.102,-0.293 1.462,-0.581 1.506,-0.681 -0.044,-0.046 -0.405,-0.327 -1.506,-0.618 z"
       fill="#020202"
       id="path87" />
    <ellipse
       cx="53.140118"
       cy="413.3746"
       fill="#ae0009"
       rx="6.0939999"
       ry="1.306"
       id="ellipse89" />
    <path
       d="m 53.139121,415.1806 c -1.102,0 -6.594,-0.087 -6.594,-1.806 0,-1.719 5.492,-1.806 6.594,-1.806 1.102,0 6.595,0.087 6.595,1.806 0,1.719 -5.493,1.806 -6.595,1.806 z m -5.512,-1.806 c 0.483,0.317 2.361,0.806 5.512,0.806 3.151,0 5.029,-0.488 5.513,-0.806 -0.483,-0.317 -2.362,-0.806 -5.513,-0.806 -3.151,0 -5.028,0.488 -5.512,0.806 z"
       fill="#020202"
       id="path91" />
    <path
       d="m 59.234121,422.6336 v -4.085 c 0,0.721 -2.728,1.306 -6.094,1.306 -3.366,0 -6.094,-0.585 -6.094,-1.306 v 4.085 -0.078 c 1.558,0.367 3.71,0.594 6.087,0.594 2.385,0 4.543,-0.228 6.102,-0.597"
       fill="#ae0009"
       id="path93" />
    <path
       d="m 53.132121,423.6496 c -2.334,0 -4.536,-0.216 -6.201,-0.607 l 0.096,-0.409 h -0.481 v -4.085 h 1 c 0.193,0.212 2.12,0.807 5.595,0.807 3.474,0 5.4,-0.595 5.616,-0.897 l 0.978,0.091 v 4.085 h -0.48 l 0.096,0.405 c -1.666,0.393 -3.874,0.61 -6.219,0.61 z m -5.587,-1.495 c 1.541,0.32 3.506,0.495 5.587,0.495 2.091,0 4.061,-0.176 5.602,-0.498 v -2.54 c -1.638,0.696 -4.789,0.743 -5.594,0.743 -0.805,0 -3.957,-0.047 -5.595,-0.743 z"
       fill="#020202"
       id="path95" />
    <path
       d="m 47.030121,422.5556 v -2.568 c -1.537,0.329 -2.487,0.782 -2.487,1.282 0,0.502 0.956,0.957 2.502,1.286"
       fill="#ae0009"
       id="path97" />
    <path
       d="m 46.941121,423.0456 c -1.949,-0.415 -2.897,-0.996 -2.897,-1.775 0,-0.787 0.916,-1.35 2.882,-1.771 l 0.604,-0.129 v 3.187 h -0.484 z m -0.411,-2.424 c -1.092,0.292 -1.447,0.58 -1.491,0.679 0.044,0.048 0.399,0.328 1.491,0.619 z"
       fill="#020202"
       id="path99" />
    <path
       d="m 59.235121,422.5526 v -2.564 c 1.546,0.329 2.501,0.782 2.501,1.282 0,0.5 -0.956,0.953 -2.501,1.282 z"
       fill="#ae0009"
       id="path101" />
    <path
       d="m 58.735121,423.1696 v -3.799 l 0.604,0.128 c 1.976,0.421 2.896,0.983 2.896,1.771 0,0.778 -0.947,1.357 -2.897,1.771 z m 1,-2.549 v 1.3 c 1.102,-0.293 1.462,-0.582 1.506,-0.682 -0.044,-0.046 -0.405,-0.327 -1.506,-0.618 z"
       fill="#020202"
       id="path103" />
    <ellipse
       cx="53.140118"
       cy="418.4986"
       fill="#ae0009"
       rx="6.0939999"
       ry="1.306"
       id="ellipse105" />
    <path
       d="m 53.140121,420.3046 c -1.102,0 -6.595,-0.087 -6.595,-1.806 0,-1.719 5.493,-1.806 6.595,-1.806 1.102,0 6.594,0.087 6.594,1.806 0,1.719 -5.492,1.806 -6.594,1.806 z m -5.513,-1.806 c 0.483,0.317 2.361,0.806 5.513,0.806 3.15,0 5.028,-0.488 5.512,-0.806 -0.483,-0.317 -2.361,-0.806 -5.512,-0.806 -3.151,0 -5.029,0.489 -5.513,0.806 z"
       fill="#020202"
       id="path107" />
    <path
       d="m 82.730121,417.9256 v -4.085 c 0,0.721 -2.728,1.306 -6.094,1.306 -3.366,0 -6.094,-0.585 -6.094,-1.306 v 4.085 -0.078 c 1.558,0.367 3.71,0.594 6.087,0.594 2.385,0 4.543,-0.228 6.102,-0.597"
       fill="#ffffff"
       id="path109" />
    <path
       d="m 76.628121,418.9416 c -2.339,0 -4.541,-0.216 -6.201,-0.607 l 0.096,-0.409 h -0.481 v -4.084 h 1 c 0.193,0.212 2.12,0.806 5.594,0.806 3.474,0 5.401,-0.594 5.617,-0.897 l 0.978,0.092 v 4.084 h -0.48 l 0.096,0.405 c -1.667,0.393 -3.875,0.61 -6.219,0.61 z m -5.587,-1.495 c 1.538,0.32 3.502,0.495 5.587,0.495 2.091,0 4.06,-0.176 5.602,-0.499 v -2.539 c -1.638,0.696 -4.79,0.743 -5.595,0.743 -0.805,0 -3.956,-0.047 -5.594,-0.743 z"
       fill="#020202"
       id="path111" />
    <path
       d="m 70.526121,417.8476 v -2.568 c -1.537,0.329 -2.487,0.782 -2.487,1.282 0,0.502 0.956,0.957 2.502,1.286"
       fill="#ffffff"
       id="path113" />
    <path
       d="m 70.437121,418.3376 c -1.977,-0.421 -2.897,-0.985 -2.897,-1.775 0,-0.787 0.916,-1.351 2.882,-1.771 l 0.604,-0.129 v 3.187 h -0.484 z m -0.411,-2.424 c -1.092,0.292 -1.447,0.58 -1.491,0.679 0.043,0.048 0.399,0.328 1.491,0.619 z"
       fill="#020202"
       id="path115" />
    <path
       d="m 82.731121,417.8446 v -2.564 c 1.546,0.329 2.501,0.782 2.501,1.282 0,0.5 -0.956,0.953 -2.501,1.282 z"
       fill="#ffffff"
       id="path117" />
    <path
       d="m 82.231121,418.4616 v -3.799 l 0.604,0.128 c 1.976,0.421 2.896,0.983 2.896,1.771 0,0.789 -0.921,1.352 -2.897,1.771 z m 1,-2.549 v 1.3 c 1.103,-0.293 1.462,-0.582 1.506,-0.681 -0.044,-0.047 -0.405,-0.328 -1.506,-0.619 z"
       fill="#020202"
       id="path119" />
    <ellipse
       cx="76.636116"
       cy="413.79059"
       fill="#ffffff"
       rx="6.0939999"
       ry="1.306"
       id="ellipse121" />
    <path
       d="m 76.635121,415.5976 c -1.102,0 -6.594,-0.087 -6.594,-1.807 0,-1.719 5.492,-1.806 6.594,-1.806 1.102,0 6.595,0.087 6.595,1.806 0,1.72 -5.493,1.807 -6.595,1.807 z m -5.512,-1.807 c 0.483,0.317 2.36,0.807 5.512,0.807 3.152,0 5.029,-0.489 5.513,-0.807 -0.483,-0.316 -2.362,-0.806 -5.513,-0.806 -3.151,0 -5.028,0.489 -5.512,0.806 z"
       fill="#020202"
       id="path123" />
    <path
       d="m 82.730121,423.0496 v -4.085 c 0,0.721 -2.728,1.306 -6.094,1.306 -3.366,0 -6.094,-0.585 -6.094,-1.306 v 4.085 -0.078 c 1.558,0.367 3.71,0.594 6.087,0.594 2.385,0 4.543,-0.228 6.102,-0.597"
       fill="#ffffff"
       id="path125" />
    <path
       d="m 76.628121,424.0656 c -2.339,0 -4.541,-0.216 -6.201,-0.607 l 0.096,-0.408 h -0.481 v -4.085 h 1 c 0.193,0.212 2.12,0.806 5.594,0.806 3.474,0 5.401,-0.594 5.617,-0.897 l 0.978,0.092 v 4.085 h -0.48 l 0.096,0.404 c -1.667,0.393 -3.875,0.61 -6.219,0.61 z m -5.587,-1.495 c 1.538,0.32 3.502,0.495 5.587,0.495 2.091,0 4.06,-0.176 5.602,-0.499 v -2.539 c -1.638,0.696 -4.79,0.743 -5.595,0.743 -0.805,0 -3.956,-0.047 -5.594,-0.743 z"
       fill="#020202"
       id="path127" />
    <path
       d="m 70.526121,422.9726 v -2.568 c -1.537,0.329 -2.487,0.782 -2.487,1.282 0,0.502 0.956,0.957 2.502,1.286"
       fill="#ffffff"
       id="path129" />
    <path
       d="m 70.437121,423.4616 c -1.977,-0.421 -2.897,-0.985 -2.897,-1.774 0,-0.789 0.916,-1.352 2.882,-1.771 l 0.604,-0.129 v 3.186 h -0.484 z m -0.411,-2.424 c -1.093,0.292 -1.448,0.58 -1.491,0.679 0.044,0.048 0.399,0.328 1.491,0.619 z"
       fill="#020202"
       id="path131" />
    <path
       d="m 82.731121,422.9686 v -2.564 c 1.546,0.329 2.501,0.782 2.501,1.282 0,0.5 -0.956,0.953 -2.501,1.282 z"
       fill="#ffffff"
       id="path133" />
    <path
       d="m 82.231121,423.5856 v -3.798 l 0.604,0.128 c 1.977,0.42 2.897,0.982 2.897,1.771 0,0.789 -0.921,1.352 -2.897,1.771 z m 1,-2.549 v 1.3 c 1.103,-0.293 1.462,-0.582 1.506,-0.681 -0.044,-0.047 -0.405,-0.328 -1.506,-0.619 z"
       fill="#020202"
       id="path135" />
    <ellipse
       cx="76.636116"
       cy="418.91458"
       fill="#ffffff"
       rx="6.0939999"
       ry="1.306"
       id="ellipse137" />
    <path
       d="m 76.635121,420.7216 c -1.102,0 -6.594,-0.087 -6.594,-1.806 0,-1.72 5.492,-1.807 6.594,-1.807 1.102,0 6.595,0.087 6.595,1.807 0,1.719 -5.493,1.806 -6.595,1.806 z m -5.512,-1.806 c 0.483,0.316 2.361,0.806 5.512,0.806 3.151,0 5.029,-0.489 5.513,-0.806 -0.483,-0.317 -2.361,-0.807 -5.513,-0.807 -3.152,0 -5.028,0.49 -5.512,0.807 z"
       fill="#020202"
       id="path139" />
    <path
       d="m 106.16212,417.9256 v -4.085 c 0,0.721 -2.728,1.306 -6.094,1.306 -3.365999,0 -6.093999,-0.585 -6.093999,-1.306 v 4.085 -0.078 c 1.558,0.367 3.71,0.594 6.086999,0.594 2.385,0 4.543,-0.228 6.102,-0.597"
       fill="#4b92e2"
       id="path141" />
    <path
       d="m 100.06112,418.9416 c -2.338999,0 -4.540999,-0.216 -6.200999,-0.607 l 0.096,-0.409 h -0.482 v -4.084 h 1 c 0.193,0.212 2.12,0.806 5.593999,0.806 3.474,0 5.4,-0.594 5.616,-0.897 l 0.978,0.092 v 4.084 h -0.479 l 0.096,0.405 c -1.666,0.393 -3.874,0.61 -6.218,0.61 z m -5.586999,-1.495 c 1.538,0.32 3.502,0.495 5.586999,0.495 2.09,0 4.059,-0.176 5.601,-0.498 v -2.54 c -1.638,0.696 -4.789,0.743 -5.594,0.743 -0.804999,0 -3.955999,-0.047 -5.593999,-0.743 z"
       fill="#020202"
       id="path143" />
    <path
       d="m 93.958121,417.8476 v -2.568 c -1.537,0.329 -2.487,0.782 -2.487,1.282 0,0.502 0.956,0.957 2.502,1.286"
       fill="#4b92e2"
       id="path145" />
    <path
       d="m 93.870121,418.3376 c -1.977,-0.421 -2.897,-0.985 -2.897,-1.775 0,-0.787 0.916,-1.351 2.882,-1.771 l 0.604,-0.129 v 3.187 h -0.485 z m -0.412,-2.424 c -1.092,0.292 -1.447,0.58 -1.491,0.679 0.043,0.048 0.399,0.328 1.491,0.619 z"
       fill="#020202"
       id="path147" />
    <path
       d="m 106.16312,417.8446 v -2.564 c 1.546,0.329 2.501,0.782 2.501,1.282 0,0.5 -0.955,0.953 -2.501,1.282 z"
       fill="#4b92e2"
       id="path149" />
    <path
       d="m 105.66412,418.4616 v -3.8 l 0.604,0.129 c 1.976,0.421 2.896,0.984 2.896,1.771 0,0.789 -0.921,1.352 -2.897,1.771 z m 1,-2.549 v 1.3 c 1.103,-0.293 1.462,-0.582 1.506,-0.681 -0.045,-0.046 -0.405,-0.328 -1.506,-0.619 z"
       fill="#020202"
       id="path151" />
    <ellipse
       cx="100.06812"
       cy="413.79059"
       fill="#4b92e2"
       rx="6.0939999"
       ry="1.306"
       id="ellipse153" />
    <path
       d="m 100.06812,415.5976 c -1.101999,0 -6.593999,-0.087 -6.593999,-1.807 0,-1.719 5.492,-1.806 6.593999,-1.806 1.102,0 6.594,0.087 6.594,1.806 0,1.72 -5.493,1.807 -6.594,1.807 z m -5.511999,-1.807 c 0.483,0.317 2.36,0.807 5.511999,0.807 3.152,0 5.029,-0.489 5.512,-0.807 -0.483,-0.316 -2.361,-0.806 -5.512,-0.806 -3.150999,0 -5.027999,0.489 -5.511999,0.806 z"
       fill="#020202"
       id="path155" />
    <path
       d="m 106.16212,423.0496 v -4.085 c 0,0.721 -2.728,1.306 -6.094,1.306 -3.365999,0 -6.093999,-0.585 -6.093999,-1.306 v 4.085 -0.078 c 1.558,0.367 3.71,0.594 6.086999,0.594 2.385,0 4.543,-0.228 6.102,-0.597"
       fill="#4b92e2"
       id="path157" />
    <path
       d="m 100.06112,424.0656 c -2.338999,0 -4.540999,-0.216 -6.200999,-0.607 l 0.096,-0.408 h -0.482 v -4.085 h 1 c 0.193,0.212 2.12,0.806 5.593999,0.806 3.474,0 5.401,-0.594 5.617,-0.897 l 0.978,0.092 v 4.085 h -0.48 l 0.096,0.404 c -1.666,0.393 -3.874,0.61 -6.218,0.61 z m -5.586999,-1.495 c 1.538,0.32 3.502,0.495 5.586999,0.495 2.091,0 4.06,-0.176 5.602,-0.499 v -2.539 c -1.638,0.696 -4.79,0.743 -5.595,0.743 -0.804999,0 -3.955999,-0.047 -5.593999,-0.743 z"
       fill="#020202"
       id="path159" />
    <path
       d="m 93.958121,422.9726 v -2.568 c -1.537,0.329 -2.487,0.782 -2.487,1.282 0,0.502 0.956,0.957 2.502,1.286"
       fill="#4b92e2"
       id="path161" />
    <path
       d="m 93.870121,423.4616 c -1.977,-0.421 -2.897,-0.985 -2.897,-1.774 0,-0.789 0.916,-1.352 2.882,-1.771 l 0.604,-0.129 v 3.186 h -0.485 z m -0.412,-2.424 c -1.093,0.292 -1.448,0.58 -1.491,0.679 0.044,0.048 0.399,0.328 1.491,0.619 z"
       fill="#020202"
       id="path163" />
    <path
       d="m 106.16312,422.9686 v -2.564 c 1.546,0.329 2.501,0.782 2.501,1.282 0,0.5 -0.955,0.953 -2.501,1.282 z"
       fill="#4b92e2"
       id="path165" />
    <path
       d="m 105.66412,423.5856 v -3.798 l 0.604,0.128 c 1.977,0.42 2.897,0.982 2.897,1.771 0,0.789 -0.921,1.352 -2.897,1.771 z m 1,-2.549 v 1.3 c 1.103,-0.293 1.462,-0.582 1.506,-0.681 -0.045,-0.047 -0.405,-0.328 -1.506,-0.619 z"
       fill="#020202"
       id="path167" />
    <ellipse
       cx="100.06812"
       cy="418.91458"
       fill="#4b92e2"
       rx="6.0939999"
       ry="1.306"
       id="ellipse169" />
    <path
       d="m 100.06812,420.7216 c -1.101999,0 -6.593999,-0.087 -6.593999,-1.806 0,-1.72 5.492,-1.807 6.593999,-1.807 1.102,0 6.595,0.087 6.595,1.807 0,1.719 -5.494,1.806 -6.595,1.806 z m -5.511999,-1.806 c 0.483,0.316 2.361,0.806 5.511999,0.806 3.151,0 5.029,-0.489 5.513,-0.806 -0.483,-0.317 -2.361,-0.807 -5.513,-0.807 -3.151999,0 -5.027999,0.49 -5.511999,0.807 z"
       fill="#020202"
       id="path171" />
    <path
       d="m 27.636121,400.0996 h 5.02 v 15.706 h -5.02 z"
       fill="#b2aaab"
       id="path173" />
    <path
       d="m 27.136121,399.7516 h 1 v 16.054 h -1 z"
       id="path175" />
    <path
       d="m 32.156121,399.7516 h 1 v 16.054 h -1 z"
       id="path177" />
    <path
       d="m 128.17812,413.4276 v -4.085 c 0,0.721 -2.728,1.306 -6.094,1.306 -3.366,0 -6.094,-0.585 -6.094,-1.306 v 4.085 -0.078 c 1.558,0.367 3.71,0.594 6.087,0.594 2.385,0 4.543,-0.228 6.102,-0.597"
       fill="#ffffff"
       id="path503" />
    <path
       d="m 122.07712,414.4436 c -2.339,0 -4.541,-0.216 -6.201,-0.607 l 0.096,-0.408 h -0.481 v -4.085 h 1 c 0.193,0.212 2.121,0.806 5.595,0.806 3.474,0 5.4,-0.594 5.616,-0.897 l 0.978,0.092 v 4.085 h -0.48 l 0.096,0.404 c -1.667,0.393 -3.875,0.61 -6.219,0.61 z m -5.587,-1.495 c 1.538,0.32 3.502,0.495 5.587,0.495 2.091,0 4.061,-0.176 5.602,-0.498 v -2.54 c -1.638,0.696 -4.789,0.743 -5.594,0.743 -0.805,0 -3.957,-0.047 -5.595,-0.743 z"
       fill="#020202"
       id="path505" />
    <path
       d="m 115.97412,413.3496 v -2.568 c -1.537,0.329 -2.487,0.782 -2.487,1.282 0,0.502 0.956,0.957 2.502,1.286"
       fill="#ffffff"
       id="path507" />
    <path
       d="m 115.88512,413.8396 c -1.977,-0.421 -2.897,-0.985 -2.897,-1.774 0,-0.788 0.916,-1.351 2.882,-1.772 l 0.604,-0.129 v 3.187 h -0.484 z m -0.411,-2.424 c -1.093,0.292 -1.448,0.58 -1.491,0.679 0.044,0.048 0.399,0.328 1.491,0.619 z"
       fill="#020202"
       id="path509" />
    <path
       d="m 128.17912,413.3466 v -2.564 c 1.546,0.329 2.501,0.782 2.501,1.282 0,0.5 -0.955,0.953 -2.501,1.282 z"
       fill="#ffffff"
       id="path511" />
    <path
       d="m 127.67912,413.9636 v -3.799 l 0.604,0.128 c 1.976,0.421 2.896,0.983 2.896,1.771 0,0.789 -0.921,1.352 -2.897,1.771 z m 1,-2.549 v 1.3 c 1.103,-0.293 1.462,-0.582 1.506,-0.681 -0.044,-0.047 -0.404,-0.328 -1.506,-0.619 z"
       fill="#020202"
       id="path513" />
    <ellipse
       cx="122.08411"
       cy="409.2926"
       fill="#ffffff"
       rx="6.0939999"
       ry="1.306"
       id="ellipse515" />
    <path
       d="m 122.08412,411.0986 c -1.102,0 -6.595,-0.087 -6.595,-1.807 0,-1.719 5.493,-1.806 6.595,-1.806 1.102,0 6.594,0.087 6.594,1.806 0,1.721 -5.492,1.807 -6.594,1.807 z m -5.512,-1.806 c 0.483,0.317 2.361,0.807 5.513,0.807 3.152,0 5.028,-0.489 5.512,-0.807 -0.483,-0.316 -2.361,-0.806 -5.512,-0.806 -3.151,0 -5.03,0.489 -5.513,0.806 z"
       fill="#020202"
       id="path517" />
    <path
       d="m 153.23512,413.4916 v -4.085 c 0,0.721 -2.728,1.306 -6.094,1.306 -3.366,0 -6.094,-0.585 -6.094,-1.306 v 4.085 -0.078 c 1.558,0.367 3.71,0.594 6.087,0.594 2.385,0 4.543,-0.228 6.102,-0.597"
       fill="#ffffff"
       id="path519" />
    <path
       d="m 147.13312,414.5086 c -2.333,0 -4.535,-0.216 -6.2,-0.607 l 0.096,-0.409 h -0.481 v -4.085 h 1 c 0.193,0.212 2.12,0.807 5.594,0.807 3.474,0 5.4,-0.595 5.616,-0.897 l 0.978,0.091 v 4.085 h -0.48 l 0.096,0.405 c -1.666,0.393 -3.874,0.61 -6.219,0.61 z m -5.586,-1.495 c 1.541,0.32 3.505,0.495 5.586,0.495 2.091,0 4.061,-0.176 5.602,-0.498 v -2.54 c -1.638,0.696 -4.789,0.743 -5.594,0.743 -0.805,0 -3.956,-0.047 -5.594,-0.743 z"
       fill="#020202"
       id="path521" />
    <path
       d="m 141.03112,413.4146 v -2.568 c -1.537,0.329 -2.487,0.782 -2.487,1.282 0,0.502 0.956,0.957 2.502,1.286"
       fill="#ffffff"
       id="path523" />
    <path
       d="m 140.94312,413.9036 c -1.95,-0.415 -2.898,-0.996 -2.898,-1.775 0,-0.787 0.916,-1.35 2.883,-1.771 l 0.604,-0.129 v 3.187 h -0.484 z m -0.411,-2.424 c -1.093,0.292 -1.448,0.58 -1.492,0.679 0.044,0.048 0.4,0.328 1.492,0.619 z"
       fill="#020202"
       id="path525" />
    <path
       d="m 153.23612,413.4106 v -2.564 c 1.546,0.329 2.501,0.782 2.501,1.282 0,0.5 -0.955,0.953 -2.501,1.282 z"
       fill="#ffffff"
       id="path527" />
    <path
       d="m 152.73612,414.0276 v -3.799 l 0.604,0.128 c 1.977,0.421 2.897,0.984 2.897,1.771 0,0.789 -0.921,1.352 -2.898,1.771 z m 1,-2.549 v 1.3 c 1.103,-0.293 1.463,-0.582 1.507,-0.682 -0.044,-0.044 -0.405,-0.327 -1.507,-0.618 z"
       fill="#020202"
       id="path529" />
    <ellipse
       cx="147.14111"
       cy="409.3566"
       fill="#ffffff"
       rx="6.0939999"
       ry="1.306"
       id="ellipse531" />
    <path
       d="m 147.14112,411.1626 c -1.102,0 -6.594,-0.087 -6.594,-1.806 0,-1.719 5.492,-1.806 6.594,-1.806 1.102,0 6.594,0.087 6.594,1.806 0,1.719 -5.492,1.806 -6.594,1.806 z m -5.512,-1.806 c 0.483,0.317 2.361,0.806 5.512,0.806 3.151,0 5.028,-0.488 5.512,-0.806 -0.483,-0.317 -2.361,-0.806 -5.512,-0.806 -3.151,0 -5.028,0.489 -5.512,0.806 z"
       fill="#020202"
       id="path533" />
    <ellipse
       cx="30.148113"
       cy="390.84961"
       fill="#1a1818"
       rx="9.2670002"
       ry="9.25"
       id="ellipse775" />
    <path
       d="m 30.149121,400.5996 c -5.386,0 -9.768,-4.374 -9.768,-9.75 0,-5.376 4.382,-9.75 9.768,-9.75 5.386,0 9.767,4.374 9.767,9.75 0,5.376 -4.381,9.75 -9.767,9.75 z m 0,-18.5 c -4.834,0 -8.768,3.925 -8.768,8.75 0,4.825 3.934,8.75 8.768,8.75 4.834,0 8.767,-3.925 8.767,-8.75 0,-4.825 -3.933,-8.75 -8.767,-8.75 z"
       id="path777" />
    <path
       d="m 220.22712,417.7176 v -4.085 c 0,0.721 -2.728,1.306 -6.094,1.306 -3.366,0 -6.094,-0.585 -6.094,-1.306 v 4.085 -0.078 c 1.558,0.367 3.71,0.594 6.087,0.594 2.385,0 4.543,-0.228 6.102,-0.597"
       fill="#ffffff"
       id="path807" />
    <path
       d="m 214.12512,418.7336 c -2.334,0 -4.536,-0.216 -6.201,-0.607 l 0.096,-0.409 h -0.481 v -4.085 h 1 c 0.193,0.212 2.12,0.807 5.595,0.807 3.474,0 5.4,-0.595 5.616,-0.897 l 0.978,0.091 v 4.085 h -0.48 l 0.096,0.405 c -1.666,0.393 -3.874,0.61 -6.219,0.61 z m -5.586,-1.495 c 1.541,0.32 3.506,0.495 5.587,0.495 2.091,0 4.061,-0.176 5.602,-0.498 v -2.54 c -1.638,0.696 -4.789,0.743 -5.594,0.743 -0.805,0 -3.957,-0.047 -5.595,-0.743 z"
       fill="#020202"
       id="path809" />
    <path
       d="m 208.02312,417.6396 v -2.568 c -1.537,0.329 -2.487,0.782 -2.487,1.282 0,0.502 0.956,0.957 2.502,1.286"
       fill="#ffffff"
       id="path811" />
    <path
       d="m 207.93412,418.1296 c -1.949,-0.415 -2.897,-0.996 -2.897,-1.775 0,-0.787 0.916,-1.35 2.882,-1.771 l 0.604,-0.129 v 3.187 h -0.484 z m -0.411,-2.424 c -1.092,0.292 -1.447,0.58 -1.491,0.679 0.044,0.048 0.399,0.328 1.491,0.619 z"
       fill="#020202"
       id="path813" />
    <path
       d="m 220.22812,417.6366 v -2.564 c 1.546,0.329 2.501,0.782 2.501,1.282 0,0.5 -0.956,0.953 -2.501,1.282 z"
       fill="#ffffff"
       id="path815" />
    <path
       d="m 219.72812,418.2536 v -3.799 l 0.604,0.128 c 1.976,0.421 2.896,0.983 2.896,1.771 0,0.778 -0.947,1.357 -2.897,1.771 z m 1,-2.549 v 1.3 c 1.102,-0.293 1.462,-0.582 1.506,-0.682 -0.044,-0.046 -0.404,-0.327 -1.506,-0.618 z"
       fill="#020202"
       id="path817" />
    <ellipse
       cx="214.13312"
       cy="413.58258"
       fill="#ffffff"
       rx="6.0939999"
       ry="1.306"
       id="ellipse819" />
    <path
       d="m 214.13312,415.3886 c -1.102,0 -6.595,-0.087 -6.595,-1.806 0,-1.719 5.493,-1.806 6.595,-1.806 1.102,0 6.594,0.087 6.594,1.806 0,1.719 -5.492,1.806 -6.594,1.806 z m -5.512,-1.806 c 0.483,0.317 2.361,0.806 5.513,0.806 3.15,0 5.028,-0.488 5.512,-0.806 -0.483,-0.317 -2.361,-0.806 -5.512,-0.806 -3.151,0 -5.03,0.489 -5.513,0.806 z"
       fill="#020202"
       id="path821" />
    <path
       d="m 220.22712,422.8416 v -4.085 c 0,0.721 -2.728,1.306 -6.094,1.306 -3.366,0 -6.094,-0.585 -6.094,-1.306 v 4.085 -0.078 c 1.558,0.367 3.71,0.594 6.087,0.594 2.385,0 4.543,-0.228 6.102,-0.597"
       fill="#ffffff"
       id="path823" />
    <path
       d="m 214.12512,423.8576 c -2.339,0 -4.541,-0.216 -6.201,-0.607 l 0.096,-0.409 h -0.481 v -4.084 h 1 c 0.193,0.212 2.121,0.806 5.595,0.806 3.474,0 5.4,-0.594 5.616,-0.897 l 0.978,0.092 v 4.084 h -0.48 l 0.096,0.405 c -1.666,0.393 -3.874,0.61 -6.219,0.61 z m -5.586,-1.495 c 1.538,0.32 3.502,0.495 5.587,0.495 2.091,0 4.061,-0.176 5.602,-0.498 v -2.54 c -1.638,0.696 -4.789,0.743 -5.594,0.743 -0.805,0 -3.957,-0.047 -5.595,-0.743 z"
       fill="#020202"
       id="path825" />
    <path
       d="m 208.02312,422.7636 v -2.568 c -1.537,0.329 -2.487,0.782 -2.487,1.282 0,0.502 0.956,0.957 2.502,1.286"
       fill="#ffffff"
       id="path827" />
    <path
       d="m 207.93412,423.2536 c -1.977,-0.421 -2.897,-0.985 -2.897,-1.775 0,-0.787 0.916,-1.35 2.882,-1.771 l 0.604,-0.129 v 3.187 h -0.484 z m -0.411,-2.424 c -1.092,0.292 -1.447,0.58 -1.491,0.679 0.043,0.048 0.399,0.328 1.491,0.619 z"
       fill="#020202"
       id="path829" />
    <path
       d="m 220.22812,422.7606 v -2.564 c 1.546,0.329 2.501,0.782 2.501,1.282 0,0.5 -0.955,0.953 -2.501,1.282 z"
       fill="#ffffff"
       id="path831" />
    <path
       d="m 219.72812,423.3776 v -3.799 l 0.604,0.128 c 1.976,0.421 2.896,0.983 2.896,1.771 0,0.789 -0.921,1.352 -2.897,1.771 z m 1,-2.549 v 1.3 c 1.103,-0.293 1.462,-0.582 1.506,-0.681 -0.044,-0.047 -0.404,-0.328 -1.506,-0.619 z"
       fill="#020202"
       id="path833" />
    <ellipse
       cx="214.13312"
       cy="418.7066"
       fill="#ffffff"
       rx="6.0939999"
       ry="1.306"
       id="ellipse835" />
    <path
       d="m 214.13312,420.5136 c -1.102,0 -6.595,-0.087 -6.595,-1.807 0,-1.719 5.493,-1.806 6.595,-1.806 1.102,0 6.594,0.087 6.594,1.806 0,1.72 -5.492,1.807 -6.594,1.807 z m -5.512,-1.807 c 0.483,0.317 2.361,0.807 5.513,0.807 3.152,0 5.028,-0.489 5.512,-0.807 -0.483,-0.316 -2.361,-0.806 -5.512,-0.806 -3.151,0 -5.03,0.49 -5.513,0.806 z"
       fill="#020202"
       id="path837" />
    <path
       d="m 243.65912,417.7176 v -4.085 c 0,0.721 -2.728,1.306 -6.094,1.306 -3.366,0 -6.094,-0.585 -6.094,-1.306 v 4.085 -0.078 c 1.558,0.367 3.71,0.594 6.087,0.594 2.385,0 4.543,-0.228 6.102,-0.597"
       fill="#4b92e2"
       id="path839" />
    <path
       d="m 237.55812,418.7336 c -2.334,0 -4.536,-0.216 -6.201,-0.607 l 0.096,-0.409 h -0.481 v -4.085 h 1 c 0.193,0.212 2.12,0.807 5.594,0.807 3.475,0 5.401,-0.595 5.617,-0.897 l 0.978,0.091 v 4.085 h -0.48 l 0.096,0.405 c -1.666,0.393 -3.874,0.61 -6.219,0.61 z m -5.587,-1.495 c 1.541,0.32 3.506,0.495 5.587,0.495 2.091,0 4.061,-0.176 5.602,-0.498 v -2.54 c -1.638,0.696 -4.79,0.743 -5.595,0.743 -0.805,0 -3.956,-0.047 -5.594,-0.743 z"
       fill="#020202"
       id="path841" />
    <path
       d="m 231.45612,417.6396 v -2.568 c -1.537,0.329 -2.487,0.782 -2.487,1.282 0,0.502 0.956,0.957 2.502,1.286"
       fill="#4b92e2"
       id="path843" />
    <path
       d="m 231.36712,418.1296 c -1.949,-0.415 -2.897,-0.996 -2.897,-1.775 0,-0.787 0.916,-1.35 2.882,-1.771 l 0.604,-0.129 v 3.187 h -0.484 z m -0.411,-2.424 c -1.092,0.292 -1.447,0.58 -1.491,0.679 0.044,0.048 0.399,0.328 1.491,0.619 z"
       fill="#020202"
       id="path845" />
    <path
       d="m 243.66012,417.6366 v -2.564 c 1.546,0.329 2.501,0.782 2.501,1.282 10e-4,0.5 -0.955,0.953 -2.501,1.282 z"
       fill="#4b92e2"
       id="path847" />
    <path
       d="m 243.16112,418.2536 v -3.799 l 0.604,0.128 c 1.976,0.421 2.896,0.983 2.896,1.771 0,0.778 -0.947,1.357 -2.897,1.771 z m 1,-2.549 v 1.3 c 1.102,-0.293 1.462,-0.582 1.506,-0.682 -0.044,-0.046 -0.405,-0.327 -1.506,-0.618 z"
       fill="#020202"
       id="path849" />
    <ellipse
       cx="237.56512"
       cy="413.58258"
       fill="#4b92e2"
       rx="6.0939999"
       ry="1.306"
       id="ellipse851" />
    <path
       d="m 237.56512,415.3886 c -1.102,0 -6.594,-0.087 -6.594,-1.806 0,-1.719 5.492,-1.806 6.594,-1.806 1.102,0 6.595,0.087 6.595,1.806 0,1.719 -5.494,1.806 -6.595,1.806 z m -5.512,-1.806 c 0.483,0.317 2.361,0.806 5.512,0.806 3.151,0 5.029,-0.488 5.513,-0.806 -0.483,-0.317 -2.362,-0.806 -5.513,-0.806 -3.151,0 -5.028,0.489 -5.512,0.806 z"
       fill="#020202"
       id="path853" />
    <path
       d="m 243.66012,422.8416 v -4.085 c 0,0.721 -2.728,1.306 -6.094,1.306 -3.366,0 -6.094,-0.585 -6.094,-1.306 v 4.085 -0.078 c 1.558,0.367 3.71,0.594 6.087,0.594 2.385,0 4.543,-0.228 6.102,-0.597"
       fill="#4b92e2"
       id="path855" />
    <path
       d="m 237.55812,423.8576 c -2.339,0 -4.541,-0.216 -6.201,-0.607 l 0.096,-0.409 h -0.481 v -4.084 h 1 c 0.193,0.212 2.121,0.806 5.595,0.806 3.474,0 5.4,-0.594 5.616,-0.897 l 0.978,0.092 v 4.084 h -0.48 l 0.096,0.405 c -1.666,0.393 -3.874,0.61 -6.219,0.61 z m -5.587,-1.495 c 1.538,0.32 3.502,0.495 5.587,0.495 2.091,0 4.061,-0.176 5.602,-0.498 v -2.54 c -1.638,0.696 -4.789,0.743 -5.594,0.743 -0.805,0 -3.957,-0.047 -5.595,-0.743 z"
       fill="#020202"
       id="path857" />
    <path
       d="m 231.45612,422.7636 v -2.568 c -1.537,0.329 -2.487,0.782 -2.487,1.282 0,0.502 0.956,0.957 2.502,1.286"
       fill="#4b92e2"
       id="path859" />
    <path
       d="m 231.36712,423.2536 c -1.977,-0.421 -2.897,-0.985 -2.897,-1.775 0,-0.787 0.916,-1.35 2.882,-1.771 l 0.604,-0.129 v 3.187 h -0.484 z m -0.411,-2.424 c -1.092,0.292 -1.447,0.58 -1.491,0.679 0.043,0.048 0.399,0.328 1.491,0.619 z"
       fill="#020202"
       id="path861" />
    <path
       d="m 243.66012,422.7606 v -2.564 c 1.546,0.329 2.501,0.782 2.501,1.282 10e-4,0.5 -0.955,0.953 -2.501,1.282 z"
       fill="#4b92e2"
       id="path863" />
    <path
       d="m 243.16112,423.3776 v -3.799 l 0.604,0.128 c 1.976,0.421 2.896,0.983 2.896,1.771 0,0.789 -0.921,1.352 -2.897,1.771 z m 1,-2.549 v 1.3 c 1.103,-0.293 1.462,-0.582 1.506,-0.681 -0.044,-0.047 -0.405,-0.328 -1.506,-0.619 z"
       fill="#020202"
       id="path865" />
    <ellipse
       cx="237.56512"
       cy="418.7066"
       fill="#4b92e2"
       rx="6.0939999"
       ry="1.306"
       id="ellipse867" />
    <path
       d="m 237.56612,420.5136 c -1.102,0 -6.595,-0.087 -6.595,-1.807 0,-1.719 5.493,-1.806 6.595,-1.806 1.102,0 6.594,0.087 6.594,1.806 0,1.72 -5.493,1.807 -6.594,1.807 z m -5.513,-1.807 c 0.483,0.317 2.361,0.807 5.513,0.807 3.152,0 5.028,-0.489 5.512,-0.807 -0.483,-0.316 -2.361,-0.806 -5.512,-0.806 -3.151,0 -5.029,0.49 -5.513,0.806 z"
       fill="#020202"
       id="path869" />
    <path
       d="m 178.01412,417.6366 c 0,2.679 -4.776,4.85 -10.667,4.85 -5.891,0 -10.667,-2.172 -10.667,-4.85"
       fill="#848383"
       id="path871" />
    <path
       d="m 167.34712,422.9876 c -6.262,0 -11.167,-2.351 -11.167,-5.351 h 1 c 0,2.358 4.656,4.351 10.167,4.351 5.511,0 10.167,-1.992 10.167,-4.351 h 1 c 0,3.001 -4.905,5.351 -11.167,5.351 z"
       id="path873" />
    <ellipse
       cx="167.34712"
       cy="417.6366"
       fill="#666565"
       rx="10.667"
       ry="3.017"
       id="ellipse875" />
    <path
       d="m 167.34712,421.1536 c -5.549,0 -11.167,-1.208 -11.167,-3.517 0,-2.31 5.618,-3.518 11.167,-3.518 5.549,0 11.167,1.208 11.167,3.518 0,2.309 -5.618,3.517 -11.167,3.517 z m 0,-6.034 c -6.206,0 -10.167,1.491 -10.167,2.518 0,1.027 3.961,2.517 10.167,2.517 6.206,0 10.167,-1.49 10.167,-2.517 0,-1.027 -3.961,-2.518 -10.167,-2.518 z"
       id="path877" />
    <path
       d="m 164.83512,400.0996 h 5.02 v 15.706 h -5.02 z"
       fill="#b2aaab"
       id="path879" />
    <path
       d="m 164.33412,399.7516 h 1 v 16.054 h -1 z"
       id="path881" />
    <path
       d="m 169.35512,399.7516 h 1 v 16.054 h -1 z"
       id="path883" />
    <ellipse
       cx="167.34712"
       cy="390.84961"
       fill="#1a1818"
       rx="9.2670002"
       ry="9.25"
       id="ellipse885" />
    <path
       d="m 167.34712,400.5996 c -5.386,0 -9.768,-4.374 -9.768,-9.75 0,-5.376 4.382,-9.75 9.768,-9.75 5.386,0 9.767,4.374 9.767,9.75 0,5.376 -4.381,9.75 -9.767,9.75 z m 0,-18.5 c -4.834,0 -8.768,3.925 -8.768,8.75 0,4.825 3.934,8.75 8.768,8.75 4.834,0 8.767,-3.925 8.767,-8.75 0,-4.825 -3.933,-8.75 -8.767,-8.75 z"
       id="path887" />
  </g>
  <path
     d="M 29.358,109.456 H 188.975 V 212.831 H 29.358 Z"
     stroke="#000000"
     stroke-miterlimit="10"
     id="path14" />
  <g
     id="g1441"
     inkscape:export-filename="C:\Users\BUCH\Desktop\Retrogaming\Recalbox\travail thèmes\Dark Slide !!!!!!!\auto-arcade-sega\g1441.png"
     inkscape:export-xdpi="7098.4004"
     inkscape:export-ydpi="7098.4004"
     transform="matrix(10.726694,0,0,10.726694,36.725163,32.279323)">
    <ellipse
       style="fill:#ffffff;fill-rule:evenodd;stroke:#ffffff;stroke-width:0.45;stroke-linecap:round;stroke-linejoin:round;stroke-miterlimit:4;stroke-dasharray:none;paint-order:fill markers stroke"
       id="path1324"
       cx="6.7542043"
       cy="4.2586031"
       rx="0.55987227"
       ry="0.66112578" />
    <ellipse
       style="fill:#ffffff;fill-rule:evenodd;stroke:#ffffff;stroke-width:0.45;stroke-linecap:round;stroke-linejoin:round;stroke-miterlimit:4;stroke-dasharray:none;paint-order:fill markers stroke"
       id="path1220"
       cx="3.4128385"
       cy="4.32412"
       rx="1.0065789"
       ry="1.4294611" />
    <g
       id="g1196">
      <ellipse
         style="fill:#ffffff;fill-rule:evenodd;stroke:#ffffff;stroke-width:0.45;stroke-linecap:round;stroke-linejoin:round;stroke-miterlimit:4;stroke-dasharray:none;paint-order:fill markers stroke"
         id="path1078"
         cx="1.9893335"
         cy="5.2234893"
         rx="0.48839924"
         ry="0.3037605" />
      <ellipse
         style="fill:#ffffff;fill-rule:evenodd;stroke:#ffffff;stroke-width:0.45;stroke-linecap:round;stroke-linejoin:round;stroke-miterlimit:4;stroke-dasharray:none;paint-order:fill markers stroke"
         id="ellipse1160"
         cx="10.828168"
         cy="5.2115769"
         rx="0.48839924"
         ry="0.3037605" />
      <ellipse
         style="fill:#ffffff;fill-rule:evenodd;stroke:#ffffff;stroke-width:0.704929;stroke-linecap:round;stroke-linejoin:round;stroke-miterlimit:4;stroke-dasharray:none;paint-order:fill markers stroke"
         id="ellipse1162"
         cx="8.9400873"
         cy="5.2413573"
         rx="0.89102668"
         ry="0.40858358" />
      <g
         aria-label="CLASSICS"
         id="g927"
         style="font-size:25.4px;line-height:1.25;font-family:'Patrick Hand SC';-inkscape-font-specification:'Patrick Hand SC, Normal';stroke:#ffffff;stroke-width:5.15618;stroke-linecap:round;stroke-linejoin:round;stroke-miterlimit:4;stroke-dasharray:none"
         transform="matrix(0.08727395,0,0,0.08727395,-1.4761396,-5.9994357)">
        <path
           d="m 30.901226,138.04781 v -2.1084 h -2.108398 v -14.8208 h 2.108398 v -2.1208 h 8.470801 v 2.1208 h 2.1208 v 4.2292 h -4.241601 v -4.2292 h -4.229199 v 14.8208 h 4.229199 v -4.2416 h 4.241601 v 4.2416 h -2.1208 v 2.1084 z"
           style="font-family:'BIG SHOT';-inkscape-font-specification:'BIG SHOT, Normal';stroke:#ffffff;stroke-width:5.15618;stroke-linecap:round;stroke-linejoin:round;stroke-miterlimit:4;stroke-dasharray:none"
           id="path911" />
        <path
           d="m 45.722027,138.04781 v -19.05 h 4.229199 v 16.9416 h 8.470801 v 2.1084 z"
           style="font-family:'BIG SHOT';-inkscape-font-specification:'BIG SHOT, Normal';stroke:#ffffff;stroke-width:5.15618;stroke-linecap:round;stroke-linejoin:round;stroke-miterlimit:4;stroke-dasharray:none"
           id="path913" />
        <path
           d="m 71.109624,129.58941 v -8.4708 h -4.229199 v 8.4708 z m -8.458398,8.4584 v -16.9292 h 2.108398 v -2.1208 h 8.470801 v 2.1208 h 2.120801 v 16.9292 h -4.241602 v -6.35 h -4.229199 v 6.35 z"
           style="font-family:'BIG SHOT';-inkscape-font-specification:'BIG SHOT, Normal';stroke:#ffffff;stroke-width:5.15618;stroke-linecap:round;stroke-linejoin:round;stroke-miterlimit:4;stroke-dasharray:none"
           id="path915" />
        <path
           d="m 81.688824,138.04781 v -2.1084 h -2.108399 v -4.2416 h 4.229199 v 4.2416 h 4.2292 v -6.35 h -6.35 v -2.1208 h -2.108399 v -6.35 h 2.108399 v -2.1208 h 8.4708 v 2.1208 h 2.120801 v 4.2292 h -4.241601 v -4.2292 h -4.2292 v 6.35 h 6.35 v 2.1208 h 2.120801 v 6.35 h -2.120801 v 2.1084 z"
           style="font-family:'BIG SHOT';-inkscape-font-specification:'BIG SHOT, Normal';stroke:#ffffff;stroke-width:5.15618;stroke-linecap:round;stroke-linejoin:round;stroke-miterlimit:4;stroke-dasharray:none"
           id="path917" />
        <path
           d="m 98.618023,138.04781 v -2.1084 h -2.108399 v -4.2416 h 4.229196 v 4.2416 h 4.2292 v -6.35 h -6.349997 v -2.1208 h -2.108399 v -6.35 h 2.108399 v -2.1208 h 8.470797 v 2.1208 h 2.1208 v 4.2292 h -4.2416 v -4.2292 h -4.2292 v 6.35 h 6.35 v 2.1208 h 2.1208 v 6.35 h -2.1208 v 2.1084 z"
           style="font-family:'BIG SHOT';-inkscape-font-specification:'BIG SHOT, Normal';stroke:#ffffff;stroke-width:5.15618;stroke-linecap:round;stroke-linejoin:round;stroke-miterlimit:4;stroke-dasharray:none"
           id="path919" />
        <path
           d="m 113.43882,138.04781 v -2.1084 h 4.2292 v -14.8208 h -4.2292 v -2.1208 h 12.7 v 2.1208 h -4.2416 v 14.8208 h 4.2416 v 2.1084 z"
           style="font-family:'BIG SHOT';-inkscape-font-specification:'BIG SHOT, Normal';stroke:#ffffff;stroke-width:5.15618;stroke-linecap:round;stroke-linejoin:round;stroke-miterlimit:4;stroke-dasharray:none"
           id="path921" />
        <path
           d="m 132.47642,138.04781 v -2.1084 h -2.1084 v -14.8208 h 2.1084 v -2.1208 h 8.4708 v 2.1208 h 2.1208 v 4.2292 h -4.2416 v -4.2292 h -4.2292 v 14.8208 h 4.2292 v -4.2416 h 4.2416 v 4.2416 h -2.1208 v 2.1084 z"
           style="font-family:'BIG SHOT';-inkscape-font-specification:'BIG SHOT, Normal';stroke:#ffffff;stroke-width:5.15618;stroke-linecap:round;stroke-linejoin:round;stroke-miterlimit:4;stroke-dasharray:none"
           id="path923" />
        <path
           d="m 149.40562,138.04781 v -2.1084 h -2.1084 v -4.2416 h 4.2292 v 4.2416 h 4.2292 v -6.35 h -6.35 v -2.1208 h -2.1084 v -6.35 h 2.1084 v -2.1208 h 8.4708 v 2.1208 h 2.1208 v 4.2292 h -4.2416 v -4.2292 h -4.2292 v 6.35 h 6.35 v 2.1208 h 2.1208 v 6.35 h -2.1208 v 2.1084 z"
           style="font-family:'BIG SHOT';-inkscape-font-specification:'BIG SHOT, Normal';stroke:#ffffff;stroke-width:5.15618;stroke-linecap:round;stroke-linejoin:round;stroke-miterlimit:4;stroke-dasharray:none"
           id="path925" />
      </g>
      <g
         id="g950"
         transform="scale(0.04508058)">
        <path
           d="m 147.808,90.893999 c 5.508,5.349 13.019,8.656 21.303,8.656 l 130.889,0.015 -28.268,-84.332 C 267.871,6.2739988 258.813,-1.2207031e-6 247.934,-1.2207031e-6 237.101,-1.2207031e-6 227.906,6.4789988 224.189,15.400999 l -9.423,27.471 -0.037,-41.4530002 -45.709,-0.023 c -8.262,0 -15.689,3.224 -21.159,8.557 l 0.016,-8.52 h -46.801 c -8.717,0 -16.645,3.717 -22.19,9.5590002 V 1.3959988 l -44.11,0.038 C 15.734,1.4179988 0.114,16.302999 0.091,35.982999 c 0,9.111 3.982,17.374 9.854,23.496 L 0,59.462999 v 40.087 l 44.442,-0.008 c 12.487,-0.015 24.861,-7.549 29.162,-16.576 l 0.129,-0.371 c 4.969,10.036 15.339,16.955 27.341,16.955 l 46.733,-0.008 v -8.648"
           style="fill:#ffffff"
           id="path2-0" />
        <path
           d="m 6.866,92.690999 37.477,-0.038 c 15.333,0 27.759,-12.388 27.759,-27.652 0,-15.294 -12.426,-27.683 -27.759,-27.683 l -9.733,0.053 c -0.767,0 -1.389,-0.629 -1.389,-1.403 0,-0.774 0.622,-1.404 1.389,-1.404 l 37.409,0.008 0.015,-11.736 H 34.602 c -7.237,0 -13.125,5.879 -13.125,13.102 0,7.23 5.887,13.086 13.125,13.086 l 9.779,0.129 c 8.785,0 15.894,7.085 15.894,15.826 0,8.747 -7.108,15.848 -15.894,15.848 h -37.5 l -0.015,11.864"
           style="fill:#0060a8"
           id="path4" />
        <path
           d="m 6.881,78.071999 h 37.5 c 7.26,0 13.132,-5.856 13.132,-13.094 0,-7.23 -5.872,-13.079 -13.132,-13.079 l -9.779,-0.106 c -8.77,0 -15.886,-7.093 -15.886,-15.856 0,-8.739 7.116,-15.833 15.886,-15.833 l 37.432,-0.008 L 72.019,8.3149988 H 34.61 c -15.317,0 -27.759,12.3740002 -27.759,27.6530002 0,15.279 12.442,27.66 27.759,27.66 l 9.68,0.015 c 0.736,0 1.358,0.6 1.358,1.358 0,0.744 -0.622,1.343 -1.358,1.343 l -37.424,0.03 0.015,11.698"
           style="fill:#0060a8"
           id="path6-3" />
        <path
           d="m 101.158,80.901999 c -6.502,0 -11.828,-5.182 -11.828,-11.798 v -37.438 c 0,-6.365 5.326,-11.6 11.828,-11.6 l 40.003,0.007 V 8.3149988 h -40.003 c -13.018,0 -23.563,10.5070002 -23.563,23.4800002 v 37.31 c 0,12.974 10.545,23.496 23.563,23.496 l 39.836,0.016 -0.008,-11.729 -39.828,0.014"
           style="fill:#0060a8"
           id="path8-9" />
        <path
           d="m 92.198,31.794999 c 0,-4.961 3.991,-8.982 8.96,-8.982 h 40.003 v 11.774 h -34.465 c -2.761,0 -2.799,2.739 -2.799,2.739 h 28.753 v 11.721 H 92.184 l 0.014,-17.252"
           style="fill:#0060a8"
           id="path10-9" />
        <path
           d="m 101.158,78.049999 c -4.954,0 -8.975,-3.998 -8.975,-8.945 v -17.267 h 40.466 v 11.745 h -28.753 c 0.038,2.761 2.799,2.775 2.799,2.775 h 34.298 l -0.008,11.676 -39.827,0.016"
           style="fill:#0060a8"
           id="path12-3" />
        <path
           d="m 169.194,80.871999 c -6.479,0 -11.774,-5.28 -11.774,-11.768 v -37.31 c 0,-6.494 5.257,-11.729 11.743,-11.729 h 38.745 V 8.3149988 h -38.835 c -13.012,0 -23.557,10.5070002 -23.557,23.4800002 v 37.31 c 0,12.974 10.636,23.496 23.647,23.496 l 38.745,0.016 v -55.291 h -33.297 v 11.721 h 21.53 v 31.825 h -26.947"
           style="fill:#0060a8"
           id="path14-3" />
        <path
           d="m 160.181,69.103999 c 0,4.971 4.021,9.014 8.982,9.014 h 24.201 v -26.295 H 174.64 v 11.76 h 6.949 l 0.022,2.761 h -6.918 c -1.51,0 -2.746,-1.251 -2.746,-2.761 l -0.062,-26.265 c 0,0 -0.008,-2.731 2.777,-2.799 h 33.259 l -0.015,-11.714 -38.745,0.008 c -4.961,0 -8.982,4.021 -8.982,8.982 v 37.309"
           style="fill:#0060a8"
           id="path16-1" />
        <path
           d="m 244.315,22.637999 c 0.522,-1.494 1.941,-2.571 3.618,-2.571 1.678,0 3.111,1.077 3.619,2.571 l 18.808,55.563 h -27.54 l 0.03,-13.071 h 9.203 l -4.143,-12.313 -13.496,39.79 h -13.883 l 23.784,-69.969"
           style="fill:#0060a8"
           id="path18-1" />
        <path
           d="m 274.152,80.871999 h -31.286 v 11.735 h 47.612 l -24.762,-73.262 c -2.17,-7.146 -9.323,-12.4030002 -17.791,-12.4030002 -8.481,0 -15.612,5.2340002 -17.798,12.3740002 l -24.989,73.292 h 12.465 l 24.262,-71.244 c 0.985,-2.359 3.308,-4.021 6.039,-4.021 2.716,0 5.052,1.662 6.046,4.006 l 20.202,59.523"
           style="fill:#0060a8"
           id="path20-6" />
      </g>
      <g
         aria-label="CLASSICS"
         id="g1000"
         style="font-size:25.4px;line-height:1.25;font-family:'Patrick Hand SC';-inkscape-font-specification:'Patrick Hand SC, Normal';stroke-width:0.264583"
         transform="matrix(0.08727395,0,0,0.08727395,-1.4761396,-5.9994357)">
        <path
           d="m 30.901226,138.04781 v -2.1084 h -2.108398 v -14.8208 h 2.108398 v -2.1208 h 8.470801 v 2.1208 h 2.1208 v 4.2292 h -4.241601 v -4.2292 h -4.229199 v 14.8208 h 4.229199 v -4.2416 h 4.241601 v 4.2416 h -2.1208 v 2.1084 z"
           style="font-family:'BIG SHOT';-inkscape-font-specification:'BIG SHOT, Normal'"
           id="path984" />
        <path
           d="m 45.722027,138.04781 v -19.05 h 4.229199 v 16.9416 h 8.470801 v 2.1084 z"
           style="font-family:'BIG SHOT';-inkscape-font-specification:'BIG SHOT, Normal'"
           id="path986" />
        <path
           d="m 71.109624,129.58941 v -8.4708 h -4.229199 v 8.4708 z m -8.458398,8.4584 v -16.9292 h 2.108398 v -2.1208 h 8.470801 v 2.1208 h 2.120801 v 16.9292 h -4.241602 v -6.35 h -4.229199 v 6.35 z"
           style="font-family:'BIG SHOT';-inkscape-font-specification:'BIG SHOT, Normal'"
           id="path988" />
        <path
           d="m 81.688824,138.04781 v -2.1084 h -2.108399 v -4.2416 h 4.229199 v 4.2416 h 4.2292 v -6.35 h -6.35 v -2.1208 h -2.108399 v -6.35 h 2.108399 v -2.1208 h 8.4708 v 2.1208 h 2.120801 v 4.2292 h -4.241601 v -4.2292 h -4.2292 v 6.35 h 6.35 v 2.1208 h 2.120801 v 6.35 h -2.120801 v 2.1084 z"
           style="font-family:'BIG SHOT';-inkscape-font-specification:'BIG SHOT, Normal'"
           id="path990" />
        <path
           d="m 98.618023,138.04781 v -2.1084 h -2.108399 v -4.2416 h 4.229196 v 4.2416 h 4.2292 v -6.35 h -6.349997 v -2.1208 h -2.108399 v -6.35 h 2.108399 v -2.1208 h 8.470797 v 2.1208 h 2.1208 v 4.2292 h -4.2416 v -4.2292 h -4.2292 v 6.35 h 6.35 v 2.1208 h 2.1208 v 6.35 h -2.1208 v 2.1084 z"
           style="font-family:'BIG SHOT';-inkscape-font-specification:'BIG SHOT, Normal'"
           id="path992" />
        <path
           d="m 113.43882,138.04781 v -2.1084 h 4.2292 v -14.8208 h -4.2292 v -2.1208 h 12.7 v 2.1208 h -4.2416 v 14.8208 h 4.2416 v 2.1084 z"
           style="font-family:'BIG SHOT';-inkscape-font-specification:'BIG SHOT, Normal'"
           id="path994" />
        <path
           d="m 132.47642,138.04781 v -2.1084 h -2.1084 v -14.8208 h 2.1084 v -2.1208 h 8.4708 v 2.1208 h 2.1208 v 4.2292 h -4.2416 v -4.2292 h -4.2292 v 14.8208 h 4.2292 v -4.2416 h 4.2416 v 4.2416 h -2.1208 v 2.1084 z"
           style="font-family:'BIG SHOT';-inkscape-font-specification:'BIG SHOT, Normal'"
           id="path996" />
        <path
           d="m 149.40562,138.04781 v -2.1084 h -2.1084 v -4.2416 h 4.2292 v 4.2416 h 4.2292 v -6.35 h -6.35 v -2.1208 h -2.1084 v -6.35 h 2.1084 v -2.1208 h 8.4708 v 2.1208 h 2.1208 v 4.2292 h -4.2416 v -4.2292 h -4.2292 v 6.35 h 6.35 v 2.1208 h 2.1208 v 6.35 h -2.1208 v 2.1084 z"
           style="font-family:'BIG SHOT';-inkscape-font-specification:'BIG SHOT, Normal'"
           id="path998" />
      </g>
    </g>
  </g>
</svg>
