<?xml version="1.0" encoding="UTF-8" standalone="no"?>
<svg
   version="1.0"
   width="510.9324pt"
   height="479.51941pt"
   viewBox="0 0 510.9324 479.51941"
   preserveAspectRatio="xMidYMid meet"
   id="svg12"
   sodipodi:docname="auto-educative.svg"
   inkscape:version="1.1 (c68e22c387, 2021-05-23)"
   xmlns:inkscape="http://www.inkscape.org/namespaces/inkscape"
   xmlns:sodipodi="http://sodipodi.sourceforge.net/DTD/sodipodi-0.dtd"
   xmlns="http://www.w3.org/2000/svg"
   xmlns:svg="http://www.w3.org/2000/svg">
  <defs
     id="defs16" />
  <sodipodi:namedview
     id="namedview14"
     pagecolor="#ffffff"
     bordercolor="#666666"
     borderopacity="1.0"
     inkscape:pageshadow="2"
     inkscape:pageopacity="0.0"
     inkscape:pagecheckerboard="0"
     inkscape:document-units="pt"
     showgrid="false"
     fit-margin-top="0"
     fit-margin-left="0"
     fit-margin-right="0"
     fit-margin-bottom="0"
     inkscape:zoom="1.1030273"
     inkscape:cx="341.33333"
     inkscape:cy="320.02833"
     inkscape:window-width="1920"
     inkscape:window-height="1138"
     inkscape:window-x="-8"
     inkscape:window-y="-8"
     inkscape:window-maximized="1"
     inkscape:current-layer="svg12" />
  <metadata
     id="metadata2">
Created by potrace 1.13, written by Peter Selinger 2001-2015
</metadata>
  <g
     transform="matrix(0.1,0,0,-0.1,-0.0252486,495.51942)"
     fill="#000000"
     stroke="none"
     id="g10"
     style="fill:#ffffff">
    <path
       d="m 3335,4950 c -613,-55 -1122,-336 -1310,-725 -99,-205 -110,-399 -33,-612 77,-215 314,-459 561,-579 31,-16 56,-33 53,-39 -2,-5 -65,-116 -139,-245 -113,-197 -132,-236 -116,-238 20,-4 389,60 659,114 264,52 594,130 790,186 744,210 1205,539 1295,922 21,88 19,237 -4,328 -112,437 -605,784 -1239,872 -140,20 -388,27 -517,16 z m 688,-762 c 79,-40 101,-142 52,-246 -24,-51 -110,-147 -190,-210 l -40,-31 118,-1 h 117 v -44 c 0,-74 -6,-76 -208,-76 -209,0 -222,4 -222,75 0,24 3,50 6,59 3,8 50,51 104,95 120,99 177,162 186,208 8,44 -16,73 -62,73 -40,0 -69,-33 -79,-90 -6,-36 -10,-40 -37,-40 -41,0 -63,14 -78,49 -24,60 13,141 82,177 71,37 181,38 251,2 z m -1205,-13 c 2,-22 -24,-85 -95,-230 -54,-110 -115,-238 -136,-284 l -37,-84 -52,5 c -65,7 -93,34 -77,76 6,14 57,115 115,222 57,108 104,199 104,203 0,4 -49,7 -110,7 h -110 v 40 c 0,27 7,47 20,60 19,19 31,20 198,18 l 177,-3 z m 442,-115 c 15,-15 20,-33 20,-75 v -54 l 63,-3 62,-3 -3,-35 c -5,-50 -17,-59 -80,-62 l -57,-3 -5,-72 c -3,-39 -8,-75 -12,-79 -14,-13 -73,11 -86,36 -8,16 -11,42 -7,73 l 6,47 h -66 -65 v 30 c 0,46 31,70 90,70 h 50 v 44 c 0,24 3,58 6,75 6,26 11,31 35,31 16,0 38,-9 49,-20 z m 1500,-86 c 0,-74 -1,-74 -185,-74 h -165 v 37 c 0,68 12,73 192,73 h 158 z m -30,-232 c 0,-74 -7,-77 -192,-77 h -163 l 3,40 c 5,69 20,75 198,75 h 154 z"
       id="path4"
       style="fill:#ffffff" />
    <path
       d="M 1020,3584 C 938,3569 846,3543 786,3518 552,3422 366,3228 279,2989 95,2484 369,1941 885,1784 c 80,-24 106,-27 245,-28 169,-1 228,10 363,65 150,62 317,201 410,342 160,242 193,569 86,848 -58,150 -196,324 -333,418 -71,49 -203,109 -291,132 -78,20 -286,34 -345,23 z"
       id="path6"
       style="fill:#ffffff" />
    <path
       d="M 625,1599 C 554,1589 397,1568 277,1552 158,1536 56,1519 51,1514 47,1509 37,1294 31,1035 24,776 15,516 9,455 -1,329 -3,199 6,176 12,162 121,160 1143,160 h 1130 l -6,198 c -4,108 -12,411 -18,672 -6,261 -15,479 -19,483 -6,7 -109,23 -575,87 -77,11 -147,19 -156,20 -8,0 -89,-88 -178,-196 -90,-107 -166,-194 -170,-192 -9,3 -204,227 -283,323 -61,75 -46,72 -243,44 z"
       id="path8"
       style="fill:#ffffff" />
  </g>
</svg>
