<?xml version="1.0" encoding="UTF-8" standalone="no"?>
<svg
   viewBox="0 0 474.711 461.66434"
   version="1.1"
   id="svg4"
   sodipodi:docname="auto-rpgmmo.svg"
   width="474.711"
   height="461.66434"
   inkscape:version="1.1 (c68e22c387, 2021-05-23)"
   xmlns:inkscape="http://www.inkscape.org/namespaces/inkscape"
   xmlns:sodipodi="http://sodipodi.sourceforge.net/DTD/sodipodi-0.dtd"
   xmlns="http://www.w3.org/2000/svg"
   xmlns:svg="http://www.w3.org/2000/svg">
  <defs
     id="defs8" />
  <sodipodi:namedview
     id="namedview6"
     pagecolor="#ffffff"
     bordercolor="#666666"
     borderopacity="1.0"
     inkscape:pageshadow="2"
     inkscape:pageopacity="0.0"
     inkscape:pagecheckerboard="0"
     showgrid="false"
     fit-margin-top="0"
     fit-margin-left="0"
     fit-margin-right="0"
     fit-margin-bottom="0"
     inkscape:zoom="0.73535156"
     inkscape:cx="238.66135"
     inkscape:cy="344.05312"
     inkscape:window-width="1920"
     inkscape:window-height="1138"
     inkscape:window-x="-8"
     inkscape:window-y="-8"
     inkscape:window-maximized="1"
     inkscape:current-layer="svg4" />
  <path
     d="M 128.992,3.3134423e-4 C 116.457,-0.03566866 104.724,2.8603313 91.707,9.4243313 h 0.004 C 43.491,33.758331 2.101,99.892331 0.117,155.06833 l 41.848,14.236 c 4.33,-61.89 47.057,-128.369999 101.527,-155.859999 h 0.002 c 4.423,-2.23 8.822,-4.1619997 13.185,-5.7999997 l -22.26,-7.44999996 c -1.83,-0.123 -3.637,-0.19 -5.428,-0.19399999577 z M 188.332,20.190331 c -10.478,-0.09 -22.832,3.093 -36.424,9.943 l 0.004,-0.004 c -48.23,24.34 -89.625,90.512999 -91.548,145.435999 l 156.485,53.24 c 3.865,-62.22 46.797,-129.371999 101.613,-157.034999 h 0.002 l 0.002,-0.003 c 4.303,-2.168 8.584,-4.056 12.832,-5.666 l -134.54,-45.036 c -2.652,-0.542 -5.458,-0.847 -8.427,-0.873 z m 174.97,58.323 c -10.476,-0.09 -22.83,3.092 -36.42,9.94 l -0.005,0.002 C 278.3,112.97333 236.652,179.92833 235.291,235.07833 l 46.205,15.72 c 3.914,-62.188 46.825,-129.274 101.607,-156.919999 4.522,-2.283 9.04,-4.258 13.53,-5.91 l -26.544,-8.884 c -2.164,-0.35 -4.423,-0.55 -6.785,-0.57 z m 63.554,22.013999 c -10.267,0.093 -22.094,3.353 -35.333,10.034 -47.158,23.8 -87.777,87.587 -91.362,141.75 l 174.55,-73.726 c -0.404,-39.01 -10.754,-61.304 -24.415,-71.082 -2.347,-1.68 -4.867,-3.057 -7.55,-4.137 l -0.01,0.034 -4.735,-1.584 c -3.48,-0.887 -7.195,-1.327 -11.144,-1.29 z M 0.035,174.78033 0,362.26433 l 41.595,14.474 v -187.816 l -41.56,-14.14 z m 60.25,20.498 v 187.962 l 156.282,54.37 v -189.164 l -29.053,-9.886 v 119.43 L 86.46,323.90833 v -119.725 z m 414.22,3.683 -173.937,73.467 v 189.236 l 173.935,-73.504 v -189.2 z m -369.354,11.582 v 99.947 l 63.675,21.477 v -99.763 l -63.674,-21.662 z m 31.306,28.797 c 9.705,0 17.573,7.867 17.573,17.572 0,6.34 -3.37,11.88 -8.407,14.97 v 28.53 h -18.69 v -28.746 c -4.838,-3.13 -8.048,-8.562 -8.048,-14.754 0,-9.705 7.867,-17.572 17.572,-17.572 z m 98.797,15.464 v 189.307 l 46.626,16.22 v -189.663 l -46.627,-15.864 z"
     fill="#000000"
     id="path2"
     style="fill:#ffffff" />
</svg>
