<?xml version="1.0" encoding="UTF-8" standalone="no"?>
<svg
   viewBox="0 0 218.52 317.48"
   version="1.1"
   id="svg610"
   sodipodi:docname="auto-arcade-capcom.svg"
   inkscape:version="1.1 (c68e22c387, 2021-05-23)"
   xmlns:inkscape="http://www.inkscape.org/namespaces/inkscape"
   xmlns:sodipodi="http://sodipodi.sourceforge.net/DTD/sodipodi-0.dtd"
   xmlns="http://www.w3.org/2000/svg"
   xmlns:svg="http://www.w3.org/2000/svg">
  <defs
     id="defs614">
    <linearGradient
       id="a"
       gradientTransform="rotate(90,602.18396,390.31957)"
       gradientUnits="userSpaceOnUse"
       x1="312.93539"
       x2="291.9762"
       y1="1095.2787"
       y2="1074.3195">
      <stop
         offset="0"
         stop-color="#a4a5a9"
         id="stop2" />
      <stop
         offset="1"
         stop-color="#e6e6e7"
         id="stop4" />
    </linearGradient>
    <linearGradient
       id="b"
       gradientTransform="rotate(90,602.18396,390.31957)"
       gradientUnits="userSpaceOnUse"
       x1="292.05191"
       x2="312.9278"
       y1="1095.271"
       y2="1074.3951">
      <stop
         offset="0"
         stop-color="#211c1d"
         stop-opacity="0"
         id="stop7" />
      <stop
         offset=".0448"
         stop-color="#211c1d"
         stop-opacity=".0896"
         id="stop9" />
      <stop
         offset=".5"
         stop-color="#211c1d"
         id="stop11" />
      <stop
         offset=".9552"
         stop-color="#211c1d"
         stop-opacity=".0896"
         id="stop13" />
      <stop
         offset="1"
         stop-color="#211c1d"
         stop-opacity="0"
         id="stop15" />
    </linearGradient>
    <linearGradient
       id="c"
       gradientTransform="rotate(-90,-717.02648,-3093.8286)"
       gradientUnits="userSpaceOnUse"
       x1="-3911.9182"
       x2="-3891.0425"
       y1="-2458.6936"
       y2="-2479.5693">
      <stop
         offset="0"
         stop-color="#fff"
         stop-opacity="0"
         id="stop18" />
      <stop
         offset=".5"
         stop-color="#fff"
         id="stop20" />
      <stop
         offset="1"
         stop-color="#fff"
         stop-opacity="0"
         id="stop22" />
    </linearGradient>
  </defs>
  <sodipodi:namedview
     id="namedview612"
     pagecolor="#ffffff"
     bordercolor="#666666"
     borderopacity="1.0"
     inkscape:pageshadow="2"
     inkscape:pageopacity="0.0"
     inkscape:pagecheckerboard="true"
     showgrid="false"
     inkscape:zoom="2.3718028"
     inkscape:cx="83.269992"
     inkscape:cy="170.75619"
     inkscape:window-width="1920"
     inkscape:window-height="1138"
     inkscape:window-x="-8"
     inkscape:window-y="-8"
     inkscape:window-maximized="1"
     inkscape:current-layer="svg610"
     inkscape:snap-global="false" />
  <path
     d="m 5.09,20.831 h 208.34 v 218.63 H 5.09 Z"
     fill="#1229b8"
     id="path2"
     style="fill:#edd22e;stroke-width:1.24817;fill-opacity:1" />
  <path
     d="m5.09 264.961h208.246v48.75h-208.246z"
     fill="#bcc9a7"
     stroke="#000"
     id="path6"
     style="fill:#edd22e;fill-opacity:1" />
  <path
     d="m14.463 313.711h12.805v3.769h-12.805zm176.605 0h12.805v3.769h-12.805z"
     fill="#1a1818"
     id="path8"
     style="fill:#000000" />
  <path
     d="m5.09 258.461h208.246v6.5h-208.246z"
     fill="#18111c"
     id="path10"
     style="fill:#000000" />
  <path
     d="m5.09 239.461h208.246v19h-208.246z"
     fill="#acb5a2"
     stroke="#000"
     stroke-miterlimit="10"
     id="path12"
     style="fill:#2768ca;fill-opacity:1" />
  <path
     d="m213.43 0h5.09v317.48h-5.09z"
     fill="#18111c"
     id="path16"
     style="fill:#000000" />
  <path
     d="m111.178 305.003h-3.231c-1.408 0-2.553-1.374-2.553-3.063v-3.063h8.337v3.063c0 1.689-1.145 3.063-2.553 3.063z"
     fill="#1a1818"
     id="path20" />
  <path
     d="m5.137 0h208.246v26.188h-208.246z"
     fill="#18111c"
     id="path78"
     style="fill:#000000" />
  <path
     d="m0 0h5.09v317.48h-5.09z"
     fill="#18111c"
     id="path480"
     style="fill:#000000" />
  <path
     d="m141.372 282.946h-4.867a1.321 1.321 0 0 1 -1.317-1.317v-3.033c0-.724.593-1.317 1.317-1.317h4.867c.724 0 1.317.593 1.317 1.317v3.033c0 .724-.593 1.317-1.317 1.317z"
     fill="#5e5353"
     id="path540" />
  <path
     d="m136.595 278.883h4.688v1.229h-4.688z"
     fill="#1a1818"
     id="path542" />
  <path
     d="m 70.415,267.836 h 77.596 v 43 H 70.415 Z"
     fill="#1a1818"
     id="path18" />
  <path
     d="m 91.199,281.522 h -6.785 a 1.235,1.235 0 0 1 -1.231,-1.231 v -3.205 c 0,-0.677 0.554,-1.231 1.231,-1.231 h 6.785 c 0.677,0 1.231,0.554 1.231,1.231 v 3.205 c 0,0.677 -0.554,1.231 -1.231,1.231 z"
     fill="#5b2a2a"
     id="path530" />
  <path
     d="m 84.729,276.835 h 1.313 v 3.937 h -1.313 z"
     fill="#471313"
     id="path536" />
  <path
     d="m 100.483,281.522 h -4.867 a 1.321,1.321 0 0 1 -1.317,-1.317 v -3.033 c 0,-0.724 0.593,-1.317 1.317,-1.317 h 4.867 c 0.724,0 1.317,0.593 1.317,1.317 v 3.033 c 0,0.724 -0.593,1.317 -1.317,1.317 z"
     fill="#5e5353"
     id="path532" />
  <path
     d="m 95.705,277.46 h 4.688 v 1.229 h -4.688 z"
     fill="#1a1818"
     id="path534" />
  <path
     d="m 94.064,287.147 h 26.414 v 6.25 H 94.064 Z"
     fill="#595757"
     id="path538" />
  <path
     d="m 130.199,281.637 h -6.785 a 1.235,1.235 0 0 1 -1.231,-1.231 v -3.205 c 0,-0.677 0.554,-1.231 1.231,-1.231 h 6.785 c 0.677,0 1.231,0.554 1.231,1.231 v 3.205 c 0,0.677 -0.554,1.231 -1.231,1.231 z"
     fill="#5b2a2a"
     id="path544" />
  <path
     d="m 123.729,276.949 h 1.313 v 3.938 h -1.313 z"
     fill="#471313"
     id="path546" />
  <path
     d="m 126.195,303.309 h 2.378 a 2.57,2.57 0 0 0 2.563,-2.563 v -2.563 h -7.503 v 2.563 a 2.57,2.57 0 0 0 2.562,2.563 z"
     fill="#353434"
     id="path550" />
  <path
     d="m 114.253,281.637 h 4.867 c 0.724,0 1.317,-0.593 1.317,-1.317 v -3.033 c 0,-0.724 -0.593,-1.317 -1.317,-1.317 h -4.867 c -0.724,0 -1.317,0.593 -1.317,1.317 v 3.033 c 0,0.724 0.593,1.317 1.317,1.317 z"
     fill="#5e5353"
     id="path552" />
  <path
     d="m 119.03,278.803 h -4.688 v -1.229 h 4.688 z"
     fill="#1a1818"
     id="path554" />
  <ellipse
     cx="133.68201"
     cy="286.92902"
     fill="#c6c6c6"
     rx="2.546"
     ry="2.4070001"
     id="ellipse556" />
  <path
     d="m 133.197,285.21 h 0.938 v 3.594 h -0.938 z"
     fill="#353535"
     id="path558" />
  <path
     d="M 88.541,303.194 H 86.163 A 2.57,2.57 0 0 1 83.6,300.632 v -2.563 h 7.503 v 2.563 a 2.57,2.57 0 0 1 -2.562,2.562 z"
     fill="#353434"
     id="path22" />
  <g
     id="g16735"
     transform="matrix(0.74486512,0,0,0.74486512,10.278808,-61.522184)">
    <path
       d="m 40.815121,417.6366 c 0,2.679 -4.776,4.85 -10.667,4.85 -5.891,0 -10.667,-2.172 -10.667,-4.85"
       fill="#848383"
       id="path37" />
    <path
       d="m 30.149121,422.9876 c -6.262,0 -11.167,-2.351 -11.167,-5.351 h 1 c 0,2.358 4.656,4.351 10.167,4.351 5.511,0 10.166,-1.992 10.166,-4.351 h 1 c 0,3.001 -4.904,5.351 -11.166,5.351 z"
       id="path39" />
    <ellipse
       cx="30.148113"
       cy="417.6366"
       fill="#666565"
       rx="10.667"
       ry="3.017"
       id="ellipse41" />
    <path
       d="m 30.149121,421.1536 c -5.549,0 -11.167,-1.208 -11.167,-3.517 0,-2.31 5.618,-3.518 11.167,-3.518 5.549,0 11.166,1.208 11.166,3.518 0,2.309 -5.617,3.517 -11.166,3.517 z m 0,-6.034 c -6.206,0 -10.167,1.491 -10.167,2.518 0,1.027 3.961,2.517 10.167,2.517 6.206,0 10.166,-1.49 10.166,-2.517 0,-1.027 -3.96,-2.518 -10.166,-2.518 z"
       id="path43" />
    <path
       d="m 196.36912,417.4456 v -4.085 c 0,0.721 -2.728,1.306 -6.094,1.306 -3.366,0 -6.094,-0.585 -6.094,-1.306 v 4.085 -0.078 c 1.558,0.367 3.71,0.594 6.087,0.594 2.385,0 4.543,-0.228 6.102,-0.597"
       fill="#ae0009"
       id="path45" />
    <path
       d="m 190.26712,418.4616 c -2.338,0 -4.54,-0.216 -6.201,-0.607 l 0.096,-0.409 h -0.481 v -4.085 h 1 c 0.193,0.212 2.12,0.807 5.595,0.807 3.474,0 5.4,-0.595 5.616,-0.897 l 0.978,0.091 v 4.085 h -0.48 l 0.096,0.405 c -1.666,0.393 -3.874,0.61 -6.219,0.61 z m -5.587,-1.495 c 1.539,0.32 3.503,0.495 5.587,0.495 2.091,0 4.061,-0.176 5.602,-0.498 v -2.54 c -1.638,0.696 -4.789,0.743 -5.594,0.743 -0.805,0 -3.957,-0.047 -5.595,-0.743 z"
       fill="#020202"
       id="path47" />
    <path
       d="m 184.16512,417.3676 v -2.568 c -1.537,0.329 -2.487,0.782 -2.487,1.282 0,0.502 0.956,0.957 2.502,1.286"
       fill="#ae0009"
       id="path49" />
    <path
       d="m 184.07612,417.8566 c -1.977,-0.421 -2.897,-0.985 -2.897,-1.775 0,-0.787 0.916,-1.35 2.883,-1.771 l 0.604,-0.129 v 3.187 h -0.485 z m -0.411,-2.424 c -1.093,0.292 -1.448,0.58 -1.492,0.679 0.043,0.048 0.399,0.328 1.492,0.619 z"
       fill="#020202"
       id="path51" />
    <path
       d="m 196.37012,417.3636 v -2.564 c 1.546,0.329 2.501,0.782 2.501,1.282 0,0.501 -0.956,0.954 -2.501,1.282 z"
       fill="#ae0009"
       id="path53" />
    <path
       d="m 195.87012,417.9806 v -3.799 l 0.604,0.128 c 1.976,0.421 2.896,0.983 2.896,1.771 0,0.789 -0.921,1.352 -2.897,1.771 z m 1,-2.549 v 1.3 c 1.103,-0.293 1.462,-0.582 1.506,-0.681 -0.044,-0.046 -0.405,-0.327 -1.506,-0.619 z"
       fill="#020202"
       id="path55" />
    <ellipse
       cx="190.27512"
       cy="413.31061"
       fill="#ae0009"
       rx="6.0939999"
       ry="1.306"
       id="ellipse57" />
    <path
       d="m 190.27512,415.1166 c -1.102,0 -6.595,-0.087 -6.595,-1.807 0,-1.719 5.493,-1.806 6.595,-1.806 1.102,0 6.594,0.087 6.594,1.806 0,1.72 -5.493,1.807 -6.594,1.807 z m -5.513,-1.807 c 0.483,0.317 2.361,0.807 5.513,0.807 3.152,0 5.028,-0.489 5.512,-0.807 -0.483,-0.316 -2.361,-0.806 -5.512,-0.806 -3.151,0 -5.029,0.49 -5.513,0.806 z"
       fill="#020202"
       id="path59" />
    <path
       d="m 196.36912,422.5696 v -4.085 c 0,0.721 -2.728,1.306 -6.094,1.306 -3.366,0 -6.094,-0.585 -6.094,-1.306 v 4.085 -0.078 c 1.558,0.367 3.71,0.594 6.087,0.594 2.385,0 4.543,-0.228 6.102,-0.597"
       fill="#ae0009"
       id="path61" />
    <path
       d="m 190.26712,423.5856 c -2.338,0 -4.54,-0.216 -6.2,-0.607 l 0.096,-0.408 h -0.481 v -4.085 h 1 c 0.193,0.212 2.12,0.806 5.594,0.806 3.474,0 5.4,-0.594 5.616,-0.897 l 0.978,0.092 v 4.085 h -0.48 l 0.094,0.402 c -1.664,0.395 -3.872,0.612 -6.217,0.612 z m -5.586,-1.495 c 1.538,0.32 3.502,0.495 5.586,0.495 2.091,0 4.061,-0.176 5.602,-0.498 v -2.54 c -1.638,0.696 -4.789,0.743 -5.594,0.743 -0.805,0 -3.956,-0.047 -5.594,-0.743 z"
       fill="#020202"
       id="path63" />
    <path
       d="m 184.16512,422.4916 v -2.568 c -1.537,0.329 -2.487,0.782 -2.487,1.282 0,0.502 0.956,0.957 2.502,1.286"
       fill="#ae0009"
       id="path65" />
    <path
       d="m 184.07712,422.9806 c -1.978,-0.421 -2.898,-0.984 -2.898,-1.774 0,-0.788 0.916,-1.352 2.883,-1.771 l 0.604,-0.129 v 3.186 h -0.484 z m -0.412,-2.424 c -1.093,0.292 -1.449,0.58 -1.492,0.679 0.044,0.048 0.4,0.329 1.492,0.619 z"
       fill="#020202"
       id="path67" />
    <path
       d="m 196.37012,422.4886 v -2.564 c 1.546,0.329 2.501,0.782 2.501,1.282 0,0.5 -0.956,0.953 -2.501,1.282 z"
       fill="#ae0009"
       id="path69" />
    <path
       d="m 195.87012,423.1046 v -3.798 l 0.604,0.128 c 1.977,0.42 2.897,0.982 2.897,1.771 0,0.789 -0.921,1.352 -2.897,1.771 z m 1,-2.548 v 1.3 c 1.103,-0.293 1.462,-0.582 1.506,-0.681 -0.044,-0.047 -0.405,-0.328 -1.506,-0.619 z"
       fill="#020202"
       id="path71" />
    <ellipse
       cx="190.27512"
       cy="418.4346"
       fill="#ae0009"
       rx="6.0939999"
       ry="1.306"
       id="ellipse73" />
    <path
       d="m 190.27512,420.2406 c -1.102,0 -6.594,-0.087 -6.594,-1.806 0,-1.72 5.492,-1.807 6.594,-1.807 1.102,0 6.594,0.087 6.594,1.807 0,1.719 -5.493,1.806 -6.594,1.806 z m -5.512,-1.806 c 0.483,0.316 2.361,0.806 5.512,0.806 3.151,0 5.028,-0.489 5.512,-0.806 -0.483,-0.317 -2.36,-0.807 -5.512,-0.807 -3.152,0 -5.029,0.49 -5.512,0.807 z"
       fill="#020202"
       id="path75" />
    <path
       d="m 59.234121,417.5096 v -4.085 c 0,0.721 -2.728,1.306 -6.094,1.306 -3.366,0 -6.094,-0.585 -6.094,-1.306 v 4.085 -0.078 c 1.558,0.367 3.71,0.594 6.087,0.594 2.385,0 4.543,-0.228 6.102,-0.597"
       fill="#ae0009"
       id="path77" />
    <path
       d="m 53.132121,418.5256 c -2.334,0 -4.536,-0.216 -6.201,-0.607 l 0.096,-0.409 h -0.481 v -4.085 h 1 c 0.193,0.212 2.12,0.806 5.594,0.806 3.475,0 5.401,-0.594 5.617,-0.896 l 0.978,0.091 v 4.085 h -0.48 l 0.096,0.405 c -1.666,0.393 -3.874,0.61 -6.219,0.61 z m -5.587,-1.495 c 1.541,0.32 3.506,0.495 5.587,0.495 2.091,0 4.061,-0.176 5.602,-0.498 v -2.541 c -1.638,0.696 -4.79,0.743 -5.595,0.743 -0.805,0 -3.956,-0.047 -5.594,-0.743 z"
       fill="#020202"
       id="path79" />
    <path
       d="m 47.030121,417.4316 v -2.568 c -1.537,0.329 -2.487,0.782 -2.487,1.282 0,0.502 0.956,0.957 2.502,1.286"
       fill="#ae0009"
       id="path81" />
    <path
       d="m 46.941121,417.9216 c -1.949,-0.415 -2.897,-0.996 -2.897,-1.775 0,-0.787 0.916,-1.351 2.882,-1.771 l 0.604,-0.129 v 3.187 h -0.484 z m -0.411,-2.424 c -1.092,0.292 -1.447,0.58 -1.491,0.679 0.044,0.048 0.399,0.328 1.491,0.619 z"
       fill="#020202"
       id="path83" />
    <path
       d="m 59.235121,417.4286 v -2.564 c 1.546,0.329 2.501,0.782 2.501,1.282 0,0.5 -0.956,0.953 -2.501,1.282 z"
       fill="#ae0009"
       id="path85" />
    <path
       d="m 58.735121,418.0466 v -3.8 l 0.604,0.128 c 1.976,0.421 2.896,0.983 2.896,1.771 0,0.787 -0.921,1.351 -2.896,1.771 z m 1,-2.55 v 1.299 c 1.102,-0.293 1.462,-0.581 1.506,-0.681 -0.044,-0.046 -0.405,-0.327 -1.506,-0.618 z"
       fill="#020202"
       id="path87" />
    <ellipse
       cx="53.140118"
       cy="413.3746"
       fill="#ae0009"
       rx="6.0939999"
       ry="1.306"
       id="ellipse89" />
    <path
       d="m 53.139121,415.1806 c -1.102,0 -6.594,-0.087 -6.594,-1.806 0,-1.719 5.492,-1.806 6.594,-1.806 1.102,0 6.595,0.087 6.595,1.806 0,1.719 -5.493,1.806 -6.595,1.806 z m -5.512,-1.806 c 0.483,0.317 2.361,0.806 5.512,0.806 3.151,0 5.029,-0.488 5.513,-0.806 -0.483,-0.317 -2.362,-0.806 -5.513,-0.806 -3.151,0 -5.028,0.488 -5.512,0.806 z"
       fill="#020202"
       id="path91" />
    <path
       d="m 59.234121,422.6336 v -4.085 c 0,0.721 -2.728,1.306 -6.094,1.306 -3.366,0 -6.094,-0.585 -6.094,-1.306 v 4.085 -0.078 c 1.558,0.367 3.71,0.594 6.087,0.594 2.385,0 4.543,-0.228 6.102,-0.597"
       fill="#ae0009"
       id="path93" />
    <path
       d="m 53.132121,423.6496 c -2.334,0 -4.536,-0.216 -6.201,-0.607 l 0.096,-0.409 h -0.481 v -4.085 h 1 c 0.193,0.212 2.12,0.807 5.595,0.807 3.474,0 5.4,-0.595 5.616,-0.897 l 0.978,0.091 v 4.085 h -0.48 l 0.096,0.405 c -1.666,0.393 -3.874,0.61 -6.219,0.61 z m -5.587,-1.495 c 1.541,0.32 3.506,0.495 5.587,0.495 2.091,0 4.061,-0.176 5.602,-0.498 v -2.54 c -1.638,0.696 -4.789,0.743 -5.594,0.743 -0.805,0 -3.957,-0.047 -5.595,-0.743 z"
       fill="#020202"
       id="path95" />
    <path
       d="m 47.030121,422.5556 v -2.568 c -1.537,0.329 -2.487,0.782 -2.487,1.282 0,0.502 0.956,0.957 2.502,1.286"
       fill="#ae0009"
       id="path97" />
    <path
       d="m 46.941121,423.0456 c -1.949,-0.415 -2.897,-0.996 -2.897,-1.775 0,-0.787 0.916,-1.35 2.882,-1.771 l 0.604,-0.129 v 3.187 h -0.484 z m -0.411,-2.424 c -1.092,0.292 -1.447,0.58 -1.491,0.679 0.044,0.048 0.399,0.328 1.491,0.619 z"
       fill="#020202"
       id="path99" />
    <path
       d="m 59.235121,422.5526 v -2.564 c 1.546,0.329 2.501,0.782 2.501,1.282 0,0.5 -0.956,0.953 -2.501,1.282 z"
       fill="#ae0009"
       id="path101" />
    <path
       d="m 58.735121,423.1696 v -3.799 l 0.604,0.128 c 1.976,0.421 2.896,0.983 2.896,1.771 0,0.778 -0.947,1.357 -2.897,1.771 z m 1,-2.549 v 1.3 c 1.102,-0.293 1.462,-0.582 1.506,-0.682 -0.044,-0.046 -0.405,-0.327 -1.506,-0.618 z"
       fill="#020202"
       id="path103" />
    <ellipse
       cx="53.140118"
       cy="418.4986"
       fill="#ae0009"
       rx="6.0939999"
       ry="1.306"
       id="ellipse105" />
    <path
       d="m 53.140121,420.3046 c -1.102,0 -6.595,-0.087 -6.595,-1.806 0,-1.719 5.493,-1.806 6.595,-1.806 1.102,0 6.594,0.087 6.594,1.806 0,1.719 -5.492,1.806 -6.594,1.806 z m -5.513,-1.806 c 0.483,0.317 2.361,0.806 5.513,0.806 3.15,0 5.028,-0.488 5.512,-0.806 -0.483,-0.317 -2.361,-0.806 -5.512,-0.806 -3.151,0 -5.029,0.489 -5.513,0.806 z"
       fill="#020202"
       id="path107" />
    <path
       d="m 82.730121,417.9256 v -4.085 c 0,0.721 -2.728,1.306 -6.094,1.306 -3.366,0 -6.094,-0.585 -6.094,-1.306 v 4.085 -0.078 c 1.558,0.367 3.71,0.594 6.087,0.594 2.385,0 4.543,-0.228 6.102,-0.597"
       fill="#ffffff"
       id="path109" />
    <path
       d="m 76.628121,418.9416 c -2.339,0 -4.541,-0.216 -6.201,-0.607 l 0.096,-0.409 h -0.481 v -4.084 h 1 c 0.193,0.212 2.12,0.806 5.594,0.806 3.474,0 5.401,-0.594 5.617,-0.897 l 0.978,0.092 v 4.084 h -0.48 l 0.096,0.405 c -1.667,0.393 -3.875,0.61 -6.219,0.61 z m -5.587,-1.495 c 1.538,0.32 3.502,0.495 5.587,0.495 2.091,0 4.06,-0.176 5.602,-0.499 v -2.539 c -1.638,0.696 -4.79,0.743 -5.595,0.743 -0.805,0 -3.956,-0.047 -5.594,-0.743 z"
       fill="#020202"
       id="path111" />
    <path
       d="m 70.526121,417.8476 v -2.568 c -1.537,0.329 -2.487,0.782 -2.487,1.282 0,0.502 0.956,0.957 2.502,1.286"
       fill="#ffffff"
       id="path113" />
    <path
       d="m 70.437121,418.3376 c -1.977,-0.421 -2.897,-0.985 -2.897,-1.775 0,-0.787 0.916,-1.351 2.882,-1.771 l 0.604,-0.129 v 3.187 h -0.484 z m -0.411,-2.424 c -1.092,0.292 -1.447,0.58 -1.491,0.679 0.043,0.048 0.399,0.328 1.491,0.619 z"
       fill="#020202"
       id="path115" />
    <path
       d="m 82.731121,417.8446 v -2.564 c 1.546,0.329 2.501,0.782 2.501,1.282 0,0.5 -0.956,0.953 -2.501,1.282 z"
       fill="#ffffff"
       id="path117" />
    <path
       d="m 82.231121,418.4616 v -3.799 l 0.604,0.128 c 1.976,0.421 2.896,0.983 2.896,1.771 0,0.789 -0.921,1.352 -2.897,1.771 z m 1,-2.549 v 1.3 c 1.103,-0.293 1.462,-0.582 1.506,-0.681 -0.044,-0.047 -0.405,-0.328 -1.506,-0.619 z"
       fill="#020202"
       id="path119" />
    <ellipse
       cx="76.636116"
       cy="413.79059"
       fill="#ffffff"
       rx="6.0939999"
       ry="1.306"
       id="ellipse121" />
    <path
       d="m 76.635121,415.5976 c -1.102,0 -6.594,-0.087 -6.594,-1.807 0,-1.719 5.492,-1.806 6.594,-1.806 1.102,0 6.595,0.087 6.595,1.806 0,1.72 -5.493,1.807 -6.595,1.807 z m -5.512,-1.807 c 0.483,0.317 2.36,0.807 5.512,0.807 3.152,0 5.029,-0.489 5.513,-0.807 -0.483,-0.316 -2.362,-0.806 -5.513,-0.806 -3.151,0 -5.028,0.489 -5.512,0.806 z"
       fill="#020202"
       id="path123" />
    <path
       d="m 82.730121,423.0496 v -4.085 c 0,0.721 -2.728,1.306 -6.094,1.306 -3.366,0 -6.094,-0.585 -6.094,-1.306 v 4.085 -0.078 c 1.558,0.367 3.71,0.594 6.087,0.594 2.385,0 4.543,-0.228 6.102,-0.597"
       fill="#ffffff"
       id="path125" />
    <path
       d="m 76.628121,424.0656 c -2.339,0 -4.541,-0.216 -6.201,-0.607 l 0.096,-0.408 h -0.481 v -4.085 h 1 c 0.193,0.212 2.12,0.806 5.594,0.806 3.474,0 5.401,-0.594 5.617,-0.897 l 0.978,0.092 v 4.085 h -0.48 l 0.096,0.404 c -1.667,0.393 -3.875,0.61 -6.219,0.61 z m -5.587,-1.495 c 1.538,0.32 3.502,0.495 5.587,0.495 2.091,0 4.06,-0.176 5.602,-0.499 v -2.539 c -1.638,0.696 -4.79,0.743 -5.595,0.743 -0.805,0 -3.956,-0.047 -5.594,-0.743 z"
       fill="#020202"
       id="path127" />
    <path
       d="m 70.526121,422.9726 v -2.568 c -1.537,0.329 -2.487,0.782 -2.487,1.282 0,0.502 0.956,0.957 2.502,1.286"
       fill="#ffffff"
       id="path129" />
    <path
       d="m 70.437121,423.4616 c -1.977,-0.421 -2.897,-0.985 -2.897,-1.774 0,-0.789 0.916,-1.352 2.882,-1.771 l 0.604,-0.129 v 3.186 h -0.484 z m -0.411,-2.424 c -1.093,0.292 -1.448,0.58 -1.491,0.679 0.044,0.048 0.399,0.328 1.491,0.619 z"
       fill="#020202"
       id="path131" />
    <path
       d="m 82.731121,422.9686 v -2.564 c 1.546,0.329 2.501,0.782 2.501,1.282 0,0.5 -0.956,0.953 -2.501,1.282 z"
       fill="#ffffff"
       id="path133" />
    <path
       d="m 82.231121,423.5856 v -3.798 l 0.604,0.128 c 1.977,0.42 2.897,0.982 2.897,1.771 0,0.789 -0.921,1.352 -2.897,1.771 z m 1,-2.549 v 1.3 c 1.103,-0.293 1.462,-0.582 1.506,-0.681 -0.044,-0.047 -0.405,-0.328 -1.506,-0.619 z"
       fill="#020202"
       id="path135" />
    <ellipse
       cx="76.636116"
       cy="418.91458"
       fill="#ffffff"
       rx="6.0939999"
       ry="1.306"
       id="ellipse137" />
    <path
       d="m 76.635121,420.7216 c -1.102,0 -6.594,-0.087 -6.594,-1.806 0,-1.72 5.492,-1.807 6.594,-1.807 1.102,0 6.595,0.087 6.595,1.807 0,1.719 -5.493,1.806 -6.595,1.806 z m -5.512,-1.806 c 0.483,0.316 2.361,0.806 5.512,0.806 3.151,0 5.029,-0.489 5.513,-0.806 -0.483,-0.317 -2.361,-0.807 -5.513,-0.807 -3.152,0 -5.028,0.49 -5.512,0.807 z"
       fill="#020202"
       id="path139" />
    <path
       d="m 106.16212,417.9256 v -4.085 c 0,0.721 -2.728,1.306 -6.094,1.306 -3.365999,0 -6.093999,-0.585 -6.093999,-1.306 v 4.085 -0.078 c 1.558,0.367 3.71,0.594 6.086999,0.594 2.385,0 4.543,-0.228 6.102,-0.597"
       fill="#4b92e2"
       id="path141" />
    <path
       d="m 100.06112,418.9416 c -2.338999,0 -4.540999,-0.216 -6.200999,-0.607 l 0.096,-0.409 h -0.482 v -4.084 h 1 c 0.193,0.212 2.12,0.806 5.593999,0.806 3.474,0 5.4,-0.594 5.616,-0.897 l 0.978,0.092 v 4.084 h -0.479 l 0.096,0.405 c -1.666,0.393 -3.874,0.61 -6.218,0.61 z m -5.586999,-1.495 c 1.538,0.32 3.502,0.495 5.586999,0.495 2.09,0 4.059,-0.176 5.601,-0.498 v -2.54 c -1.638,0.696 -4.789,0.743 -5.594,0.743 -0.804999,0 -3.955999,-0.047 -5.593999,-0.743 z"
       fill="#020202"
       id="path143" />
    <path
       d="m 93.958121,417.8476 v -2.568 c -1.537,0.329 -2.487,0.782 -2.487,1.282 0,0.502 0.956,0.957 2.502,1.286"
       fill="#4b92e2"
       id="path145" />
    <path
       d="m 93.870121,418.3376 c -1.977,-0.421 -2.897,-0.985 -2.897,-1.775 0,-0.787 0.916,-1.351 2.882,-1.771 l 0.604,-0.129 v 3.187 h -0.485 z m -0.412,-2.424 c -1.092,0.292 -1.447,0.58 -1.491,0.679 0.043,0.048 0.399,0.328 1.491,0.619 z"
       fill="#020202"
       id="path147" />
    <path
       d="m 106.16312,417.8446 v -2.564 c 1.546,0.329 2.501,0.782 2.501,1.282 0,0.5 -0.955,0.953 -2.501,1.282 z"
       fill="#4b92e2"
       id="path149" />
    <path
       d="m 105.66412,418.4616 v -3.8 l 0.604,0.129 c 1.976,0.421 2.896,0.984 2.896,1.771 0,0.789 -0.921,1.352 -2.897,1.771 z m 1,-2.549 v 1.3 c 1.103,-0.293 1.462,-0.582 1.506,-0.681 -0.045,-0.046 -0.405,-0.328 -1.506,-0.619 z"
       fill="#020202"
       id="path151" />
    <ellipse
       cx="100.06812"
       cy="413.79059"
       fill="#4b92e2"
       rx="6.0939999"
       ry="1.306"
       id="ellipse153" />
    <path
       d="m 100.06812,415.5976 c -1.101999,0 -6.593999,-0.087 -6.593999,-1.807 0,-1.719 5.492,-1.806 6.593999,-1.806 1.102,0 6.594,0.087 6.594,1.806 0,1.72 -5.493,1.807 -6.594,1.807 z m -5.511999,-1.807 c 0.483,0.317 2.36,0.807 5.511999,0.807 3.152,0 5.029,-0.489 5.512,-0.807 -0.483,-0.316 -2.361,-0.806 -5.512,-0.806 -3.150999,0 -5.027999,0.489 -5.511999,0.806 z"
       fill="#020202"
       id="path155" />
    <path
       d="m 106.16212,423.0496 v -4.085 c 0,0.721 -2.728,1.306 -6.094,1.306 -3.365999,0 -6.093999,-0.585 -6.093999,-1.306 v 4.085 -0.078 c 1.558,0.367 3.71,0.594 6.086999,0.594 2.385,0 4.543,-0.228 6.102,-0.597"
       fill="#4b92e2"
       id="path157" />
    <path
       d="m 100.06112,424.0656 c -2.338999,0 -4.540999,-0.216 -6.200999,-0.607 l 0.096,-0.408 h -0.482 v -4.085 h 1 c 0.193,0.212 2.12,0.806 5.593999,0.806 3.474,0 5.401,-0.594 5.617,-0.897 l 0.978,0.092 v 4.085 h -0.48 l 0.096,0.404 c -1.666,0.393 -3.874,0.61 -6.218,0.61 z m -5.586999,-1.495 c 1.538,0.32 3.502,0.495 5.586999,0.495 2.091,0 4.06,-0.176 5.602,-0.499 v -2.539 c -1.638,0.696 -4.79,0.743 -5.595,0.743 -0.804999,0 -3.955999,-0.047 -5.593999,-0.743 z"
       fill="#020202"
       id="path159" />
    <path
       d="m 93.958121,422.9726 v -2.568 c -1.537,0.329 -2.487,0.782 -2.487,1.282 0,0.502 0.956,0.957 2.502,1.286"
       fill="#4b92e2"
       id="path161" />
    <path
       d="m 93.870121,423.4616 c -1.977,-0.421 -2.897,-0.985 -2.897,-1.774 0,-0.789 0.916,-1.352 2.882,-1.771 l 0.604,-0.129 v 3.186 h -0.485 z m -0.412,-2.424 c -1.093,0.292 -1.448,0.58 -1.491,0.679 0.044,0.048 0.399,0.328 1.491,0.619 z"
       fill="#020202"
       id="path163" />
    <path
       d="m 106.16312,422.9686 v -2.564 c 1.546,0.329 2.501,0.782 2.501,1.282 0,0.5 -0.955,0.953 -2.501,1.282 z"
       fill="#4b92e2"
       id="path165" />
    <path
       d="m 105.66412,423.5856 v -3.798 l 0.604,0.128 c 1.977,0.42 2.897,0.982 2.897,1.771 0,0.789 -0.921,1.352 -2.897,1.771 z m 1,-2.549 v 1.3 c 1.103,-0.293 1.462,-0.582 1.506,-0.681 -0.045,-0.047 -0.405,-0.328 -1.506,-0.619 z"
       fill="#020202"
       id="path167" />
    <ellipse
       cx="100.06812"
       cy="418.91458"
       fill="#4b92e2"
       rx="6.0939999"
       ry="1.306"
       id="ellipse169" />
    <path
       d="m 100.06812,420.7216 c -1.101999,0 -6.593999,-0.087 -6.593999,-1.806 0,-1.72 5.492,-1.807 6.593999,-1.807 1.102,0 6.595,0.087 6.595,1.807 0,1.719 -5.494,1.806 -6.595,1.806 z m -5.511999,-1.806 c 0.483,0.316 2.361,0.806 5.511999,0.806 3.151,0 5.029,-0.489 5.513,-0.806 -0.483,-0.317 -2.361,-0.807 -5.513,-0.807 -3.151999,0 -5.027999,0.49 -5.511999,0.807 z"
       fill="#020202"
       id="path171" />
    <path
       d="m 27.636121,400.0996 h 5.02 v 15.706 h -5.02 z"
       fill="#b2aaab"
       id="path173" />
    <path
       d="m 27.136121,399.7516 h 1 v 16.054 h -1 z"
       id="path175" />
    <path
       d="m 32.156121,399.7516 h 1 v 16.054 h -1 z"
       id="path177" />
    <path
       d="m 128.17812,413.4276 v -4.085 c 0,0.721 -2.728,1.306 -6.094,1.306 -3.366,0 -6.094,-0.585 -6.094,-1.306 v 4.085 -0.078 c 1.558,0.367 3.71,0.594 6.087,0.594 2.385,0 4.543,-0.228 6.102,-0.597"
       fill="#ffffff"
       id="path503" />
    <path
       d="m 122.07712,414.4436 c -2.339,0 -4.541,-0.216 -6.201,-0.607 l 0.096,-0.408 h -0.481 v -4.085 h 1 c 0.193,0.212 2.121,0.806 5.595,0.806 3.474,0 5.4,-0.594 5.616,-0.897 l 0.978,0.092 v 4.085 h -0.48 l 0.096,0.404 c -1.667,0.393 -3.875,0.61 -6.219,0.61 z m -5.587,-1.495 c 1.538,0.32 3.502,0.495 5.587,0.495 2.091,0 4.061,-0.176 5.602,-0.498 v -2.54 c -1.638,0.696 -4.789,0.743 -5.594,0.743 -0.805,0 -3.957,-0.047 -5.595,-0.743 z"
       fill="#020202"
       id="path505" />
    <path
       d="m 115.97412,413.3496 v -2.568 c -1.537,0.329 -2.487,0.782 -2.487,1.282 0,0.502 0.956,0.957 2.502,1.286"
       fill="#ffffff"
       id="path507" />
    <path
       d="m 115.88512,413.8396 c -1.977,-0.421 -2.897,-0.985 -2.897,-1.774 0,-0.788 0.916,-1.351 2.882,-1.772 l 0.604,-0.129 v 3.187 h -0.484 z m -0.411,-2.424 c -1.093,0.292 -1.448,0.58 -1.491,0.679 0.044,0.048 0.399,0.328 1.491,0.619 z"
       fill="#020202"
       id="path509" />
    <path
       d="m 128.17912,413.3466 v -2.564 c 1.546,0.329 2.501,0.782 2.501,1.282 0,0.5 -0.955,0.953 -2.501,1.282 z"
       fill="#ffffff"
       id="path511" />
    <path
       d="m 127.67912,413.9636 v -3.799 l 0.604,0.128 c 1.976,0.421 2.896,0.983 2.896,1.771 0,0.789 -0.921,1.352 -2.897,1.771 z m 1,-2.549 v 1.3 c 1.103,-0.293 1.462,-0.582 1.506,-0.681 -0.044,-0.047 -0.404,-0.328 -1.506,-0.619 z"
       fill="#020202"
       id="path513" />
    <ellipse
       cx="122.08411"
       cy="409.2926"
       fill="#ffffff"
       rx="6.0939999"
       ry="1.306"
       id="ellipse515" />
    <path
       d="m 122.08412,411.0986 c -1.102,0 -6.595,-0.087 -6.595,-1.807 0,-1.719 5.493,-1.806 6.595,-1.806 1.102,0 6.594,0.087 6.594,1.806 0,1.721 -5.492,1.807 -6.594,1.807 z m -5.512,-1.806 c 0.483,0.317 2.361,0.807 5.513,0.807 3.152,0 5.028,-0.489 5.512,-0.807 -0.483,-0.316 -2.361,-0.806 -5.512,-0.806 -3.151,0 -5.03,0.489 -5.513,0.806 z"
       fill="#020202"
       id="path517" />
    <path
       d="m 153.23512,413.4916 v -4.085 c 0,0.721 -2.728,1.306 -6.094,1.306 -3.366,0 -6.094,-0.585 -6.094,-1.306 v 4.085 -0.078 c 1.558,0.367 3.71,0.594 6.087,0.594 2.385,0 4.543,-0.228 6.102,-0.597"
       fill="#ffffff"
       id="path519" />
    <path
       d="m 147.13312,414.5086 c -2.333,0 -4.535,-0.216 -6.2,-0.607 l 0.096,-0.409 h -0.481 v -4.085 h 1 c 0.193,0.212 2.12,0.807 5.594,0.807 3.474,0 5.4,-0.595 5.616,-0.897 l 0.978,0.091 v 4.085 h -0.48 l 0.096,0.405 c -1.666,0.393 -3.874,0.61 -6.219,0.61 z m -5.586,-1.495 c 1.541,0.32 3.505,0.495 5.586,0.495 2.091,0 4.061,-0.176 5.602,-0.498 v -2.54 c -1.638,0.696 -4.789,0.743 -5.594,0.743 -0.805,0 -3.956,-0.047 -5.594,-0.743 z"
       fill="#020202"
       id="path521" />
    <path
       d="m 141.03112,413.4146 v -2.568 c -1.537,0.329 -2.487,0.782 -2.487,1.282 0,0.502 0.956,0.957 2.502,1.286"
       fill="#ffffff"
       id="path523" />
    <path
       d="m 140.94312,413.9036 c -1.95,-0.415 -2.898,-0.996 -2.898,-1.775 0,-0.787 0.916,-1.35 2.883,-1.771 l 0.604,-0.129 v 3.187 h -0.484 z m -0.411,-2.424 c -1.093,0.292 -1.448,0.58 -1.492,0.679 0.044,0.048 0.4,0.328 1.492,0.619 z"
       fill="#020202"
       id="path525" />
    <path
       d="m 153.23612,413.4106 v -2.564 c 1.546,0.329 2.501,0.782 2.501,1.282 0,0.5 -0.955,0.953 -2.501,1.282 z"
       fill="#ffffff"
       id="path527" />
    <path
       d="m 152.73612,414.0276 v -3.799 l 0.604,0.128 c 1.977,0.421 2.897,0.984 2.897,1.771 0,0.789 -0.921,1.352 -2.898,1.771 z m 1,-2.549 v 1.3 c 1.103,-0.293 1.463,-0.582 1.507,-0.682 -0.044,-0.044 -0.405,-0.327 -1.507,-0.618 z"
       fill="#020202"
       id="path529" />
    <ellipse
       cx="147.14111"
       cy="409.3566"
       fill="#ffffff"
       rx="6.0939999"
       ry="1.306"
       id="ellipse531" />
    <path
       d="m 147.14112,411.1626 c -1.102,0 -6.594,-0.087 -6.594,-1.806 0,-1.719 5.492,-1.806 6.594,-1.806 1.102,0 6.594,0.087 6.594,1.806 0,1.719 -5.492,1.806 -6.594,1.806 z m -5.512,-1.806 c 0.483,0.317 2.361,0.806 5.512,0.806 3.151,0 5.028,-0.488 5.512,-0.806 -0.483,-0.317 -2.361,-0.806 -5.512,-0.806 -3.151,0 -5.028,0.489 -5.512,0.806 z"
       fill="#020202"
       id="path533" />
    <ellipse
       cx="30.148113"
       cy="390.84961"
       fill="#1a1818"
       rx="9.2670002"
       ry="9.25"
       id="ellipse775" />
    <path
       d="m 30.149121,400.5996 c -5.386,0 -9.768,-4.374 -9.768,-9.75 0,-5.376 4.382,-9.75 9.768,-9.75 5.386,0 9.767,4.374 9.767,9.75 0,5.376 -4.381,9.75 -9.767,9.75 z m 0,-18.5 c -4.834,0 -8.768,3.925 -8.768,8.75 0,4.825 3.934,8.75 8.768,8.75 4.834,0 8.767,-3.925 8.767,-8.75 0,-4.825 -3.933,-8.75 -8.767,-8.75 z"
       id="path777" />
    <path
       d="m 220.22712,417.7176 v -4.085 c 0,0.721 -2.728,1.306 -6.094,1.306 -3.366,0 -6.094,-0.585 -6.094,-1.306 v 4.085 -0.078 c 1.558,0.367 3.71,0.594 6.087,0.594 2.385,0 4.543,-0.228 6.102,-0.597"
       fill="#ffffff"
       id="path807" />
    <path
       d="m 214.12512,418.7336 c -2.334,0 -4.536,-0.216 -6.201,-0.607 l 0.096,-0.409 h -0.481 v -4.085 h 1 c 0.193,0.212 2.12,0.807 5.595,0.807 3.474,0 5.4,-0.595 5.616,-0.897 l 0.978,0.091 v 4.085 h -0.48 l 0.096,0.405 c -1.666,0.393 -3.874,0.61 -6.219,0.61 z m -5.586,-1.495 c 1.541,0.32 3.506,0.495 5.587,0.495 2.091,0 4.061,-0.176 5.602,-0.498 v -2.54 c -1.638,0.696 -4.789,0.743 -5.594,0.743 -0.805,0 -3.957,-0.047 -5.595,-0.743 z"
       fill="#020202"
       id="path809" />
    <path
       d="m 208.02312,417.6396 v -2.568 c -1.537,0.329 -2.487,0.782 -2.487,1.282 0,0.502 0.956,0.957 2.502,1.286"
       fill="#ffffff"
       id="path811" />
    <path
       d="m 207.93412,418.1296 c -1.949,-0.415 -2.897,-0.996 -2.897,-1.775 0,-0.787 0.916,-1.35 2.882,-1.771 l 0.604,-0.129 v 3.187 h -0.484 z m -0.411,-2.424 c -1.092,0.292 -1.447,0.58 -1.491,0.679 0.044,0.048 0.399,0.328 1.491,0.619 z"
       fill="#020202"
       id="path813" />
    <path
       d="m 220.22812,417.6366 v -2.564 c 1.546,0.329 2.501,0.782 2.501,1.282 0,0.5 -0.956,0.953 -2.501,1.282 z"
       fill="#ffffff"
       id="path815" />
    <path
       d="m 219.72812,418.2536 v -3.799 l 0.604,0.128 c 1.976,0.421 2.896,0.983 2.896,1.771 0,0.778 -0.947,1.357 -2.897,1.771 z m 1,-2.549 v 1.3 c 1.102,-0.293 1.462,-0.582 1.506,-0.682 -0.044,-0.046 -0.404,-0.327 -1.506,-0.618 z"
       fill="#020202"
       id="path817" />
    <ellipse
       cx="214.13312"
       cy="413.58258"
       fill="#ffffff"
       rx="6.0939999"
       ry="1.306"
       id="ellipse819" />
    <path
       d="m 214.13312,415.3886 c -1.102,0 -6.595,-0.087 -6.595,-1.806 0,-1.719 5.493,-1.806 6.595,-1.806 1.102,0 6.594,0.087 6.594,1.806 0,1.719 -5.492,1.806 -6.594,1.806 z m -5.512,-1.806 c 0.483,0.317 2.361,0.806 5.513,0.806 3.15,0 5.028,-0.488 5.512,-0.806 -0.483,-0.317 -2.361,-0.806 -5.512,-0.806 -3.151,0 -5.03,0.489 -5.513,0.806 z"
       fill="#020202"
       id="path821" />
    <path
       d="m 220.22712,422.8416 v -4.085 c 0,0.721 -2.728,1.306 -6.094,1.306 -3.366,0 -6.094,-0.585 -6.094,-1.306 v 4.085 -0.078 c 1.558,0.367 3.71,0.594 6.087,0.594 2.385,0 4.543,-0.228 6.102,-0.597"
       fill="#ffffff"
       id="path823" />
    <path
       d="m 214.12512,423.8576 c -2.339,0 -4.541,-0.216 -6.201,-0.607 l 0.096,-0.409 h -0.481 v -4.084 h 1 c 0.193,0.212 2.121,0.806 5.595,0.806 3.474,0 5.4,-0.594 5.616,-0.897 l 0.978,0.092 v 4.084 h -0.48 l 0.096,0.405 c -1.666,0.393 -3.874,0.61 -6.219,0.61 z m -5.586,-1.495 c 1.538,0.32 3.502,0.495 5.587,0.495 2.091,0 4.061,-0.176 5.602,-0.498 v -2.54 c -1.638,0.696 -4.789,0.743 -5.594,0.743 -0.805,0 -3.957,-0.047 -5.595,-0.743 z"
       fill="#020202"
       id="path825" />
    <path
       d="m 208.02312,422.7636 v -2.568 c -1.537,0.329 -2.487,0.782 -2.487,1.282 0,0.502 0.956,0.957 2.502,1.286"
       fill="#ffffff"
       id="path827" />
    <path
       d="m 207.93412,423.2536 c -1.977,-0.421 -2.897,-0.985 -2.897,-1.775 0,-0.787 0.916,-1.35 2.882,-1.771 l 0.604,-0.129 v 3.187 h -0.484 z m -0.411,-2.424 c -1.092,0.292 -1.447,0.58 -1.491,0.679 0.043,0.048 0.399,0.328 1.491,0.619 z"
       fill="#020202"
       id="path829" />
    <path
       d="m 220.22812,422.7606 v -2.564 c 1.546,0.329 2.501,0.782 2.501,1.282 0,0.5 -0.955,0.953 -2.501,1.282 z"
       fill="#ffffff"
       id="path831" />
    <path
       d="m 219.72812,423.3776 v -3.799 l 0.604,0.128 c 1.976,0.421 2.896,0.983 2.896,1.771 0,0.789 -0.921,1.352 -2.897,1.771 z m 1,-2.549 v 1.3 c 1.103,-0.293 1.462,-0.582 1.506,-0.681 -0.044,-0.047 -0.404,-0.328 -1.506,-0.619 z"
       fill="#020202"
       id="path833" />
    <ellipse
       cx="214.13312"
       cy="418.7066"
       fill="#ffffff"
       rx="6.0939999"
       ry="1.306"
       id="ellipse835" />
    <path
       d="m 214.13312,420.5136 c -1.102,0 -6.595,-0.087 -6.595,-1.807 0,-1.719 5.493,-1.806 6.595,-1.806 1.102,0 6.594,0.087 6.594,1.806 0,1.72 -5.492,1.807 -6.594,1.807 z m -5.512,-1.807 c 0.483,0.317 2.361,0.807 5.513,0.807 3.152,0 5.028,-0.489 5.512,-0.807 -0.483,-0.316 -2.361,-0.806 -5.512,-0.806 -3.151,0 -5.03,0.49 -5.513,0.806 z"
       fill="#020202"
       id="path837" />
    <path
       d="m 243.65912,417.7176 v -4.085 c 0,0.721 -2.728,1.306 -6.094,1.306 -3.366,0 -6.094,-0.585 -6.094,-1.306 v 4.085 -0.078 c 1.558,0.367 3.71,0.594 6.087,0.594 2.385,0 4.543,-0.228 6.102,-0.597"
       fill="#4b92e2"
       id="path839" />
    <path
       d="m 237.55812,418.7336 c -2.334,0 -4.536,-0.216 -6.201,-0.607 l 0.096,-0.409 h -0.481 v -4.085 h 1 c 0.193,0.212 2.12,0.807 5.594,0.807 3.475,0 5.401,-0.595 5.617,-0.897 l 0.978,0.091 v 4.085 h -0.48 l 0.096,0.405 c -1.666,0.393 -3.874,0.61 -6.219,0.61 z m -5.587,-1.495 c 1.541,0.32 3.506,0.495 5.587,0.495 2.091,0 4.061,-0.176 5.602,-0.498 v -2.54 c -1.638,0.696 -4.79,0.743 -5.595,0.743 -0.805,0 -3.956,-0.047 -5.594,-0.743 z"
       fill="#020202"
       id="path841" />
    <path
       d="m 231.45612,417.6396 v -2.568 c -1.537,0.329 -2.487,0.782 -2.487,1.282 0,0.502 0.956,0.957 2.502,1.286"
       fill="#4b92e2"
       id="path843" />
    <path
       d="m 231.36712,418.1296 c -1.949,-0.415 -2.897,-0.996 -2.897,-1.775 0,-0.787 0.916,-1.35 2.882,-1.771 l 0.604,-0.129 v 3.187 h -0.484 z m -0.411,-2.424 c -1.092,0.292 -1.447,0.58 -1.491,0.679 0.044,0.048 0.399,0.328 1.491,0.619 z"
       fill="#020202"
       id="path845" />
    <path
       d="m 243.66012,417.6366 v -2.564 c 1.546,0.329 2.501,0.782 2.501,1.282 10e-4,0.5 -0.955,0.953 -2.501,1.282 z"
       fill="#4b92e2"
       id="path847" />
    <path
       d="m 243.16112,418.2536 v -3.799 l 0.604,0.128 c 1.976,0.421 2.896,0.983 2.896,1.771 0,0.778 -0.947,1.357 -2.897,1.771 z m 1,-2.549 v 1.3 c 1.102,-0.293 1.462,-0.582 1.506,-0.682 -0.044,-0.046 -0.405,-0.327 -1.506,-0.618 z"
       fill="#020202"
       id="path849" />
    <ellipse
       cx="237.56512"
       cy="413.58258"
       fill="#4b92e2"
       rx="6.0939999"
       ry="1.306"
       id="ellipse851" />
    <path
       d="m 237.56512,415.3886 c -1.102,0 -6.594,-0.087 -6.594,-1.806 0,-1.719 5.492,-1.806 6.594,-1.806 1.102,0 6.595,0.087 6.595,1.806 0,1.719 -5.494,1.806 -6.595,1.806 z m -5.512,-1.806 c 0.483,0.317 2.361,0.806 5.512,0.806 3.151,0 5.029,-0.488 5.513,-0.806 -0.483,-0.317 -2.362,-0.806 -5.513,-0.806 -3.151,0 -5.028,0.489 -5.512,0.806 z"
       fill="#020202"
       id="path853" />
    <path
       d="m 243.66012,422.8416 v -4.085 c 0,0.721 -2.728,1.306 -6.094,1.306 -3.366,0 -6.094,-0.585 -6.094,-1.306 v 4.085 -0.078 c 1.558,0.367 3.71,0.594 6.087,0.594 2.385,0 4.543,-0.228 6.102,-0.597"
       fill="#4b92e2"
       id="path855" />
    <path
       d="m 237.55812,423.8576 c -2.339,0 -4.541,-0.216 -6.201,-0.607 l 0.096,-0.409 h -0.481 v -4.084 h 1 c 0.193,0.212 2.121,0.806 5.595,0.806 3.474,0 5.4,-0.594 5.616,-0.897 l 0.978,0.092 v 4.084 h -0.48 l 0.096,0.405 c -1.666,0.393 -3.874,0.61 -6.219,0.61 z m -5.587,-1.495 c 1.538,0.32 3.502,0.495 5.587,0.495 2.091,0 4.061,-0.176 5.602,-0.498 v -2.54 c -1.638,0.696 -4.789,0.743 -5.594,0.743 -0.805,0 -3.957,-0.047 -5.595,-0.743 z"
       fill="#020202"
       id="path857" />
    <path
       d="m 231.45612,422.7636 v -2.568 c -1.537,0.329 -2.487,0.782 -2.487,1.282 0,0.502 0.956,0.957 2.502,1.286"
       fill="#4b92e2"
       id="path859" />
    <path
       d="m 231.36712,423.2536 c -1.977,-0.421 -2.897,-0.985 -2.897,-1.775 0,-0.787 0.916,-1.35 2.882,-1.771 l 0.604,-0.129 v 3.187 h -0.484 z m -0.411,-2.424 c -1.092,0.292 -1.447,0.58 -1.491,0.679 0.043,0.048 0.399,0.328 1.491,0.619 z"
       fill="#020202"
       id="path861" />
    <path
       d="m 243.66012,422.7606 v -2.564 c 1.546,0.329 2.501,0.782 2.501,1.282 10e-4,0.5 -0.955,0.953 -2.501,1.282 z"
       fill="#4b92e2"
       id="path863" />
    <path
       d="m 243.16112,423.3776 v -3.799 l 0.604,0.128 c 1.976,0.421 2.896,0.983 2.896,1.771 0,0.789 -0.921,1.352 -2.897,1.771 z m 1,-2.549 v 1.3 c 1.103,-0.293 1.462,-0.582 1.506,-0.681 -0.044,-0.047 -0.405,-0.328 -1.506,-0.619 z"
       fill="#020202"
       id="path865" />
    <ellipse
       cx="237.56512"
       cy="418.7066"
       fill="#4b92e2"
       rx="6.0939999"
       ry="1.306"
       id="ellipse867" />
    <path
       d="m 237.56612,420.5136 c -1.102,0 -6.595,-0.087 -6.595,-1.807 0,-1.719 5.493,-1.806 6.595,-1.806 1.102,0 6.594,0.087 6.594,1.806 0,1.72 -5.493,1.807 -6.594,1.807 z m -5.513,-1.807 c 0.483,0.317 2.361,0.807 5.513,0.807 3.152,0 5.028,-0.489 5.512,-0.807 -0.483,-0.316 -2.361,-0.806 -5.512,-0.806 -3.151,0 -5.029,0.49 -5.513,0.806 z"
       fill="#020202"
       id="path869" />
    <path
       d="m 178.01412,417.6366 c 0,2.679 -4.776,4.85 -10.667,4.85 -5.891,0 -10.667,-2.172 -10.667,-4.85"
       fill="#848383"
       id="path871" />
    <path
       d="m 167.34712,422.9876 c -6.262,0 -11.167,-2.351 -11.167,-5.351 h 1 c 0,2.358 4.656,4.351 10.167,4.351 5.511,0 10.167,-1.992 10.167,-4.351 h 1 c 0,3.001 -4.905,5.351 -11.167,5.351 z"
       id="path873" />
    <ellipse
       cx="167.34712"
       cy="417.6366"
       fill="#666565"
       rx="10.667"
       ry="3.017"
       id="ellipse875" />
    <path
       d="m 167.34712,421.1536 c -5.549,0 -11.167,-1.208 -11.167,-3.517 0,-2.31 5.618,-3.518 11.167,-3.518 5.549,0 11.167,1.208 11.167,3.518 0,2.309 -5.618,3.517 -11.167,3.517 z m 0,-6.034 c -6.206,0 -10.167,1.491 -10.167,2.518 0,1.027 3.961,2.517 10.167,2.517 6.206,0 10.167,-1.49 10.167,-2.517 0,-1.027 -3.961,-2.518 -10.167,-2.518 z"
       id="path877" />
    <path
       d="m 164.83512,400.0996 h 5.02 v 15.706 h -5.02 z"
       fill="#b2aaab"
       id="path879" />
    <path
       d="m 164.33412,399.7516 h 1 v 16.054 h -1 z"
       id="path881" />
    <path
       d="m 169.35512,399.7516 h 1 v 16.054 h -1 z"
       id="path883" />
    <ellipse
       cx="167.34712"
       cy="390.84961"
       fill="#1a1818"
       rx="9.2670002"
       ry="9.25"
       id="ellipse885" />
    <path
       d="m 167.34712,400.5996 c -5.386,0 -9.768,-4.374 -9.768,-9.75 0,-5.376 4.382,-9.75 9.768,-9.75 5.386,0 9.767,4.374 9.767,9.75 0,5.376 -4.381,9.75 -9.767,9.75 z m 0,-18.5 c -4.834,0 -8.768,3.925 -8.768,8.75 0,4.825 3.934,8.75 8.768,8.75 4.834,0 8.767,-3.925 8.767,-8.75 0,-4.825 -3.933,-8.75 -8.767,-8.75 z"
       id="path887" />
  </g>
  <g
     id="g1120"
     transform="matrix(0.03744272,0,0,0.03744272,10.625345,35.713812)">
    <path
       d="m 3767.875,34.0625 c -166.6776,0 -315.3087,71.98864 -411.9375,184.40625 -28.5276,-36.63982 -63.401,-75.12648 -101.5,-102.21875 C 3174.4745,56.555397 3070.799,38.389703 2960,35.40625 2772.4255,30.355487 2622.4018,131.69012 2553.3125,245.625 2494.9513,129.18647 2442.5939,68.382777 2239.5312,58.281247 h -492.0803 l 0.1116,205.093753 c 0,0 23.4011,7.47335 31.3125,16.15625 6.6004,7.24407 11,27.25 11,27.25 l -1.1562,456.5 c 0,0 -12.8696,-9.33294 -18,-15.3125 -9.5491,-11.12871 -23.0938,-37.4375 -23.0938,-37.4375 L 1495.5,58.062497 1175.8125,58.281247 898.0312,784.46875 V 629.03125 H 698.125 C 682.3826,672.43521 638.1848,701.75 584.875,701.75 c -28.0932,0 -58.13,-6.62565 -82.4688,-21.25 C 470.6886,661.4419 446.9877,638.80794 427.4687,598.59375 412.112,561.38016 400.3597,515.81412 399,475.5 c 4.6791,-79.72921 28.9019,-108.14789 73.25,-141.03125 9.8313,-7.28971 37.2996,-13.1189 45.2187,-13.15625 17.4221,-0.0822 31.9427,10.48615 39.8125,26.0625 11.4471,22.65651 -5.3079,50.1006 -21.875,69.625 l 161.625,111.34375 249.625,-261.1875 C 859.5703,128.35877 700.4361,35.4375 518.5625,35.4375 243.2091,35.4375 20,248.42653 20,511.15625 20,773.88597 236.0662,972.57142 518.5625,994.00002 l 35.7187,1.4375 h 380 v -0.1875 H 1819 v -0.062 l 332.625,-0.4688 v -0.5312 h 52.0312 V 798.7505 c 0,0 -27.8733,-5.81326 -39.3437,-13.625 -12.0454,-8.20329 -13.1875,-21.125 -13.1875,-21.125 -0.2158,-4.98391 0.7879,-8.80271 3.4062,-12.0625 2.5668,-3.19557 8.5725,-5.36854 10.8438,-5.84375 34.3492,-7.18693 69.3766,-17.0151 104.4375,-29.625 93.5498,-33.64584 172.271,-81.51341 228.1563,-134.40625 37.3957,220.94624 231.5684,382.17352 466.3124,409.09372 15.3291,1.758 28.5364,3.0874 42.875,3.5938 3.8075,0.1344 11.4376,-0.1563 11.4376,-0.1563 h 332 l -1.0102,-163.37655 c 86.3414,95.84593 254.5574,187.71953 424.3523,187.71953 138.7352,0 263.1783,-60.74718 350.89,-135.86527 l -0.7142,112.99109 h 419.2321 l 2.1429,-172.86609 109.2945,1.42857 v -1.90625 l 146.6563,1.28125 v 171.43752 h 447.125 V 768.28175 c 0,0 -19.0914,-1.22398 -26.5625,-6.4375 -10.1018,-7.04923 -20.5625,-30.71875 -20.5625,-30.71875 l -62.8437,-417.34375 c 0,0 1.8846,-27.91969 10,-38.34375 6.6769,-8.57661 28.5624,-15.71875 28.5624,-15.71875 V 58.281747 h -40 -64.3124 -341.4063 v 5.71875 L 4700,169.71925 4654.7812,63.312997 v -5.03125 h -2.125 l -1.2187,-2.84375 -0.094,2.84375 H 4221.2497 V 269.71925 l -29.375,-40 C 4111.1912,112.08983 3969.5658,34.0625 3808.2812,34.0625 c -6.576,0 -13.1167,0.118185 -19.625,0.375 -6.8966,-0.248953 -13.819,-0.375 -20.7812,-0.375 z M 892.5,825.78125 l -0.031,2.0625 h -1.875 c 0.6407,-0.68471 1.27,-1.37525 1.9062,-2.0625 v 0 z"
       id="path1106"
       style="fill:#0c4da2;fill-opacity:1;stroke:none" />
    <path
       d="m 518.2292,124.82114 c -226.9823,1.42857 -412.3662,166.7661 -412.3662,383.05133 0,216.28523 204.6469,402.07109 452.3662,396.47808 l 240.7127,0.6783 V 715.52161 h -45.4634 c -14.2837,35.73115 -80.9968,70.68064 -129.3669,70.68064 -25.4902,0 -89.6606,-3.46506 -113.3988,-11.7792 C 468.8022,759.74413 409.0008,738.6726 357.0046,651.28163 343.0708,620.64653 303.836,545.99265 312.6023,437.09085 316.8479,371.4559 358.5389,289.52309 433.3509,252.4192 c 32.6212,-16.17886 65.4607,-18.83348 123.1208,-13.60101 41.3957,3.75653 82.5276,32.86328 96.8886,67.79717 11.107,27.01833 7.9153,59.94169 -5.16,78.69532 -0.9328,1.33796 -0.9528,2.52293 -0.7595,3.80017 0.1471,0.97218 1.408,2.592 1.408,2.592 l 22.7845,17.79932 c 0,0 6.4866,4.50696 14.0636,4.30516 4.4004,-0.11719 12.2667,-4.89104 12.2667,-4.89104 L 828.0848,272.36312 C 747.6396,163.81609 604.6792,124.82114 518.2292,124.82114 Z"
       id="path1108"
       style="fill:#ffcb08;fill-opacity:1;stroke:none" />
    <path
       d="m 3770,121.15625 c -240.6384,0 -435.7188,181.00042 -435.7188,404.28125 0,223.28083 195.0804,404.28125 435.7188,404.28125 240.6384,0 435.7188,-181.00042 435.7188,-404.28125 0,-223.28083 -195.0804,-404.28125 -435.7188,-404.28125 z m 2.8438,125.6875 c 123.8694,0 190.2581,88.64355 217.1696,194.30357 7.7034,30.245 4.5802,130.80895 -0.01,164.29464 C 3976.0095,707.55415 3892.545,807.06375 3771.4364,804 3653.419,801.01445 3574.4747,746.06966 3550.0122,598.29911 c -7.1559,-43.22671 -7.2805,-95.15491 -1.4508,-138.58036 16.9036,-125.91479 100.4117,-212.875 224.2813,-212.875 v 0 z"
       id="path1110"
       style="fill:#ffcb08;fill-opacity:1;stroke:none" />
    <path
       d="m 1235.625,146.25 c 0,0 -191.3393,517.74554 -225.625,612.03125 -34.28571,94.28572 -72.84375,91.4375 -72.84375,91.4375 l 2.84375,57.125 231.25,-0.0625 0.1875,-54.875 c 0,0 -14.838,-0.76195 -25.7187,-10.75 -21.1033,-19.37177 -7.75,-58.34375 -7.75,-58.34375 l 53.4687,-136.78125 237.4687,0.5 c 0,0 46.2886,115.5722 57.625,153.71875 14.7908,49.76976 -31.4062,50.65625 -31.4062,50.65625 v 55.78125 l 292.4375,-0.15625 -0.1875,-55.15625 c 0,0 -17.4155,-2.65648 -35.9375,-18.8125 -21.0102,-18.32633 -35.3125,-56.125 -35.3125,-56.125 l -239.5,-629.65625 z m 68.6562,159.1875 79.2813,220.71875 -153.5625,0.6875 z"
       id="path1112"
       style="fill:#ffcb08;fill-opacity:1;stroke:none" />
    <path
       d="m 1841,145.4375 -1.125,63.46875 c 0,0 18.5873,5.32601 36.375,25.0625 9.4309,10.4641 3.5938,143.28125 3.5938,143.28125 l -0.3126,425.15625 c 0,0 6.0586,16.7572 -14.2812,33.59375 -7.6779,6.35547 -14.4784,13.09219 -26.3438,14.125 l -1.4062,56.5625 271.0312,0.65625 0.6563,-57.53125 c 0,0 -9.5873,-3.78169 -24.625,-17.34375 -8.488,-7.65511 -13.7169,-18.67175 -13.5937,-29.65625 0.2278,-38.40715 1.1259,-75.31081 0.9374,-112.8125 94.9385,-22.86724 176.8968,-61.6423 208.8438,-73.40625 120.0869,-47.918 213.2691,-123.99838 207.8125,-259.71875 C 2487.532,260.71939 2438.7604,181.90437 2334.2812,164.09375 2286.6543,150.33259 2264.7886,147.92804 2246,146.875 Z m 309.9688,107.79219 c 29.2343,-0.56143 63.6671,6.13685 90.1758,19.48827 33.0369,21.93314 53.1366,44.65398 53.1366,92.71954 1.3623,22.59657 -5.1304,42.02538 -16,61.78125 -11.318,18.89081 -45.5547,55.15612 -67.1726,75.90229 -63.2001,45.18182 -85.8164,58.42722 -136.0234,81.53802 l -0.804,-322.09656 c 26.7572,-5.04664 50.758,-9.16086 76.6876,-9.33281 z"
       id="path1114"
       style="fill:#ffcb08;fill-opacity:1;stroke:none" />
    <path
       d="m 2986.7546,125.32622 c -226.9823,1.42857 -412.3662,166.7661 -412.3662,383.05133 0,216.28523 204.6469,402.07109 452.3662,396.47808 l 240.7127,0.6783 V 716.02669 h -45.4634 c -14.2837,35.73115 -80.9968,70.68064 -129.3669,70.68064 -25.4902,0 -89.6606,-3.46506 -113.3988,-11.7792 -41.9106,-14.67892 -101.712,-35.75045 -153.7082,-123.14142 -13.9338,-30.6351 -53.1686,-105.28898 -44.4023,-214.19078 4.2456,-65.63495 45.9366,-147.56776 120.7486,-184.67165 32.6212,-16.17886 65.4607,-18.83348 123.1208,-13.60101 41.3957,3.75653 82.5276,32.86328 96.8886,67.79717 11.107,27.01833 7.9153,59.94169 -5.16,78.69532 -0.9328,1.33796 -0.9528,2.52293 -0.7595,3.80017 0.1471,0.97218 1.408,2.592 1.408,2.592 l 22.7845,17.79932 c 0,0 6.4866,4.50696 14.0636,4.30516 4.4004,-0.11719 12.2667,-4.89104 12.2667,-4.89104 L 3296.6102,272.8682 C 3216.165,164.32117 3073.2046,125.32622 2986.7546,125.32622 Z"
       id="path1116"
       style="fill:#ffcb08;fill-opacity:1;stroke:none" />
    <path
       d="m 4314.625,146.9375 0.25,54.53125 c 0,0 23.8448,6.41919 33.3125,13.90625 10.8238,8.55957 8.0937,23.75 8.0937,23.75 0,0 -86.497,537.5233 -88.375,547.5 -2.0203,10.73288 -4.8812,35.80842 -19.9687,49.75 -15.0022,13.86285 -32.3125,16.65625 -32.3125,16.65625 l -0.25,53.78125 h 242.1875 v -50.25 c 0,0 -19.7118,-1.52427 -32.8437,-14.65625 -13.132,-13.13198 -9.3438,-49.21875 -9.3438,-49.21875 l 59.5938,-406.09375 121.2187,349.5 147.6563,2.03125 119.9374,-376.375 66.9376,432.9375 c 0,0 8.0739,32.54659 -9.3438,49.25 -13.404,12.85426 -32.8125,14.65625 -32.8125,14.65625 v 50.25 h 280.5625 l -0.25,-53.78125 c 0,0 -6.2803,2.15034 -22.2188,-10.625 -9.3731,-7.51301 -13.8859,-41.01712 -15.9062,-51.75 -1.8779,-9.9767 -77.4688,-550.84375 -77.4688,-550.84375 0,0 -1.3149,-22.33329 10.9376,-33.75 8.8308,-8.22857 26.9062,-16.03125 26.9062,-16.03125 l -0.4375,-44.53125 -291.2813,-0.34375 -106.5937,307.03125 -101.6563,-307.03125 z"
       id="path1118"
       style="fill:#ffcb08;fill-opacity:1;stroke:none" />
  </g>
  <path
     d="M 29.358,109.456 H 188.975 V 212.831 H 29.358 Z"
     stroke="#000000"
     stroke-miterlimit="10"
     id="path14" />
  <g
     aria-label="CLASSICS"
     id="g1138"
     style="font-size:25.4px;line-height:1.25;font-family:'Patrick Hand SC';-inkscape-font-specification:'Patrick Hand SC, Normal';fill:#2768ca;fill-opacity:1;stroke-width:0.264583"
     transform="matrix(1.0357553,0,0,1.0357553,11.489854,-44.586827)">
    <path
       d="m 30.901226,138.04781 v -2.1084 h -2.108398 v -14.8208 h 2.108398 v -2.1208 h 8.470801 v 2.1208 h 2.1208 v 4.2292 h -4.241601 v -4.2292 h -4.229199 v 14.8208 h 4.229199 v -4.2416 h 4.241601 v 4.2416 h -2.1208 v 2.1084 z"
       style="font-family:'BIG SHOT';-inkscape-font-specification:'BIG SHOT, Normal';fill:#2768ca;fill-opacity:1"
       id="path1122" />
    <path
       d="m 45.722027,138.04781 v -19.05 h 4.229199 v 16.9416 h 8.470801 v 2.1084 z"
       style="font-family:'BIG SHOT';-inkscape-font-specification:'BIG SHOT, Normal';fill:#2768ca;fill-opacity:1"
       id="path1124" />
    <path
       d="m 71.109624,129.58941 v -8.4708 h -4.229199 v 8.4708 z m -8.458398,8.4584 v -16.9292 h 2.108398 v -2.1208 h 8.470801 v 2.1208 h 2.120801 v 16.9292 h -4.241602 v -6.35 h -4.229199 v 6.35 z"
       style="font-family:'BIG SHOT';-inkscape-font-specification:'BIG SHOT, Normal';fill:#2768ca;fill-opacity:1"
       id="path1126" />
    <path
       d="m 81.688824,138.04781 v -2.1084 h -2.108399 v -4.2416 h 4.229199 v 4.2416 h 4.2292 v -6.35 h -6.35 v -2.1208 h -2.108399 v -6.35 h 2.108399 v -2.1208 h 8.4708 v 2.1208 h 2.120801 v 4.2292 h -4.241601 v -4.2292 h -4.2292 v 6.35 h 6.35 v 2.1208 h 2.120801 v 6.35 h -2.120801 v 2.1084 z"
       style="font-family:'BIG SHOT';-inkscape-font-specification:'BIG SHOT, Normal';fill:#2768ca;fill-opacity:1"
       id="path1128" />
    <path
       d="m 98.618023,138.04781 v -2.1084 h -2.108399 v -4.2416 h 4.229196 v 4.2416 h 4.2292 v -6.35 h -6.349997 v -2.1208 h -2.108399 v -6.35 h 2.108399 v -2.1208 h 8.470797 v 2.1208 h 2.1208 v 4.2292 h -4.2416 v -4.2292 h -4.2292 v 6.35 h 6.35 v 2.1208 h 2.1208 v 6.35 h -2.1208 v 2.1084 z"
       style="font-family:'BIG SHOT';-inkscape-font-specification:'BIG SHOT, Normal';fill:#2768ca;fill-opacity:1"
       id="path1130" />
    <path
       d="m 113.43882,138.04781 v -2.1084 h 4.2292 v -14.8208 h -4.2292 v -2.1208 h 12.7 v 2.1208 h -4.2416 v 14.8208 h 4.2416 v 2.1084 z"
       style="font-family:'BIG SHOT';-inkscape-font-specification:'BIG SHOT, Normal';fill:#2768ca;fill-opacity:1"
       id="path1132" />
    <path
       d="m 132.47642,138.04781 v -2.1084 h -2.1084 v -14.8208 h 2.1084 v -2.1208 h 8.4708 v 2.1208 h 2.1208 v 4.2292 h -4.2416 v -4.2292 h -4.2292 v 14.8208 h 4.2292 v -4.2416 h 4.2416 v 4.2416 h -2.1208 v 2.1084 z"
       style="font-family:'BIG SHOT';-inkscape-font-specification:'BIG SHOT, Normal';fill:#2768ca;fill-opacity:1"
       id="path1134" />
    <path
       d="m 149.40562,138.04781 v -2.1084 h -2.1084 v -4.2416 h 4.2292 v 4.2416 h 4.2292 v -6.35 h -6.35 v -2.1208 h -2.1084 v -6.35 h 2.1084 v -2.1208 h 8.4708 v 2.1208 h 2.1208 v 4.2292 h -4.2416 v -4.2292 h -4.2292 v 6.35 h 6.35 v 2.1208 h 2.1208 v 6.35 h -2.1208 v 2.1084 z"
       style="font-family:'BIG SHOT';-inkscape-font-specification:'BIG SHOT, Normal';fill:#2768ca;fill-opacity:1"
       id="path1136" />
  </g>
</svg>
