<?xml version="1.0" encoding="UTF-8" standalone="no"?>
<svg
   viewBox="0 0 218.52 317.48"
   version="1.1"
   id="svg610"
   sodipodi:docname="auto-arcade-nintendo.svg"
   inkscape:version="1.1 (c68e22c387, 2021-05-23)"
   xmlns:inkscape="http://www.inkscape.org/namespaces/inkscape"
   xmlns:sodipodi="http://sodipodi.sourceforge.net/DTD/sodipodi-0.dtd"
   xmlns="http://www.w3.org/2000/svg"
   xmlns:svg="http://www.w3.org/2000/svg">
  <defs
     id="defs614" />
  <sodipodi:namedview
     id="namedview612"
     pagecolor="#ffffff"
     bordercolor="#666666"
     borderopacity="1.0"
     inkscape:pageshadow="2"
     inkscape:pageopacity="0.0"
     inkscape:pagecheckerboard="true"
     showgrid="false"
     inkscape:zoom="2.3718028"
     inkscape:cx="103.08614"
     inkscape:cy="169.91295"
     inkscape:window-width="1920"
     inkscape:window-height="1138"
     inkscape:window-x="-8"
     inkscape:window-y="-8"
     inkscape:window-maximized="1"
     inkscape:current-layer="svg610"
     inkscape:snap-global="false" />
  <path
     d="m 5.09,20.831 h 208.34 v 218.63 H 5.09 Z"
     fill="#1229b8"
     id="path2"
     style="fill:#ed1c24;stroke-width:1.24817;fill-opacity:1" />
  <path
     d="m5.09 264.961h208.246v48.75h-208.246z"
     fill="#bcc9a7"
     stroke="#000"
     id="path6"
     style="fill:#ed1c24;fill-opacity:1" />
  <path
     d="m14.463 313.711h12.805v3.769h-12.805zm176.605 0h12.805v3.769h-12.805z"
     fill="#1a1818"
     id="path8"
     style="fill:#000000" />
  <path
     d="m5.09 258.461h208.246v6.5h-208.246z"
     fill="#18111c"
     id="path10"
     style="fill:#000000" />
  <path
     d="m5.09 239.461h208.246v19h-208.246z"
     fill="#acb5a2"
     stroke="#000"
     stroke-miterlimit="10"
     id="path12"
     style="fill:#ffffff;fill-opacity:1" />
  <path
     d="m213.43 0h5.09v317.48h-5.09z"
     fill="#18111c"
     id="path16"
     style="fill:#000000" />
  <path
     d="m111.178 305.003h-3.231c-1.408 0-2.553-1.374-2.553-3.063v-3.063h8.337v3.063c0 1.689-1.145 3.063-2.553 3.063z"
     fill="#1a1818"
     id="path20" />
  <path
     d="m5.137 0h208.246v26.188h-208.246z"
     fill="#18111c"
     id="path78"
     style="fill:#000000" />
  <path
     d="m159.835 56.081c.087.033.271.083.375.125s.25-.062.396 0c.146.063.104.188.146.063s-.063-.479-.188-.5-.199.104-.266 0-.005-.125-.255-.167-.292.063-.354 0-.063.083 0 .229.042.211.146.25zm-.854 1.167c.042.063.104.167.271.208.167.042.391 0 .391 0s.016.019 0-.095-.036-.259-.141-.322c-.104-.063-.187-.146-.187-.146s-.126-.063-.168 0c-.041.063-.166.355-.166.355zm1.221.625c.133 0 .363-.125.467 0s.083 0 .104.125-.104.25-.104.25-.027-.181-.18-.215-.287-.16-.287-.16zm-.918 2.358c.047 0 .176-.094.341 0s.141 0 .329.176.188.235.259.306.494.553.529.6.153.129.165.259c.012.129.071.294.118.329s.059.035.106.059.082.082.059.153c-.024.071.027.165.007.2s-.266.047.087.129.471.106.541.129.224.047.271.059l.047.012s-.471.165-.541.2-.094.059-.224.059c-.129 0-.176.129-.294-.071s-.224-.376-.224-.471c0-.094.012-.188 0-.235s-.2-.282-.271-.329-.141-.247-.176-.294-.071-.071-.141-.176c-.071-.106-.165-.165-.224-.235s-.271-.376-.271-.412c0-.035-.118-.188-.176-.212s-.2-.118-.2-.118z"
     fill="#ea120d"
     id="path108" />
  <path
     d="m0 0h5.09v317.48h-5.09z"
     fill="#18111c"
     id="path480"
     style="fill:#000000" />
  <path
     d="m141.372 282.946h-4.867a1.321 1.321 0 0 1 -1.317-1.317v-3.033c0-.724.593-1.317 1.317-1.317h4.867c.724 0 1.317.593 1.317 1.317v3.033c0 .724-.593 1.317-1.317 1.317z"
     fill="#5e5353"
     id="path540" />
  <path
     d="m136.595 278.883h4.688v1.229h-4.688z"
     fill="#1a1818"
     id="path542" />
  <path
     d="m 70.415,267.836 h 77.596 v 43 H 70.415 Z"
     fill="#1a1818"
     id="path18" />
  <path
     d="M 41.989479,80.513679 C 27.706344,80.50721 18.157288,70.388639 18.157288,58.108507 c 0,-12.273657 9.568474,-22.518422 23.812773,-22.479591 H 176.55641 c 14.23783,-0.03882 23.8063,10.205934 23.8063,22.479591 0,12.280132 -9.54582,22.3987 -23.82895,22.405172 z"
     id="path1311"
     style="fill:#ed1c24;fill-opacity:1;fill-rule:nonzero;stroke:none;stroke-width:0.448849" />
  <path
     d="m 42.031542,41.146075 c -11.312604,0.01941 -18.250308,7.584882 -18.250308,16.933313 0,9.351665 6.90211,16.968905 18.250308,16.930075 H 176.48522 c 11.35791,0.03883 18.25355,-7.57841 18.25355,-16.930075 0,-9.348431 -6.94095,-16.9139 -18.25355,-16.933313 z"
     id="path1313"
     style="fill:#ffffff;fill-opacity:1;fill-rule:nonzero;stroke:none;stroke-width:0.448849" />
  <path
     d="m 36.229628,47.465731 h 6.588236 l 9.108976,14.736154 -0.0034,-14.736154 h 6.53002 V 68.599203 H 51.929943 L 42.775666,53.863049 V 68.599203 H 36.229499 V 47.465731 Z"
     id="path1315"
     style="fill:#ed1c24;fill-opacity:1;fill-rule:nonzero;stroke:none;stroke-width:0.448849" />
  <path
     d="M 93.967274,49.640235 H 100.329 v 2.844332 h 3.43973 V 54.57494 H 100.329 l 0.006,14.024263 h -6.368195 l 0.0031,-14.024263 H 90.51723 v -2.083904 l 3.452675,-0.0065 -0.0031,-2.844332 z"
     id="path1317"
     style="fill:#ed1c24;fill-opacity:1;fill-rule:nonzero;stroke:none;stroke-width:0.448849" />
  <path
     d="m 62.090712,54.545815 h 6.35525 v 14.056623 h -6.35525 z"
     id="path1319"
     style="fill:#ed1c24;fill-opacity:1;fill-rule:nonzero;stroke:none;stroke-width:0.448849" />
  <path
     d="m 62.07453,47.459256 h 6.371432 v 4.323126 H 62.07453 Z"
     id="path1321"
     style="fill:#ed1c24;fill-opacity:1;fill-rule:nonzero;stroke:none;stroke-width:0.448849" />
  <path
     d="m 173.44673,53.591232 c -5.12885,0 -9.28695,3.527098 -9.28695,7.885818 0,4.355483 4.1581,7.889054 9.28695,7.889054 5.13209,0 9.28372,-3.533571 9.28372,-7.889054 0,-4.35872 -4.15163,-7.885818 -9.28372,-7.885818 m 2.55311,7.866405 c 0,0 -0.006,2.12273 -0.006,2.977001 0,2.239221 -1.32023,3.161444 -2.5984,3.161444 -1.27494,0 -2.60487,-0.922223 -2.60487,-3.161444 0,-0.854271 0.003,-3.032012 0.003,-3.032012 0,0 0.004,-2.074193 0.004,-2.925227 0,-2.232753 1.33641,-3.148506 2.5984,-3.148506 1.26847,0 2.59841,0.915753 2.59841,3.148506 0,0.851034 -0.003,2.426903 0.006,2.986707 v -0.0065 z"
     id="path1323"
     style="fill:#ed1c24;fill-opacity:1;fill-rule:nonzero;stroke:none;stroke-width:0.448849" />
  <path
     d="m 155.86301,61.502937 v -2.514271 c 0,-2.174504 -1.50144,-2.724602 -2.48839,-2.724602 -1.01282,0 -2.49161,0.550098 -2.49161,2.724602 v 2.501328 2.501327 c 0,2.177743 1.47879,2.737548 2.49161,2.737548 0.98695,0 2.48839,-0.559805 2.48839,-2.737548 z m -0.0421,-14.037206 h 6.26788 v 21.130235 h -6.28082 c 0,0 -0.003,-0.682768 -0.003,-0.808967 -2.43014,1.52086 -5.17416,1.52086 -7.31631,0.530683 -0.57275,-0.271813 -4.34254,-2.080665 -4.34254,-6.9733 0,-3.70831 3.49474,-7.759619 8.07674,-7.355139 1.50792,0.132674 2.57899,0.682772 3.59829,1.258757 v -7.782269 z"
     id="path1325"
     style="fill:#ed1c24;fill-opacity:1;fill-rule:nonzero;stroke:none;stroke-width:0.448849" />
  <path
     d="m 83.321259,53.898643 c 2.378364,-0.06796 7.19334,1.485263 7.160982,7.047728 -0.0065,0.993408 -0.0031,7.649595 -0.0031,7.649595 H 84.16919 v -9.228701 c 0,-1.226396 -1.171383,-2.585465 -2.905811,-2.585465 -1.731188,0 -3.015833,1.359069 -3.015833,2.585465 0,0.598635 0.0065,9.228701 0.0065,9.228701 h -6.306711 l -0.0065,-14.050151 6.313188,-0.0065 c 0,0 -0.0065,1.12932 0,1.478794 1.21669,-1.15844 2.97053,-2.061248 5.067372,-2.119492"
     id="path1327"
     style="fill:#ed1c24;fill-opacity:1;fill-rule:nonzero;stroke:none;stroke-width:0.448849" />
  <path
     d="m 134.95929,53.898643 c 2.37513,-0.06796 7.19658,1.485263 7.16421,7.047728 -0.006,0.993408 0,7.649595 0,7.649595 h -6.31642 v -9.228701 c 0,-1.226396 -1.17138,-2.585465 -2.90581,-2.585465 -1.73118,0 -3.01259,1.359069 -3.01259,2.585465 0,0.598635 0.006,9.228701 0.006,9.228701 h -6.30672 V 54.545815 l 6.30672,-0.0065 c 0,0 -0.006,1.12932 0,1.478794 1.21345,-1.15844 2.96406,-2.061248 5.06414,-2.119492"
     id="path1329"
     style="fill:#ed1c24;fill-opacity:1;fill-rule:nonzero;stroke:none;stroke-width:0.448849" />
  <path
     d="m 114.96807,63.680678 c 0,0 0.003,0.06472 0.003,0.854272 0,2.56928 -1.68912,3.14203 -2.62752,3.14203 -0.93517,0 -2.65989,-0.57275 -2.65989,-3.14203 0,-0.77014 0.006,-2.899344 0.006,-2.899344 0,0 11.96949,0.0065 11.96949,-0.0065 0,-4.355482 -4.20663,-7.96348 -9.37432,-7.96348 -5.16768,0 -9.3549,3.527099 -9.3549,7.889056 0,4.361953 4.18722,7.885817 9.3549,7.885817 4.28753,0 7.9117,-2.446319 9.01514,-5.76632 l -6.33261,0.0065 z m -5.2777,-4.238989 c -0.013,-1.229632 0.013,-2.051542 0.41743,-2.753726 0.49508,-0.867215 1.4076,-1.27817 2.23598,-1.284645 0.82515,0.0065 1.73767,0.41743 2.22952,1.284645 0.40448,0.702184 0.42713,1.524094 0.41743,2.753726 z"
     id="path1331"
     style="fill:#ed1c24;fill-opacity:1;fill-rule:nonzero;stroke:none;stroke-width:0.448849" />
  <path
     d="m 184.04098,49.785847 c 0.61805,0 1.17138,-0.03883 1.17138,-0.783078 0,-0.595404 -0.54039,-0.702185 -1.04842,-0.702185 h -0.99018 v 1.485263 z m -0.86721,2.705189 h -0.72808 V 47.68253 h 1.82503 c 1.13903,0 1.70207,0.41743 1.70207,1.368776 0,0.860741 -0.54039,1.232864 -1.24581,1.32347 l 1.36554,2.11626 h -0.81544 l -1.2717,-2.087136 h -0.83162 v 2.087136 z"
     id="path1333"
     style="fill:#ed1c24;fill-opacity:1;fill-rule:nonzero;stroke:none;stroke-width:0.448849" />
  <path
     d="m 184.05069,53.565345 c 1.88974,0 3.37824,-1.478794 3.37824,-3.488268 0,-1.977117 -1.4885,-3.46238 -3.37824,-3.46238 -1.90594,0 -3.39767,1.485263 -3.39767,3.46238 0,2.009474 1.49173,3.488268 3.39767,3.488268 m -4.23253,-3.488268 c 0,-2.394546 1.93829,-4.158095 4.23253,-4.158095 2.27481,0 4.21633,1.763548 4.21633,4.158095 0,2.413959 -1.94152,4.183983 -4.21633,4.183983 -2.29424,0 -4.23253,-1.770024 -4.23253,-4.183983"
     id="path1335"
     style="fill:#ed1c24;fill-opacity:1;fill-rule:nonzero;stroke:none;stroke-width:0.448849" />
  <path
     d="m 91.199,281.522 h -6.785 a 1.235,1.235 0 0 1 -1.231,-1.231 v -3.205 c 0,-0.677 0.554,-1.231 1.231,-1.231 h 6.785 c 0.677,0 1.231,0.554 1.231,1.231 v 3.205 c 0,0.677 -0.554,1.231 -1.231,1.231 z"
     fill="#5b2a2a"
     id="path530" />
  <path
     d="m 84.729,276.835 h 1.313 v 3.937 h -1.313 z"
     fill="#471313"
     id="path536" />
  <path
     d="m 100.483,281.522 h -4.867 a 1.321,1.321 0 0 1 -1.317,-1.317 v -3.033 c 0,-0.724 0.593,-1.317 1.317,-1.317 h 4.867 c 0.724,0 1.317,0.593 1.317,1.317 v 3.033 c 0,0.724 -0.593,1.317 -1.317,1.317 z"
     fill="#5e5353"
     id="path532" />
  <path
     d="m 95.705,277.46 h 4.688 v 1.229 h -4.688 z"
     fill="#1a1818"
     id="path534" />
  <path
     d="m 94.064,287.147 h 26.414 v 6.25 H 94.064 Z"
     fill="#595757"
     id="path538" />
  <path
     d="m 130.199,281.637 h -6.785 a 1.235,1.235 0 0 1 -1.231,-1.231 v -3.205 c 0,-0.677 0.554,-1.231 1.231,-1.231 h 6.785 c 0.677,0 1.231,0.554 1.231,1.231 v 3.205 c 0,0.677 -0.554,1.231 -1.231,1.231 z"
     fill="#5b2a2a"
     id="path544" />
  <path
     d="m 123.729,276.949 h 1.313 v 3.938 h -1.313 z"
     fill="#471313"
     id="path546" />
  <path
     d="m 126.195,303.309 h 2.378 a 2.57,2.57 0 0 0 2.563,-2.563 v -2.563 h -7.503 v 2.563 a 2.57,2.57 0 0 0 2.562,2.563 z"
     fill="#353434"
     id="path550" />
  <path
     d="m 114.253,281.637 h 4.867 c 0.724,0 1.317,-0.593 1.317,-1.317 v -3.033 c 0,-0.724 -0.593,-1.317 -1.317,-1.317 h -4.867 c -0.724,0 -1.317,0.593 -1.317,1.317 v 3.033 c 0,0.724 0.593,1.317 1.317,1.317 z"
     fill="#5e5353"
     id="path552" />
  <path
     d="m 119.03,278.803 h -4.688 v -1.229 h 4.688 z"
     fill="#1a1818"
     id="path554" />
  <ellipse
     cx="133.68201"
     cy="286.92902"
     fill="#c6c6c6"
     rx="2.546"
     ry="2.4070001"
     id="ellipse556" />
  <path
     d="m 133.197,285.21 h 0.938 v 3.594 h -0.938 z"
     fill="#353535"
     id="path558" />
  <path
     d="M 88.541,303.194 H 86.163 A 2.57,2.57 0 0 1 83.6,300.632 v -2.563 h 7.503 v 2.563 a 2.57,2.57 0 0 1 -2.562,2.562 z"
     fill="#353434"
     id="path22" />
  <g
     id="g16735"
     transform="matrix(0.74486512,0,0,0.74486512,10.278808,-61.522184)">
    <path
       d="m 40.815121,417.6366 c 0,2.679 -4.776,4.85 -10.667,4.85 -5.891,0 -10.667,-2.172 -10.667,-4.85"
       fill="#848383"
       id="path37" />
    <path
       d="m 30.149121,422.9876 c -6.262,0 -11.167,-2.351 -11.167,-5.351 h 1 c 0,2.358 4.656,4.351 10.167,4.351 5.511,0 10.166,-1.992 10.166,-4.351 h 1 c 0,3.001 -4.904,5.351 -11.166,5.351 z"
       id="path39" />
    <ellipse
       cx="30.148113"
       cy="417.6366"
       fill="#666565"
       rx="10.667"
       ry="3.017"
       id="ellipse41" />
    <path
       d="m 30.149121,421.1536 c -5.549,0 -11.167,-1.208 -11.167,-3.517 0,-2.31 5.618,-3.518 11.167,-3.518 5.549,0 11.166,1.208 11.166,3.518 0,2.309 -5.617,3.517 -11.166,3.517 z m 0,-6.034 c -6.206,0 -10.167,1.491 -10.167,2.518 0,1.027 3.961,2.517 10.167,2.517 6.206,0 10.166,-1.49 10.166,-2.517 0,-1.027 -3.96,-2.518 -10.166,-2.518 z"
       id="path43" />
    <path
       d="m 196.36912,417.4456 v -4.085 c 0,0.721 -2.728,1.306 -6.094,1.306 -3.366,0 -6.094,-0.585 -6.094,-1.306 v 4.085 -0.078 c 1.558,0.367 3.71,0.594 6.087,0.594 2.385,0 4.543,-0.228 6.102,-0.597"
       fill="#ae0009"
       id="path45" />
    <path
       d="m 190.26712,418.4616 c -2.338,0 -4.54,-0.216 -6.201,-0.607 l 0.096,-0.409 h -0.481 v -4.085 h 1 c 0.193,0.212 2.12,0.807 5.595,0.807 3.474,0 5.4,-0.595 5.616,-0.897 l 0.978,0.091 v 4.085 h -0.48 l 0.096,0.405 c -1.666,0.393 -3.874,0.61 -6.219,0.61 z m -5.587,-1.495 c 1.539,0.32 3.503,0.495 5.587,0.495 2.091,0 4.061,-0.176 5.602,-0.498 v -2.54 c -1.638,0.696 -4.789,0.743 -5.594,0.743 -0.805,0 -3.957,-0.047 -5.595,-0.743 z"
       fill="#020202"
       id="path47" />
    <path
       d="m 184.16512,417.3676 v -2.568 c -1.537,0.329 -2.487,0.782 -2.487,1.282 0,0.502 0.956,0.957 2.502,1.286"
       fill="#ae0009"
       id="path49" />
    <path
       d="m 184.07612,417.8566 c -1.977,-0.421 -2.897,-0.985 -2.897,-1.775 0,-0.787 0.916,-1.35 2.883,-1.771 l 0.604,-0.129 v 3.187 h -0.485 z m -0.411,-2.424 c -1.093,0.292 -1.448,0.58 -1.492,0.679 0.043,0.048 0.399,0.328 1.492,0.619 z"
       fill="#020202"
       id="path51" />
    <path
       d="m 196.37012,417.3636 v -2.564 c 1.546,0.329 2.501,0.782 2.501,1.282 0,0.501 -0.956,0.954 -2.501,1.282 z"
       fill="#ae0009"
       id="path53" />
    <path
       d="m 195.87012,417.9806 v -3.799 l 0.604,0.128 c 1.976,0.421 2.896,0.983 2.896,1.771 0,0.789 -0.921,1.352 -2.897,1.771 z m 1,-2.549 v 1.3 c 1.103,-0.293 1.462,-0.582 1.506,-0.681 -0.044,-0.046 -0.405,-0.327 -1.506,-0.619 z"
       fill="#020202"
       id="path55" />
    <ellipse
       cx="190.27512"
       cy="413.31061"
       fill="#ae0009"
       rx="6.0939999"
       ry="1.306"
       id="ellipse57" />
    <path
       d="m 190.27512,415.1166 c -1.102,0 -6.595,-0.087 -6.595,-1.807 0,-1.719 5.493,-1.806 6.595,-1.806 1.102,0 6.594,0.087 6.594,1.806 0,1.72 -5.493,1.807 -6.594,1.807 z m -5.513,-1.807 c 0.483,0.317 2.361,0.807 5.513,0.807 3.152,0 5.028,-0.489 5.512,-0.807 -0.483,-0.316 -2.361,-0.806 -5.512,-0.806 -3.151,0 -5.029,0.49 -5.513,0.806 z"
       fill="#020202"
       id="path59" />
    <path
       d="m 196.36912,422.5696 v -4.085 c 0,0.721 -2.728,1.306 -6.094,1.306 -3.366,0 -6.094,-0.585 -6.094,-1.306 v 4.085 -0.078 c 1.558,0.367 3.71,0.594 6.087,0.594 2.385,0 4.543,-0.228 6.102,-0.597"
       fill="#ae0009"
       id="path61" />
    <path
       d="m 190.26712,423.5856 c -2.338,0 -4.54,-0.216 -6.2,-0.607 l 0.096,-0.408 h -0.481 v -4.085 h 1 c 0.193,0.212 2.12,0.806 5.594,0.806 3.474,0 5.4,-0.594 5.616,-0.897 l 0.978,0.092 v 4.085 h -0.48 l 0.094,0.402 c -1.664,0.395 -3.872,0.612 -6.217,0.612 z m -5.586,-1.495 c 1.538,0.32 3.502,0.495 5.586,0.495 2.091,0 4.061,-0.176 5.602,-0.498 v -2.54 c -1.638,0.696 -4.789,0.743 -5.594,0.743 -0.805,0 -3.956,-0.047 -5.594,-0.743 z"
       fill="#020202"
       id="path63" />
    <path
       d="m 184.16512,422.4916 v -2.568 c -1.537,0.329 -2.487,0.782 -2.487,1.282 0,0.502 0.956,0.957 2.502,1.286"
       fill="#ae0009"
       id="path65" />
    <path
       d="m 184.07712,422.9806 c -1.978,-0.421 -2.898,-0.984 -2.898,-1.774 0,-0.788 0.916,-1.352 2.883,-1.771 l 0.604,-0.129 v 3.186 h -0.484 z m -0.412,-2.424 c -1.093,0.292 -1.449,0.58 -1.492,0.679 0.044,0.048 0.4,0.329 1.492,0.619 z"
       fill="#020202"
       id="path67" />
    <path
       d="m 196.37012,422.4886 v -2.564 c 1.546,0.329 2.501,0.782 2.501,1.282 0,0.5 -0.956,0.953 -2.501,1.282 z"
       fill="#ae0009"
       id="path69" />
    <path
       d="m 195.87012,423.1046 v -3.798 l 0.604,0.128 c 1.977,0.42 2.897,0.982 2.897,1.771 0,0.789 -0.921,1.352 -2.897,1.771 z m 1,-2.548 v 1.3 c 1.103,-0.293 1.462,-0.582 1.506,-0.681 -0.044,-0.047 -0.405,-0.328 -1.506,-0.619 z"
       fill="#020202"
       id="path71" />
    <ellipse
       cx="190.27512"
       cy="418.4346"
       fill="#ae0009"
       rx="6.0939999"
       ry="1.306"
       id="ellipse73" />
    <path
       d="m 190.27512,420.2406 c -1.102,0 -6.594,-0.087 -6.594,-1.806 0,-1.72 5.492,-1.807 6.594,-1.807 1.102,0 6.594,0.087 6.594,1.807 0,1.719 -5.493,1.806 -6.594,1.806 z m -5.512,-1.806 c 0.483,0.316 2.361,0.806 5.512,0.806 3.151,0 5.028,-0.489 5.512,-0.806 -0.483,-0.317 -2.36,-0.807 -5.512,-0.807 -3.152,0 -5.029,0.49 -5.512,0.807 z"
       fill="#020202"
       id="path75" />
    <path
       d="m 59.234121,417.5096 v -4.085 c 0,0.721 -2.728,1.306 -6.094,1.306 -3.366,0 -6.094,-0.585 -6.094,-1.306 v 4.085 -0.078 c 1.558,0.367 3.71,0.594 6.087,0.594 2.385,0 4.543,-0.228 6.102,-0.597"
       fill="#ae0009"
       id="path77" />
    <path
       d="m 53.132121,418.5256 c -2.334,0 -4.536,-0.216 -6.201,-0.607 l 0.096,-0.409 h -0.481 v -4.085 h 1 c 0.193,0.212 2.12,0.806 5.594,0.806 3.475,0 5.401,-0.594 5.617,-0.896 l 0.978,0.091 v 4.085 h -0.48 l 0.096,0.405 c -1.666,0.393 -3.874,0.61 -6.219,0.61 z m -5.587,-1.495 c 1.541,0.32 3.506,0.495 5.587,0.495 2.091,0 4.061,-0.176 5.602,-0.498 v -2.541 c -1.638,0.696 -4.79,0.743 -5.595,0.743 -0.805,0 -3.956,-0.047 -5.594,-0.743 z"
       fill="#020202"
       id="path79" />
    <path
       d="m 47.030121,417.4316 v -2.568 c -1.537,0.329 -2.487,0.782 -2.487,1.282 0,0.502 0.956,0.957 2.502,1.286"
       fill="#ae0009"
       id="path81" />
    <path
       d="m 46.941121,417.9216 c -1.949,-0.415 -2.897,-0.996 -2.897,-1.775 0,-0.787 0.916,-1.351 2.882,-1.771 l 0.604,-0.129 v 3.187 h -0.484 z m -0.411,-2.424 c -1.092,0.292 -1.447,0.58 -1.491,0.679 0.044,0.048 0.399,0.328 1.491,0.619 z"
       fill="#020202"
       id="path83" />
    <path
       d="m 59.235121,417.4286 v -2.564 c 1.546,0.329 2.501,0.782 2.501,1.282 0,0.5 -0.956,0.953 -2.501,1.282 z"
       fill="#ae0009"
       id="path85" />
    <path
       d="m 58.735121,418.0466 v -3.8 l 0.604,0.128 c 1.976,0.421 2.896,0.983 2.896,1.771 0,0.787 -0.921,1.351 -2.896,1.771 z m 1,-2.55 v 1.299 c 1.102,-0.293 1.462,-0.581 1.506,-0.681 -0.044,-0.046 -0.405,-0.327 -1.506,-0.618 z"
       fill="#020202"
       id="path87" />
    <ellipse
       cx="53.140118"
       cy="413.3746"
       fill="#ae0009"
       rx="6.0939999"
       ry="1.306"
       id="ellipse89" />
    <path
       d="m 53.139121,415.1806 c -1.102,0 -6.594,-0.087 -6.594,-1.806 0,-1.719 5.492,-1.806 6.594,-1.806 1.102,0 6.595,0.087 6.595,1.806 0,1.719 -5.493,1.806 -6.595,1.806 z m -5.512,-1.806 c 0.483,0.317 2.361,0.806 5.512,0.806 3.151,0 5.029,-0.488 5.513,-0.806 -0.483,-0.317 -2.362,-0.806 -5.513,-0.806 -3.151,0 -5.028,0.488 -5.512,0.806 z"
       fill="#020202"
       id="path91" />
    <path
       d="m 59.234121,422.6336 v -4.085 c 0,0.721 -2.728,1.306 -6.094,1.306 -3.366,0 -6.094,-0.585 -6.094,-1.306 v 4.085 -0.078 c 1.558,0.367 3.71,0.594 6.087,0.594 2.385,0 4.543,-0.228 6.102,-0.597"
       fill="#ae0009"
       id="path93" />
    <path
       d="m 53.132121,423.6496 c -2.334,0 -4.536,-0.216 -6.201,-0.607 l 0.096,-0.409 h -0.481 v -4.085 h 1 c 0.193,0.212 2.12,0.807 5.595,0.807 3.474,0 5.4,-0.595 5.616,-0.897 l 0.978,0.091 v 4.085 h -0.48 l 0.096,0.405 c -1.666,0.393 -3.874,0.61 -6.219,0.61 z m -5.587,-1.495 c 1.541,0.32 3.506,0.495 5.587,0.495 2.091,0 4.061,-0.176 5.602,-0.498 v -2.54 c -1.638,0.696 -4.789,0.743 -5.594,0.743 -0.805,0 -3.957,-0.047 -5.595,-0.743 z"
       fill="#020202"
       id="path95" />
    <path
       d="m 47.030121,422.5556 v -2.568 c -1.537,0.329 -2.487,0.782 -2.487,1.282 0,0.502 0.956,0.957 2.502,1.286"
       fill="#ae0009"
       id="path97" />
    <path
       d="m 46.941121,423.0456 c -1.949,-0.415 -2.897,-0.996 -2.897,-1.775 0,-0.787 0.916,-1.35 2.882,-1.771 l 0.604,-0.129 v 3.187 h -0.484 z m -0.411,-2.424 c -1.092,0.292 -1.447,0.58 -1.491,0.679 0.044,0.048 0.399,0.328 1.491,0.619 z"
       fill="#020202"
       id="path99" />
    <path
       d="m 59.235121,422.5526 v -2.564 c 1.546,0.329 2.501,0.782 2.501,1.282 0,0.5 -0.956,0.953 -2.501,1.282 z"
       fill="#ae0009"
       id="path101" />
    <path
       d="m 58.735121,423.1696 v -3.799 l 0.604,0.128 c 1.976,0.421 2.896,0.983 2.896,1.771 0,0.778 -0.947,1.357 -2.897,1.771 z m 1,-2.549 v 1.3 c 1.102,-0.293 1.462,-0.582 1.506,-0.682 -0.044,-0.046 -0.405,-0.327 -1.506,-0.618 z"
       fill="#020202"
       id="path103" />
    <ellipse
       cx="53.140118"
       cy="418.4986"
       fill="#ae0009"
       rx="6.0939999"
       ry="1.306"
       id="ellipse105" />
    <path
       d="m 53.140121,420.3046 c -1.102,0 -6.595,-0.087 -6.595,-1.806 0,-1.719 5.493,-1.806 6.595,-1.806 1.102,0 6.594,0.087 6.594,1.806 0,1.719 -5.492,1.806 -6.594,1.806 z m -5.513,-1.806 c 0.483,0.317 2.361,0.806 5.513,0.806 3.15,0 5.028,-0.488 5.512,-0.806 -0.483,-0.317 -2.361,-0.806 -5.512,-0.806 -3.151,0 -5.029,0.489 -5.513,0.806 z"
       fill="#020202"
       id="path107" />
    <path
       d="m 82.730121,417.9256 v -4.085 c 0,0.721 -2.728,1.306 -6.094,1.306 -3.366,0 -6.094,-0.585 -6.094,-1.306 v 4.085 -0.078 c 1.558,0.367 3.71,0.594 6.087,0.594 2.385,0 4.543,-0.228 6.102,-0.597"
       fill="#ffffff"
       id="path109" />
    <path
       d="m 76.628121,418.9416 c -2.339,0 -4.541,-0.216 -6.201,-0.607 l 0.096,-0.409 h -0.481 v -4.084 h 1 c 0.193,0.212 2.12,0.806 5.594,0.806 3.474,0 5.401,-0.594 5.617,-0.897 l 0.978,0.092 v 4.084 h -0.48 l 0.096,0.405 c -1.667,0.393 -3.875,0.61 -6.219,0.61 z m -5.587,-1.495 c 1.538,0.32 3.502,0.495 5.587,0.495 2.091,0 4.06,-0.176 5.602,-0.499 v -2.539 c -1.638,0.696 -4.79,0.743 -5.595,0.743 -0.805,0 -3.956,-0.047 -5.594,-0.743 z"
       fill="#020202"
       id="path111" />
    <path
       d="m 70.526121,417.8476 v -2.568 c -1.537,0.329 -2.487,0.782 -2.487,1.282 0,0.502 0.956,0.957 2.502,1.286"
       fill="#ffffff"
       id="path113" />
    <path
       d="m 70.437121,418.3376 c -1.977,-0.421 -2.897,-0.985 -2.897,-1.775 0,-0.787 0.916,-1.351 2.882,-1.771 l 0.604,-0.129 v 3.187 h -0.484 z m -0.411,-2.424 c -1.092,0.292 -1.447,0.58 -1.491,0.679 0.043,0.048 0.399,0.328 1.491,0.619 z"
       fill="#020202"
       id="path115" />
    <path
       d="m 82.731121,417.8446 v -2.564 c 1.546,0.329 2.501,0.782 2.501,1.282 0,0.5 -0.956,0.953 -2.501,1.282 z"
       fill="#ffffff"
       id="path117" />
    <path
       d="m 82.231121,418.4616 v -3.799 l 0.604,0.128 c 1.976,0.421 2.896,0.983 2.896,1.771 0,0.789 -0.921,1.352 -2.897,1.771 z m 1,-2.549 v 1.3 c 1.103,-0.293 1.462,-0.582 1.506,-0.681 -0.044,-0.047 -0.405,-0.328 -1.506,-0.619 z"
       fill="#020202"
       id="path119" />
    <ellipse
       cx="76.636116"
       cy="413.79059"
       fill="#ffffff"
       rx="6.0939999"
       ry="1.306"
       id="ellipse121" />
    <path
       d="m 76.635121,415.5976 c -1.102,0 -6.594,-0.087 -6.594,-1.807 0,-1.719 5.492,-1.806 6.594,-1.806 1.102,0 6.595,0.087 6.595,1.806 0,1.72 -5.493,1.807 -6.595,1.807 z m -5.512,-1.807 c 0.483,0.317 2.36,0.807 5.512,0.807 3.152,0 5.029,-0.489 5.513,-0.807 -0.483,-0.316 -2.362,-0.806 -5.513,-0.806 -3.151,0 -5.028,0.489 -5.512,0.806 z"
       fill="#020202"
       id="path123" />
    <path
       d="m 82.730121,423.0496 v -4.085 c 0,0.721 -2.728,1.306 -6.094,1.306 -3.366,0 -6.094,-0.585 -6.094,-1.306 v 4.085 -0.078 c 1.558,0.367 3.71,0.594 6.087,0.594 2.385,0 4.543,-0.228 6.102,-0.597"
       fill="#ffffff"
       id="path125" />
    <path
       d="m 76.628121,424.0656 c -2.339,0 -4.541,-0.216 -6.201,-0.607 l 0.096,-0.408 h -0.481 v -4.085 h 1 c 0.193,0.212 2.12,0.806 5.594,0.806 3.474,0 5.401,-0.594 5.617,-0.897 l 0.978,0.092 v 4.085 h -0.48 l 0.096,0.404 c -1.667,0.393 -3.875,0.61 -6.219,0.61 z m -5.587,-1.495 c 1.538,0.32 3.502,0.495 5.587,0.495 2.091,0 4.06,-0.176 5.602,-0.499 v -2.539 c -1.638,0.696 -4.79,0.743 -5.595,0.743 -0.805,0 -3.956,-0.047 -5.594,-0.743 z"
       fill="#020202"
       id="path127" />
    <path
       d="m 70.526121,422.9726 v -2.568 c -1.537,0.329 -2.487,0.782 -2.487,1.282 0,0.502 0.956,0.957 2.502,1.286"
       fill="#ffffff"
       id="path129" />
    <path
       d="m 70.437121,423.4616 c -1.977,-0.421 -2.897,-0.985 -2.897,-1.774 0,-0.789 0.916,-1.352 2.882,-1.771 l 0.604,-0.129 v 3.186 h -0.484 z m -0.411,-2.424 c -1.093,0.292 -1.448,0.58 -1.491,0.679 0.044,0.048 0.399,0.328 1.491,0.619 z"
       fill="#020202"
       id="path131" />
    <path
       d="m 82.731121,422.9686 v -2.564 c 1.546,0.329 2.501,0.782 2.501,1.282 0,0.5 -0.956,0.953 -2.501,1.282 z"
       fill="#ffffff"
       id="path133" />
    <path
       d="m 82.231121,423.5856 v -3.798 l 0.604,0.128 c 1.977,0.42 2.897,0.982 2.897,1.771 0,0.789 -0.921,1.352 -2.897,1.771 z m 1,-2.549 v 1.3 c 1.103,-0.293 1.462,-0.582 1.506,-0.681 -0.044,-0.047 -0.405,-0.328 -1.506,-0.619 z"
       fill="#020202"
       id="path135" />
    <ellipse
       cx="76.636116"
       cy="418.91458"
       fill="#ffffff"
       rx="6.0939999"
       ry="1.306"
       id="ellipse137" />
    <path
       d="m 76.635121,420.7216 c -1.102,0 -6.594,-0.087 -6.594,-1.806 0,-1.72 5.492,-1.807 6.594,-1.807 1.102,0 6.595,0.087 6.595,1.807 0,1.719 -5.493,1.806 -6.595,1.806 z m -5.512,-1.806 c 0.483,0.316 2.361,0.806 5.512,0.806 3.151,0 5.029,-0.489 5.513,-0.806 -0.483,-0.317 -2.361,-0.807 -5.513,-0.807 -3.152,0 -5.028,0.49 -5.512,0.807 z"
       fill="#020202"
       id="path139" />
    <path
       d="m 106.16212,417.9256 v -4.085 c 0,0.721 -2.728,1.306 -6.094,1.306 -3.365999,0 -6.093999,-0.585 -6.093999,-1.306 v 4.085 -0.078 c 1.558,0.367 3.71,0.594 6.086999,0.594 2.385,0 4.543,-0.228 6.102,-0.597"
       fill="#4b92e2"
       id="path141" />
    <path
       d="m 100.06112,418.9416 c -2.338999,0 -4.540999,-0.216 -6.200999,-0.607 l 0.096,-0.409 h -0.482 v -4.084 h 1 c 0.193,0.212 2.12,0.806 5.593999,0.806 3.474,0 5.4,-0.594 5.616,-0.897 l 0.978,0.092 v 4.084 h -0.479 l 0.096,0.405 c -1.666,0.393 -3.874,0.61 -6.218,0.61 z m -5.586999,-1.495 c 1.538,0.32 3.502,0.495 5.586999,0.495 2.09,0 4.059,-0.176 5.601,-0.498 v -2.54 c -1.638,0.696 -4.789,0.743 -5.594,0.743 -0.804999,0 -3.955999,-0.047 -5.593999,-0.743 z"
       fill="#020202"
       id="path143" />
    <path
       d="m 93.958121,417.8476 v -2.568 c -1.537,0.329 -2.487,0.782 -2.487,1.282 0,0.502 0.956,0.957 2.502,1.286"
       fill="#4b92e2"
       id="path145" />
    <path
       d="m 93.870121,418.3376 c -1.977,-0.421 -2.897,-0.985 -2.897,-1.775 0,-0.787 0.916,-1.351 2.882,-1.771 l 0.604,-0.129 v 3.187 h -0.485 z m -0.412,-2.424 c -1.092,0.292 -1.447,0.58 -1.491,0.679 0.043,0.048 0.399,0.328 1.491,0.619 z"
       fill="#020202"
       id="path147" />
    <path
       d="m 106.16312,417.8446 v -2.564 c 1.546,0.329 2.501,0.782 2.501,1.282 0,0.5 -0.955,0.953 -2.501,1.282 z"
       fill="#4b92e2"
       id="path149" />
    <path
       d="m 105.66412,418.4616 v -3.8 l 0.604,0.129 c 1.976,0.421 2.896,0.984 2.896,1.771 0,0.789 -0.921,1.352 -2.897,1.771 z m 1,-2.549 v 1.3 c 1.103,-0.293 1.462,-0.582 1.506,-0.681 -0.045,-0.046 -0.405,-0.328 -1.506,-0.619 z"
       fill="#020202"
       id="path151" />
    <ellipse
       cx="100.06812"
       cy="413.79059"
       fill="#4b92e2"
       rx="6.0939999"
       ry="1.306"
       id="ellipse153" />
    <path
       d="m 100.06812,415.5976 c -1.101999,0 -6.593999,-0.087 -6.593999,-1.807 0,-1.719 5.492,-1.806 6.593999,-1.806 1.102,0 6.594,0.087 6.594,1.806 0,1.72 -5.493,1.807 -6.594,1.807 z m -5.511999,-1.807 c 0.483,0.317 2.36,0.807 5.511999,0.807 3.152,0 5.029,-0.489 5.512,-0.807 -0.483,-0.316 -2.361,-0.806 -5.512,-0.806 -3.150999,0 -5.027999,0.489 -5.511999,0.806 z"
       fill="#020202"
       id="path155" />
    <path
       d="m 106.16212,423.0496 v -4.085 c 0,0.721 -2.728,1.306 -6.094,1.306 -3.365999,0 -6.093999,-0.585 -6.093999,-1.306 v 4.085 -0.078 c 1.558,0.367 3.71,0.594 6.086999,0.594 2.385,0 4.543,-0.228 6.102,-0.597"
       fill="#4b92e2"
       id="path157" />
    <path
       d="m 100.06112,424.0656 c -2.338999,0 -4.540999,-0.216 -6.200999,-0.607 l 0.096,-0.408 h -0.482 v -4.085 h 1 c 0.193,0.212 2.12,0.806 5.593999,0.806 3.474,0 5.401,-0.594 5.617,-0.897 l 0.978,0.092 v 4.085 h -0.48 l 0.096,0.404 c -1.666,0.393 -3.874,0.61 -6.218,0.61 z m -5.586999,-1.495 c 1.538,0.32 3.502,0.495 5.586999,0.495 2.091,0 4.06,-0.176 5.602,-0.499 v -2.539 c -1.638,0.696 -4.79,0.743 -5.595,0.743 -0.804999,0 -3.955999,-0.047 -5.593999,-0.743 z"
       fill="#020202"
       id="path159" />
    <path
       d="m 93.958121,422.9726 v -2.568 c -1.537,0.329 -2.487,0.782 -2.487,1.282 0,0.502 0.956,0.957 2.502,1.286"
       fill="#4b92e2"
       id="path161" />
    <path
       d="m 93.870121,423.4616 c -1.977,-0.421 -2.897,-0.985 -2.897,-1.774 0,-0.789 0.916,-1.352 2.882,-1.771 l 0.604,-0.129 v 3.186 h -0.485 z m -0.412,-2.424 c -1.093,0.292 -1.448,0.58 -1.491,0.679 0.044,0.048 0.399,0.328 1.491,0.619 z"
       fill="#020202"
       id="path163" />
    <path
       d="m 106.16312,422.9686 v -2.564 c 1.546,0.329 2.501,0.782 2.501,1.282 0,0.5 -0.955,0.953 -2.501,1.282 z"
       fill="#4b92e2"
       id="path165" />
    <path
       d="m 105.66412,423.5856 v -3.798 l 0.604,0.128 c 1.977,0.42 2.897,0.982 2.897,1.771 0,0.789 -0.921,1.352 -2.897,1.771 z m 1,-2.549 v 1.3 c 1.103,-0.293 1.462,-0.582 1.506,-0.681 -0.045,-0.047 -0.405,-0.328 -1.506,-0.619 z"
       fill="#020202"
       id="path167" />
    <ellipse
       cx="100.06812"
       cy="418.91458"
       fill="#4b92e2"
       rx="6.0939999"
       ry="1.306"
       id="ellipse169" />
    <path
       d="m 100.06812,420.7216 c -1.101999,0 -6.593999,-0.087 -6.593999,-1.806 0,-1.72 5.492,-1.807 6.593999,-1.807 1.102,0 6.595,0.087 6.595,1.807 0,1.719 -5.494,1.806 -6.595,1.806 z m -5.511999,-1.806 c 0.483,0.316 2.361,0.806 5.511999,0.806 3.151,0 5.029,-0.489 5.513,-0.806 -0.483,-0.317 -2.361,-0.807 -5.513,-0.807 -3.151999,0 -5.027999,0.49 -5.511999,0.807 z"
       fill="#020202"
       id="path171" />
    <path
       d="m 27.636121,400.0996 h 5.02 v 15.706 h -5.02 z"
       fill="#b2aaab"
       id="path173" />
    <path
       d="m 27.136121,399.7516 h 1 v 16.054 h -1 z"
       id="path175" />
    <path
       d="m 32.156121,399.7516 h 1 v 16.054 h -1 z"
       id="path177" />
    <path
       d="m 128.17812,413.4276 v -4.085 c 0,0.721 -2.728,1.306 -6.094,1.306 -3.366,0 -6.094,-0.585 -6.094,-1.306 v 4.085 -0.078 c 1.558,0.367 3.71,0.594 6.087,0.594 2.385,0 4.543,-0.228 6.102,-0.597"
       fill="#ffffff"
       id="path503" />
    <path
       d="m 122.07712,414.4436 c -2.339,0 -4.541,-0.216 -6.201,-0.607 l 0.096,-0.408 h -0.481 v -4.085 h 1 c 0.193,0.212 2.121,0.806 5.595,0.806 3.474,0 5.4,-0.594 5.616,-0.897 l 0.978,0.092 v 4.085 h -0.48 l 0.096,0.404 c -1.667,0.393 -3.875,0.61 -6.219,0.61 z m -5.587,-1.495 c 1.538,0.32 3.502,0.495 5.587,0.495 2.091,0 4.061,-0.176 5.602,-0.498 v -2.54 c -1.638,0.696 -4.789,0.743 -5.594,0.743 -0.805,0 -3.957,-0.047 -5.595,-0.743 z"
       fill="#020202"
       id="path505" />
    <path
       d="m 115.97412,413.3496 v -2.568 c -1.537,0.329 -2.487,0.782 -2.487,1.282 0,0.502 0.956,0.957 2.502,1.286"
       fill="#ffffff"
       id="path507" />
    <path
       d="m 115.88512,413.8396 c -1.977,-0.421 -2.897,-0.985 -2.897,-1.774 0,-0.788 0.916,-1.351 2.882,-1.772 l 0.604,-0.129 v 3.187 h -0.484 z m -0.411,-2.424 c -1.093,0.292 -1.448,0.58 -1.491,0.679 0.044,0.048 0.399,0.328 1.491,0.619 z"
       fill="#020202"
       id="path509" />
    <path
       d="m 128.17912,413.3466 v -2.564 c 1.546,0.329 2.501,0.782 2.501,1.282 0,0.5 -0.955,0.953 -2.501,1.282 z"
       fill="#ffffff"
       id="path511" />
    <path
       d="m 127.67912,413.9636 v -3.799 l 0.604,0.128 c 1.976,0.421 2.896,0.983 2.896,1.771 0,0.789 -0.921,1.352 -2.897,1.771 z m 1,-2.549 v 1.3 c 1.103,-0.293 1.462,-0.582 1.506,-0.681 -0.044,-0.047 -0.404,-0.328 -1.506,-0.619 z"
       fill="#020202"
       id="path513" />
    <ellipse
       cx="122.08411"
       cy="409.2926"
       fill="#ffffff"
       rx="6.0939999"
       ry="1.306"
       id="ellipse515" />
    <path
       d="m 122.08412,411.0986 c -1.102,0 -6.595,-0.087 -6.595,-1.807 0,-1.719 5.493,-1.806 6.595,-1.806 1.102,0 6.594,0.087 6.594,1.806 0,1.721 -5.492,1.807 -6.594,1.807 z m -5.512,-1.806 c 0.483,0.317 2.361,0.807 5.513,0.807 3.152,0 5.028,-0.489 5.512,-0.807 -0.483,-0.316 -2.361,-0.806 -5.512,-0.806 -3.151,0 -5.03,0.489 -5.513,0.806 z"
       fill="#020202"
       id="path517" />
    <path
       d="m 153.23512,413.4916 v -4.085 c 0,0.721 -2.728,1.306 -6.094,1.306 -3.366,0 -6.094,-0.585 -6.094,-1.306 v 4.085 -0.078 c 1.558,0.367 3.71,0.594 6.087,0.594 2.385,0 4.543,-0.228 6.102,-0.597"
       fill="#ffffff"
       id="path519" />
    <path
       d="m 147.13312,414.5086 c -2.333,0 -4.535,-0.216 -6.2,-0.607 l 0.096,-0.409 h -0.481 v -4.085 h 1 c 0.193,0.212 2.12,0.807 5.594,0.807 3.474,0 5.4,-0.595 5.616,-0.897 l 0.978,0.091 v 4.085 h -0.48 l 0.096,0.405 c -1.666,0.393 -3.874,0.61 -6.219,0.61 z m -5.586,-1.495 c 1.541,0.32 3.505,0.495 5.586,0.495 2.091,0 4.061,-0.176 5.602,-0.498 v -2.54 c -1.638,0.696 -4.789,0.743 -5.594,0.743 -0.805,0 -3.956,-0.047 -5.594,-0.743 z"
       fill="#020202"
       id="path521" />
    <path
       d="m 141.03112,413.4146 v -2.568 c -1.537,0.329 -2.487,0.782 -2.487,1.282 0,0.502 0.956,0.957 2.502,1.286"
       fill="#ffffff"
       id="path523" />
    <path
       d="m 140.94312,413.9036 c -1.95,-0.415 -2.898,-0.996 -2.898,-1.775 0,-0.787 0.916,-1.35 2.883,-1.771 l 0.604,-0.129 v 3.187 h -0.484 z m -0.411,-2.424 c -1.093,0.292 -1.448,0.58 -1.492,0.679 0.044,0.048 0.4,0.328 1.492,0.619 z"
       fill="#020202"
       id="path525" />
    <path
       d="m 153.23612,413.4106 v -2.564 c 1.546,0.329 2.501,0.782 2.501,1.282 0,0.5 -0.955,0.953 -2.501,1.282 z"
       fill="#ffffff"
       id="path527" />
    <path
       d="m 152.73612,414.0276 v -3.799 l 0.604,0.128 c 1.977,0.421 2.897,0.984 2.897,1.771 0,0.789 -0.921,1.352 -2.898,1.771 z m 1,-2.549 v 1.3 c 1.103,-0.293 1.463,-0.582 1.507,-0.682 -0.044,-0.044 -0.405,-0.327 -1.507,-0.618 z"
       fill="#020202"
       id="path529" />
    <ellipse
       cx="147.14111"
       cy="409.3566"
       fill="#ffffff"
       rx="6.0939999"
       ry="1.306"
       id="ellipse531" />
    <path
       d="m 147.14112,411.1626 c -1.102,0 -6.594,-0.087 -6.594,-1.806 0,-1.719 5.492,-1.806 6.594,-1.806 1.102,0 6.594,0.087 6.594,1.806 0,1.719 -5.492,1.806 -6.594,1.806 z m -5.512,-1.806 c 0.483,0.317 2.361,0.806 5.512,0.806 3.151,0 5.028,-0.488 5.512,-0.806 -0.483,-0.317 -2.361,-0.806 -5.512,-0.806 -3.151,0 -5.028,0.489 -5.512,0.806 z"
       fill="#020202"
       id="path533" />
    <ellipse
       cx="30.148113"
       cy="390.84961"
       fill="#1a1818"
       rx="9.2670002"
       ry="9.25"
       id="ellipse775" />
    <path
       d="m 30.149121,400.5996 c -5.386,0 -9.768,-4.374 -9.768,-9.75 0,-5.376 4.382,-9.75 9.768,-9.75 5.386,0 9.767,4.374 9.767,9.75 0,5.376 -4.381,9.75 -9.767,9.75 z m 0,-18.5 c -4.834,0 -8.768,3.925 -8.768,8.75 0,4.825 3.934,8.75 8.768,8.75 4.834,0 8.767,-3.925 8.767,-8.75 0,-4.825 -3.933,-8.75 -8.767,-8.75 z"
       id="path777" />
    <path
       d="m 220.22712,417.7176 v -4.085 c 0,0.721 -2.728,1.306 -6.094,1.306 -3.366,0 -6.094,-0.585 -6.094,-1.306 v 4.085 -0.078 c 1.558,0.367 3.71,0.594 6.087,0.594 2.385,0 4.543,-0.228 6.102,-0.597"
       fill="#ffffff"
       id="path807" />
    <path
       d="m 214.12512,418.7336 c -2.334,0 -4.536,-0.216 -6.201,-0.607 l 0.096,-0.409 h -0.481 v -4.085 h 1 c 0.193,0.212 2.12,0.807 5.595,0.807 3.474,0 5.4,-0.595 5.616,-0.897 l 0.978,0.091 v 4.085 h -0.48 l 0.096,0.405 c -1.666,0.393 -3.874,0.61 -6.219,0.61 z m -5.586,-1.495 c 1.541,0.32 3.506,0.495 5.587,0.495 2.091,0 4.061,-0.176 5.602,-0.498 v -2.54 c -1.638,0.696 -4.789,0.743 -5.594,0.743 -0.805,0 -3.957,-0.047 -5.595,-0.743 z"
       fill="#020202"
       id="path809" />
    <path
       d="m 208.02312,417.6396 v -2.568 c -1.537,0.329 -2.487,0.782 -2.487,1.282 0,0.502 0.956,0.957 2.502,1.286"
       fill="#ffffff"
       id="path811" />
    <path
       d="m 207.93412,418.1296 c -1.949,-0.415 -2.897,-0.996 -2.897,-1.775 0,-0.787 0.916,-1.35 2.882,-1.771 l 0.604,-0.129 v 3.187 h -0.484 z m -0.411,-2.424 c -1.092,0.292 -1.447,0.58 -1.491,0.679 0.044,0.048 0.399,0.328 1.491,0.619 z"
       fill="#020202"
       id="path813" />
    <path
       d="m 220.22812,417.6366 v -2.564 c 1.546,0.329 2.501,0.782 2.501,1.282 0,0.5 -0.956,0.953 -2.501,1.282 z"
       fill="#ffffff"
       id="path815" />
    <path
       d="m 219.72812,418.2536 v -3.799 l 0.604,0.128 c 1.976,0.421 2.896,0.983 2.896,1.771 0,0.778 -0.947,1.357 -2.897,1.771 z m 1,-2.549 v 1.3 c 1.102,-0.293 1.462,-0.582 1.506,-0.682 -0.044,-0.046 -0.404,-0.327 -1.506,-0.618 z"
       fill="#020202"
       id="path817" />
    <ellipse
       cx="214.13312"
       cy="413.58258"
       fill="#ffffff"
       rx="6.0939999"
       ry="1.306"
       id="ellipse819" />
    <path
       d="m 214.13312,415.3886 c -1.102,0 -6.595,-0.087 -6.595,-1.806 0,-1.719 5.493,-1.806 6.595,-1.806 1.102,0 6.594,0.087 6.594,1.806 0,1.719 -5.492,1.806 -6.594,1.806 z m -5.512,-1.806 c 0.483,0.317 2.361,0.806 5.513,0.806 3.15,0 5.028,-0.488 5.512,-0.806 -0.483,-0.317 -2.361,-0.806 -5.512,-0.806 -3.151,0 -5.03,0.489 -5.513,0.806 z"
       fill="#020202"
       id="path821" />
    <path
       d="m 220.22712,422.8416 v -4.085 c 0,0.721 -2.728,1.306 -6.094,1.306 -3.366,0 -6.094,-0.585 -6.094,-1.306 v 4.085 -0.078 c 1.558,0.367 3.71,0.594 6.087,0.594 2.385,0 4.543,-0.228 6.102,-0.597"
       fill="#ffffff"
       id="path823" />
    <path
       d="m 214.12512,423.8576 c -2.339,0 -4.541,-0.216 -6.201,-0.607 l 0.096,-0.409 h -0.481 v -4.084 h 1 c 0.193,0.212 2.121,0.806 5.595,0.806 3.474,0 5.4,-0.594 5.616,-0.897 l 0.978,0.092 v 4.084 h -0.48 l 0.096,0.405 c -1.666,0.393 -3.874,0.61 -6.219,0.61 z m -5.586,-1.495 c 1.538,0.32 3.502,0.495 5.587,0.495 2.091,0 4.061,-0.176 5.602,-0.498 v -2.54 c -1.638,0.696 -4.789,0.743 -5.594,0.743 -0.805,0 -3.957,-0.047 -5.595,-0.743 z"
       fill="#020202"
       id="path825" />
    <path
       d="m 208.02312,422.7636 v -2.568 c -1.537,0.329 -2.487,0.782 -2.487,1.282 0,0.502 0.956,0.957 2.502,1.286"
       fill="#ffffff"
       id="path827" />
    <path
       d="m 207.93412,423.2536 c -1.977,-0.421 -2.897,-0.985 -2.897,-1.775 0,-0.787 0.916,-1.35 2.882,-1.771 l 0.604,-0.129 v 3.187 h -0.484 z m -0.411,-2.424 c -1.092,0.292 -1.447,0.58 -1.491,0.679 0.043,0.048 0.399,0.328 1.491,0.619 z"
       fill="#020202"
       id="path829" />
    <path
       d="m 220.22812,422.7606 v -2.564 c 1.546,0.329 2.501,0.782 2.501,1.282 0,0.5 -0.955,0.953 -2.501,1.282 z"
       fill="#ffffff"
       id="path831" />
    <path
       d="m 219.72812,423.3776 v -3.799 l 0.604,0.128 c 1.976,0.421 2.896,0.983 2.896,1.771 0,0.789 -0.921,1.352 -2.897,1.771 z m 1,-2.549 v 1.3 c 1.103,-0.293 1.462,-0.582 1.506,-0.681 -0.044,-0.047 -0.404,-0.328 -1.506,-0.619 z"
       fill="#020202"
       id="path833" />
    <ellipse
       cx="214.13312"
       cy="418.7066"
       fill="#ffffff"
       rx="6.0939999"
       ry="1.306"
       id="ellipse835" />
    <path
       d="m 214.13312,420.5136 c -1.102,0 -6.595,-0.087 -6.595,-1.807 0,-1.719 5.493,-1.806 6.595,-1.806 1.102,0 6.594,0.087 6.594,1.806 0,1.72 -5.492,1.807 -6.594,1.807 z m -5.512,-1.807 c 0.483,0.317 2.361,0.807 5.513,0.807 3.152,0 5.028,-0.489 5.512,-0.807 -0.483,-0.316 -2.361,-0.806 -5.512,-0.806 -3.151,0 -5.03,0.49 -5.513,0.806 z"
       fill="#020202"
       id="path837" />
    <path
       d="m 243.65912,417.7176 v -4.085 c 0,0.721 -2.728,1.306 -6.094,1.306 -3.366,0 -6.094,-0.585 -6.094,-1.306 v 4.085 -0.078 c 1.558,0.367 3.71,0.594 6.087,0.594 2.385,0 4.543,-0.228 6.102,-0.597"
       fill="#4b92e2"
       id="path839" />
    <path
       d="m 237.55812,418.7336 c -2.334,0 -4.536,-0.216 -6.201,-0.607 l 0.096,-0.409 h -0.481 v -4.085 h 1 c 0.193,0.212 2.12,0.807 5.594,0.807 3.475,0 5.401,-0.595 5.617,-0.897 l 0.978,0.091 v 4.085 h -0.48 l 0.096,0.405 c -1.666,0.393 -3.874,0.61 -6.219,0.61 z m -5.587,-1.495 c 1.541,0.32 3.506,0.495 5.587,0.495 2.091,0 4.061,-0.176 5.602,-0.498 v -2.54 c -1.638,0.696 -4.79,0.743 -5.595,0.743 -0.805,0 -3.956,-0.047 -5.594,-0.743 z"
       fill="#020202"
       id="path841" />
    <path
       d="m 231.45612,417.6396 v -2.568 c -1.537,0.329 -2.487,0.782 -2.487,1.282 0,0.502 0.956,0.957 2.502,1.286"
       fill="#4b92e2"
       id="path843" />
    <path
       d="m 231.36712,418.1296 c -1.949,-0.415 -2.897,-0.996 -2.897,-1.775 0,-0.787 0.916,-1.35 2.882,-1.771 l 0.604,-0.129 v 3.187 h -0.484 z m -0.411,-2.424 c -1.092,0.292 -1.447,0.58 -1.491,0.679 0.044,0.048 0.399,0.328 1.491,0.619 z"
       fill="#020202"
       id="path845" />
    <path
       d="m 243.66012,417.6366 v -2.564 c 1.546,0.329 2.501,0.782 2.501,1.282 10e-4,0.5 -0.955,0.953 -2.501,1.282 z"
       fill="#4b92e2"
       id="path847" />
    <path
       d="m 243.16112,418.2536 v -3.799 l 0.604,0.128 c 1.976,0.421 2.896,0.983 2.896,1.771 0,0.778 -0.947,1.357 -2.897,1.771 z m 1,-2.549 v 1.3 c 1.102,-0.293 1.462,-0.582 1.506,-0.682 -0.044,-0.046 -0.405,-0.327 -1.506,-0.618 z"
       fill="#020202"
       id="path849" />
    <ellipse
       cx="237.56512"
       cy="413.58258"
       fill="#4b92e2"
       rx="6.0939999"
       ry="1.306"
       id="ellipse851" />
    <path
       d="m 237.56512,415.3886 c -1.102,0 -6.594,-0.087 -6.594,-1.806 0,-1.719 5.492,-1.806 6.594,-1.806 1.102,0 6.595,0.087 6.595,1.806 0,1.719 -5.494,1.806 -6.595,1.806 z m -5.512,-1.806 c 0.483,0.317 2.361,0.806 5.512,0.806 3.151,0 5.029,-0.488 5.513,-0.806 -0.483,-0.317 -2.362,-0.806 -5.513,-0.806 -3.151,0 -5.028,0.489 -5.512,0.806 z"
       fill="#020202"
       id="path853" />
    <path
       d="m 243.66012,422.8416 v -4.085 c 0,0.721 -2.728,1.306 -6.094,1.306 -3.366,0 -6.094,-0.585 -6.094,-1.306 v 4.085 -0.078 c 1.558,0.367 3.71,0.594 6.087,0.594 2.385,0 4.543,-0.228 6.102,-0.597"
       fill="#4b92e2"
       id="path855" />
    <path
       d="m 237.55812,423.8576 c -2.339,0 -4.541,-0.216 -6.201,-0.607 l 0.096,-0.409 h -0.481 v -4.084 h 1 c 0.193,0.212 2.121,0.806 5.595,0.806 3.474,0 5.4,-0.594 5.616,-0.897 l 0.978,0.092 v 4.084 h -0.48 l 0.096,0.405 c -1.666,0.393 -3.874,0.61 -6.219,0.61 z m -5.587,-1.495 c 1.538,0.32 3.502,0.495 5.587,0.495 2.091,0 4.061,-0.176 5.602,-0.498 v -2.54 c -1.638,0.696 -4.789,0.743 -5.594,0.743 -0.805,0 -3.957,-0.047 -5.595,-0.743 z"
       fill="#020202"
       id="path857" />
    <path
       d="m 231.45612,422.7636 v -2.568 c -1.537,0.329 -2.487,0.782 -2.487,1.282 0,0.502 0.956,0.957 2.502,1.286"
       fill="#4b92e2"
       id="path859" />
    <path
       d="m 231.36712,423.2536 c -1.977,-0.421 -2.897,-0.985 -2.897,-1.775 0,-0.787 0.916,-1.35 2.882,-1.771 l 0.604,-0.129 v 3.187 h -0.484 z m -0.411,-2.424 c -1.092,0.292 -1.447,0.58 -1.491,0.679 0.043,0.048 0.399,0.328 1.491,0.619 z"
       fill="#020202"
       id="path861" />
    <path
       d="m 243.66012,422.7606 v -2.564 c 1.546,0.329 2.501,0.782 2.501,1.282 10e-4,0.5 -0.955,0.953 -2.501,1.282 z"
       fill="#4b92e2"
       id="path863" />
    <path
       d="m 243.16112,423.3776 v -3.799 l 0.604,0.128 c 1.976,0.421 2.896,0.983 2.896,1.771 0,0.789 -0.921,1.352 -2.897,1.771 z m 1,-2.549 v 1.3 c 1.103,-0.293 1.462,-0.582 1.506,-0.681 -0.044,-0.047 -0.405,-0.328 -1.506,-0.619 z"
       fill="#020202"
       id="path865" />
    <ellipse
       cx="237.56512"
       cy="418.7066"
       fill="#4b92e2"
       rx="6.0939999"
       ry="1.306"
       id="ellipse867" />
    <path
       d="m 237.56612,420.5136 c -1.102,0 -6.595,-0.087 -6.595,-1.807 0,-1.719 5.493,-1.806 6.595,-1.806 1.102,0 6.594,0.087 6.594,1.806 0,1.72 -5.493,1.807 -6.594,1.807 z m -5.513,-1.807 c 0.483,0.317 2.361,0.807 5.513,0.807 3.152,0 5.028,-0.489 5.512,-0.807 -0.483,-0.316 -2.361,-0.806 -5.512,-0.806 -3.151,0 -5.029,0.49 -5.513,0.806 z"
       fill="#020202"
       id="path869" />
    <path
       d="m 178.01412,417.6366 c 0,2.679 -4.776,4.85 -10.667,4.85 -5.891,0 -10.667,-2.172 -10.667,-4.85"
       fill="#848383"
       id="path871" />
    <path
       d="m 167.34712,422.9876 c -6.262,0 -11.167,-2.351 -11.167,-5.351 h 1 c 0,2.358 4.656,4.351 10.167,4.351 5.511,0 10.167,-1.992 10.167,-4.351 h 1 c 0,3.001 -4.905,5.351 -11.167,5.351 z"
       id="path873" />
    <ellipse
       cx="167.34712"
       cy="417.6366"
       fill="#666565"
       rx="10.667"
       ry="3.017"
       id="ellipse875" />
    <path
       d="m 167.34712,421.1536 c -5.549,0 -11.167,-1.208 -11.167,-3.517 0,-2.31 5.618,-3.518 11.167,-3.518 5.549,0 11.167,1.208 11.167,3.518 0,2.309 -5.618,3.517 -11.167,3.517 z m 0,-6.034 c -6.206,0 -10.167,1.491 -10.167,2.518 0,1.027 3.961,2.517 10.167,2.517 6.206,0 10.167,-1.49 10.167,-2.517 0,-1.027 -3.961,-2.518 -10.167,-2.518 z"
       id="path877" />
    <path
       d="m 164.83512,400.0996 h 5.02 v 15.706 h -5.02 z"
       fill="#b2aaab"
       id="path879" />
    <path
       d="m 164.33412,399.7516 h 1 v 16.054 h -1 z"
       id="path881" />
    <path
       d="m 169.35512,399.7516 h 1 v 16.054 h -1 z"
       id="path883" />
    <ellipse
       cx="167.34712"
       cy="390.84961"
       fill="#1a1818"
       rx="9.2670002"
       ry="9.25"
       id="ellipse885" />
    <path
       d="m 167.34712,400.5996 c -5.386,0 -9.768,-4.374 -9.768,-9.75 0,-5.376 4.382,-9.75 9.768,-9.75 5.386,0 9.767,4.374 9.767,9.75 0,5.376 -4.381,9.75 -9.767,9.75 z m 0,-18.5 c -4.834,0 -8.768,3.925 -8.768,8.75 0,4.825 3.934,8.75 8.768,8.75 4.834,0 8.767,-3.925 8.767,-8.75 0,-4.825 -3.933,-8.75 -8.767,-8.75 z"
       id="path887" />
  </g>
  <g
     aria-label="CLASSICS"
     id="g1309"
     style="font-size:25.4px;line-height:1.25;font-family:'Patrick Hand SC';-inkscape-font-specification:'Patrick Hand SC, Normal';fill:#ffffff;stroke-width:0.264583"
     transform="matrix(0.85060185,0,0,0.85060185,28.967418,-18.052274)">
    <path
       d="m 30.901226,138.04781 v -2.1084 h -2.108398 v -14.8208 h 2.108398 v -2.1208 h 8.470801 v 2.1208 h 2.1208 v 4.2292 h -4.241601 v -4.2292 h -4.229199 v 14.8208 h 4.229199 v -4.2416 h 4.241601 v 4.2416 h -2.1208 v 2.1084 z"
       style="font-family:'BIG SHOT';-inkscape-font-specification:'BIG SHOT, Normal';fill:#ffffff"
       id="path1293" />
    <path
       d="m 45.722027,138.04781 v -19.05 h 4.229199 v 16.9416 h 8.470801 v 2.1084 z"
       style="font-family:'BIG SHOT';-inkscape-font-specification:'BIG SHOT, Normal';fill:#ffffff"
       id="path1295" />
    <path
       d="m 71.109624,129.58941 v -8.4708 h -4.229199 v 8.4708 z m -8.458398,8.4584 v -16.9292 h 2.108398 v -2.1208 h 8.470801 v 2.1208 h 2.120801 v 16.9292 h -4.241602 v -6.35 h -4.229199 v 6.35 z"
       style="font-family:'BIG SHOT';-inkscape-font-specification:'BIG SHOT, Normal';fill:#ffffff"
       id="path1297" />
    <path
       d="m 81.688824,138.04781 v -2.1084 h -2.108399 v -4.2416 h 4.229199 v 4.2416 h 4.2292 v -6.35 h -6.35 v -2.1208 h -2.108399 v -6.35 h 2.108399 v -2.1208 h 8.4708 v 2.1208 h 2.120801 v 4.2292 h -4.241601 v -4.2292 h -4.2292 v 6.35 h 6.35 v 2.1208 h 2.120801 v 6.35 h -2.120801 v 2.1084 z"
       style="font-family:'BIG SHOT';-inkscape-font-specification:'BIG SHOT, Normal';fill:#ffffff"
       id="path1299" />
    <path
       d="m 98.618023,138.04781 v -2.1084 h -2.108399 v -4.2416 h 4.229196 v 4.2416 h 4.2292 v -6.35 h -6.349997 v -2.1208 h -2.108399 v -6.35 h 2.108399 v -2.1208 h 8.470797 v 2.1208 h 2.1208 v 4.2292 h -4.2416 v -4.2292 h -4.2292 v 6.35 h 6.35 v 2.1208 h 2.1208 v 6.35 h -2.1208 v 2.1084 z"
       style="font-family:'BIG SHOT';-inkscape-font-specification:'BIG SHOT, Normal';fill:#ffffff"
       id="path1301" />
    <path
       d="m 113.43882,138.04781 v -2.1084 h 4.2292 v -14.8208 h -4.2292 v -2.1208 h 12.7 v 2.1208 h -4.2416 v 14.8208 h 4.2416 v 2.1084 z"
       style="font-family:'BIG SHOT';-inkscape-font-specification:'BIG SHOT, Normal';fill:#ffffff"
       id="path1303" />
    <path
       d="m 132.47642,138.04781 v -2.1084 h -2.1084 v -14.8208 h 2.1084 v -2.1208 h 8.4708 v 2.1208 h 2.1208 v 4.2292 h -4.2416 v -4.2292 h -4.2292 v 14.8208 h 4.2292 v -4.2416 h 4.2416 v 4.2416 h -2.1208 v 2.1084 z"
       style="font-family:'BIG SHOT';-inkscape-font-specification:'BIG SHOT, Normal';fill:#ffffff"
       id="path1305" />
    <path
       d="m 149.40562,138.04781 v -2.1084 h -2.1084 v -4.2416 h 4.2292 v 4.2416 h 4.2292 v -6.35 h -6.35 v -2.1208 h -2.1084 v -6.35 h 2.1084 v -2.1208 h 8.4708 v 2.1208 h 2.1208 v 4.2292 h -4.2416 v -4.2292 h -4.2292 v 6.35 h 6.35 v 2.1208 h 2.1208 v 6.35 h -2.1208 v 2.1084 z"
       style="font-family:'BIG SHOT';-inkscape-font-specification:'BIG SHOT, Normal';fill:#ffffff"
       id="path1307" />
  </g>
  <path
     d="M 29.358,109.456 H 188.975 V 212.831 H 29.358 Z"
     stroke="#000000"
     stroke-miterlimit="10"
     id="path14" />
</svg>
