<?xml version="1.0" encoding="UTF-8" standalone="no"?>
<svg
   viewBox="0 0 387.41699 468.42499"
   version="1.1"
   id="svg4"
   sodipodi:docname="auto-strategytowerdefense.svg"
   width="387.41699"
   height="468.42499"
   inkscape:version="1.1 (c68e22c387, 2021-05-23)"
   xmlns:inkscape="http://www.inkscape.org/namespaces/inkscape"
   xmlns:sodipodi="http://sodipodi.sourceforge.net/DTD/sodipodi-0.dtd"
   xmlns="http://www.w3.org/2000/svg"
   xmlns:svg="http://www.w3.org/2000/svg">
  <defs
     id="defs8" />
  <sodipodi:namedview
     id="namedview6"
     pagecolor="#ffffff"
     bordercolor="#666666"
     borderopacity="1.0"
     inkscape:pageshadow="2"
     inkscape:pageopacity="0.0"
     inkscape:pagecheckerboard="0"
     showgrid="false"
     fit-margin-top="0"
     fit-margin-left="0"
     fit-margin-right="0"
     fit-margin-bottom="0"
     inkscape:zoom="1.4707031"
     inkscape:cx="170.32669"
     inkscape:cy="233.22178"
     inkscape:window-width="1920"
     inkscape:window-height="1138"
     inkscape:window-x="-8"
     inkscape:window-y="-8"
     inkscape:window-maximized="1"
     inkscape:current-layer="svg4" />
  <path
     d="m 5.238,0.003 v 84.368 l 46.434,57.56 v 16.166 l 98.93,44.13 27.29,-34.305 65.9,4.01 v -30 L 290.225,84.37 V 0 H 241.309 V 39.796 H 211.535 V 0.003 h -49.45 v 39.794 h -29.24 V 0.003 H 83.395 V 39.797 H 54.152 V 0.003 Z M 51.672,178.56 V 373.73 H 21.792 L 0,468.425 h 295.463 l -21.79,-94.695 h -29.882 v -25.847 l -38.72,-24.07 -23.712,29.292 28.432,25.737 -12.543,13.854 -41.543,-37.603 33.37,-41.222 -91.65,-56.973 33.288,-43.082 -79.04,-35.256 z m 155.013,19.11 19.04,34.994 31.005,-5.405 -17.287,-29.588 h -32.758 z m 66.682,10.088 17.293,74.527 55.553,2.068 -13.442,-57.967 z m -135.47,27.328 -13.034,16.865 37.393,23.244 18.167,-20.61 -42.526,-19.5 z m 73.115,13.056 -32.66,37.056 65.44,40.68 v -49.815 l -32.78,-27.92 z m 85.154,51.745 -5.16,29.584 33.49,18.158 -0.093,-31.258 -28.236,-16.485 z m 79.91,6.928 -23.073,23.197 8.697,33.106 25.717,-18.08 -11.34,-38.223 z m -65.85,68.992 -10.97,36.977 24.88,17.49 8.414,-32.025 -22.323,-22.442 z"
     fill="#000000"
     id="path2"
     style="fill:#ffffff" />
</svg>
