<?xml version="1.0" encoding="UTF-8" standalone="no"?>
<svg
   viewBox="0 0 485.73401 441.88501"
   version="1.1"
   id="svg4"
   sodipodi:docname="auto-rpgjapanese.svg"
   width="485.73401"
   height="441.88501"
   inkscape:version="1.1 (c68e22c387, 2021-05-23)"
   xmlns:inkscape="http://www.inkscape.org/namespaces/inkscape"
   xmlns:sodipodi="http://sodipodi.sourceforge.net/DTD/sodipodi-0.dtd"
   xmlns="http://www.w3.org/2000/svg"
   xmlns:svg="http://www.w3.org/2000/svg">
  <defs
     id="defs8" />
  <sodipodi:namedview
     id="namedview6"
     pagecolor="#ffffff"
     bordercolor="#666666"
     borderopacity="1.0"
     inkscape:pageshadow="2"
     inkscape:pageopacity="0.0"
     inkscape:pagecheckerboard="0"
     showgrid="false"
     fit-margin-top="0"
     fit-margin-left="0"
     fit-margin-right="0"
     fit-margin-bottom="0"
     inkscape:zoom="0.73535156"
     inkscape:cx="244.10093"
     inkscape:cy="208.06374"
     inkscape:window-width="1920"
     inkscape:window-height="1138"
     inkscape:window-x="-8"
     inkscape:window-y="-8"
     inkscape:window-maximized="1"
     inkscape:current-layer="svg4" />
  <path
     fill="#000000"
     d="m 142.672,0 a 96,96 0 0 0 -96,96 96,96 0 0 0 96,96 96,96 0 0 0 14.176,-1.136 c 6.022,-12.03 11.431,-23.802 15.906,-35.06 l 2.248,-5.653 47.04,-0.172 A 96,96 0 0 0 238.672,96 a 96,96 0 0 0 -96,-96 z m 43.756,167.885 -2.405,5.254 C 142.349,264.194 85.266,348.572 13.771,426.815 L 0,441.885 h 485.734 l -9.953,-14.172 C 415.326,341.635 346.356,255.527 316.883,173.83 l -2.147,-5.945 z m -7.83,56.92 8.687,48.08 19.666,-43.785 21.465,43.785 24.78,-48 7.22,64 24.385,-64 39.615,48 -2.865,-43.973 c 33.245,65.197 83.283,130.358 129.328,194.973 H 40.352 c 55.01,-62.373 101.316,-128.65 138.246,-199.08 z"
     id="path2"
     style="fill:#ffffff" />
</svg>
