<?xml version="1.0" encoding="UTF-8" standalone="no"?>
<svg
   version="1.0"
   width="307.840919pt"
   height="431.920564pt"
   viewBox="0 0 307.840919 431.920564"
   preserveAspectRatio="xMidYMid meet"
   id="svg14"
   sodipodi:docname="auto-adventuresurvivalhorror.svg"
   inkscape:version="1.1 (c68e22c387, 2021-05-23)"
   xmlns:inkscape="http://www.inkscape.org/namespaces/inkscape"
   xmlns:sodipodi="http://sodipodi.sourceforge.net/DTD/sodipodi-0.dtd"
   xmlns="http://www.w3.org/2000/svg"
   xmlns:svg="http://www.w3.org/2000/svg">
  <defs
     id="defs18" />
  <sodipodi:namedview
     id="namedview16"
     pagecolor="#ffffff"
     bordercolor="#666666"
     borderopacity="1.0"
     inkscape:pageshadow="2"
     inkscape:pageopacity="0.0"
     inkscape:pagecheckerboard="0"
     inkscape:document-units="pt"
     showgrid="false"
     inkscape:zoom="1.3075321"
     inkscape:cx="205.34869"
     inkscape:cy="287.56464"
     inkscape:window-width="1920"
     inkscape:window-height="1138"
     inkscape:window-x="-8"
     inkscape:window-y="-8"
     inkscape:window-maximized="1"
     inkscape:current-layer="svg14" />
  <metadata
     id="metadata2">
Created by potrace 1.13, written by Peter Selinger 2001-2015
</metadata>
  <g
     transform="matrix(0.1,0,0,-0.1,-119.074,473.92056)"
     fill="#000000"
     stroke="none"
     id="g12"
     style="fill:#ffffff">
    <path
       d="m 1805,4725 c -84,-18 -102,-26 -259,-113 -163,-90 -233,-153 -290,-261 -99,-189 -87,-353 45,-595 100,-183 149,-231 268,-262 76,-19 159,-8 234,31 l 47,24 46,-69 46,-68 261,-4 c 144,-2 263,-3 265,-2 2,1 -22,41 -54,88 -31,47 -55,88 -53,90 2,1 49,27 103,56 166,89 213,150 204,264 -4,46 -24,89 -143,307 -75,140 -150,272 -165,294 -99,144 -281,237 -455,234 -22,0 -67,-7 -100,-14 z m 335,-297 c 140,-71 100,-271 -57,-285 -56,-6 -102,20 -140,76 -63,93 13,225 132,230 12,1 41,-9 65,-21 z"
       id="path4"
       style="fill:#ffffff" />
    <path
       d="m 2520,3413 c -8,-2 -22,-7 -30,-10 -8,-3 20,-17 62,-32 162,-58 302,-185 368,-334 13,-28 28,-47 42,-51 13,-3 194,-6 402,-6 h 379 l 91,-88 c 108,-105 155,-128 242,-119 105,11 180,86 191,191 10,97 -10,130 -180,304 l -151,152 -700,-1 c -386,0 -708,-3 -716,-6 z"
       id="path6"
       style="fill:#ffffff" />
    <path
       d="m 2090,3111 c -105,-22 -173,-105 -173,-211 0,-88 21,-120 180,-281 l 147,-149 h 536 535 l 85,-86 c 91,-91 134,-120 199,-130 84,-13 181,38 221,117 27,51 27,146 1,197 -11,20 -83,100 -161,177 l -140,140 52,6 c 29,3 -212,6 -536,7 l -589,2 -94,91 c -115,111 -173,138 -263,120 z"
       id="path8"
       style="fill:#ffffff" />
    <path
       d="M 1700,1490 V 420 h 326 327 l -7,62 c -9,95 -61,193 -141,266 l -65,59 v 376 375 l 28,6 c 96,20 399,66 414,64 10,-2 211,-223 446,-492 235,-269 432,-491 439,-493 16,-6 495,416 487,428 -3,6 -33,30 -66,55 -75,55 -166,84 -263,84 h -72 l -282,331 -281,331 v 134 134 h -428 -427 l -210,210 c -115,116 -213,210 -217,210 -5,0 -8,-481 -8,-1070 z"
       id="path10"
       style="fill:#ffffff" />
  </g>
</svg>
