<?xml version="1.0" encoding="UTF-8" standalone="no"?>
<svg
   width="136.369"
   height="109.097"
   version="1.1"
   id="svg4"
   sodipodi:docname="imageviewer.svg"
   inkscape:version="1.1 (c68e22c387, 2021-05-23)"
   xmlns:inkscape="http://www.inkscape.org/namespaces/inkscape"
   xmlns:sodipodi="http://sodipodi.sourceforge.net/DTD/sodipodi-0.dtd"
   xmlns="http://www.w3.org/2000/svg"
   xmlns:svg="http://www.w3.org/2000/svg">
  <defs
     id="defs8" />
  <sodipodi:namedview
     id="namedview6"
     pagecolor="#ffffff"
     bordercolor="#666666"
     borderopacity="1.0"
     inkscape:pageshadow="2"
     inkscape:pageopacity="0.0"
     inkscape:pagecheckerboard="true"
     showgrid="false"
     inkscape:showpageshadow="false"
     inkscape:snap-global="false"
     fit-margin-top="0"
     fit-margin-left="0"
     fit-margin-right="0"
     fit-margin-bottom="0"
     inkscape:zoom="2.8522727"
     inkscape:cx="67.49004"
     inkscape:cy="99.920319"
     inkscape:window-width="1920"
     inkscape:window-height="1138"
     inkscape:window-x="-8"
     inkscape:window-y="-8"
     inkscape:window-maximized="1"
     inkscape:current-layer="svg4" />
  <rect
     style="fill:#ffffff;fill-rule:evenodd;stroke:none;stroke-width:3.22624;stroke-linecap:round;stroke-linejoin:round;paint-order:stroke fill markers"
     id="rect955"
     width="124.46215"
     height="98.868523"
     x="6.4546328"
     y="5.234426" />
  <path
     d="m 136.369,97.733 c 0,6.25 -5.113,11.364 -11.363,11.364 H 11.363 C 5.113,109.097 0,103.984 0,97.733 V 11.363 C 0,5.113 5.113,0 11.363,0 h 113.643 c 6.25,0 11.363,5.113 11.363,11.363 z M 11.363,9.091 c -1.207,0 -2.271,1.068 -2.271,2.271 v 86.37 c 0,1.207 1.065,2.271 2.271,2.271 h 113.643 c 1.203,0 2.274,-1.064 2.274,-2.271 v -86.37 c 0,-1.203 -1.071,-2.271 -2.274,-2.271 H 11.363 Z m 20.458,36.365 c -7.529,0 -13.641,-6.108 -13.641,-13.635 0,-7.527 6.112,-13.638 13.641,-13.638 7.526,0 13.632,6.111 13.632,13.638 0,7.527 -6.105,13.635 -13.632,13.635 z m 86.364,45.459 H 18.18 V 77.275 L 40.91,54.551 52.273,65.911 88.638,29.55 118.185,59.097 Z"
     id="path2"
     style="fill:#4d4d4d" />
</svg>
