<?xml version="1.0" encoding="UTF-8" standalone="no"?>
<!-- Created with Inkscape (http://www.inkscape.org/) -->

<svg
   height="5.257946"
   width="13.290292"
   version="1.1"
   id="svg4"
   sodipodi:docname="auto-arcade-seta.svg"
   inkscape:version="1.1 (c68e22c387, 2021-05-23)"
   xmlns:inkscape="http://www.inkscape.org/namespaces/inkscape"
   xmlns:sodipodi="http://sodipodi.sourceforge.net/DTD/sodipodi-0.dtd"
   xmlns="http://www.w3.org/2000/svg"
   xmlns:svg="http://www.w3.org/2000/svg">
  <defs
     id="defs8" />
  <sodipodi:namedview
     id="namedview6"
     pagecolor="#ffffff"
     bordercolor="#666666"
     borderopacity="1.0"
     inkscape:pageshadow="2"
     inkscape:pageopacity="0.0"
     inkscape:pagecheckerboard="true"
     showgrid="false"
     inkscape:showpageshadow="false"
     fit-margin-top="0"
     fit-margin-left="0"
     fit-margin-right="0"
     fit-margin-bottom="0"
     inkscape:zoom="35.616"
     inkscape:cx="7.9037511"
     inkscape:cy="4.0431267"
     inkscape:window-width="1920"
     inkscape:window-height="1138"
     inkscape:window-x="-8"
     inkscape:window-y="-8"
     inkscape:window-maximized="1"
     inkscape:current-layer="svg4" />
  <g
     id="g988"
     transform="translate(0.24993821,0.28625)">
    <ellipse
       style="fill:#ffffff;fill-rule:evenodd;stroke:#ffffff;stroke-width:0.539023;stroke-linecap:round;stroke-linejoin:round;stroke-miterlimit:4;stroke-dasharray:none;paint-order:fill markers stroke"
       id="path903"
       cx="11.392352"
       cy="3.2008085"
       rx="0.25424191"
       ry="0.26126122" />
    <path
       d="m 9.7210856,3.8937555 c 0.0031,0.072951 -0.0031,0.142797 -0.018621,0.2095385 C 9.6729729,4.2321213 9.6101122,4.3462033 9.5138803,4.4455405 9.3524581,4.602306 9.1510831,4.7215661 8.9283304,4.7215657 8.7055776,4.7215653 8.5282733,4.6023068 8.3777156,4.4455405 8.2721706,4.3462033 8.2015486,4.2321213 8.1658491,4.103294 8.1456714,4.0365525 8.1361247,3.9667041 8.1355744,3.8937555 V 1.5841846 H 7.3510064 C 7.1337078,1.5810786 6.9505547,1.5011359 6.8015494,1.3443699 6.6432316,1.1813955 6.5625203,0.98582619 6.5594162,0.75766182 6.562522,0.540362 6.6432325,0.35643414 6.8015494,0.2058772 6.9505547,0.04755897 7.1337078,-0.033146 7.3510064,-0.03625 h 3.1197376 c 0.228164,0.0031058 0.422956,0.08380948 0.58438,0.2421272 0.147452,0.15055694 0.216522,0.3344848 0.20721,0.55178462 0.0093,0.22816437 -0.05976,0.42373368 -0.20721,0.58670808 -0.161423,0.156766 -0.356215,0.2367101 -0.58438,0.2398147 H 9.7210856 Z m 3.0685814,0.2770569 c 0.0078,0.149005 -0.0388,0.2755046 -0.139692,0.3794974 -0.116411,0.1133063 -0.253775,0.1697045 -0.412094,0.1712559 -0.144348,0.0031 -0.270848,-0.042428 -0.379497,-0.1386609 -0.105546,-0.1039932 -0.162975,-0.2432933 -0.172287,-0.3922983 0,0 -0.190502,0.013362 -0.277057,0.0128 -0.08655,-5.707e-4 -0.239805,-0.0128 -0.239805,-0.0128 -0.01086,0.149005 -0.06829,0.2883051 -0.172287,0.3922983 -0.119515,0.096233 -0.257656,0.1417654 -0.414421,0.1386609 -0.149005,-0.00155 -0.274728,-0.05795 -0.377169,-0.1712559 C 10.0905,4.446317 10.03307,4.3198174 10.03307,4.1708124 V 3.2744527 c 0.0015,-0.3771693 0.138918,-0.7250784 0.412093,-0.9920461 0.266968,-0.2747284 0.588259,-0.409868 0.963877,-0.4114202 0.388036,0.00155 0.721744,0.1366918 1.001129,0.4114202 0.260759,0.2654156 0.38726,0.6133248 0.379498,0.9920461 z M 11.651174,3.0649141 C 11.58288,2.9966206 11.502168,2.9624733 11.40904,2.9624733 c -0.09468,0 -0.174616,0.034147 -0.239805,0.1024408 -0.06829,0.066742 -0.102441,0.1482292 -0.102441,0.2444618 v 0.100113 l 0.03492,0.072174 c 0.05433,0.04346 0.156767,0.065966 0.307324,0.067518 0.239029,-0.00311 0.353888,-0.049668 0.344574,-0.1396922 v -0.100113 c 0,-0.096233 -0.03415,-0.1777199 -0.102441,-0.2444618 z M 0.93211254,1.5492519 C 0.92900648,1.1193101 1.0787893,0.75222969 1.3814563,0.44801054 1.685675,0.13447833 2.0527553,-0.02692445 2.4826976,-0.03623721 H 4.7922785 C 5.0188899,-0.03313143 5.2144594,0.04755948 5.3789861,0.2058772 5.5357516,0.35643414 5.6156872,0.540362 5.6187913,0.75766182 5.6156933,0.98582619 5.5357516,1.1813955 5.3789861,1.3443699 5.2144594,1.4902706 5.0188899,1.5585644 4.7922785,1.5492519 H 3.5187495 C 3.9603747,1.7115564 4.1913907,1.906059 4.3892775,2.2012381 4.5742474,2.4803577 4.6805249,2.7700082 4.6898372,3.1021655 4.6820759,3.4870953 4.5532487,3.8208049 4.3033551,4.103294 L 4.2078985,4.2034069 C 3.9036793,4.5169387 3.5350464,4.7138052 3.1020006,4.7215657 H 0.7947482 C 0.56503214,4.71846 0.36946262,4.6023068 0.2080404,4.4455405 0.11025576,4.3462033 0.04739456,4.2321213 0.0194555,4.103294 0.00393475,4.0365525 -0.0022735,3.9667062 8.2998131e-4,3.8937555 -0.00848278,3.665591 0.06058744,3.4707979 0.2080404,3.3093759 0.36946262,3.1619227 0.56503214,3.0928522 0.7947482,3.1021655 H 2.0706053 C 1.6484472,2.9348158 1.4229123,2.7678648 1.2091691,2.4805345 1.0213605,2.2027018 0.92900803,1.8922741 0.93211254,1.5492519 Z M 4.9994887,2.4456113 C 5.0025867,2.2981579 5.0600219,2.1716588 5.1717759,2.0661139 5.2881863,1.952808 5.4263259,1.8725385 5.5861967,1.8709864 H 7.376293 c 0.1210668,0.00155 0.2242842,0.070957 0.3096515,0.1625325 0.090024,0.085367 0.1358124,0.1878085 0.1373642,0.3073232 -0.00155,0.1226191 -0.04734,0.2266128 -0.1373642,0.3119796 -0.085369,0.090024 -0.1908703,0.1655049 -0.3119355,0.1670565 -0.081205,-5.259e-4 -0.3040547,-0.0087 -0.2259115,0.019157 0.043636,0 0.2957134,0.1777687 0.2957134,0.435418 0,0.2576492 -0.2537221,0.4470156 -0.2957134,0.4470156 -0.073656,0.020695 0.130177,0.026521 0.2472991,0.026521 0.1275779,0 0.2051806,0.066608 0.2905479,0.1457666 0.057429,0.062085 0.097008,0.1319317 0.1187388,0.2095385 l 0.018625,0.1350363 C 7.8217583,4.3609502 7.7759683,4.4649438 7.685944,4.5503107 7.600575,4.6387827 7.4973581,4.7200143 7.3762926,4.7215666 H 5.5861959 C 5.4263251,4.7184677 5.2881855,4.6248125 5.1717751,4.5130584 5.0600207,4.3997525 5.0025912,4.2631644 4.9994879,4.103294 Z m 0,1.6576827 v -0.00232 z"
       fill="#0b4199"
       id="path2"
       style="stroke:#ffffff;stroke-width:0.5;stroke-linecap:round;stroke-linejoin:round;stroke-miterlimit:4;stroke-dasharray:none" />
    <path
       d="m 9.7210856,3.8937555 c 0.0031,0.072951 -0.0031,0.142797 -0.018621,0.2095385 C 9.6729726,4.2321213 9.6101126,4.3462033 9.5138803,4.4455405 9.3524581,4.602306 9.1510831,4.7215661 8.9283304,4.7215657 8.7055776,4.7215653 8.5282733,4.6023068 8.3777156,4.4455405 8.2721706,4.3462035 8.2015486,4.2321213 8.1658491,4.103294 8.1456711,4.036552 8.1361251,3.9667041 8.1355741,3.8937555 V 1.5841846 H 7.3510061 C 7.1337075,1.5810746 6.9505544,1.5011356 6.8015491,1.3443699 6.6432313,1.1813955 6.56252,0.9858262 6.5594159,0.7576619 6.5625259,0.540362 6.6432319,0.3564342 6.8015491,0.2058772 6.9505544,0.047559 7.1337075,-0.033146 7.3510061,-0.03625 h 3.1197369 c 0.228164,0.00311 0.422956,0.083809 0.58438,0.2421272 0.147452,0.150557 0.216522,0.3344848 0.20721,0.5517847 0.0093,0.2281643 -0.05976,0.4237336 -0.20721,0.586708 C 10.8937,1.5011359 10.698908,1.58108 10.470743,1.5841846 H 9.7210856 Z m 3.0685814,0.2770569 c 0.0078,0.149005 -0.0388,0.2755046 -0.139692,0.3794974 -0.116411,0.1133063 -0.253775,0.1697045 -0.412094,0.1712559 -0.144348,0.0031 -0.270848,-0.042428 -0.379497,-0.1386609 -0.105546,-0.1039932 -0.162975,-0.2432933 -0.172287,-0.3922983 0,0 -0.190502,0.013362 -0.277057,0.0128 -0.08655,-5.707e-4 -0.239805,-0.0128 -0.239805,-0.0128 -0.01086,0.149005 -0.06829,0.2883051 -0.172287,0.3922983 -0.119515,0.096233 -0.257656,0.1417654 -0.414421,0.1386609 -0.149005,-0.00155 -0.274728,-0.05795 -0.377169,-0.1712559 C 10.0905,4.446317 10.03307,4.3198174 10.03307,4.1708124 V 3.2744527 c 0.0015,-0.3771693 0.138918,-0.7250784 0.412093,-0.9920461 0.266968,-0.2747284 0.588259,-0.409868 0.963877,-0.4114202 0.388036,0.00155 0.721744,0.1366918 1.001129,0.4114202 0.260759,0.2654156 0.38726,0.6133248 0.379498,0.9920461 z M 11.651174,3.0649141 c -0.06829,-0.068294 -0.149006,-0.1024408 -0.242134,-0.1024408 -0.09468,0 -0.174616,0.034147 -0.239805,0.1024408 -0.06829,0.066742 -0.102441,0.1482292 -0.102441,0.2444618 v 0.100113 l 0.03492,0.072174 c 0.05433,0.04346 0.156767,0.065966 0.307324,0.067518 0.239029,-0.00311 0.353888,-0.049668 0.344574,-0.1396922 v -0.100113 c 0,-0.096233 -0.03415,-0.1777199 -0.102441,-0.2444618 z M 0.93211261,1.5492519 C 0.92900661,1.1193101 1.0787893,0.7522297 1.3814563,0.4480106 1.685675,0.1344784 2.0527553,-0.0269244 2.4826976,-0.0362372 h 2.3095809 c 0.2266114,0.00311 0.4221809,0.083797 0.5867076,0.2421144 0.1567655,0.150557 0.2367011,0.3344848 0.2398052,0.5517847 -0.0031,0.2281643 -0.08304,0.4237336 -0.2398052,0.586708 C 5.2144594,1.4902706 5.0188899,1.5585644 4.7922785,1.5492519 H 3.5187495 C 3.9603747,1.7115564 4.1913907,1.906059 4.3892775,2.2012381 4.5742474,2.4803577 4.6805249,2.7700082 4.6898372,3.1021655 4.6820772,3.4870953 4.5532487,3.8208049 4.3033551,4.103294 L 4.2078981,4.2034069 C 3.9036793,4.5169387 3.5350464,4.7138052 3.1020006,4.7215657 H 0.79474827 C 0.56503221,4.7184557 0.36946269,4.6023068 0.20804047,4.4455405 0.11025583,4.3462035 0.04739463,4.2321213 0.01945557,4.103294 0.00393477,4.036552 -0.00227343,3.9667062 8.3007e-4,3.8937555 -0.00848293,3.665591 0.06058757,3.4707979 0.20804049,3.3093759 0.36946271,3.1619227 0.56503223,3.0928522 0.79474829,3.1021655 H 2.0706053 C 1.6484472,2.9348158 1.4229123,2.7678648 1.2091691,2.4805345 1.0213605,2.2027018 0.9290081,1.8922741 0.93211261,1.5492519 Z M 4.9994887,2.4456113 C 5.0025887,2.2981579 5.0600217,2.1716588 5.1717759,2.0661139 5.2881863,1.952808 5.4263259,1.8725385 5.5861967,1.8709864 H 7.376293 c 0.1210668,0.00155 0.2242842,0.070957 0.3096515,0.1625325 0.090024,0.085367 0.1358124,0.1878085 0.1373642,0.3073232 -0.00155,0.1226191 -0.04734,0.2266128 -0.1373642,0.3119796 -0.085369,0.090024 -0.1908703,0.1655049 -0.3119355,0.1670565 -0.081205,-5.259e-4 -0.3040547,-0.0087 -0.2259115,0.019157 0.043636,0 0.2957134,0.1777687 0.2957134,0.435418 0,0.2576492 -0.2537221,0.4470156 -0.2957134,0.4470156 -0.073656,0.020695 0.130177,0.026521 0.2472991,0.026521 0.1275779,0 0.2051806,0.066608 0.2905479,0.1457666 0.057429,0.062085 0.097008,0.1319317 0.1187388,0.2095385 l 0.018625,0.1350363 C 7.8217583,4.3609502 7.7759683,4.4649438 7.685944,4.5503107 7.600575,4.6387827 7.4973581,4.7200143 7.3762926,4.7215666 H 5.5861959 C 5.4263251,4.7184677 5.2881855,4.6248125 5.1717751,4.5130584 5.0600207,4.3997525 5.0025912,4.2631644 4.9994879,4.103294 Z m 0,1.6576827 v -0.00232 z"
       fill="#0b4199"
       id="path825"
       style="stroke-width:0.025581" />
  </g>
</svg>
