<?xml version="1.0" encoding="UTF-8" standalone="no"?>
<!-- Creator: CorelDRAW X7 -->

<svg
   xml:space="preserve"
   width="2.8848171in"
   height="1.3197749in"
   version="1.1"
   style="clip-rule:evenodd;fill-rule:evenodd;image-rendering:optimizeQuality;shape-rendering:geometricPrecision;text-rendering:geometricPrecision"
   viewBox="0 0 2884.8171 1319.7749"
   id="svg23"
   sodipodi:docname="auto-arcade-midway.svg"
   inkscape:version="1.1 (c68e22c387, 2021-05-23)"
   xmlns:inkscape="http://www.inkscape.org/namespaces/inkscape"
   xmlns:sodipodi="http://sodipodi.sourceforge.net/DTD/sodipodi-0.dtd"
   xmlns="http://www.w3.org/2000/svg"
   xmlns:svg="http://www.w3.org/2000/svg"><sodipodi:namedview
   id="namedview25"
   pagecolor="#ffffff"
   bordercolor="#666666"
   borderopacity="1.0"
   inkscape:pageshadow="2"
   inkscape:pageopacity="0.0"
   inkscape:pagecheckerboard="true"
   inkscape:document-units="in"
   showgrid="false"
   inkscape:showpageshadow="false"
   fit-margin-top="0"
   fit-margin-left="0"
   fit-margin-right="0"
   fit-margin-bottom="0"
   inkscape:snap-global="true"
   inkscape:zoom="1.4557292"
   inkscape:cx="129.48837"
   inkscape:cy="60.450804"
   inkscape:window-width="1920"
   inkscape:window-height="1138"
   inkscape:window-x="-8"
   inkscape:window-y="-8"
   inkscape:window-maximized="1"
   inkscape:current-layer="Layer_x0020_1" />
 <defs
   id="defs4">
  <style
   type="text/css"
   id="style2">
   <![CDATA[
    .fil1 {fill:black}
    .fil0 {fill:#E0144A}
   ]]>
  </style>
 </defs>
 <g
   id="Layer_x0020_1"
   inkscape:label="Layer 1"
   inkscape:groupmode="layer"
   transform="translate(-477.17774,-1637.1928)">
  <metadata
   id="CorelCorpID_0Corel-Layer" />
  
  
 <g
   id="g2669"><ellipse
     style="fill:#ffffff;fill-rule:evenodd;stroke:none;stroke-width:104.167;stroke-linecap:round;stroke-linejoin:round;stroke-miterlimit:4;stroke-dasharray:none;paint-order:stroke fill markers"
     id="path2475"
     cx="2991.3699"
     cy="2528.4309"
     rx="68.307274"
     ry="111.31556" /><rect
     style="fill:#ffffff;fill-rule:evenodd;stroke:none;stroke-width:111.631;stroke-linecap:round;stroke-linejoin:round;stroke-miterlimit:4;stroke-dasharray:none;paint-order:stroke fill markers"
     id="rect2313"
     width="1730.451"
     height="371.89517"
     x="1071.1765"
     y="2551.2" /><ellipse
     style="fill:#ffffff;fill-rule:evenodd;stroke:none;stroke-width:152.878;stroke-linecap:round;stroke-linejoin:round;stroke-miterlimit:4;stroke-dasharray:none;paint-order:stroke fill markers"
     id="path2209"
     cx="1660.6429"
     cy="2324.7739"
     rx="376.95496"
     ry="244.13527" /><ellipse
     style="fill:#ffffff;fill-rule:evenodd;stroke:none;stroke-width:104.167;stroke-linecap:round;stroke-linejoin:round;stroke-miterlimit:4;stroke-dasharray:none;paint-order:stroke fill markers"
     id="path2105"
     cx="831.62219"
     cy="2320.0266"
     rx="107.33453"
     ry="175.31306" /><rect
     style="fill:#ffffff;fill-rule:evenodd;stroke:none;stroke-width:104.167;stroke-linecap:round;stroke-linejoin:round;stroke-miterlimit:4;stroke-dasharray:none;paint-order:stroke fill markers"
     id="rect2001"
     width="2236.4307"
     height="505.9798"
     x="711.93085"
     y="1693.564" /><g
     id="g917"
     style="stroke:#ffffff;stroke-width:104.167;stroke-linecap:round;stroke-linejoin:round;stroke-miterlimit:4;stroke-dasharray:none;paint-order:stroke fill markers"><g
       id="g918"
       transform="matrix(0.54694304,0,0,0.54694304,-1065.6267,1321.7303)"
       style="display:inline;stroke:#ffffff;stroke-width:190.452;stroke-linecap:round;stroke-linejoin:round;stroke-miterlimit:4;stroke-dasharray:none;paint-order:stroke fill markers">
   <polygon
   class="fil1"
   points="3799,1034 3720,1235 3615,1597 3868,1597 4138,672 3805,672 3496,1235 3519,672 3185,672 2916,1597 3170,1597 3276,1235 3320,1024 3294,1597 3492,1597 "
   id="polygon906"
   style="stroke:#ffffff;stroke-width:190.452;stroke-linecap:round;stroke-linejoin:round;stroke-miterlimit:4;stroke-dasharray:none;paint-order:stroke fill markers" />
   <polygon
   class="fil1"
   points="3976,1597 4253,1597 4522,672 4246,672 "
   id="polygon908"
   style="stroke:#ffffff;stroke-width:190.452;stroke-linecap:round;stroke-linejoin:round;stroke-miterlimit:4;stroke-dasharray:none;paint-order:stroke fill markers" />
   <path
   class="fil1"
   d="m 4842,892 c 71,-2 123,14 159,47 35,32 41,94 16,185 -16,53 -34,96 -56,130 -22,34 -46,60 -73,79 -28,19 -57,32 -88,38 -31,6 -64,9 -99,7 z m -207,-220 -269,925 h 360 c 65,0 126,-8 185,-25 59,-17 113,-45 163,-84 49,-38 93,-88 131,-150 38,-61 69,-135 92,-223 23,-89 27,-161 10,-218 -16,-58 -43,-103 -79,-136 -36,-33 -77,-57 -123,-69 -47,-13 -89,-20 -126,-20 z"
   id="path910"
   style="stroke:#ffffff;stroke-width:190.452;stroke-linecap:round;stroke-linejoin:round;stroke-miterlimit:4;stroke-dasharray:none;paint-order:stroke fill markers" />
   <polygon
   class="fil1"
   points="6293,672 6037,1235 6111,672 5860,672 5617,1235 5688,672 5413,672 5357,1597 5625,1597 5870,1065 5814,1597 6083,1597 6551,672 "
   id="polygon912"
   style="stroke:#ffffff;stroke-width:190.452;stroke-linecap:round;stroke-linejoin:round;stroke-miterlimit:4;stroke-dasharray:none;paint-order:stroke fill markers" />
   <path
   class="fil1"
   d="m 6641,1285 168,-301 -6,301 z m 119,-613 -567,925 h 278 l 62,-119 h 269 l -9,119 h 279 l -26,-925 z"
   id="path914"
   style="stroke:#ffffff;stroke-width:190.452;stroke-linecap:round;stroke-linejoin:round;stroke-miterlimit:4;stroke-dasharray:none;paint-order:stroke fill markers" />
   <polygon
   class="fil1"
   points="8000,672 7684,672 7463,972 7416,672 7110,672 7243,1263 7146,1597 7415,1597 7512,1263 "
   id="polygon916"
   style="stroke:#ffffff;stroke-width:190.452;stroke-linecap:round;stroke-linejoin:round;stroke-miterlimit:4;stroke-dasharray:none;paint-order:stroke fill markers" />
  </g><g
       id="g1033"
       transform="matrix(2.0430307,0,0,2.0430307,708.70987,2132.3299)"
       style="display:inline;fill:#de0000;fill-opacity:1;stroke:#ffffff;stroke-width:50.9863;stroke-linecap:round;stroke-linejoin:round;stroke-miterlimit:4;stroke-dasharray:none;paint-order:stroke fill markers"><path
         style="fill:#de0000;fill-opacity:1;fill-rule:evenodd;stroke:#ffffff;stroke-width:50.9863;stroke-linecap:round;stroke-linejoin:round;stroke-miterlimit:4;stroke-dasharray:none;paint-order:stroke fill markers"
         d="m 293.40234,6.890625 c 0,0 -70.32422,191.093745 -70.32422,203.628905 0,0 -0.42968,5.98438 0.8711,4.68359 0,0 14.85156,-28.89453 32.17969,-57.87109 13.30468,-22.23828 28.0664,-43.83984 38.69531,-56.60547 24.47656,-29.394529 44.67578,-43.523435 50.53906,-47.160154 5.76563,-3.578125 7.07813,0.242188 2.83203,3.210938 C 343.95312,59.746094 320.94141,74.5 297.66016,104.5 c -9.6875,12.48828 -25.35157,34.55469 -39.70704,59.84766 -22.66406,39.92968 -42.71484,85.90234 -42.71484,85.90234 0,0 -7.58984,16.76953 -16.73828,1.76172 C 160.63281,174.66797 259.60937,64.363281 255.49609,60.25 253.95703,58.710938 206.38672,120.41797 177.15234,151.8125 146.42969,184.80859 63.300781,258.17969 45.1875,256.03125 c 0,0 -7.066406,-1.91797 -1.574219,-7.01563 C 88.46875,210.55078 208.96484,19.507813 132.07812,9.070313 57.589844,-1.039063 -18.597656,115.125 13.683594,150.22656 39.042969,175.58984 78.542969,122.93359 86.464844,103.64844 105.96484,58.332031 99.71875,40.089844 99.71875,40.089844 c -0.882812,-2.9375 2.55469,-6.582031 4,-2.117188 0,0 16.24609,49.359375 -2.89844,84.117184 C 87.300781,147.33203 39.0625,183.10547 10.234375,154.27734 -28.707031,115.33984 58.277344,-14.371094 142.44531,2.34375 200.65234,13.90625 202.62109,67.074219 175.30078,117 143.53125,175.05078 77.96875,227.28906 77.96875,227.28906 c -3.515625,2.48828 0.609375,2.9961 2.515625,1.58203 0,0 45.792965,-28.10547 96.117185,-84.17578 C 215.07031,106.22656 289.24609,1.929688 289.24609,1.929688 c 0,0 7.52735,-4.792969 4.15625,4.960937"
         id="path2" /><path
         style="fill:#de0000;fill-opacity:1;fill-rule:evenodd;stroke:#ffffff;stroke-width:50.9863;stroke-linecap:round;stroke-linejoin:round;stroke-miterlimit:4;stroke-dasharray:none;paint-order:stroke fill markers"
         d="m 396.07422,80.078125 c -6.46875,9.59375 -18.19141,13.003906 -26.17969,7.617188 -7.99219,-5.386719 -9.22266,-17.53125 -2.75391,-27.125 6.46875,-9.59375 18.1875,-13.003907 26.17969,-7.617188 7.98828,5.386719 9.22266,17.53125 2.75391,27.125"
         id="path4" /><path
         style="fill:#de0000;fill-opacity:1;fill-rule:evenodd;stroke:#ffffff;stroke-width:50.9863;stroke-linecap:round;stroke-linejoin:round;stroke-miterlimit:4;stroke-dasharray:none;paint-order:stroke fill markers"
         d="m 666.89844,79.167969 c -6.46875,9.59375 -18.1875,13.003906 -26.17969,7.617187 -7.98828,-5.386718 -9.22266,-17.53125 -2.75391,-27.125 6.46875,-9.59375 18.19141,-13.007812 26.17969,-7.617187 7.99219,5.386719 9.22266,17.53125 2.75391,27.125"
         id="path6" /><path
         style="fill:#de0000;fill-opacity:1;fill-rule:evenodd;stroke:#ffffff;stroke-width:50.9863;stroke-linecap:round;stroke-linejoin:round;stroke-miterlimit:4;stroke-dasharray:none;paint-order:stroke fill markers"
         d="m 669.55078,163.19531 c 0,0 -12.52734,12.66406 -32.625,36.32422 -24.17578,29.05078 -46.69141,52.64063 -52.88672,48.21875 -12.42969,-8.16797 56.32031,-109.29687 53.12891,-112.48828 -1.6836,-1.68359 -33.70313,-2.60156 -38.95313,2.64844 -4.09375,4.08984 -17.22656,20.95312 -36.38281,45.125 -19.15625,24.17187 -56.49609,71.9375 -67.46094,64.71484 -12.41797,-8.17969 124.11719,-233.679686 121.60938,-236.183592 -1.63281,-1.632813 -29.71094,-1.59375 -34.96094,3.65625 -2.53906,2.535156 -25.96484,43.960937 -54.53906,91.921872 0,0 -25.4961,35.55078 -57.47656,75.34766 -25.91407,32.24609 -53.69922,73.78515 -65.96485,65.25781 -12.42969,-8.16797 124.11719,-233.679686 121.60938,-236.183592 -1.63282,-1.632813 -29.71485,-1.59375 -34.96485,3.65625 -2.53906,2.535156 -25.28515,42.957031 -53.85937,90.914062 0,0 -107.90235,152.23828 -122.78516,141.61328 -12.42969,-8.16797 56.32031,-109.29687 53.12891,-112.48828 -1.6836,-1.68359 -34.71485,-1.59375 -39.96485,3.65625 -6.41406,6.41406 -48.1289,60.59375 -48.1289,60.59375 -2.76953,3.58984 1.16406,6.83203 4.15625,2.75 0,0 27.07031,-37.56641 28.74609,-34.52734 2.15235,3.89453 -41.6289,68.30078 -13.76562,85.41796 22.48437,13.76954 47.22656,-18.92578 69.48047,-46.63671 19.10546,-23.78907 37.84375,-53.13672 32.55859,-38.33985 -19.44531,36.22266 -32.26563,71.4375 -12.03906,84.97656 22.48437,13.76954 47.22656,-18.92578 69.48047,-46.63671 18.8789,-23.51172 38.17968,-51.76954 33.64062,-38.04297 -19.36328,36.0625 -32.08984,71.08984 -11.78906,84.67968 22.48437,13.76954 55.61719,-25.76171 74.6875,-50.89062 19.07031,-25.12891 27.07031,-37.56641 28.74609,-34.52734 2.15235,3.89453 -41.6289,68.30078 -13.76562,85.41796 22.48437,13.76954 47.40234,-18.78515 69.48047,-46.63671 9.85156,-12.42969 7.60546,-1.35157 7.60546,-1.35157 l 24.25391,-41.95703"
         id="path8" /><path
         style="fill:#de0000;fill-opacity:1;fill-rule:evenodd;stroke:#ffffff;stroke-width:50.9863;stroke-linecap:round;stroke-linejoin:round;stroke-miterlimit:4;stroke-dasharray:none;paint-order:stroke fill markers"
         d="m 959.46875,196 c -2.27344,-3.82813 18.91016,-49.13281 -1.83203,-61.66406 -22.90235,-13.06641 -45.85547,21.67578 -67.24219,50.05859 -15.09375,20.02734 -13.86328,13.28125 -13.86328,13.28125 0,0 23.67578,-51.93359 4.14062,-62.47266 -19.53906,-10.53515 -43.16015,17.48438 -58.20312,38.55079 -15.04688,21.0664 -61.41406,82.83203 -72.80078,74.96484 -11.19922,-7.73828 56.32031,-109.29688 53.13281,-112.48828 -1.6875,-1.6836 -31.71094,-4.89844 -36.96094,1.98047 -1.25781,1.64453 -6.48047,15.68359 -9.45312,9.78515 L 748.46875,176 718.73828,225.30859 c 5.78516,-6.54297 4.89844,1.74219 4.89844,1.74219 -1.33985,11.28125 -0.95313,20.73047 9.61719,27.65625 18.71484,12.29297 48.90625,-20.34766 70.0664,-47.22266 16.60156,-21.08203 50.16797,-69.79296 59.15625,-63.97265 8.99219,5.82031 -53.44922,104.33594 -55.18359,111.36328 -0.72656,2.72266 36.4375,1.82422 39.05078,-1.10938 1.48047,-1.57812 77.625,-119.4414 93.09766,-111.12109 12.67578,7.78125 -51.50391,110.04297 -48.21485,113.13281 1.73438,1.63282 35.66406,1.22657 39.21094,-2.64453 2.67187,-2.83984 73.8437,-121.21484 95.6016,-114.2539 8.4726,3.38671 -8.0586,22.61718 -20.8399,44.96875 -13.93748,24.36718 -23.25779,60.24609 -1.3711,70.94921 26.8907,12.70313 59.4102,-39.24609 82.8633,-69.28125 23.4492,-30.03515 42,-53.77734 42,-53.77734 6.2305,-8.33984 12.5899,38.35156 -2.9726,75.76172 -24.8672,61.55078 -39.7696,33.07812 -37.8399,29 17.25,-2.87109 19.3008,-27.38281 2.1719,-30.05078 -17.1406,-2.66797 -20.0625,19.5 -13.2813,31.02734 6.7813,11.52344 21.5703,18.66797 37.1289,18.66797 28.2305,0 51.711,-31.83203 58,-39.6875 6.293,-7.85547 12.1602,-15.98828 12.1602,-15.98828 2.082,-3.29297 -1.2578,-4.89844 -3.4492,-2.21875 0,0 -23.2578,30.19141 -19.4492,18.48437 10.6679,-44.08203 -35.7305,-86.80468 -19.9883,-101.78515 15.1484,-14.42578 4.2578,-17.195314 -1.1133,-8.10547 -5.1367,8.72266 -55.8789,71.82031 -75.3672,98.64844 -19.5,26.82812 -44.4219,48.98828 -49.6328,44.8164 -9.7969,-7.80468 14.9414,-33.24218 26.0898,-57.8164 11.1524,-24.57813 14.6133,-44.11719 -2.207,-57.39063 C 1012.6016,116.80469 961.23437,198.98437 959.46875,196"
         id="path10" /><path
         style="fill:#de0000;fill-opacity:1;fill-rule:evenodd;stroke:#ffffff;stroke-width:50.9863;stroke-linecap:round;stroke-linejoin:round;stroke-miterlimit:4;stroke-dasharray:none;paint-order:stroke fill markers"
         d="m 745.23047,136.28906 c -17.8086,-13.30078 -51.4961,-1.57031 -77.19531,28.65235 -25.69532,30.22656 -33.50391,65.08593 -15.86719,82.72656 23.89844,23.89844 51.07812,-2.85938 76.77734,-33.08594 20.0625,-23.59375 55.08985,-49.30859 16.28516,-78.29297 z m -19.82813,70.875 c -19.60156,30.55469 -44.17187,49.65235 -53.86718,43.32422 -11.14844,-7.27734 2.08984,-33.41406 21.6914,-63.96484 19.60156,-30.55078 36.69922,-55.57813 51.58203,-45 14.88282,10.57812 0.19532,35.08984 -19.40625,65.64062"
         id="path12" /></g><g
       aria-label="CLASSICS"
       id="g938"
       style="font-size:25.4px;line-height:1.25;font-family:'Patrick Hand SC';-inkscape-font-specification:'Patrick Hand SC, Normal';display:inline;stroke:#ffffff;stroke-width:7.90505;stroke-linecap:round;stroke-linejoin:round;stroke-miterlimit:4;stroke-dasharray:none;paint-order:stroke fill markers"
       transform="matrix(13.177225,0,0,13.177225,675.72397,1085.7973)"><path
         d="m 30.901226,138.04781 v -2.1084 h -2.108398 v -14.8208 h 2.108398 v -2.1208 h 8.470801 v 2.1208 h 2.1208 v 4.2292 h -4.241601 v -4.2292 h -4.229199 v 14.8208 h 4.229199 v -4.2416 h 4.241601 v 4.2416 h -2.1208 v 2.1084 z"
         style="font-family:'BIG SHOT';-inkscape-font-specification:'BIG SHOT, Normal';stroke:#ffffff;stroke-width:7.90505;stroke-linecap:round;stroke-linejoin:round;stroke-miterlimit:4;stroke-dasharray:none;paint-order:stroke fill markers"
         id="path922" /><path
         d="m 45.722027,138.04781 v -19.05 h 4.229199 v 16.9416 h 8.470801 v 2.1084 z"
         style="font-family:'BIG SHOT';-inkscape-font-specification:'BIG SHOT, Normal';stroke:#ffffff;stroke-width:7.90505;stroke-linecap:round;stroke-linejoin:round;stroke-miterlimit:4;stroke-dasharray:none;paint-order:stroke fill markers"
         id="path924" /><path
         d="m 71.109624,129.58941 v -8.4708 h -4.229199 v 8.4708 z m -8.458398,8.4584 v -16.9292 h 2.108398 v -2.1208 h 8.470801 v 2.1208 h 2.120801 v 16.9292 h -4.241602 v -6.35 h -4.229199 v 6.35 z"
         style="font-family:'BIG SHOT';-inkscape-font-specification:'BIG SHOT, Normal';stroke:#ffffff;stroke-width:7.90505;stroke-linecap:round;stroke-linejoin:round;stroke-miterlimit:4;stroke-dasharray:none;paint-order:stroke fill markers"
         id="path926" /><path
         d="m 81.688824,138.04781 v -2.1084 h -2.108399 v -4.2416 h 4.229199 v 4.2416 h 4.2292 v -6.35 h -6.35 v -2.1208 h -2.108399 v -6.35 h 2.108399 v -2.1208 h 8.4708 v 2.1208 h 2.120801 v 4.2292 h -4.241601 v -4.2292 h -4.2292 v 6.35 h 6.35 v 2.1208 h 2.120801 v 6.35 h -2.120801 v 2.1084 z"
         style="font-family:'BIG SHOT';-inkscape-font-specification:'BIG SHOT, Normal';stroke:#ffffff;stroke-width:7.90505;stroke-linecap:round;stroke-linejoin:round;stroke-miterlimit:4;stroke-dasharray:none;paint-order:stroke fill markers"
         id="path928" /><path
         d="m 98.618023,138.04781 v -2.1084 h -2.108399 v -4.2416 h 4.229196 v 4.2416 h 4.2292 v -6.35 h -6.349997 v -2.1208 h -2.108399 v -6.35 h 2.108399 v -2.1208 h 8.470797 v 2.1208 h 2.1208 v 4.2292 h -4.2416 v -4.2292 h -4.2292 v 6.35 h 6.35 v 2.1208 h 2.1208 v 6.35 h -2.1208 v 2.1084 z"
         style="font-family:'BIG SHOT';-inkscape-font-specification:'BIG SHOT, Normal';stroke:#ffffff;stroke-width:7.90505;stroke-linecap:round;stroke-linejoin:round;stroke-miterlimit:4;stroke-dasharray:none;paint-order:stroke fill markers"
         id="path930" /><path
         d="m 113.43882,138.04781 v -2.1084 h 4.2292 v -14.8208 h -4.2292 v -2.1208 h 12.7 v 2.1208 h -4.2416 v 14.8208 h 4.2416 v 2.1084 z"
         style="font-family:'BIG SHOT';-inkscape-font-specification:'BIG SHOT, Normal';stroke:#ffffff;stroke-width:7.90505;stroke-linecap:round;stroke-linejoin:round;stroke-miterlimit:4;stroke-dasharray:none;paint-order:stroke fill markers"
         id="path932" /><path
         d="m 132.47642,138.04781 v -2.1084 h -2.1084 v -14.8208 h 2.1084 v -2.1208 h 8.4708 v 2.1208 h 2.1208 v 4.2292 h -4.2416 v -4.2292 h -4.2292 v 14.8208 h 4.2292 v -4.2416 h 4.2416 v 4.2416 h -2.1208 v 2.1084 z"
         style="font-family:'BIG SHOT';-inkscape-font-specification:'BIG SHOT, Normal';stroke:#ffffff;stroke-width:7.90505;stroke-linecap:round;stroke-linejoin:round;stroke-miterlimit:4;stroke-dasharray:none;paint-order:stroke fill markers"
         id="path934" /><path
         d="m 149.40562,138.04781 v -2.1084 h -2.1084 v -4.2416 h 4.2292 v 4.2416 h 4.2292 v -6.35 h -6.35 v -2.1208 h -2.1084 v -6.35 h 2.1084 v -2.1208 h 8.4708 v 2.1208 h 2.1208 v 4.2292 h -4.2416 v -4.2292 h -4.2292 v 6.35 h 6.35 v 2.1208 h 2.1208 v 6.35 h -2.1208 v 2.1084 z"
         style="font-family:'BIG SHOT';-inkscape-font-specification:'BIG SHOT, Normal';stroke:#ffffff;stroke-width:7.90505;stroke-linecap:round;stroke-linejoin:round;stroke-miterlimit:4;stroke-dasharray:none;paint-order:stroke fill markers"
         id="path936" /></g></g><g
     id="g1121"
     style="stroke:none;stroke-linecap:round;stroke-linejoin:round;paint-order:stroke fill markers"><g
       id="g1087"
       transform="matrix(0.54694304,0,0,0.54694304,-1065.6267,1321.7303)"
       style="display:inline;stroke:none;stroke-linecap:round;stroke-linejoin:round;paint-order:stroke fill markers">
   <polygon
   class="fil1"
   points="3720,1235 3615,1597 3868,1597 4138,672 3805,672 3496,1235 3519,672 3185,672 2916,1597 3170,1597 3276,1235 3320,1024 3294,1597 3492,1597 3799,1034 "
   id="polygon1075"
   style="stroke:none;stroke-linecap:round;stroke-linejoin:round;paint-order:stroke fill markers" />
   <polygon
   class="fil1"
   points="3976,1597 4253,1597 4522,672 4246,672 "
   id="polygon1077"
   style="stroke:none;stroke-linecap:round;stroke-linejoin:round;paint-order:stroke fill markers" />
   <path
   class="fil1"
   d="m 4842,892 c 71,-2 123,14 159,47 35,32 41,94 16,185 -16,53 -34,96 -56,130 -22,34 -46,60 -73,79 -28,19 -57,32 -88,38 -31,6 -64,9 -99,7 z m -207,-220 -269,925 h 360 c 65,0 126,-8 185,-25 59,-17 113,-45 163,-84 49,-38 93,-88 131,-150 38,-61 69,-135 92,-223 23,-89 27,-161 10,-218 -16,-58 -43,-103 -79,-136 -36,-33 -77,-57 -123,-69 -47,-13 -89,-20 -126,-20 z"
   id="path1079"
   style="stroke:none;stroke-linecap:round;stroke-linejoin:round;paint-order:stroke fill markers" />
   <polygon
   class="fil1"
   points="5860,672 5617,1235 5688,672 5413,672 5357,1597 5625,1597 5870,1065 5814,1597 6083,1597 6551,672 6293,672 6037,1235 6111,672 "
   id="polygon1081"
   style="stroke:none;stroke-linecap:round;stroke-linejoin:round;paint-order:stroke fill markers" />
   <path
   class="fil1"
   d="m 6641,1285 168,-301 -6,301 z m 119,-613 -567,925 h 278 l 62,-119 h 269 l -9,119 h 279 l -26,-925 z"
   id="path1083"
   style="stroke:none;stroke-linecap:round;stroke-linejoin:round;paint-order:stroke fill markers" />
   <polygon
   class="fil1"
   points="7415,1597 7512,1263 8000,672 7684,672 7463,972 7416,672 7110,672 7243,1263 7146,1597 "
   id="polygon1085"
   style="stroke:none;stroke-linecap:round;stroke-linejoin:round;paint-order:stroke fill markers" />
  </g><g
       id="g1101"
       transform="matrix(2.0430307,0,0,2.0430307,708.70987,2132.3299)"
       style="display:inline;fill:#de0000;fill-opacity:1;stroke:none;stroke-linecap:round;stroke-linejoin:round;paint-order:stroke fill markers"><path
         style="fill:#de0000;fill-opacity:1;fill-rule:evenodd;stroke:none;stroke-linecap:round;stroke-linejoin:round;paint-order:stroke fill markers"
         d="m 293.40234,6.890625 c 0,0 -70.32422,191.093745 -70.32422,203.628905 0,0 -0.42968,5.98438 0.8711,4.68359 0,0 14.85156,-28.89453 32.17969,-57.87109 13.30468,-22.23828 28.0664,-43.83984 38.69531,-56.60547 24.47656,-29.394529 44.67578,-43.523435 50.53906,-47.160154 5.76563,-3.578125 7.07813,0.242188 2.83203,3.210938 C 343.95312,59.746094 320.94141,74.5 297.66016,104.5 c -9.6875,12.48828 -25.35157,34.55469 -39.70704,59.84766 -22.66406,39.92968 -42.71484,85.90234 -42.71484,85.90234 0,0 -7.58984,16.76953 -16.73828,1.76172 C 160.63281,174.66797 259.60937,64.363281 255.49609,60.25 253.95703,58.710938 206.38672,120.41797 177.15234,151.8125 146.42969,184.80859 63.300781,258.17969 45.1875,256.03125 c 0,0 -7.066406,-1.91797 -1.574219,-7.01563 C 88.46875,210.55078 208.96484,19.507813 132.07812,9.070313 57.589844,-1.039063 -18.597656,115.125 13.683594,150.22656 39.042969,175.58984 78.542969,122.93359 86.464844,103.64844 105.96484,58.332031 99.71875,40.089844 99.71875,40.089844 c -0.882812,-2.9375 2.55469,-6.582031 4,-2.117188 0,0 16.24609,49.359375 -2.89844,84.117184 C 87.300781,147.33203 39.0625,183.10547 10.234375,154.27734 -28.707031,115.33984 58.277344,-14.371094 142.44531,2.34375 200.65234,13.90625 202.62109,67.074219 175.30078,117 143.53125,175.05078 77.96875,227.28906 77.96875,227.28906 c -3.515625,2.48828 0.609375,2.9961 2.515625,1.58203 0,0 45.792965,-28.10547 96.117185,-84.17578 C 215.07031,106.22656 289.24609,1.929688 289.24609,1.929688 c 0,0 7.52735,-4.792969 4.15625,4.960937"
         id="path1089" /><path
         style="fill:#de0000;fill-opacity:1;fill-rule:evenodd;stroke:none;stroke-linecap:round;stroke-linejoin:round;paint-order:stroke fill markers"
         d="m 396.07422,80.078125 c -6.46875,9.59375 -18.19141,13.003906 -26.17969,7.617188 -7.99219,-5.386719 -9.22266,-17.53125 -2.75391,-27.125 6.46875,-9.59375 18.1875,-13.003907 26.17969,-7.617188 7.98828,5.386719 9.22266,17.53125 2.75391,27.125"
         id="path1091" /><path
         style="fill:#de0000;fill-opacity:1;fill-rule:evenodd;stroke:none;stroke-linecap:round;stroke-linejoin:round;paint-order:stroke fill markers"
         d="m 666.89844,79.167969 c -6.46875,9.59375 -18.1875,13.003906 -26.17969,7.617187 -7.98828,-5.386718 -9.22266,-17.53125 -2.75391,-27.125 6.46875,-9.59375 18.19141,-13.007812 26.17969,-7.617187 7.99219,5.386719 9.22266,17.53125 2.75391,27.125"
         id="path1093" /><path
         style="fill:#de0000;fill-opacity:1;fill-rule:evenodd;stroke:none;stroke-linecap:round;stroke-linejoin:round;paint-order:stroke fill markers"
         d="m 669.55078,163.19531 c 0,0 -12.52734,12.66406 -32.625,36.32422 -24.17578,29.05078 -46.69141,52.64063 -52.88672,48.21875 -12.42969,-8.16797 56.32031,-109.29687 53.12891,-112.48828 -1.6836,-1.68359 -33.70313,-2.60156 -38.95313,2.64844 -4.09375,4.08984 -17.22656,20.95312 -36.38281,45.125 -19.15625,24.17187 -56.49609,71.9375 -67.46094,64.71484 -12.41797,-8.17969 124.11719,-233.679686 121.60938,-236.183592 -1.63281,-1.632813 -29.71094,-1.59375 -34.96094,3.65625 -2.53906,2.535156 -25.96484,43.960937 -54.53906,91.921872 0,0 -25.4961,35.55078 -57.47656,75.34766 -25.91407,32.24609 -53.69922,73.78515 -65.96485,65.25781 -12.42969,-8.16797 124.11719,-233.679686 121.60938,-236.183592 -1.63282,-1.632813 -29.71485,-1.59375 -34.96485,3.65625 -2.53906,2.535156 -25.28515,42.957031 -53.85937,90.914062 0,0 -107.90235,152.23828 -122.78516,141.61328 -12.42969,-8.16797 56.32031,-109.29687 53.12891,-112.48828 -1.6836,-1.68359 -34.71485,-1.59375 -39.96485,3.65625 -6.41406,6.41406 -48.1289,60.59375 -48.1289,60.59375 -2.76953,3.58984 1.16406,6.83203 4.15625,2.75 0,0 27.07031,-37.56641 28.74609,-34.52734 2.15235,3.89453 -41.6289,68.30078 -13.76562,85.41796 22.48437,13.76954 47.22656,-18.92578 69.48047,-46.63671 19.10546,-23.78907 37.84375,-53.13672 32.55859,-38.33985 -19.44531,36.22266 -32.26563,71.4375 -12.03906,84.97656 22.48437,13.76954 47.22656,-18.92578 69.48047,-46.63671 18.8789,-23.51172 38.17968,-51.76954 33.64062,-38.04297 -19.36328,36.0625 -32.08984,71.08984 -11.78906,84.67968 22.48437,13.76954 55.61719,-25.76171 74.6875,-50.89062 19.07031,-25.12891 27.07031,-37.56641 28.74609,-34.52734 2.15235,3.89453 -41.6289,68.30078 -13.76562,85.41796 22.48437,13.76954 47.40234,-18.78515 69.48047,-46.63671 9.85156,-12.42969 7.60546,-1.35157 7.60546,-1.35157 l 24.25391,-41.95703"
         id="path1095" /><path
         style="fill:#de0000;fill-opacity:1;fill-rule:evenodd;stroke:none;stroke-linecap:round;stroke-linejoin:round;paint-order:stroke fill markers"
         d="m 959.46875,196 c -2.27344,-3.82813 18.91016,-49.13281 -1.83203,-61.66406 -22.90235,-13.06641 -45.85547,21.67578 -67.24219,50.05859 -15.09375,20.02734 -13.86328,13.28125 -13.86328,13.28125 0,0 23.67578,-51.93359 4.14062,-62.47266 -19.53906,-10.53515 -43.16015,17.48438 -58.20312,38.55079 -15.04688,21.0664 -61.41406,82.83203 -72.80078,74.96484 -11.19922,-7.73828 56.32031,-109.29688 53.13281,-112.48828 -1.6875,-1.6836 -31.71094,-4.89844 -36.96094,1.98047 -1.25781,1.64453 -6.48047,15.68359 -9.45312,9.78515 L 748.46875,176 718.73828,225.30859 c 5.78516,-6.54297 4.89844,1.74219 4.89844,1.74219 -1.33985,11.28125 -0.95313,20.73047 9.61719,27.65625 18.71484,12.29297 48.90625,-20.34766 70.0664,-47.22266 16.60156,-21.08203 50.16797,-69.79296 59.15625,-63.97265 8.99219,5.82031 -53.44922,104.33594 -55.18359,111.36328 -0.72656,2.72266 36.4375,1.82422 39.05078,-1.10938 1.48047,-1.57812 77.625,-119.4414 93.09766,-111.12109 12.67578,7.78125 -51.50391,110.04297 -48.21485,113.13281 1.73438,1.63282 35.66406,1.22657 39.21094,-2.64453 2.67187,-2.83984 73.8437,-121.21484 95.6016,-114.2539 8.4726,3.38671 -8.0586,22.61718 -20.8399,44.96875 -13.93748,24.36718 -23.25779,60.24609 -1.3711,70.94921 26.8907,12.70313 59.4102,-39.24609 82.8633,-69.28125 23.4492,-30.03515 42,-53.77734 42,-53.77734 6.2305,-8.33984 12.5899,38.35156 -2.9726,75.76172 -24.8672,61.55078 -39.7696,33.07812 -37.8399,29 17.25,-2.87109 19.3008,-27.38281 2.1719,-30.05078 -17.1406,-2.66797 -20.0625,19.5 -13.2813,31.02734 6.7813,11.52344 21.5703,18.66797 37.1289,18.66797 28.2305,0 51.711,-31.83203 58,-39.6875 6.293,-7.85547 12.1602,-15.98828 12.1602,-15.98828 2.082,-3.29297 -1.2578,-4.89844 -3.4492,-2.21875 0,0 -23.2578,30.19141 -19.4492,18.48437 10.6679,-44.08203 -35.7305,-86.80468 -19.9883,-101.78515 15.1484,-14.42578 4.2578,-17.195314 -1.1133,-8.10547 -5.1367,8.72266 -55.8789,71.82031 -75.3672,98.64844 -19.5,26.82812 -44.4219,48.98828 -49.6328,44.8164 -9.7969,-7.80468 14.9414,-33.24218 26.0898,-57.8164 11.1524,-24.57813 14.6133,-44.11719 -2.207,-57.39063 C 1012.6016,116.80469 961.23437,198.98437 959.46875,196"
         id="path1097" /><path
         style="fill:#de0000;fill-opacity:1;fill-rule:evenodd;stroke:none;stroke-linecap:round;stroke-linejoin:round;paint-order:stroke fill markers"
         d="m 745.23047,136.28906 c -17.8086,-13.30078 -51.4961,-1.57031 -77.19531,28.65235 -25.69532,30.22656 -33.50391,65.08593 -15.86719,82.72656 23.89844,23.89844 51.07812,-2.85938 76.77734,-33.08594 20.0625,-23.59375 55.08985,-49.30859 16.28516,-78.29297 z m -19.82813,70.875 c -19.60156,30.55469 -44.17187,49.65235 -53.86718,43.32422 -11.14844,-7.27734 2.08984,-33.41406 21.6914,-63.96484 19.60156,-30.55078 36.69922,-55.57813 51.58203,-45 14.88282,10.57812 0.19532,35.08984 -19.40625,65.64062"
         id="path1099" /></g><g
       aria-label="CLASSICS"
       id="g1119"
       style="font-size:25.4px;line-height:1.25;font-family:'Patrick Hand SC';-inkscape-font-specification:'Patrick Hand SC, Normal';display:inline;stroke:none;stroke-width:0.264583;stroke-linecap:round;stroke-linejoin:round;paint-order:stroke fill markers"
       transform="matrix(13.177225,0,0,13.177225,675.72397,1085.7973)"><path
         d="m 30.901226,138.04781 v -2.1084 h -2.108398 v -14.8208 h 2.108398 v -2.1208 h 8.470801 v 2.1208 h 2.1208 v 4.2292 h -4.241601 v -4.2292 h -4.229199 v 14.8208 h 4.229199 v -4.2416 h 4.241601 v 4.2416 h -2.1208 v 2.1084 z"
         style="font-family:'BIG SHOT';-inkscape-font-specification:'BIG SHOT, Normal';stroke:none;stroke-linecap:round;stroke-linejoin:round;paint-order:stroke fill markers"
         id="path1103" /><path
         d="m 45.722027,138.04781 v -19.05 h 4.229199 v 16.9416 h 8.470801 v 2.1084 z"
         style="font-family:'BIG SHOT';-inkscape-font-specification:'BIG SHOT, Normal';stroke:none;stroke-linecap:round;stroke-linejoin:round;paint-order:stroke fill markers"
         id="path1105" /><path
         d="m 71.109624,129.58941 v -8.4708 h -4.229199 v 8.4708 z m -8.458398,8.4584 v -16.9292 h 2.108398 v -2.1208 h 8.470801 v 2.1208 h 2.120801 v 16.9292 h -4.241602 v -6.35 h -4.229199 v 6.35 z"
         style="font-family:'BIG SHOT';-inkscape-font-specification:'BIG SHOT, Normal';stroke:none;stroke-linecap:round;stroke-linejoin:round;paint-order:stroke fill markers"
         id="path1107" /><path
         d="m 81.688824,138.04781 v -2.1084 h -2.108399 v -4.2416 h 4.229199 v 4.2416 h 4.2292 v -6.35 h -6.35 v -2.1208 h -2.108399 v -6.35 h 2.108399 v -2.1208 h 8.4708 v 2.1208 h 2.120801 v 4.2292 h -4.241601 v -4.2292 h -4.2292 v 6.35 h 6.35 v 2.1208 h 2.120801 v 6.35 h -2.120801 v 2.1084 z"
         style="font-family:'BIG SHOT';-inkscape-font-specification:'BIG SHOT, Normal';stroke:none;stroke-linecap:round;stroke-linejoin:round;paint-order:stroke fill markers"
         id="path1109" /><path
         d="m 98.618023,138.04781 v -2.1084 h -2.108399 v -4.2416 h 4.229196 v 4.2416 h 4.2292 v -6.35 h -6.349997 v -2.1208 h -2.108399 v -6.35 h 2.108399 v -2.1208 h 8.470797 v 2.1208 h 2.1208 v 4.2292 h -4.2416 v -4.2292 h -4.2292 v 6.35 h 6.35 v 2.1208 h 2.1208 v 6.35 h -2.1208 v 2.1084 z"
         style="font-family:'BIG SHOT';-inkscape-font-specification:'BIG SHOT, Normal';stroke:none;stroke-linecap:round;stroke-linejoin:round;paint-order:stroke fill markers"
         id="path1111" /><path
         d="m 113.43882,138.04781 v -2.1084 h 4.2292 v -14.8208 h -4.2292 v -2.1208 h 12.7 v 2.1208 h -4.2416 v 14.8208 h 4.2416 v 2.1084 z"
         style="font-family:'BIG SHOT';-inkscape-font-specification:'BIG SHOT, Normal';stroke:none;stroke-linecap:round;stroke-linejoin:round;paint-order:stroke fill markers"
         id="path1113" /><path
         d="m 132.47642,138.04781 v -2.1084 h -2.1084 v -14.8208 h 2.1084 v -2.1208 h 8.4708 v 2.1208 h 2.1208 v 4.2292 h -4.2416 v -4.2292 h -4.2292 v 14.8208 h 4.2292 v -4.2416 h 4.2416 v 4.2416 h -2.1208 v 2.1084 z"
         style="font-family:'BIG SHOT';-inkscape-font-specification:'BIG SHOT, Normal';stroke:none;stroke-linecap:round;stroke-linejoin:round;paint-order:stroke fill markers"
         id="path1115" /><path
         d="m 149.40562,138.04781 v -2.1084 h -2.1084 v -4.2416 h 4.2292 v 4.2416 h 4.2292 v -6.35 h -6.35 v -2.1208 h -2.1084 v -6.35 h 2.1084 v -2.1208 h 8.4708 v 2.1208 h 2.1208 v 4.2292 h -4.2416 v -4.2292 h -4.2292 v 6.35 h 6.35 v 2.1208 h 2.1208 v 6.35 h -2.1208 v 2.1084 z"
         style="font-family:'BIG SHOT';-inkscape-font-specification:'BIG SHOT, Normal';stroke:none;stroke-linecap:round;stroke-linejoin:round;paint-order:stroke fill markers"
         id="path1117" /></g></g></g></g>
</svg>
