<?xml version="1.0" encoding="UTF-8" standalone="no"?>
<!-- Created with Inkscape (http://www.inkscape.org/) -->

<svg
   width="3.7751424mm"
   height="1.6514528mm"
   viewBox="0 0 3.7751424 1.6514528"
   version="1.1"
   id="svg7201"
   inkscape:version="1.1 (c68e22c387, 2021-05-23)"
   sodipodi:docname="auto-arcade-capcom-cps3.svg"
   xmlns:inkscape="http://www.inkscape.org/namespaces/inkscape"
   xmlns:sodipodi="http://sodipodi.sourceforge.net/DTD/sodipodi-0.dtd"
   xmlns:xlink="http://www.w3.org/1999/xlink"
   xmlns="http://www.w3.org/2000/svg"
   xmlns:svg="http://www.w3.org/2000/svg">
  <sodipodi:namedview
     id="namedview7203"
     pagecolor="#ffffff"
     bordercolor="#666666"
     borderopacity="1.0"
     inkscape:pageshadow="2"
     inkscape:pageopacity="0.0"
     inkscape:pagecheckerboard="true"
     inkscape:document-units="mm"
     showgrid="false"
     inkscape:zoom="45.254834"
     inkscape:cx="7.4798639"
     inkscape:cy="3.5797281"
     inkscape:window-width="1920"
     inkscape:window-height="1138"
     inkscape:window-x="-8"
     inkscape:window-y="-8"
     inkscape:window-maximized="1"
     inkscape:current-layer="layer1"
     inkscape:snap-global="false"
     inkscape:showpageshadow="false"
     fit-margin-top="0"
     fit-margin-left="0"
     fit-margin-right="0"
     fit-margin-bottom="0" />
  <defs
     id="defs7198">
    <linearGradient
       inkscape:collect="always"
       id="linearGradient22329">
      <stop
         style="stop-color:#004088;stop-opacity:1;"
         offset="0"
         id="stop22325" />
      <stop
         style="stop-color:#004088;stop-opacity:0.34113712"
         offset="1"
         id="stop22327" />
    </linearGradient>
    <radialGradient
       inkscape:collect="always"
       xlink:href="#linearGradient22329"
       id="radialGradient1454"
       gradientUnits="userSpaceOnUse"
       gradientTransform="matrix(-5.752272e-8,-1.6286702,1.6736065,-3.1555428e-6,-65.772147,263.09619)"
       cx="89.773567"
       cy="92.940437"
       fx="89.773567"
       fy="92.940437"
       r="16.981424" />
    <radialGradient
       inkscape:collect="always"
       xlink:href="#linearGradient22329"
       id="radialGradient1456"
       gradientUnits="userSpaceOnUse"
       gradientTransform="matrix(-5.752272e-8,-1.6286702,1.6736065,-3.1555428e-6,-65.772147,263.09619)"
       cx="89.773567"
       cy="92.940437"
       fx="89.773567"
       fy="92.940437"
       r="16.981424" />
    <radialGradient
       inkscape:collect="always"
       xlink:href="#linearGradient22329"
       id="radialGradient1458"
       gradientUnits="userSpaceOnUse"
       gradientTransform="matrix(-5.752272e-8,-1.6286702,1.6736065,-3.1555428e-6,-65.772147,263.09619)"
       cx="89.773567"
       cy="92.940437"
       fx="89.773567"
       fy="92.940437"
       r="16.981424" />
    <radialGradient
       inkscape:collect="always"
       xlink:href="#linearGradient22329"
       id="radialGradient1460"
       gradientUnits="userSpaceOnUse"
       gradientTransform="matrix(-5.752272e-8,-1.6286702,1.6736065,-3.1555428e-6,-65.772147,263.09619)"
       cx="89.773567"
       cy="92.940437"
       fx="89.773567"
       fy="92.940437"
       r="16.981424" />
    <radialGradient
       inkscape:collect="always"
       xlink:href="#linearGradient22329"
       id="radialGradient1048"
       gradientUnits="userSpaceOnUse"
       gradientTransform="matrix(-5.752272e-8,-1.6286702,1.6736065,-3.1555428e-6,-65.772147,263.09619)"
       cx="89.773567"
       cy="92.940437"
       fx="89.773567"
       fy="92.940437"
       r="16.981424" />
    <radialGradient
       inkscape:collect="always"
       xlink:href="#linearGradient22329"
       id="radialGradient1050"
       gradientUnits="userSpaceOnUse"
       gradientTransform="matrix(-5.752272e-8,-1.6286702,1.6736065,-3.1555428e-6,-65.772147,263.09619)"
       cx="89.773567"
       cy="92.940437"
       fx="89.773567"
       fy="92.940437"
       r="16.981424" />
    <radialGradient
       inkscape:collect="always"
       xlink:href="#linearGradient22329"
       id="radialGradient1285"
       gradientUnits="userSpaceOnUse"
       gradientTransform="matrix(-5.752272e-8,-1.6286702,1.6736065,-3.1555428e-6,-65.772147,263.09619)"
       cx="89.773567"
       cy="92.940437"
       fx="89.773567"
       fy="92.940437"
       r="16.981424" />
    <radialGradient
       inkscape:collect="always"
       xlink:href="#linearGradient22329"
       id="radialGradient1287"
       gradientUnits="userSpaceOnUse"
       gradientTransform="matrix(-5.752272e-8,-1.6286702,1.6736065,-3.1555428e-6,-65.772147,263.09619)"
       cx="89.773567"
       cy="92.940437"
       fx="89.773567"
       fy="92.940437"
       r="16.981424" />
    <radialGradient
       inkscape:collect="always"
       xlink:href="#linearGradient22329"
       id="radialGradient1289"
       gradientUnits="userSpaceOnUse"
       gradientTransform="matrix(-5.752272e-8,-1.6286702,1.6736065,-3.1555428e-6,-65.772147,263.09619)"
       cx="89.773567"
       cy="92.940437"
       fx="89.773567"
       fy="92.940437"
       r="16.981424" />
    <radialGradient
       inkscape:collect="always"
       xlink:href="#linearGradient22329"
       id="radialGradient1291"
       gradientUnits="userSpaceOnUse"
       gradientTransform="matrix(-5.752272e-8,-1.6286702,1.6736065,-3.1555428e-6,-65.772147,263.09619)"
       cx="89.773567"
       cy="92.940437"
       fx="89.773567"
       fy="92.940437"
       r="16.981424" />
    <radialGradient
       inkscape:collect="always"
       xlink:href="#linearGradient22329"
       id="radialGradient1293"
       gradientUnits="userSpaceOnUse"
       gradientTransform="matrix(-5.752272e-8,-1.6286702,1.6736065,-3.1555428e-6,-65.772147,263.09619)"
       cx="89.773567"
       cy="92.940437"
       fx="89.773567"
       fy="92.940437"
       r="16.981424" />
    <radialGradient
       inkscape:collect="always"
       xlink:href="#linearGradient22329"
       id="radialGradient1295"
       gradientUnits="userSpaceOnUse"
       gradientTransform="matrix(-5.752272e-8,-1.6286702,1.6736065,-3.1555428e-6,-65.772147,263.09619)"
       cx="89.773567"
       cy="92.940437"
       fx="89.773567"
       fy="92.940437"
       r="16.981424" />
  </defs>
  <g
     inkscape:label="Calque 1"
     inkscape:groupmode="layer"
     id="layer1"
     transform="translate(-26.819788,-33.580536)"
     style="display:inline">
    <rect
       style="fill:#ffffff;fill-rule:evenodd;stroke-width:0.140414;stroke-linecap:round;stroke-linejoin:round;paint-order:fill markers stroke"
       id="rect930"
       width="1.6019467"
       height="1.0231411"
       x="27.889702"
       y="33.67408" />
    <rect
       style="opacity:1;fill:#ffffff;fill-rule:evenodd;stroke:none;stroke-width:0.105833;stroke-linecap:round;stroke-linejoin:round;stroke-miterlimit:4;stroke-dasharray:none;paint-order:fill markers stroke"
       id="rect1773"
       width="0.1987817"
       height="0.18708867"
       x="30.035376"
       y="34.466721" />
    <rect
       style="opacity:1;fill:#ffffff;fill-rule:evenodd;stroke:none;stroke-width:0.214522;stroke-linecap:round;stroke-linejoin:round;stroke-miterlimit:4;stroke-dasharray:none;paint-order:fill markers stroke"
       id="rect1647"
       width="0.18124214"
       height="0.3244819"
       x="28.375816"
       y="34.371418" />
    <ellipse
       style="opacity:1;fill:#ffffff;fill-rule:evenodd;stroke:#ffffff;stroke-width:0.162842;stroke-linecap:round;stroke-linejoin:round;stroke-miterlimit:4;stroke-dasharray:none;paint-order:fill markers stroke"
       id="path1389"
       cx="27.426363"
       cy="34.273785"
       rx="0.30913261"
       ry="0.10304275" />
    <g
       id="g1046"
       transform="matrix(0.02326835,0,0,0.02326835,26.247686,32.928376)"
       style="stroke:#ffffff;stroke-width:4.54838;stroke-miterlimit:4;stroke-dasharray:none">
      <g
         aria-label="I"
         transform="scale(1.1805424,0.84706826)"
         id="g1040"
         style="font-size:119.644px;line-height:1.25;font-family:'Patrick Hand SC';-inkscape-font-specification:'Patrick Hand SC, Normal';display:inline;opacity:1;fill:#009ee0;fill-opacity:1;stroke:#ffffff;stroke-width:4.54838;stroke-miterlimit:4;stroke-dasharray:none">
        <path
           d="M 106.59613,114.5796 H 72.65416 v -4.4663 h 3.099464 c 1.284793,0 4.420682,-0.2683 6.00506,-1.21632 2.772283,-2.37142 2.22894,-3.54773 2.22894,-8.33816 V 49.382966 c 0,-4.011501 -0.282684,-5.219395 -0.78899,-6.504633 -0.891489,-1.012612 -1.246933,-1.109147 -2.454278,-1.77124 -1.645174,-0.646624 -3.12962,-1.081422 -5.020263,-1.443235 l -3.010871,-0.57619 -0.05906,-3.725483 h 33.941968 v 3.725574 l -2.86257,0.564299 c -2.05551,0.405202 -5.411655,0.674286 -7.068811,2.212261 -0.973665,1.246292 -1.460498,2.76716 -1.460498,7.518647 v 51.175854 c 0,3.13844 -0.173126,5.71401 1.35637,8.33795 0.797398,0.70867 2.795024,1.21596 6.546499,1.21596 h 3.50989 z"
           style="font-family:FrankRuehl;-inkscape-font-specification:'FrankRuehl, Normal';fill:#009ee0;fill-opacity:1;stroke:#ffffff;stroke-width:4.54838;stroke-miterlimit:4;stroke-dasharray:none"
           id="path1038"
           sodipodi:nodetypes="cccscssccsccccscsscscc" />
      </g>
      <g
         aria-label="I"
         transform="scale(1.1805424,0.84706826)"
         id="g1044"
         style="font-size:119.644px;line-height:1.25;font-family:'Patrick Hand SC';-inkscape-font-specification:'Patrick Hand SC, Normal';display:inline;opacity:0.943144;fill:url(#radialGradient1456);fill-opacity:1;stroke:#ffffff;stroke-width:4.54838;stroke-miterlimit:4;stroke-dasharray:none">
        <path
           d="M 106.59613,114.5796 H 72.65416 v -4.4663 h 3.099464 c 1.284793,0 4.420682,-0.2683 6.00506,-1.21632 2.772283,-2.37142 2.22894,-3.54773 2.22894,-8.33816 V 49.382966 c 0,-4.011501 -0.282684,-5.219395 -0.78899,-6.504633 -0.891489,-1.012612 -1.246933,-1.109147 -2.454278,-1.77124 -1.645174,-0.646624 -3.12962,-1.081422 -5.020263,-1.443235 l -3.010871,-0.57619 -0.05906,-3.725483 h 33.941968 v 3.725574 l -2.86257,0.564299 c -2.05551,0.405202 -5.411655,0.674286 -7.068811,2.212261 -0.973665,1.246292 -1.460498,2.76716 -1.460498,7.518647 v 51.175854 c 0,3.13844 -0.173126,5.71401 1.35637,8.33795 0.797398,0.70867 2.795024,1.21596 6.546499,1.21596 h 3.50989 z"
           style="font-family:FrankRuehl;-inkscape-font-specification:'FrankRuehl, Normal';fill:url(#radialGradient1454);fill-opacity:1;stroke:#ffffff;stroke-width:4.54838;stroke-miterlimit:4;stroke-dasharray:none"
           id="path1042"
           sodipodi:nodetypes="cccscssccsccccscsscscc" />
      </g>
    </g>
    <g
       id="g1402"
       transform="matrix(0.02326835,0,0,0.02326835,27.049704,32.928815)"
       style="stroke:#ffffff;stroke-width:4.54838;stroke-miterlimit:4;stroke-dasharray:none">
      <g
         aria-label="I"
         transform="scale(1.1805424,0.84706826)"
         id="g1396"
         style="font-size:119.644px;line-height:1.25;font-family:'Patrick Hand SC';-inkscape-font-specification:'Patrick Hand SC, Normal';display:inline;opacity:1;fill:#009ee0;fill-opacity:1;stroke:#ffffff;stroke-width:4.54838;stroke-miterlimit:4;stroke-dasharray:none">
        <path
           d="M 106.59613,114.5796 H 72.65416 v -4.4663 h 3.099464 c 1.284793,0 4.420682,-0.2683 6.00506,-1.21632 2.772283,-2.37142 2.22894,-3.54773 2.22894,-8.33816 V 49.382966 c 0,-4.011501 -0.282684,-5.219395 -0.78899,-6.504633 -0.891489,-1.012612 -1.246933,-1.109147 -2.454278,-1.77124 -1.645174,-0.646624 -3.12962,-1.081422 -5.020263,-1.443235 l -3.010871,-0.57619 -0.05906,-3.725483 h 33.941968 v 3.725574 l -2.86257,0.564299 c -2.05551,0.405202 -5.411655,0.674286 -7.068811,2.212261 -0.973665,1.246292 -1.460498,2.76716 -1.460498,7.518647 v 51.175854 c 0,3.13844 -0.173126,5.71401 1.35637,8.33795 0.797398,0.70867 2.795024,1.21596 6.546499,1.21596 h 3.50989 z"
           style="font-family:FrankRuehl;-inkscape-font-specification:'FrankRuehl, Normal';fill:#009ee0;fill-opacity:1;stroke:#ffffff;stroke-width:4.54838;stroke-miterlimit:4;stroke-dasharray:none"
           id="path1394"
           sodipodi:nodetypes="cccscssccsccccscsscscc" />
      </g>
      <g
         aria-label="I"
         transform="scale(1.1805424,0.84706826)"
         id="g1400"
         style="font-size:119.644px;line-height:1.25;font-family:'Patrick Hand SC';-inkscape-font-specification:'Patrick Hand SC, Normal';display:inline;opacity:0.943144;fill:url(#radialGradient1050);fill-opacity:1;stroke:#ffffff;stroke-width:4.54838;stroke-miterlimit:4;stroke-dasharray:none">
        <path
           d="M 106.59613,114.5796 H 72.65416 v -4.4663 h 3.099464 c 1.284793,0 4.420682,-0.2683 6.00506,-1.21632 2.772283,-2.37142 2.22894,-3.54773 2.22894,-8.33816 V 49.382966 c 0,-4.011501 -0.282684,-5.219395 -0.78899,-6.504633 -0.891489,-1.012612 -1.246933,-1.109147 -2.454278,-1.77124 -1.645174,-0.646624 -3.12962,-1.081422 -5.020263,-1.443235 l -3.010871,-0.57619 -0.05906,-3.725483 h 33.941968 v 3.725574 l -2.86257,0.564299 c -2.05551,0.405202 -5.411655,0.674286 -7.068811,2.212261 -0.973665,1.246292 -1.460498,2.76716 -1.460498,7.518647 v 51.175854 c 0,3.13844 -0.173126,5.71401 1.35637,8.33795 0.797398,0.70867 2.795024,1.21596 6.546499,1.21596 h 3.50989 z"
           style="font-family:FrankRuehl;-inkscape-font-specification:'FrankRuehl, Normal';fill:url(#radialGradient1048);fill-opacity:1;stroke:#ffffff;stroke-width:4.54838;stroke-miterlimit:4;stroke-dasharray:none"
           id="path1398"
           sodipodi:nodetypes="cccscssccsccccscsscscc" />
      </g>
    </g>
    <g
       id="g1412"
       transform="matrix(0.02326835,0,0,0.02326835,25.434949,32.928815)"
       style="stroke:#ffffff;stroke-width:4.54838;stroke-miterlimit:4;stroke-dasharray:none">
      <g
         aria-label="I"
         transform="scale(1.1805424,0.84706826)"
         id="g1406"
         style="font-size:119.644px;line-height:1.25;font-family:'Patrick Hand SC';-inkscape-font-specification:'Patrick Hand SC, Normal';display:inline;opacity:1;fill:#009ee0;fill-opacity:1;stroke:#ffffff;stroke-width:4.54838;stroke-miterlimit:4;stroke-dasharray:none">
        <path
           d="M 106.59613,114.5796 H 72.65416 v -4.4663 h 3.099464 c 1.284793,0 4.420682,-0.2683 6.00506,-1.21632 2.772283,-2.37142 2.22894,-3.54773 2.22894,-8.33816 V 49.382966 c 0,-4.011501 -0.282684,-5.219395 -0.78899,-6.504633 -0.891489,-1.012612 -1.246933,-1.109147 -2.454278,-1.77124 -1.645174,-0.646624 -3.12962,-1.081422 -5.020263,-1.443235 l -3.010871,-0.57619 -0.05906,-3.725483 h 33.941968 v 3.725574 l -2.86257,0.564299 c -2.05551,0.405202 -5.411655,0.674286 -7.068811,2.212261 -0.973665,1.246292 -1.460498,2.76716 -1.460498,7.518647 v 51.175854 c 0,3.13844 -0.173126,5.71401 1.35637,8.33795 0.797398,0.70867 2.795024,1.21596 6.546499,1.21596 h 3.50989 z"
           style="font-family:FrankRuehl;-inkscape-font-specification:'FrankRuehl, Normal';fill:#009ee0;fill-opacity:1;stroke:#ffffff;stroke-width:4.54838;stroke-miterlimit:4;stroke-dasharray:none"
           id="path1404"
           sodipodi:nodetypes="cccscssccsccccscsscscc" />
      </g>
      <g
         aria-label="I"
         transform="scale(1.1805424,0.84706826)"
         id="g1410"
         style="font-size:119.644px;line-height:1.25;font-family:'Patrick Hand SC';-inkscape-font-specification:'Patrick Hand SC, Normal';display:inline;opacity:0.943144;fill:url(#radialGradient1460);fill-opacity:1;stroke:#ffffff;stroke-width:4.54838;stroke-miterlimit:4;stroke-dasharray:none">
        <path
           d="M 106.59613,114.5796 H 72.65416 v -4.4663 h 3.099464 c 1.284793,0 4.420682,-0.2683 6.00506,-1.21632 2.772283,-2.37142 2.22894,-3.54773 2.22894,-8.33816 V 49.382966 c 0,-4.011501 -0.282684,-5.219395 -0.78899,-6.504633 -0.891489,-1.012612 -1.246933,-1.109147 -2.454278,-1.77124 -1.645174,-0.646624 -3.12962,-1.081422 -5.020263,-1.443235 l -3.010871,-0.57619 -0.05906,-3.725483 h 33.941968 v 3.725574 l -2.86257,0.564299 c -2.05551,0.405202 -5.411655,0.674286 -7.068811,2.212261 -0.973665,1.246292 -1.460498,2.76716 -1.460498,7.518647 v 51.175854 c 0,3.13844 -0.173126,5.71401 1.35637,8.33795 0.797398,0.70867 2.795024,1.21596 6.546499,1.21596 h 3.50989 z"
           style="font-family:FrankRuehl;-inkscape-font-specification:'FrankRuehl, Normal';fill:url(#radialGradient1458);fill-opacity:1;stroke:#ffffff;stroke-width:4.54838;stroke-miterlimit:4;stroke-dasharray:none"
           id="path1408"
           sodipodi:nodetypes="cccscssccsccccscsscscc" />
      </g>
    </g>
    <path
       id="path1414"
       style="display:inline;fill:#0c4da1;fill-rule:evenodd;stroke:#ffffff;stroke-width:0.105833;stroke-linecap:round;stroke-linejoin:round;stroke-miterlimit:4;stroke-dasharray:none;paint-order:stroke fill markers"
       d="m 27.311585,34.655759 h 2.822938 c 0.234434,0.08114 0.07706,0.304248 0,0.296973 h -2.822938 c -0.117622,0.01052 -0.223888,-0.24422 0,-0.296973 z"
       sodipodi:nodetypes="ccccc" />
    <g
       id="g1430"
       transform="matrix(7.0178158e-4,0,0,7.0178158e-4,26.858669,33.905668)"
       style="display:inline;stroke:#ffffff;stroke-width:150.807;stroke-miterlimit:4;stroke-dasharray:none">
      <path
         d="m 3767.875,34.0625 c -166.6776,0 -315.3087,71.98864 -411.9375,184.40625 -28.5276,-36.63982 -63.401,-75.12648 -101.5,-102.21875 C 3174.4745,56.555397 3070.799,38.389703 2960,35.40625 2772.4255,30.355487 2622.4018,131.69012 2553.3125,245.625 2494.9513,129.18647 2442.5939,68.382777 2239.5312,58.281247 h -492.0803 l 0.1116,205.093753 c 0,0 23.4011,7.47335 31.3125,16.15625 6.6004,7.24407 11,27.25 11,27.25 l -1.1562,456.5 c 0,0 -12.8696,-9.33294 -18,-15.3125 -9.5491,-11.12871 -23.0938,-37.4375 -23.0938,-37.4375 L 1495.5,58.062497 1175.8125,58.281247 898.0312,784.46875 V 629.03125 H 698.125 C 682.3826,672.43521 638.1848,701.75 584.875,701.75 c -28.0932,0 -58.13,-6.62565 -82.4688,-21.25 C 470.6886,661.4419 446.9877,638.80794 427.4687,598.59375 412.112,561.38016 400.3597,515.81412 399,475.5 c 4.6791,-79.72921 28.9019,-108.14789 73.25,-141.03125 9.8313,-7.28971 37.2996,-13.1189 45.2187,-13.15625 17.4221,-0.0822 31.9427,10.48615 39.8125,26.0625 11.4471,22.65651 -5.3079,50.1006 -21.875,69.625 l 161.625,111.34375 249.625,-261.1875 C 859.5703,128.35877 700.4361,35.4375 518.5625,35.4375 243.2091,35.4375 20,248.42653 20,511.15625 20,773.88597 236.0662,972.57142 518.5625,994.00002 l 35.7187,1.4375 h 380 v -0.1875 H 1819 v -0.062 l 332.625,-0.4688 v -0.5312 h 52.0312 V 798.7505 c 0,0 -27.8733,-5.81326 -39.3437,-13.625 -12.0454,-8.20329 -13.1875,-21.125 -13.1875,-21.125 -0.2158,-4.98391 0.7879,-8.80271 3.4062,-12.0625 2.5668,-3.19557 8.5725,-5.36854 10.8438,-5.84375 34.3492,-7.18693 69.3766,-17.0151 104.4375,-29.625 93.5498,-33.64584 172.271,-81.51341 228.1563,-134.40625 37.3957,220.94624 231.5684,382.17352 466.3124,409.09372 15.3291,1.758 28.5364,3.0874 42.875,3.5938 3.8075,0.1344 11.4376,-0.1563 11.4376,-0.1563 h 332 l -1.0102,-163.37655 c 86.3414,95.84593 254.5574,187.71953 424.3523,187.71953 138.7352,0 263.1783,-60.74718 350.89,-135.86527 l -0.7142,112.99109 h 419.2321 l 2.1429,-172.86609 109.2945,1.42857 v -1.90625 l 146.6563,1.28125 v 171.43752 h 447.125 V 768.28175 c 0,0 -19.0914,-1.22398 -26.5625,-6.4375 -10.1018,-7.04923 -20.5625,-30.71875 -20.5625,-30.71875 l -62.8437,-417.34375 c 0,0 1.8846,-27.91969 10,-38.34375 6.6769,-8.57661 28.5624,-15.71875 28.5624,-15.71875 V 58.281747 h -40 -64.3124 -341.4063 v 5.71875 L 4700,169.71925 4654.7812,63.312997 v -5.03125 h -2.125 l -1.2187,-2.84375 -0.094,2.84375 H 4221.2497 V 269.71925 l -29.375,-40 C 4111.1912,112.08983 3969.5658,34.0625 3808.2812,34.0625 c -6.576,0 -13.1167,0.118185 -19.625,0.375 -6.8966,-0.248953 -13.819,-0.375 -20.7812,-0.375 z M 892.5,825.78125 l -0.031,2.0625 h -1.875 c 0.6407,-0.68471 1.27,-1.37525 1.9062,-2.0625 v 0 z"
         id="path1416"
         style="fill:#0c4da2;fill-opacity:1;stroke:#ffffff;stroke-width:150.807;stroke-miterlimit:4;stroke-dasharray:none" />
      <path
         d="m 518.2292,124.82114 c -226.9823,1.42857 -412.3662,166.7661 -412.3662,383.05133 0,216.28523 204.6469,402.07109 452.3662,396.47808 l 240.7127,0.6783 V 715.52161 h -45.4634 c -14.2837,35.73115 -80.9968,70.68064 -129.3669,70.68064 -25.4902,0 -89.6606,-3.46506 -113.3988,-11.7792 C 468.8022,759.74413 409.0008,738.6726 357.0046,651.28163 343.0708,620.64653 303.836,545.99265 312.6023,437.09085 316.8479,371.4559 358.5389,289.52309 433.3509,252.4192 c 32.6212,-16.17886 65.4607,-18.83348 123.1208,-13.60101 41.3957,3.75653 82.5276,32.86328 96.8886,67.79717 11.107,27.01833 7.9153,59.94169 -5.16,78.69532 -0.9328,1.33796 -0.9528,2.52293 -0.7595,3.80017 0.1471,0.97218 1.408,2.592 1.408,2.592 l 22.7845,17.79932 c 0,0 6.4866,4.50696 14.0636,4.30516 4.4004,-0.11719 12.2667,-4.89104 12.2667,-4.89104 L 828.0848,272.36312 C 747.6396,163.81609 604.6792,124.82114 518.2292,124.82114 Z"
         id="path1418"
         style="fill:#ffcb08;fill-opacity:1;stroke:#ffffff;stroke-width:150.807;stroke-miterlimit:4;stroke-dasharray:none" />
      <path
         d="m 3770,121.15625 c -240.6384,0 -435.7188,181.00042 -435.7188,404.28125 0,223.28083 195.0804,404.28125 435.7188,404.28125 240.6384,0 435.7188,-181.00042 435.7188,-404.28125 0,-223.28083 -195.0804,-404.28125 -435.7188,-404.28125 z m 2.8438,125.6875 c 123.8694,0 190.2581,88.64355 217.1696,194.30357 7.7034,30.245 4.5802,130.80895 -0.01,164.29464 C 3976.0095,707.55415 3892.545,807.06375 3771.4364,804 3653.419,801.01445 3574.4747,746.06966 3550.0122,598.29911 c -7.1559,-43.22671 -7.2805,-95.15491 -1.4508,-138.58036 16.9036,-125.91479 100.4117,-212.875 224.2813,-212.875 v 0 z"
         id="path1420"
         style="fill:#ffcb08;fill-opacity:1;stroke:#ffffff;stroke-width:150.807;stroke-miterlimit:4;stroke-dasharray:none" />
      <path
         d="m 1235.625,146.25 c 0,0 -191.3393,517.74554 -225.625,612.03125 -34.28571,94.28572 -72.84375,91.4375 -72.84375,91.4375 l 2.84375,57.125 231.25,-0.0625 0.1875,-54.875 c 0,0 -14.838,-0.76195 -25.7187,-10.75 -21.1033,-19.37177 -7.75,-58.34375 -7.75,-58.34375 l 53.4687,-136.78125 237.4687,0.5 c 0,0 46.2886,115.5722 57.625,153.71875 14.7908,49.76976 -31.4062,50.65625 -31.4062,50.65625 v 55.78125 l 292.4375,-0.15625 -0.1875,-55.15625 c 0,0 -17.4155,-2.65648 -35.9375,-18.8125 -21.0102,-18.32633 -35.3125,-56.125 -35.3125,-56.125 l -239.5,-629.65625 z m 68.6562,159.1875 79.2813,220.71875 -153.5625,0.6875 z"
         id="path1422"
         style="fill:#ffcb08;fill-opacity:1;stroke:#ffffff;stroke-width:150.807;stroke-miterlimit:4;stroke-dasharray:none" />
      <path
         d="m 1841,145.4375 -1.125,63.46875 c 0,0 18.5873,5.32601 36.375,25.0625 9.4309,10.4641 3.5938,143.28125 3.5938,143.28125 l -0.3126,425.15625 c 0,0 6.0586,16.7572 -14.2812,33.59375 -7.6779,6.35547 -14.4784,13.09219 -26.3438,14.125 l -1.4062,56.5625 271.0312,0.65625 0.6563,-57.53125 c 0,0 -9.5873,-3.78169 -24.625,-17.34375 -8.488,-7.65511 -13.7169,-18.67175 -13.5937,-29.65625 0.2278,-38.40715 1.1259,-75.31081 0.9374,-112.8125 94.9385,-22.86724 176.8968,-61.6423 208.8438,-73.40625 120.0869,-47.918 213.2691,-123.99838 207.8125,-259.71875 C 2487.532,260.71939 2438.7604,181.90437 2334.2812,164.09375 2286.6543,150.33259 2264.7886,147.92804 2246,146.875 Z m 309.9688,107.79219 c 29.2343,-0.56143 63.6671,6.13685 90.1758,19.48827 33.0369,21.93314 53.1366,44.65398 53.1366,92.71954 1.3623,22.59657 -5.1304,42.02538 -16,61.78125 -11.318,18.89081 -45.5547,55.15612 -67.1726,75.90229 -63.2001,45.18182 -85.8164,58.42722 -136.0234,81.53802 l -0.804,-322.09656 c 26.7572,-5.04664 50.758,-9.16086 76.6876,-9.33281 z"
         id="path1424"
         style="fill:#ffcb08;fill-opacity:1;stroke:#ffffff;stroke-width:150.807;stroke-miterlimit:4;stroke-dasharray:none" />
      <path
         d="m 2986.7546,125.32622 c -226.9823,1.42857 -412.3662,166.7661 -412.3662,383.05133 0,216.28523 204.6469,402.07109 452.3662,396.47808 l 240.7127,0.6783 V 716.02669 h -45.4634 c -14.2837,35.73115 -80.9968,70.68064 -129.3669,70.68064 -25.4902,0 -89.6606,-3.46506 -113.3988,-11.7792 -41.9106,-14.67892 -101.712,-35.75045 -153.7082,-123.14142 -13.9338,-30.6351 -53.1686,-105.28898 -44.4023,-214.19078 4.2456,-65.63495 45.9366,-147.56776 120.7486,-184.67165 32.6212,-16.17886 65.4607,-18.83348 123.1208,-13.60101 41.3957,3.75653 82.5276,32.86328 96.8886,67.79717 11.107,27.01833 7.9153,59.94169 -5.16,78.69532 -0.9328,1.33796 -0.9528,2.52293 -0.7595,3.80017 0.1471,0.97218 1.408,2.592 1.408,2.592 l 22.7845,17.79932 c 0,0 6.4866,4.50696 14.0636,4.30516 4.4004,-0.11719 12.2667,-4.89104 12.2667,-4.89104 L 3296.6102,272.8682 C 3216.165,164.32117 3073.2046,125.32622 2986.7546,125.32622 Z"
         id="path1426"
         style="fill:#ffcb08;fill-opacity:1;stroke:#ffffff;stroke-width:150.807;stroke-miterlimit:4;stroke-dasharray:none" />
      <path
         d="m 4314.625,146.9375 0.25,54.53125 c 0,0 23.8448,6.41919 33.3125,13.90625 10.8238,8.55957 8.0937,23.75 8.0937,23.75 0,0 -86.497,537.5233 -88.375,547.5 -2.0203,10.73288 -4.8812,35.80842 -19.9687,49.75 -15.0022,13.86285 -32.3125,16.65625 -32.3125,16.65625 l -0.25,53.78125 h 242.1875 v -50.25 c 0,0 -19.7118,-1.52427 -32.8437,-14.65625 -13.132,-13.13198 -9.3438,-49.21875 -9.3438,-49.21875 l 59.5938,-406.09375 121.2187,349.5 147.6563,2.03125 119.9374,-376.375 66.9376,432.9375 c 0,0 8.0739,32.54659 -9.3438,49.25 -13.404,12.85426 -32.8125,14.65625 -32.8125,14.65625 v 50.25 h 280.5625 l -0.25,-53.78125 c 0,0 -6.2803,2.15034 -22.2188,-10.625 -9.3731,-7.51301 -13.8859,-41.01712 -15.9062,-51.75 -1.8779,-9.9767 -77.4688,-550.84375 -77.4688,-550.84375 0,0 -1.3149,-22.33329 10.9376,-33.75 8.8308,-8.22857 26.9062,-16.03125 26.9062,-16.03125 l -0.4375,-44.53125 -291.2813,-0.34375 -106.5937,307.03125 -101.6563,-307.03125 z"
         id="path1428"
         style="fill:#ffcb08;fill-opacity:1;stroke:#ffffff;stroke-width:150.807;stroke-miterlimit:4;stroke-dasharray:none" />
    </g>
    <path
       d="m 27.870097,34.862192 v -0.127794 h 0.06568 q 0.01734,0 0.02649,0.0012 0.01283,0.0016 0.0215,0.006 0.0087,0.0044 0.0139,0.01229 0.0053,0.0079 0.0053,0.01744 0,0.0163 -0.01413,0.02763 -0.01413,0.01125 -0.05107,0.01125 h -0.04466 v 0.05195 z m 0.02304,-0.06704 h 0.04502 q 0.02233,0 0.03171,-0.0061 0.0094,-0.0061 0.0094,-0.01717 0,-0.008 -0.0056,-0.01369 -0.0055,-0.0058 -0.01449,-0.0076 -0.0058,-0.0011 -0.0215,-0.0011 h -0.04454 z"
       style="font-size:12.612px;line-height:1.25;font-family:Arial;-inkscape-font-specification:'Arial, Normal';display:inline;fill:#ffffff;stroke-width:0.00217077"
       id="path1432" />
    <path
       d="m 28.040023,34.865609 v -0.134628 h 0.0194 v 0.118741 h 0.0722 v 0.01589 z"
       style="font-size:12.612px;line-height:1.25;font-family:Arial;-inkscape-font-specification:'Arial, Normal';display:inline;fill:#ffffff;stroke-width:0.00204434"
       id="path1434" />
    <path
       d="m 28.151088,34.865609 0.07045,-0.134628 h 0.02615 l 0.07508,0.134628 h -0.02765 l -0.0214,-0.04077 h -0.0767 l -0.02015,0.04077 z m 0.05293,-0.05528 h 0.06219 l -0.01914,-0.03728 q -0.0088,-0.01699 -0.01301,-0.02792 -0.0035,0.01295 -0.0099,0.02571 z"
       style="font-size:12.612px;line-height:1.25;font-family:Arial;-inkscape-font-specification:'Arial, Normal';fill:#ffffff;stroke-width:0.00228687"
       id="path1436" />
    <path
       d="m 28.399446,34.865609 v -0.05703 l -0.0707,-0.0776 h 0.02953 l 0.03616,0.04059 q 0.01001,0.01139 0.01864,0.02278 0.0083,-0.01056 0.02002,-0.02379 l 0.03554,-0.03958 h 0.02828 l -0.0732,0.0776 v 0.05703 z"
       style="font-size:12.612px;line-height:1.25;font-family:Arial;-inkscape-font-specification:'Arial, Normal';fill:#ffffff;stroke-width:0.00228687"
       id="path1438" />
    <path
       d="m 28.577005,34.822355 0.0229,-0.0015 q 0.0016,0.0101 0.0075,0.01662 0.006,0.0064 0.01852,0.01047 0.01251,0.0039 0.02815,0.0039 0.01389,0 0.02453,-0.003 0.01064,-0.003 0.01577,-0.0083 0.0053,-0.0053 0.0053,-0.01157 0,-0.0063 -0.005,-0.01102 -0.005,-0.0048 -0.01652,-0.008 -0.0074,-0.0021 -0.03266,-0.0065 -0.02528,-0.0045 -0.03541,-0.0084 -0.01314,-0.0051 -0.01965,-0.01249 -0.0064,-0.0075 -0.0064,-0.01681 0,-0.01019 0.0079,-0.01901 0.0079,-0.0089 0.02302,-0.0135 0.01514,-0.0046 0.03366,-0.0046 0.0204,0 0.03591,0.0049 0.01564,0.0048 0.02403,0.01414 0.0084,0.0094 0.009,0.02121 l -0.02327,0.0013 q -0.0019,-0.01277 -0.01276,-0.01929 -0.01076,-0.0065 -0.03191,-0.0065 -0.02202,0 -0.03216,0.006 -0.01001,0.0059 -0.01001,0.01424 0,0.0073 0.0071,0.01194 0.007,0.0047 0.03654,0.0096 0.02966,0.0049 0.04067,0.0085 0.01602,0.0054 0.02365,0.01378 0.0076,0.0083 0.0076,0.0191 0,0.01074 -0.0084,0.02029 -0.0084,0.0095 -0.02415,0.01478 -0.01564,0.0052 -0.03529,0.0052 -0.0249,0 -0.04179,-0.0053 -0.01677,-0.0053 -0.0264,-0.01598 -0.0095,-0.01074 -0.01001,-0.02424 z"
       style="font-size:12.612px;line-height:1.25;font-family:Arial;-inkscape-font-specification:'Arial, Normal';fill:#ffffff;stroke-width:0.00228687"
       id="path1440" />
    <path
       d="m 28.80787,34.865609 v -0.05703 l -0.0707,-0.0776 h 0.02953 l 0.03616,0.04059 q 0.01001,0.01139 0.01864,0.02278 0.0083,-0.01056 0.02002,-0.02379 l 0.03554,-0.03958 h 0.02828 l -0.0732,0.0776 v 0.05703 z"
       style="font-size:12.612px;line-height:1.25;font-family:Arial;-inkscape-font-specification:'Arial, Normal';fill:#ffffff;stroke-width:0.00228687"
       id="path1442" />
    <path
       d="m 28.906547,34.822355 0.0229,-0.0015 q 0.0016,0.0101 0.0075,0.01662 0.006,0.0064 0.01852,0.01047 0.01251,0.0039 0.02815,0.0039 0.01389,0 0.02452,-0.003 0.01064,-0.003 0.01577,-0.0083 0.0053,-0.0053 0.0053,-0.01157 0,-0.0063 -0.005,-0.01102 -0.005,-0.0048 -0.01652,-0.008 -0.0074,-0.0021 -0.03266,-0.0065 -0.02528,-0.0045 -0.03541,-0.0084 -0.01314,-0.0051 -0.01965,-0.01249 -0.0064,-0.0075 -0.0064,-0.01681 0,-0.01019 0.0079,-0.01901 0.0079,-0.0089 0.02302,-0.0135 0.01514,-0.0046 0.03366,-0.0046 0.0204,0 0.03591,0.0049 0.01564,0.0048 0.02403,0.01414 0.0084,0.0094 0.009,0.02121 l -0.02327,0.0013 q -0.0019,-0.01277 -0.01276,-0.01929 -0.01076,-0.0065 -0.03191,-0.0065 -0.02202,0 -0.03216,0.006 -0.01001,0.0059 -0.01001,0.01424 0,0.0073 0.0071,0.01194 0.007,0.0047 0.03654,0.0096 0.02966,0.0049 0.04067,0.0085 0.01602,0.0054 0.02365,0.01378 0.0076,0.0083 0.0076,0.0191 0,0.01074 -0.0084,0.02029 -0.0084,0.0095 -0.02415,0.01478 -0.01564,0.0052 -0.03529,0.0052 -0.0249,0 -0.04179,-0.0053 -0.01677,-0.0053 -0.0264,-0.01598 -0.0095,-0.01074 -0.01001,-0.02424 z"
       style="font-size:12.612px;line-height:1.25;font-family:Arial;-inkscape-font-specification:'Arial, Normal';fill:#ffffff;stroke-width:0.00228687"
       id="path1444" />
    <path
       d="m 29.120094,34.865609 v -0.118741 h -0.06044 v -0.01589 h 0.145401 v 0.01589 h -0.06069 v 0.118741 z"
       style="font-size:12.612px;line-height:1.25;font-family:Arial;-inkscape-font-specification:'Arial, Normal';fill:#ffffff;stroke-width:0.00228687"
       id="path1446" />
    <path
       d="m 29.230458,34.865609 v -0.134628 h 0.132638 v 0.01589 h -0.108363 v 0.04123 h 0.101481 v 0.0158 h -0.101481 v 0.04583 h 0.112617 v 0.01589 z"
       style="font-size:12.612px;line-height:1.25;font-family:Arial;-inkscape-font-specification:'Arial, Normal';fill:#ffffff;stroke-width:0.00228687"
       id="path1448" />
    <path
       d="m 29.400134,34.865609 v -0.134628 h 0.03654 l 0.04342,0.09532 q 0.006,0.01332 0.0088,0.01993 0.0031,-0.0073 0.0098,-0.02158 l 0.04392,-0.09367 h 0.03266 v 0.134628 h -0.0234 v -0.11268 l -0.05331,0.11268 h -0.0219 L 29.423604,34.751 v 0.114609 z"
       style="font-size:12.612px;line-height:1.25;font-family:Arial;-inkscape-font-specification:'Arial, Normal';display:inline;fill:#ffffff;stroke-width:0.00228687"
       id="path1450" />
    <g
       id="g1283">
      <g
         id="g1223"
         transform="matrix(0.02326835,0,0,0.02326835,26.247686,32.928376)">
        <g
           aria-label="I"
           transform="scale(1.1805424,0.84706826)"
           id="g1217"
           style="font-size:119.644px;line-height:1.25;font-family:'Patrick Hand SC';-inkscape-font-specification:'Patrick Hand SC, Normal';display:inline;opacity:1;fill:#009ee0;fill-opacity:1;stroke-width:0.623149">
          <path
             d="M 106.59613,114.5796 H 72.65416 v -4.4663 h 3.099464 c 1.284793,0 4.420682,-0.2683 6.00506,-1.21632 2.772283,-2.37142 2.22894,-3.54773 2.22894,-8.33816 V 49.382966 c 0,-4.011501 -0.282684,-5.219395 -0.78899,-6.504633 -0.891489,-1.012612 -1.246933,-1.109147 -2.454278,-1.77124 -1.645174,-0.646624 -3.12962,-1.081422 -5.020263,-1.443235 l -3.010871,-0.57619 -0.05906,-3.725483 h 33.941968 v 3.725574 l -2.86257,0.564299 c -2.05551,0.405202 -5.411655,0.674286 -7.068811,2.212261 -0.973665,1.246292 -1.460498,2.76716 -1.460498,7.518647 v 51.175854 c 0,3.13844 -0.173126,5.71401 1.35637,8.33795 0.797398,0.70867 2.795024,1.21596 6.546499,1.21596 h 3.50989 z"
             style="font-family:FrankRuehl;-inkscape-font-specification:'FrankRuehl, Normal';fill:#009ee0;fill-opacity:1"
             id="path1215"
             sodipodi:nodetypes="cccscssccsccccscsscscc" />
        </g>
        <g
           aria-label="I"
           transform="scale(1.1805424,0.84706826)"
           id="g1221"
           style="font-size:119.644px;line-height:1.25;font-family:'Patrick Hand SC';-inkscape-font-specification:'Patrick Hand SC, Normal';display:inline;opacity:0.943144;fill:url(#radialGradient1287);fill-opacity:1;stroke-width:0.623149">
          <path
             d="M 106.59613,114.5796 H 72.65416 v -4.4663 h 3.099464 c 1.284793,0 4.420682,-0.2683 6.00506,-1.21632 2.772283,-2.37142 2.22894,-3.54773 2.22894,-8.33816 V 49.382966 c 0,-4.011501 -0.282684,-5.219395 -0.78899,-6.504633 -0.891489,-1.012612 -1.246933,-1.109147 -2.454278,-1.77124 -1.645174,-0.646624 -3.12962,-1.081422 -5.020263,-1.443235 l -3.010871,-0.57619 -0.05906,-3.725483 h 33.941968 v 3.725574 l -2.86257,0.564299 c -2.05551,0.405202 -5.411655,0.674286 -7.068811,2.212261 -0.973665,1.246292 -1.460498,2.76716 -1.460498,7.518647 v 51.175854 c 0,3.13844 -0.173126,5.71401 1.35637,8.33795 0.797398,0.70867 2.795024,1.21596 6.546499,1.21596 h 3.50989 z"
             style="font-family:FrankRuehl;-inkscape-font-specification:'FrankRuehl, Normal';fill:url(#radialGradient1285);fill-opacity:1"
             id="path1219"
             sodipodi:nodetypes="cccscssccsccccscsscscc" />
        </g>
      </g>
      <g
         id="g1233"
         transform="matrix(0.02326835,0,0,0.02326835,27.049704,32.928815)">
        <g
           aria-label="I"
           transform="scale(1.1805424,0.84706826)"
           id="g1227"
           style="font-size:119.644px;line-height:1.25;font-family:'Patrick Hand SC';-inkscape-font-specification:'Patrick Hand SC, Normal';display:inline;opacity:1;fill:#009ee0;fill-opacity:1;stroke-width:0.623149">
          <path
             d="M 106.59613,114.5796 H 72.65416 v -4.4663 h 3.099464 c 1.284793,0 4.420682,-0.2683 6.00506,-1.21632 2.772283,-2.37142 2.22894,-3.54773 2.22894,-8.33816 V 49.382966 c 0,-4.011501 -0.282684,-5.219395 -0.78899,-6.504633 -0.891489,-1.012612 -1.246933,-1.109147 -2.454278,-1.77124 -1.645174,-0.646624 -3.12962,-1.081422 -5.020263,-1.443235 l -3.010871,-0.57619 -0.05906,-3.725483 h 33.941968 v 3.725574 l -2.86257,0.564299 c -2.05551,0.405202 -5.411655,0.674286 -7.068811,2.212261 -0.973665,1.246292 -1.460498,2.76716 -1.460498,7.518647 v 51.175854 c 0,3.13844 -0.173126,5.71401 1.35637,8.33795 0.797398,0.70867 2.795024,1.21596 6.546499,1.21596 h 3.50989 z"
             style="font-family:FrankRuehl;-inkscape-font-specification:'FrankRuehl, Normal';fill:#009ee0;fill-opacity:1"
             id="path1225"
             sodipodi:nodetypes="cccscssccsccccscsscscc" />
        </g>
        <g
           aria-label="I"
           transform="scale(1.1805424,0.84706826)"
           id="g1231"
           style="font-size:119.644px;line-height:1.25;font-family:'Patrick Hand SC';-inkscape-font-specification:'Patrick Hand SC, Normal';display:inline;opacity:0.943144;fill:url(#radialGradient1291);fill-opacity:1;stroke-width:0.623149">
          <path
             d="M 106.59613,114.5796 H 72.65416 v -4.4663 h 3.099464 c 1.284793,0 4.420682,-0.2683 6.00506,-1.21632 2.772283,-2.37142 2.22894,-3.54773 2.22894,-8.33816 V 49.382966 c 0,-4.011501 -0.282684,-5.219395 -0.78899,-6.504633 -0.891489,-1.012612 -1.246933,-1.109147 -2.454278,-1.77124 -1.645174,-0.646624 -3.12962,-1.081422 -5.020263,-1.443235 l -3.010871,-0.57619 -0.05906,-3.725483 h 33.941968 v 3.725574 l -2.86257,0.564299 c -2.05551,0.405202 -5.411655,0.674286 -7.068811,2.212261 -0.973665,1.246292 -1.460498,2.76716 -1.460498,7.518647 v 51.175854 c 0,3.13844 -0.173126,5.71401 1.35637,8.33795 0.797398,0.70867 2.795024,1.21596 6.546499,1.21596 h 3.50989 z"
             style="font-family:FrankRuehl;-inkscape-font-specification:'FrankRuehl, Normal';fill:url(#radialGradient1289);fill-opacity:1"
             id="path1229"
             sodipodi:nodetypes="cccscssccsccccscsscscc" />
        </g>
      </g>
      <g
         id="g1243"
         transform="matrix(0.02326835,0,0,0.02326835,25.434949,32.928815)">
        <g
           aria-label="I"
           transform="scale(1.1805424,0.84706826)"
           id="g1237"
           style="font-size:119.644px;line-height:1.25;font-family:'Patrick Hand SC';-inkscape-font-specification:'Patrick Hand SC, Normal';display:inline;opacity:1;fill:#009ee0;fill-opacity:1;stroke-width:0.623149">
          <path
             d="M 106.59613,114.5796 H 72.65416 v -4.4663 h 3.099464 c 1.284793,0 4.420682,-0.2683 6.00506,-1.21632 2.772283,-2.37142 2.22894,-3.54773 2.22894,-8.33816 V 49.382966 c 0,-4.011501 -0.282684,-5.219395 -0.78899,-6.504633 -0.891489,-1.012612 -1.246933,-1.109147 -2.454278,-1.77124 -1.645174,-0.646624 -3.12962,-1.081422 -5.020263,-1.443235 l -3.010871,-0.57619 -0.05906,-3.725483 h 33.941968 v 3.725574 l -2.86257,0.564299 c -2.05551,0.405202 -5.411655,0.674286 -7.068811,2.212261 -0.973665,1.246292 -1.460498,2.76716 -1.460498,7.518647 v 51.175854 c 0,3.13844 -0.173126,5.71401 1.35637,8.33795 0.797398,0.70867 2.795024,1.21596 6.546499,1.21596 h 3.50989 z"
             style="font-family:FrankRuehl;-inkscape-font-specification:'FrankRuehl, Normal';fill:#009ee0;fill-opacity:1"
             id="path1235"
             sodipodi:nodetypes="cccscssccsccccscsscscc" />
        </g>
        <g
           aria-label="I"
           transform="scale(1.1805424,0.84706826)"
           id="g1241"
           style="font-size:119.644px;line-height:1.25;font-family:'Patrick Hand SC';-inkscape-font-specification:'Patrick Hand SC, Normal';display:inline;opacity:0.943144;fill:url(#radialGradient1295);fill-opacity:1;stroke-width:0.623149">
          <path
             d="M 106.59613,114.5796 H 72.65416 v -4.4663 h 3.099464 c 1.284793,0 4.420682,-0.2683 6.00506,-1.21632 2.772283,-2.37142 2.22894,-3.54773 2.22894,-8.33816 V 49.382966 c 0,-4.011501 -0.282684,-5.219395 -0.78899,-6.504633 -0.891489,-1.012612 -1.246933,-1.109147 -2.454278,-1.77124 -1.645174,-0.646624 -3.12962,-1.081422 -5.020263,-1.443235 l -3.010871,-0.57619 -0.05906,-3.725483 h 33.941968 v 3.725574 l -2.86257,0.564299 c -2.05551,0.405202 -5.411655,0.674286 -7.068811,2.212261 -0.973665,1.246292 -1.460498,2.76716 -1.460498,7.518647 v 51.175854 c 0,3.13844 -0.173126,5.71401 1.35637,8.33795 0.797398,0.70867 2.795024,1.21596 6.546499,1.21596 h 3.50989 z"
             style="font-family:FrankRuehl;-inkscape-font-specification:'FrankRuehl, Normal';fill:url(#radialGradient1293);fill-opacity:1"
             id="path1239"
             sodipodi:nodetypes="cccscssccsccccscsscscc" />
        </g>
      </g>
      <path
         id="path1245"
         style="display:inline;fill:#0c4da1;fill-rule:evenodd;stroke-width:0.0210107;stroke-linecap:round;stroke-linejoin:round;paint-order:stroke fill markers"
         d="m 27.311585,34.655759 h 2.822938 c 0.234434,0.08114 0.07706,0.304248 0,0.296973 h -2.822938 c -0.117622,0.01052 -0.223888,-0.24422 0,-0.296973 z"
         sodipodi:nodetypes="ccccc" />
      <g
         id="g1261"
         transform="matrix(7.0178158e-4,0,0,7.0178158e-4,26.858669,33.905668)"
         style="display:inline">
        <path
           d="m 3767.875,34.0625 c -166.6776,0 -315.3087,71.98864 -411.9375,184.40625 -28.5276,-36.63982 -63.401,-75.12648 -101.5,-102.21875 C 3174.4745,56.555397 3070.799,38.389703 2960,35.40625 2772.4255,30.355487 2622.4018,131.69012 2553.3125,245.625 2494.9513,129.18647 2442.5939,68.382777 2239.5312,58.281247 h -492.0803 l 0.1116,205.093753 c 0,0 23.4011,7.47335 31.3125,16.15625 6.6004,7.24407 11,27.25 11,27.25 l -1.1562,456.5 c 0,0 -12.8696,-9.33294 -18,-15.3125 -9.5491,-11.12871 -23.0938,-37.4375 -23.0938,-37.4375 L 1495.5,58.062497 1175.8125,58.281247 898.0312,784.46875 V 629.03125 H 698.125 C 682.3826,672.43521 638.1848,701.75 584.875,701.75 c -28.0932,0 -58.13,-6.62565 -82.4688,-21.25 C 470.6886,661.4419 446.9877,638.80794 427.4687,598.59375 412.112,561.38016 400.3597,515.81412 399,475.5 c 4.6791,-79.72921 28.9019,-108.14789 73.25,-141.03125 9.8313,-7.28971 37.2996,-13.1189 45.2187,-13.15625 17.4221,-0.0822 31.9427,10.48615 39.8125,26.0625 11.4471,22.65651 -5.3079,50.1006 -21.875,69.625 l 161.625,111.34375 249.625,-261.1875 C 859.5703,128.35877 700.4361,35.4375 518.5625,35.4375 243.2091,35.4375 20,248.42653 20,511.15625 20,773.88597 236.0662,972.57142 518.5625,994.00002 l 35.7187,1.4375 h 380 v -0.1875 H 1819 v -0.062 l 332.625,-0.4688 v -0.5312 h 52.0312 V 798.7505 c 0,0 -27.8733,-5.81326 -39.3437,-13.625 -12.0454,-8.20329 -13.1875,-21.125 -13.1875,-21.125 -0.2158,-4.98391 0.7879,-8.80271 3.4062,-12.0625 2.5668,-3.19557 8.5725,-5.36854 10.8438,-5.84375 34.3492,-7.18693 69.3766,-17.0151 104.4375,-29.625 93.5498,-33.64584 172.271,-81.51341 228.1563,-134.40625 37.3957,220.94624 231.5684,382.17352 466.3124,409.09372 15.3291,1.758 28.5364,3.0874 42.875,3.5938 3.8075,0.1344 11.4376,-0.1563 11.4376,-0.1563 h 332 l -1.0102,-163.37655 c 86.3414,95.84593 254.5574,187.71953 424.3523,187.71953 138.7352,0 263.1783,-60.74718 350.89,-135.86527 l -0.7142,112.99109 h 419.2321 l 2.1429,-172.86609 109.2945,1.42857 v -1.90625 l 146.6563,1.28125 v 171.43752 h 447.125 V 768.28175 c 0,0 -19.0914,-1.22398 -26.5625,-6.4375 -10.1018,-7.04923 -20.5625,-30.71875 -20.5625,-30.71875 l -62.8437,-417.34375 c 0,0 1.8846,-27.91969 10,-38.34375 6.6769,-8.57661 28.5624,-15.71875 28.5624,-15.71875 V 58.281747 h -40 -64.3124 -341.4063 v 5.71875 L 4700,169.71925 4654.7812,63.312997 v -5.03125 h -2.125 l -1.2187,-2.84375 -0.094,2.84375 H 4221.2497 V 269.71925 l -29.375,-40 C 4111.1912,112.08983 3969.5658,34.0625 3808.2812,34.0625 c -6.576,0 -13.1167,0.118185 -19.625,0.375 -6.8966,-0.248953 -13.819,-0.375 -20.7812,-0.375 z M 892.5,825.78125 l -0.031,2.0625 h -1.875 c 0.6407,-0.68471 1.27,-1.37525 1.9062,-2.0625 v 0 z"
           id="path1247"
           style="fill:#0c4da2;fill-opacity:1;stroke:none" />
        <path
           d="m 518.2292,124.82114 c -226.9823,1.42857 -412.3662,166.7661 -412.3662,383.05133 0,216.28523 204.6469,402.07109 452.3662,396.47808 l 240.7127,0.6783 V 715.52161 h -45.4634 c -14.2837,35.73115 -80.9968,70.68064 -129.3669,70.68064 -25.4902,0 -89.6606,-3.46506 -113.3988,-11.7792 C 468.8022,759.74413 409.0008,738.6726 357.0046,651.28163 343.0708,620.64653 303.836,545.99265 312.6023,437.09085 316.8479,371.4559 358.5389,289.52309 433.3509,252.4192 c 32.6212,-16.17886 65.4607,-18.83348 123.1208,-13.60101 41.3957,3.75653 82.5276,32.86328 96.8886,67.79717 11.107,27.01833 7.9153,59.94169 -5.16,78.69532 -0.9328,1.33796 -0.9528,2.52293 -0.7595,3.80017 0.1471,0.97218 1.408,2.592 1.408,2.592 l 22.7845,17.79932 c 0,0 6.4866,4.50696 14.0636,4.30516 4.4004,-0.11719 12.2667,-4.89104 12.2667,-4.89104 L 828.0848,272.36312 C 747.6396,163.81609 604.6792,124.82114 518.2292,124.82114 Z"
           id="path1249"
           style="fill:#ffcb08;fill-opacity:1;stroke:none" />
        <path
           d="m 3770,121.15625 c -240.6384,0 -435.7188,181.00042 -435.7188,404.28125 0,223.28083 195.0804,404.28125 435.7188,404.28125 240.6384,0 435.7188,-181.00042 435.7188,-404.28125 0,-223.28083 -195.0804,-404.28125 -435.7188,-404.28125 z m 2.8438,125.6875 c 123.8694,0 190.2581,88.64355 217.1696,194.30357 7.7034,30.245 4.5802,130.80895 -0.01,164.29464 C 3976.0095,707.55415 3892.545,807.06375 3771.4364,804 3653.419,801.01445 3574.4747,746.06966 3550.0122,598.29911 c -7.1559,-43.22671 -7.2805,-95.15491 -1.4508,-138.58036 16.9036,-125.91479 100.4117,-212.875 224.2813,-212.875 v 0 z"
           id="path1251"
           style="fill:#ffcb08;fill-opacity:1;stroke:none" />
        <path
           d="m 1235.625,146.25 c 0,0 -191.3393,517.74554 -225.625,612.03125 -34.28571,94.28572 -72.84375,91.4375 -72.84375,91.4375 l 2.84375,57.125 231.25,-0.0625 0.1875,-54.875 c 0,0 -14.838,-0.76195 -25.7187,-10.75 -21.1033,-19.37177 -7.75,-58.34375 -7.75,-58.34375 l 53.4687,-136.78125 237.4687,0.5 c 0,0 46.2886,115.5722 57.625,153.71875 14.7908,49.76976 -31.4062,50.65625 -31.4062,50.65625 v 55.78125 l 292.4375,-0.15625 -0.1875,-55.15625 c 0,0 -17.4155,-2.65648 -35.9375,-18.8125 -21.0102,-18.32633 -35.3125,-56.125 -35.3125,-56.125 l -239.5,-629.65625 z m 68.6562,159.1875 79.2813,220.71875 -153.5625,0.6875 z"
           id="path1253"
           style="fill:#ffcb08;fill-opacity:1;stroke:none" />
        <path
           d="m 1841,145.4375 -1.125,63.46875 c 0,0 18.5873,5.32601 36.375,25.0625 9.4309,10.4641 3.5938,143.28125 3.5938,143.28125 l -0.3126,425.15625 c 0,0 6.0586,16.7572 -14.2812,33.59375 -7.6779,6.35547 -14.4784,13.09219 -26.3438,14.125 l -1.4062,56.5625 271.0312,0.65625 0.6563,-57.53125 c 0,0 -9.5873,-3.78169 -24.625,-17.34375 -8.488,-7.65511 -13.7169,-18.67175 -13.5937,-29.65625 0.2278,-38.40715 1.1259,-75.31081 0.9374,-112.8125 94.9385,-22.86724 176.8968,-61.6423 208.8438,-73.40625 120.0869,-47.918 213.2691,-123.99838 207.8125,-259.71875 C 2487.532,260.71939 2438.7604,181.90437 2334.2812,164.09375 2286.6543,150.33259 2264.7886,147.92804 2246,146.875 Z m 309.9688,107.79219 c 29.2343,-0.56143 63.6671,6.13685 90.1758,19.48827 33.0369,21.93314 53.1366,44.65398 53.1366,92.71954 1.3623,22.59657 -5.1304,42.02538 -16,61.78125 -11.318,18.89081 -45.5547,55.15612 -67.1726,75.90229 -63.2001,45.18182 -85.8164,58.42722 -136.0234,81.53802 l -0.804,-322.09656 c 26.7572,-5.04664 50.758,-9.16086 76.6876,-9.33281 z"
           id="path1255"
           style="fill:#ffcb08;fill-opacity:1;stroke:none" />
        <path
           d="m 2986.7546,125.32622 c -226.9823,1.42857 -412.3662,166.7661 -412.3662,383.05133 0,216.28523 204.6469,402.07109 452.3662,396.47808 l 240.7127,0.6783 V 716.02669 h -45.4634 c -14.2837,35.73115 -80.9968,70.68064 -129.3669,70.68064 -25.4902,0 -89.6606,-3.46506 -113.3988,-11.7792 -41.9106,-14.67892 -101.712,-35.75045 -153.7082,-123.14142 -13.9338,-30.6351 -53.1686,-105.28898 -44.4023,-214.19078 4.2456,-65.63495 45.9366,-147.56776 120.7486,-184.67165 32.6212,-16.17886 65.4607,-18.83348 123.1208,-13.60101 41.3957,3.75653 82.5276,32.86328 96.8886,67.79717 11.107,27.01833 7.9153,59.94169 -5.16,78.69532 -0.9328,1.33796 -0.9528,2.52293 -0.7595,3.80017 0.1471,0.97218 1.408,2.592 1.408,2.592 l 22.7845,17.79932 c 0,0 6.4866,4.50696 14.0636,4.30516 4.4004,-0.11719 12.2667,-4.89104 12.2667,-4.89104 L 3296.6102,272.8682 C 3216.165,164.32117 3073.2046,125.32622 2986.7546,125.32622 Z"
           id="path1257"
           style="fill:#ffcb08;fill-opacity:1;stroke:none" />
        <path
           d="m 4314.625,146.9375 0.25,54.53125 c 0,0 23.8448,6.41919 33.3125,13.90625 10.8238,8.55957 8.0937,23.75 8.0937,23.75 0,0 -86.497,537.5233 -88.375,547.5 -2.0203,10.73288 -4.8812,35.80842 -19.9687,49.75 -15.0022,13.86285 -32.3125,16.65625 -32.3125,16.65625 l -0.25,53.78125 h 242.1875 v -50.25 c 0,0 -19.7118,-1.52427 -32.8437,-14.65625 -13.132,-13.13198 -9.3438,-49.21875 -9.3438,-49.21875 l 59.5938,-406.09375 121.2187,349.5 147.6563,2.03125 119.9374,-376.375 66.9376,432.9375 c 0,0 8.0739,32.54659 -9.3438,49.25 -13.404,12.85426 -32.8125,14.65625 -32.8125,14.65625 v 50.25 h 280.5625 l -0.25,-53.78125 c 0,0 -6.2803,2.15034 -22.2188,-10.625 -9.3731,-7.51301 -13.8859,-41.01712 -15.9062,-51.75 -1.8779,-9.9767 -77.4688,-550.84375 -77.4688,-550.84375 0,0 -1.3149,-22.33329 10.9376,-33.75 8.8308,-8.22857 26.9062,-16.03125 26.9062,-16.03125 l -0.4375,-44.53125 -291.2813,-0.34375 -106.5937,307.03125 -101.6563,-307.03125 z"
           id="path1259"
           style="fill:#ffcb08;fill-opacity:1;stroke:none" />
      </g>
      <path
         d="m 27.870097,34.862192 v -0.127794 h 0.06568 q 0.01734,0 0.02649,0.0012 0.01283,0.0016 0.0215,0.006 0.0087,0.0044 0.0139,0.01229 0.0053,0.0079 0.0053,0.01744 0,0.0163 -0.01413,0.02763 -0.01413,0.01125 -0.05107,0.01125 h -0.04466 v 0.05195 z m 0.02304,-0.06704 h 0.04502 q 0.02233,0 0.03171,-0.0061 0.0094,-0.0061 0.0094,-0.01717 0,-0.008 -0.0056,-0.01369 -0.0055,-0.0058 -0.01449,-0.0076 -0.0058,-0.0011 -0.0215,-0.0011 h -0.04454 z"
         style="font-size:12.612px;line-height:1.25;font-family:Arial;-inkscape-font-specification:'Arial, Normal';display:inline;fill:#ffffff;stroke-width:0.00217077"
         id="path1263" />
      <path
         d="m 28.040023,34.865609 v -0.134628 h 0.0194 v 0.118741 h 0.0722 v 0.01589 z"
         style="font-size:12.612px;line-height:1.25;font-family:Arial;-inkscape-font-specification:'Arial, Normal';display:inline;fill:#ffffff;stroke-width:0.00204434"
         id="path1265" />
      <path
         d="m 28.151088,34.865609 0.07045,-0.134628 h 0.02615 l 0.07508,0.134628 h -0.02765 l -0.0214,-0.04077 h -0.0767 l -0.02015,0.04077 z m 0.05293,-0.05528 h 0.06219 l -0.01914,-0.03728 q -0.0088,-0.01699 -0.01301,-0.02792 -0.0035,0.01295 -0.0099,0.02571 z"
         style="font-size:12.612px;line-height:1.25;font-family:Arial;-inkscape-font-specification:'Arial, Normal';fill:#ffffff;stroke-width:0.00228687"
         id="path1267" />
      <path
         d="m 28.399446,34.865609 v -0.05703 l -0.0707,-0.0776 h 0.02953 l 0.03616,0.04059 q 0.01001,0.01139 0.01864,0.02278 0.0083,-0.01056 0.02002,-0.02379 l 0.03554,-0.03958 h 0.02828 l -0.0732,0.0776 v 0.05703 z"
         style="font-size:12.612px;line-height:1.25;font-family:Arial;-inkscape-font-specification:'Arial, Normal';fill:#ffffff;stroke-width:0.00228687"
         id="path1269" />
      <path
         d="m 28.577005,34.822355 0.0229,-0.0015 q 0.0016,0.0101 0.0075,0.01662 0.006,0.0064 0.01852,0.01047 0.01251,0.0039 0.02815,0.0039 0.01389,0 0.02453,-0.003 0.01064,-0.003 0.01577,-0.0083 0.0053,-0.0053 0.0053,-0.01157 0,-0.0063 -0.005,-0.01102 -0.005,-0.0048 -0.01652,-0.008 -0.0074,-0.0021 -0.03266,-0.0065 -0.02528,-0.0045 -0.03541,-0.0084 -0.01314,-0.0051 -0.01965,-0.01249 -0.0064,-0.0075 -0.0064,-0.01681 0,-0.01019 0.0079,-0.01901 0.0079,-0.0089 0.02302,-0.0135 0.01514,-0.0046 0.03366,-0.0046 0.0204,0 0.03591,0.0049 0.01564,0.0048 0.02403,0.01414 0.0084,0.0094 0.009,0.02121 l -0.02327,0.0013 q -0.0019,-0.01277 -0.01276,-0.01929 -0.01076,-0.0065 -0.03191,-0.0065 -0.02202,0 -0.03216,0.006 -0.01001,0.0059 -0.01001,0.01424 0,0.0073 0.0071,0.01194 0.007,0.0047 0.03654,0.0096 0.02966,0.0049 0.04067,0.0085 0.01602,0.0054 0.02365,0.01378 0.0076,0.0083 0.0076,0.0191 0,0.01074 -0.0084,0.02029 -0.0084,0.0095 -0.02415,0.01478 -0.01564,0.0052 -0.03529,0.0052 -0.0249,0 -0.04179,-0.0053 -0.01677,-0.0053 -0.0264,-0.01598 -0.0095,-0.01074 -0.01001,-0.02424 z"
         style="font-size:12.612px;line-height:1.25;font-family:Arial;-inkscape-font-specification:'Arial, Normal';fill:#ffffff;stroke-width:0.00228687"
         id="path1271" />
      <path
         d="m 28.80787,34.865609 v -0.05703 l -0.0707,-0.0776 h 0.02953 l 0.03616,0.04059 q 0.01001,0.01139 0.01864,0.02278 0.0083,-0.01056 0.02002,-0.02379 l 0.03554,-0.03958 h 0.02828 l -0.0732,0.0776 v 0.05703 z"
         style="font-size:12.612px;line-height:1.25;font-family:Arial;-inkscape-font-specification:'Arial, Normal';fill:#ffffff;stroke-width:0.00228687"
         id="path1273" />
      <path
         d="m 28.906547,34.822355 0.0229,-0.0015 q 0.0016,0.0101 0.0075,0.01662 0.006,0.0064 0.01852,0.01047 0.01251,0.0039 0.02815,0.0039 0.01389,0 0.02452,-0.003 0.01064,-0.003 0.01577,-0.0083 0.0053,-0.0053 0.0053,-0.01157 0,-0.0063 -0.005,-0.01102 -0.005,-0.0048 -0.01652,-0.008 -0.0074,-0.0021 -0.03266,-0.0065 -0.02528,-0.0045 -0.03541,-0.0084 -0.01314,-0.0051 -0.01965,-0.01249 -0.0064,-0.0075 -0.0064,-0.01681 0,-0.01019 0.0079,-0.01901 0.0079,-0.0089 0.02302,-0.0135 0.01514,-0.0046 0.03366,-0.0046 0.0204,0 0.03591,0.0049 0.01564,0.0048 0.02403,0.01414 0.0084,0.0094 0.009,0.02121 l -0.02327,0.0013 q -0.0019,-0.01277 -0.01276,-0.01929 -0.01076,-0.0065 -0.03191,-0.0065 -0.02202,0 -0.03216,0.006 -0.01001,0.0059 -0.01001,0.01424 0,0.0073 0.0071,0.01194 0.007,0.0047 0.03654,0.0096 0.02966,0.0049 0.04067,0.0085 0.01602,0.0054 0.02365,0.01378 0.0076,0.0083 0.0076,0.0191 0,0.01074 -0.0084,0.02029 -0.0084,0.0095 -0.02415,0.01478 -0.01564,0.0052 -0.03529,0.0052 -0.0249,0 -0.04179,-0.0053 -0.01677,-0.0053 -0.0264,-0.01598 -0.0095,-0.01074 -0.01001,-0.02424 z"
         style="font-size:12.612px;line-height:1.25;font-family:Arial;-inkscape-font-specification:'Arial, Normal';fill:#ffffff;stroke-width:0.00228687"
         id="path1275" />
      <path
         d="m 29.120094,34.865609 v -0.118741 h -0.06044 v -0.01589 h 0.145401 v 0.01589 h -0.06069 v 0.118741 z"
         style="font-size:12.612px;line-height:1.25;font-family:Arial;-inkscape-font-specification:'Arial, Normal';fill:#ffffff;stroke-width:0.00228687"
         id="path1277" />
      <path
         d="m 29.230458,34.865609 v -0.134628 h 0.132638 v 0.01589 h -0.108363 v 0.04123 h 0.101481 v 0.0158 h -0.101481 v 0.04583 h 0.112617 v 0.01589 z"
         style="font-size:12.612px;line-height:1.25;font-family:Arial;-inkscape-font-specification:'Arial, Normal';fill:#ffffff;stroke-width:0.00228687"
         id="path1279" />
      <path
         d="m 29.400134,34.865609 v -0.134628 h 0.03654 l 0.04342,0.09532 q 0.006,0.01332 0.0088,0.01993 0.0031,-0.0073 0.0098,-0.02158 l 0.04392,-0.09367 h 0.03266 v 0.134628 h -0.0234 v -0.11268 l -0.05331,0.11268 h -0.0219 L 29.423604,34.751 v 0.114609 z"
         style="font-size:12.612px;line-height:1.25;font-family:Arial;-inkscape-font-specification:'Arial, Normal';display:inline;fill:#ffffff;stroke-width:0.00228687"
         id="path1281" />
    </g>
  </g>
</svg>
