<?xml version="1.0" encoding="UTF-8" standalone="no"?>
<svg
   version="1.1"
   id="Layer_1"
   x="0px"
   y="0px"
   viewBox="0 0 412.70297 101.98912"
   xml:space="preserve"
   sodipodi:docname="auto-arcade-jaleco.svg"
   inkscape:version="1.1 (c68e22c387, 2021-05-23)"
   width="412.70297"
   height="101.98911"
   xmlns:inkscape="http://www.inkscape.org/namespaces/inkscape"
   xmlns:sodipodi="http://sodipodi.sourceforge.net/DTD/sodipodi-0.dtd"
   xmlns="http://www.w3.org/2000/svg"
   xmlns:svg="http://www.w3.org/2000/svg"><defs
   id="defs23">
	
	
	
	
	
	
	
</defs><sodipodi:namedview
   id="namedview21"
   pagecolor="#ffffff"
   bordercolor="#666666"
   borderopacity="1.0"
   inkscape:pageshadow="2"
   inkscape:pageopacity="0.0"
   inkscape:pagecheckerboard="true"
   showgrid="false"
   inkscape:zoom="1.5851486"
   inkscape:cx="178.21673"
   inkscape:cy="35.958774"
   inkscape:window-width="1920"
   inkscape:window-height="1138"
   inkscape:window-x="-8"
   inkscape:window-y="-8"
   inkscape:window-maximized="1"
   inkscape:current-layer="Layer_1"
   inkscape:snap-global="true"
   fit-margin-top="0"
   fit-margin-left="0"
   fit-margin-right="0"
   fit-margin-bottom="0"
   inkscape:showpageshadow="false" />
<style
   type="text/css"
   id="style2">
	.st0{fill:#176CD1;}
	.st1{fill:#453E45;}
</style>

<g
   id="g1043"
   transform="translate(2.7575689,2.7575689)"><rect
     style="fill:#ffffff;fill-rule:evenodd;stroke:#ffffff;stroke-width:20.3376;stroke-linecap:round;stroke-linejoin:round;stroke-miterlimit:4;stroke-dasharray:none;paint-order:fill markers stroke"
     id="rect938"
     width="2.7492929"
     height="3.8948314"
     x="187.96091"
     y="34.820702" /><g
     id="g1005"
     style="stroke:#ffffff;stroke-width:32.9996;stroke-linecap:round;stroke-linejoin:round;stroke-miterlimit:4;stroke-dasharray:none"
     transform="matrix(0.21212395,0,0,0.21212395,0.74243383,0.74243382)"><g
       id="g953"
       transform="translate(-121.8,-223.9)"
       style="stroke:#ffffff;stroke-width:32.9996;stroke-linecap:round;stroke-linejoin:round;stroke-miterlimit:4;stroke-dasharray:none"><ellipse
         style="fill:#ffffff;fill-rule:evenodd;stroke:#ffffff;stroke-width:32.9996;stroke-linecap:round;stroke-linejoin:round;stroke-miterlimit:4;stroke-dasharray:none;paint-order:fill markers stroke"
         id="path869"
         cx="377.83176"
         cy="448.75879"
         rx="240.66986"
         ry="203.64502" /><path
         class="st0"
         d="m 633.8,447.8 c 0,123.7 -114.6,223.9 -256,223.9 -141.4,0 -256,-100.2 -256,-223.9 0,-123.7 114.6,-223.9 256,-223.9 141.4,0 256,100.3 256,223.9 z M 535.7,347.3 463.1,278 429.3,311.8 395.5,278 l -33.8,33.8 -33.8,-35.5 -34.7,34.7 -34.7,-34.7 -37.2,38.9 65.9,65.9 35.5,-35.5 35.5,38.9 38.9,-37.2 32.1,32.1 33,-33 38,38 z m -6.7,49 -33.8,33.8 -30.4,-28.7 -32.1,30.4 -35.5,-35.5 -33.8,35.5 -33.8,-35.5 -35.5,35.5 -38.9,-37.2 -32.1,32.1 -34.6,-33 -37.2,38.9 74.4,67.6 32.1,-32.1 33.8,33.8 35.5,-35.5 33.8,33.8 32.1,-32.1 35.5,33.8 35.5,-35.5 37.2,35.5 32.1,-32.1 30.4,30.4 35.5,-33.8 z m -65.9,118.3 -33.8,33.8 -33.8,-33.8 -33.8,33.8 -33.8,-35.5 -35.5,35.5 -33,-31.3 -37.2,35.5 65.9,65.9 33.8,-33.8 37.2,35.5 37.2,-35.5 33.8,33.8 32.1,-33.8 37.2,37.2 35.5,-37.2 z"
         id="path4"
         style="stroke:#ffffff;stroke-width:32.9996;stroke-linecap:round;stroke-linejoin:round;stroke-miterlimit:4;stroke-dasharray:none" /></g><g
       id="g961"
       transform="matrix(1.7888838,0,0,1.7888838,557.46333,55.263441)"
       style="fill:#000000;stroke:#ffffff;stroke-width:18.447;stroke-linecap:round;stroke-linejoin:round;stroke-miterlimit:4;stroke-dasharray:none"><path
         class="st1"
         d="m 158.2,110.7 -15.5,70.5 c -0.4,1.8 -2,3 -3.8,3 h -26.7 c -2.5,0 -4.3,-2.3 -3.8,-4.8 L 150.6,3 c 0.4,-1.7 2,-3 3.8,-3 h 51.4 c 1.8,0 3.3,1.2 3.8,2.9 l 43.7,176.4 c 0.6,2.5 -1.3,4.9 -3.8,4.8 l -24.9,-0.6 c -1.8,0 -3.3,-1.3 -3.7,-3 l -15.5,-69.8 z m 39.5,-33.8 -16.9,-71 -15.2,71 z"
         id="path6"
         style="fill:#000000;stroke:#ffffff;stroke-width:18.447;stroke-linecap:round;stroke-linejoin:round;stroke-miterlimit:4;stroke-dasharray:none" /><path
         class="st1"
         d="m 0,135.2 v 9.3 c 0,23.8 24,43.1 53.7,43.1 18.9,0 35.5,-7.9 45.1,-19.7 0,0 9.4,-8.1 9.4,-40.3 L 109.9,5.8 c 0,-2.7 -2.2,-5 -5,-5 H 81 c -2.7,0 -5,2.2 -5,5 v 130.2 2.5 c 0,10.7 -9.8,19.4 -22,19.4 -12.2,0 -22,-8.7 -22,-19.4 V 136 Z"
         id="path8"
         style="fill:#000000;stroke:#ffffff;stroke-width:18.447;stroke-linecap:round;stroke-linejoin:round;stroke-miterlimit:4;stroke-dasharray:none" /><path
         class="st1"
         d="M 373.3,157.2 H 296.6 V 23.9 20.3 6.5 c 0,-2.7 -2.2,-4.9 -4.9,-4.9 h -22.4 c -2.7,0 -4.9,2.2 -4.9,4.9 v 13.7 3.6 139.4 7.4 9.1 c 0,3.4 2.7,6.1 6.1,6.1 h 102.7 c 3.4,0 6.1,-2.7 6.1,-6.1 v -16.5 c 0.1,-3.3 -2.6,-6 -6,-6 z"
         id="path10"
         style="fill:#000000;stroke:#ffffff;stroke-width:18.447;stroke-linecap:round;stroke-linejoin:round;stroke-miterlimit:4;stroke-dasharray:none" /><path
         class="st1"
         d="m 497.7,157.2 h -76 v -52.5 c 0.4,0.1 0.8,0.1 1.2,0.1 h 63.6 c 3.4,0 6.2,-2.8 6.2,-6.2 v -18 c 0,-3.4 -2.8,-6.2 -6.2,-6.2 h -63.6 c -0.4,0 -0.8,0.1 -1.2,0.1 V 30.4 h 71 c 2.8,0 5.1,-2.3 5.1,-5.1 V 6.8 c 0,-2.8 -2.3,-5.1 -5.1,-5.1 h -98 c -2.8,0 -5.1,2.3 -5.1,5.1 v 5.1 13.5 136.9 13.5 5.1 c 0,2.8 2.3,5.1 5.1,5.1 h 103.1 c 2.8,0 5.1,-2.3 5.1,-5.1 v -18.6 c -0.1,-2.9 -2.4,-5.1 -5.2,-5.1 z"
         id="path12"
         style="fill:#000000;stroke:#ffffff;stroke-width:18.447;stroke-linecap:round;stroke-linejoin:round;stroke-miterlimit:4;stroke-dasharray:none" /><path
         class="st1"
         d="m 552.5,41.8 c -4.7,7.7 -8.9,19.1 -8.3,36.8 V 109 c 0,0 -3.4,43.9 23.7,50.7 0,0 25.3,5.1 28.7,-28.7 h 32.1 c 0,0 0,49 -52.4,57.5 0,0 -38.9,3.4 -59.2,-38.9 0,0 -8.4,-20.3 -6.8,-55.8 V 87 C 512,36.3 530.6,19.4 530.6,19.4 550.9,-6 584.7,0.8 584.7,0.8 c 40.6,5.1 43.9,54.1 43.9,54.1 h -32.1 c 0,0 0,-15.9 -10.7,-23.3 0,0 -11.3,-7.1 -21.5,-0.4 0.2,0.1 -6.9,2.6 -11.8,10.6 z"
         id="path14"
         style="fill:#000000;stroke:#ffffff;stroke-width:18.447;stroke-linecap:round;stroke-linejoin:round;stroke-miterlimit:4;stroke-dasharray:none" /><path
         class="st1"
         d="m 689.5,188.4 c -54.1,-6.8 -54.1,-82.8 -54.1,-82.8 v -27 c 0,0 -3.4,-72.7 52.4,-77.7 h 20.3 c 50.7,5.1 49,77.7 49,77.7 v 27 c 0,0 8.4,71 -50.7,82.8 z m 6.8,-28.7 c 28.7,-3.4 28.8,-47.3 28.8,-47.3 v -27 c 0,-14.9 -2.3,-57.5 -28.8,-57.5 0,0 -30.4,-1.6 -27.4,57.5 v 27 c -0.3,45.6 27.4,47.3 27.4,47.3 z"
         id="path16"
         style="fill:#000000;stroke:#ffffff;stroke-width:18.447;stroke-linecap:round;stroke-linejoin:round;stroke-miterlimit:4;stroke-dasharray:none" /></g></g><g
     id="g1027"
     transform="matrix(0.21212395,0,0,0.21212395,0.74243383,0.74243382)"><g
       id="g1011"
       transform="translate(-121.8,-223.9)"><ellipse
         style="fill:#ffffff;fill-rule:evenodd;stroke:#ffffff;stroke-width:5.32138;stroke-linecap:round;stroke-linejoin:round;paint-order:fill markers stroke"
         id="ellipse1007"
         cx="377.83176"
         cy="448.75879"
         rx="240.66986"
         ry="203.64502" /><path
         class="st0"
         d="m 633.8,447.8 c 0,123.7 -114.6,223.9 -256,223.9 -141.4,0 -256,-100.2 -256,-223.9 0,-123.7 114.6,-223.9 256,-223.9 141.4,0 256,100.3 256,223.9 z M 535.7,347.3 463.1,278 429.3,311.8 395.5,278 l -33.8,33.8 -33.8,-35.5 -34.7,34.7 -34.7,-34.7 -37.2,38.9 65.9,65.9 35.5,-35.5 35.5,38.9 38.9,-37.2 32.1,32.1 33,-33 38,38 z m -6.7,49 -33.8,33.8 -30.4,-28.7 -32.1,30.4 -35.5,-35.5 -33.8,35.5 -33.8,-35.5 -35.5,35.5 -38.9,-37.2 -32.1,32.1 -34.6,-33 -37.2,38.9 74.4,67.6 32.1,-32.1 33.8,33.8 35.5,-35.5 33.8,33.8 32.1,-32.1 35.5,33.8 35.5,-35.5 37.2,35.5 32.1,-32.1 30.4,30.4 35.5,-33.8 z m -65.9,118.3 -33.8,33.8 -33.8,-33.8 -33.8,33.8 -33.8,-35.5 -35.5,35.5 -33,-31.3 -37.2,35.5 65.9,65.9 33.8,-33.8 37.2,35.5 37.2,-35.5 33.8,33.8 32.1,-33.8 37.2,37.2 35.5,-37.2 z"
         id="path1009" /></g><g
       id="g1025"
       transform="matrix(1.7888838,0,0,1.7888838,557.46333,55.263441)"
       style="fill:#000000"><path
         class="st1"
         d="m 158.2,110.7 -15.5,70.5 c -0.4,1.8 -2,3 -3.8,3 h -26.7 c -2.5,0 -4.3,-2.3 -3.8,-4.8 L 150.6,3 c 0.4,-1.7 2,-3 3.8,-3 h 51.4 c 1.8,0 3.3,1.2 3.8,2.9 l 43.7,176.4 c 0.6,2.5 -1.3,4.9 -3.8,4.8 l -24.9,-0.6 c -1.8,0 -3.3,-1.3 -3.7,-3 l -15.5,-69.8 z m 39.5,-33.8 -16.9,-71 -15.2,71 z"
         id="path1013"
         style="fill:#000000" /><path
         class="st1"
         d="m 0,135.2 v 9.3 c 0,23.8 24,43.1 53.7,43.1 18.9,0 35.5,-7.9 45.1,-19.7 0,0 9.4,-8.1 9.4,-40.3 L 109.9,5.8 c 0,-2.7 -2.2,-5 -5,-5 H 81 c -2.7,0 -5,2.2 -5,5 v 130.2 2.5 c 0,10.7 -9.8,19.4 -22,19.4 -12.2,0 -22,-8.7 -22,-19.4 V 136 Z"
         id="path1015"
         style="fill:#000000" /><path
         class="st1"
         d="M 373.3,157.2 H 296.6 V 23.9 20.3 6.5 c 0,-2.7 -2.2,-4.9 -4.9,-4.9 h -22.4 c -2.7,0 -4.9,2.2 -4.9,4.9 v 13.7 3.6 139.4 7.4 9.1 c 0,3.4 2.7,6.1 6.1,6.1 h 102.7 c 3.4,0 6.1,-2.7 6.1,-6.1 v -16.5 c 0.1,-3.3 -2.6,-6 -6,-6 z"
         id="path1017"
         style="fill:#000000" /><path
         class="st1"
         d="m 497.7,157.2 h -76 v -52.5 c 0.4,0.1 0.8,0.1 1.2,0.1 h 63.6 c 3.4,0 6.2,-2.8 6.2,-6.2 v -18 c 0,-3.4 -2.8,-6.2 -6.2,-6.2 h -63.6 c -0.4,0 -0.8,0.1 -1.2,0.1 V 30.4 h 71 c 2.8,0 5.1,-2.3 5.1,-5.1 V 6.8 c 0,-2.8 -2.3,-5.1 -5.1,-5.1 h -98 c -2.8,0 -5.1,2.3 -5.1,5.1 v 5.1 13.5 136.9 13.5 5.1 c 0,2.8 2.3,5.1 5.1,5.1 h 103.1 c 2.8,0 5.1,-2.3 5.1,-5.1 v -18.6 c -0.1,-2.9 -2.4,-5.1 -5.2,-5.1 z"
         id="path1019"
         style="fill:#000000" /><path
         class="st1"
         d="m 552.5,41.8 c -4.7,7.7 -8.9,19.1 -8.3,36.8 V 109 c 0,0 -3.4,43.9 23.7,50.7 0,0 25.3,5.1 28.7,-28.7 h 32.1 c 0,0 0,49 -52.4,57.5 0,0 -38.9,3.4 -59.2,-38.9 0,0 -8.4,-20.3 -6.8,-55.8 V 87 C 512,36.3 530.6,19.4 530.6,19.4 550.9,-6 584.7,0.8 584.7,0.8 c 40.6,5.1 43.9,54.1 43.9,54.1 h -32.1 c 0,0 0,-15.9 -10.7,-23.3 0,0 -11.3,-7.1 -21.5,-0.4 0.2,0.1 -6.9,2.6 -11.8,10.6 z"
         id="path1021"
         style="fill:#000000" /><path
         class="st1"
         d="m 689.5,188.4 c -54.1,-6.8 -54.1,-82.8 -54.1,-82.8 v -27 c 0,0 -3.4,-72.7 52.4,-77.7 h 20.3 c 50.7,5.1 49,77.7 49,77.7 v 27 c 0,0 8.4,71 -50.7,82.8 z m 6.8,-28.7 c 28.7,-3.4 28.8,-47.3 28.8,-47.3 v -27 c 0,-14.9 -2.3,-57.5 -28.8,-57.5 0,0 -30.4,-1.6 -27.4,57.5 v 27 c -0.3,45.6 27.4,47.3 27.4,47.3 z"
         id="path1023"
         style="fill:#000000" /></g></g></g></svg>
