<?xml version="1.0" encoding="UTF-8" standalone="no"?>
<!-- Created with Inkscape (http://www.inkscape.org/) -->

<svg
   version="1.1"
   id="svg2"
   width="69.159599"
   height="9.4666433"
   viewBox="0 0 69.1596 9.4666433"
   sodipodi:docname="nes.svg"
   inkscape:version="1.1 (c68e22c387, 2021-05-23)"
   inkscape:export-filename="C:\Users\BUCH\Desktop\Retrogaming\Recalbox\travail thèmes\Thème vignette !!!!!!!\Maquette 2 !!!!\image1250.png"
   inkscape:export-xdpi="96.460785"
   inkscape:export-ydpi="96.460785"
   xmlns:inkscape="http://www.inkscape.org/namespaces/inkscape"
   xmlns:sodipodi="http://sodipodi.sourceforge.net/DTD/sodipodi-0.dtd"
   xmlns="http://www.w3.org/2000/svg"
   xmlns:svg="http://www.w3.org/2000/svg">
  <defs
     id="defs6">
    <clipPath
       clipPathUnits="userSpaceOnUse"
       id="clipPath3185">
      <path
         id="path3187"
         style="fill:#ffffff;fill-rule:evenodd;stroke:#ffffff;stroke-width:5.15903;stroke-linecap:round;stroke-linejoin:round;paint-order:stroke fill markers"
         d="m 1157.5591,335.78677 h 462.4206 L 1362.3723,1410.6277 H 899.95176 Z"
         sodipodi:nodetypes="ccccc"
         inkscape:export-filename="C:\Users\BUCH\Desktop\Retrogaming\Recalbox\travail thèmes\Thème vignette !!!!!!!\Maquette 2 !!!!\rect849.png"
         inkscape:export-xdpi="247.96268"
         inkscape:export-ydpi="247.96268" />
    </clipPath>
  </defs>
  <sodipodi:namedview
     id="namedview4"
     pagecolor="#ffffff"
     bordercolor="#666666"
     borderopacity="1.0"
     inkscape:pageshadow="2"
     inkscape:pageopacity="0.0"
     inkscape:pagecheckerboard="true"
     showgrid="false"
     inkscape:showpageshadow="false"
     inkscape:zoom="6.2396655"
     inkscape:cx="61.461628"
     inkscape:cy="4.968215"
     inkscape:window-width="1920"
     inkscape:window-height="1138"
     inkscape:window-x="-8"
     inkscape:window-y="-8"
     inkscape:window-maximized="1"
     inkscape:current-layer="svg2"
     fit-margin-top="0"
     fit-margin-left="0"
     fit-margin-right="0"
     fit-margin-bottom="0" />
  <g
     aria-label="family computer"
     id="text4410"
     style="font-weight:300;font-size:13.3333px;line-height:1.25;font-family:'Bebas Neue';-inkscape-font-specification:'Bebas Neue, Light';fill:#ffffff"
     transform="translate(0.26799304,-17.684809)">
    <path
       d="M 0.02533955,22.444797 V 18.031475 H 3.158665 v -0.279999 h -3.42665804 v 9.333309 H 0.02533955 V 22.724796 H 2.6386663 v -0.279999 z"
       id="path5035" />
    <path
       d="m 8.0919563,24.884791 0.5466653,2.199994 H 8.9319542 L 6.6252933,17.738142 H 6.2119611 l -2.2533277,9.346643 h 0.266666 L 4.7719647,24.884791 Z M 6.4119606,18.084808 8.0386231,24.618125 H 4.8252979 Z"
       id="path5037" />
    <path
       d="m 15.158587,18.191475 v 8.89331 h 0.293332 V 17.751476 H 14.998587 L 12.70526,26.604787 10.411932,17.751476 H 9.9586 v 9.333309 h 0.266666 v -8.89331 l 2.306661,8.866644 h 0.333332 z"
       id="path5039" />
    <path
       d="m 16.518565,17.751476 v 9.333309 h 0.293333 v -9.333309 z"
       id="path5041" />
    <path
       d="m 21.30521,27.084785 v -0.279999 h -3.133325 v -9.05331 h -0.293333 v 9.333309 z"
       id="path5043" />
    <path
       d="m 23.611844,27.084785 h 0.293332 v -3.773323 l 2.213328,-5.559986 h -0.306666 l -2.039995,5.159987 -2.039995,-5.159987 h -0.293332 l 2.173328,5.559986 z"
       id="path5045" />
    <path
       d="m 31.118462,17.684809 c -1.413329,0 -1.946661,1.066664 -1.946661,2.359994 v 4.746655 c 0,1.29333 0.533332,2.359994 1.946661,2.359994 1.426663,0 1.959995,-1.066664 1.959995,-2.359994 v -1.013331 h -0.293332 v 1.026664 c 0,1.133331 -0.426666,2.066662 -1.653329,2.066662 -1.239997,0 -1.666663,-0.933331 -1.666663,-2.066662 V 20.03147 c 0,-1.133331 0.426666,-2.079995 1.666663,-2.079995 1.226663,0 1.653329,0.946664 1.653329,2.079995 v 0.733331 h 0.293332 v -0.719998 c 0,-1.29333 -0.533332,-2.359994 -1.959995,-2.359994 z"
       id="path5047" />
    <path
       d="m 34.105106,24.791458 c 0,1.306663 0.559999,2.359994 1.973329,2.359994 1.439996,0 1.999995,-1.053331 1.999995,-2.359994 v -4.746655 c 0,-1.306663 -0.559999,-2.359994 -1.999995,-2.359994 -1.41333,0 -1.973329,1.053331 -1.973329,2.359994 z m 0.293333,-4.759988 c 0,-1.146664 0.439999,-2.079995 1.679996,-2.079995 1.25333,0 1.706662,0.933331 1.706662,2.079995 v 4.773321 c 0,1.146664 -0.453332,2.079995 -1.706662,2.079995 -1.239997,0 -1.679996,-0.933331 -1.679996,-2.079995 z"
       id="path5049" />
    <path
       d="m 44.33174,18.191475 v 8.89331 h 0.293332 V 17.751476 H 44.17174 l -2.293327,8.853311 -2.293328,-8.853311 h -0.453332 v 9.333309 h 0.266666 v -8.89331 l 2.306661,8.866644 h 0.333332 z"
       id="path5051" />
    <path
       d="m 45.69172,17.751476 v 9.333309 h 0.293333 v -3.95999 h 1.33333 c 1.479996,0 2.146661,-0.706664 2.146661,-2.186661 v -0.933331 c 0,-1.306663 -0.493332,-2.253327 -1.933329,-2.253327 z m 0.293333,5.09332 v -4.813321 h 1.546662 c 1.25333,0 1.639996,0.813331 1.639996,1.959995 v 0.959998 c 0,1.319996 -0.546665,1.893328 -1.853328,1.893328 z"
       id="path5053" />
    <path
       d="m 50.758363,17.751476 h -0.293332 v 7.026649 c 0,1.279996 0.506665,2.373327 1.933328,2.373327 1.41333,0 1.919995,-1.093331 1.919995,-2.373327 v -7.026649 h -0.279999 v 7.039982 c 0,1.119997 -0.399999,2.093328 -1.639996,2.093328 -1.239997,0 -1.639996,-0.973331 -1.639996,-2.093328 z"
       id="path5055" />
    <path
       d="m 57.411662,27.084785 v -9.05331 h 2.039995 v -0.279999 h -4.359989 v 0.279999 h 2.026661 v 9.05331 z"
       id="path5057" />
    <path
       d="m 60.558302,22.218131 v -4.186656 h 3.266659 V 17.751476 H 60.26497 v 9.333309 h 3.559991 v -0.279999 h -3.266659 v -4.319989 h 2.74666 v -0.266666 z"
       id="path5059" />
    <path
       d="m 64.864949,17.751476 v 9.333309 h 0.293333 V 22.77813 h 1.146664 c 1.21333,0 2.039994,0.359999 2.039994,1.733329 v 1.466663 c 0,0.399999 0.04,0.813331 0.226666,1.106663 h 0.32 c -0.213333,-0.293332 -0.253333,-0.746664 -0.253333,-1.106663 v -1.466663 c 0,-1.026664 -0.439999,-1.706663 -1.479996,-1.866662 1.026664,-0.186667 1.479996,-0.813332 1.479996,-1.959995 v -0.839998 c 0,-1.279997 -0.533332,-2.093328 -1.919995,-2.093328 z m 0.293333,4.746654 v -4.466655 h 1.546663 c 1.199996,0 1.639995,0.706665 1.639995,1.839995 v 0.853332 c 0,1.439996 -0.746664,1.773328 -2.039994,1.773328 z"
       id="path5061" />
  </g>
</svg>
