<?xml version="1.0" encoding="UTF-8" standalone="no"?>
<!-- Created with Inkscape (http://www.inkscape.org/) -->

<svg
   version="1.1"
   id="svg2"
   width="43.266426"
   height="9.4666452"
   viewBox="0 0 43.266428 9.4666452"
   sodipodi:docname="atari2600.svg"
   inkscape:version="1.1 (c68e22c387, 2021-05-23)"
   inkscape:export-filename="C:\Users\BUCH\Desktop\Retrogaming\Recalbox\travail thèmes\Thème vignette !!!!!!!\Maquette 2 !!!!\image1250.png"
   inkscape:export-xdpi="96.460785"
   inkscape:export-ydpi="96.460785"
   xmlns:inkscape="http://www.inkscape.org/namespaces/inkscape"
   xmlns:sodipodi="http://sodipodi.sourceforge.net/DTD/sodipodi-0.dtd"
   xmlns="http://www.w3.org/2000/svg"
   xmlns:svg="http://www.w3.org/2000/svg">
  <defs
     id="defs6">
    <clipPath
       clipPathUnits="userSpaceOnUse"
       id="clipPath3185">
      <path
         id="path3187"
         style="fill:#ffffff;fill-rule:evenodd;stroke:#ffffff;stroke-width:5.15903;stroke-linecap:round;stroke-linejoin:round;paint-order:stroke fill markers"
         d="m 1157.5591,335.78677 h 462.4206 L 1362.3723,1410.6277 H 899.95176 Z"
         sodipodi:nodetypes="ccccc"
         inkscape:export-filename="C:\Users\BUCH\Desktop\Retrogaming\Recalbox\travail thèmes\Thème vignette !!!!!!!\Maquette 2 !!!!\rect849.png"
         inkscape:export-xdpi="247.96268"
         inkscape:export-ydpi="247.96268" />
    </clipPath>
  </defs>
  <sodipodi:namedview
     id="namedview4"
     pagecolor="#ffffff"
     bordercolor="#666666"
     borderopacity="1.0"
     inkscape:pageshadow="2"
     inkscape:pageopacity="0.0"
     inkscape:pagecheckerboard="true"
     showgrid="false"
     inkscape:showpageshadow="false"
     inkscape:zoom="12.479331"
     inkscape:cx="31.772537"
     inkscape:cy="21.79604"
     inkscape:window-width="1920"
     inkscape:window-height="1138"
     inkscape:window-x="-8"
     inkscape:window-y="-8"
     inkscape:window-maximized="1"
     inkscape:current-layer="svg2"
     fit-margin-top="0"
     fit-margin-left="0"
     fit-margin-right="0"
     fit-margin-bottom="0" />
  <g
     aria-label="atari 2600"
     id="text39152"
     style="font-weight:300;font-size:13.3333px;line-height:1.25;font-family:'Bebas Neue';-inkscape-font-specification:'Bebas Neue, Light'"
     transform="translate(5.5967382,18.374819)">
    <path
       d="m -1.4634153,-11.174835 0.54666531,2.1999948 h 0.29333259 l -2.3066608,-9.3466428 h -0.4133323 l -2.2533277,9.3466428 h 0.266666 l 0.5466653,-2.1999948 z m -1.6799957,-6.799982 1.6266625,6.533316 h -3.2133252 z"
       style="fill:#ffffff"
       id="path41883" />
    <path
       d="m 1.9365561,-8.9748402 v -9.0533108 h 2.0399948 v -0.279999 h -4.35998893 v 0.279999 H 1.6432235 v 9.0533108 z"
       style="fill:#ffffff"
       id="path41885" />
    <path
       d="m 8.37652,-11.174835 0.5466653,2.1999948 H 9.2165179 L 6.9098571,-18.321483 H 6.4965248 l -2.2533277,9.3466428 h 0.266666 l 0.5466653,-2.1999948 z m -1.6799957,-6.799982 1.6266625,6.533316 H 5.1098616 Z"
       style="fill:#ffffff"
       id="path41887" />
    <path
       d="m 10.243164,-18.30815 v 9.3333098 h 0.293332 v -4.3066558 h 1.146664 c 1.21333,0 2.039995,0.359999 2.039995,1.733329 v 1.466663 c 0,0.399999 0.04,0.8133312 0.226666,1.1066638 h 0.319999 c -0.213333,-0.2933326 -0.253333,-0.7466647 -0.253333,-1.1066638 v -1.466663 c 0,-1.026664 -0.439998,-1.706662 -1.479996,-1.866662 1.026664,-0.186666 1.479996,-0.813331 1.479996,-1.959995 v -0.839998 c 0,-1.279997 -0.533331,-2.093328 -1.919995,-2.093328 z m 0.293332,4.746655 v -4.466656 h 1.546663 c 1.199997,0 1.639996,0.706665 1.639996,1.839996 v 0.853331 c 0,1.439996 -0.746665,1.773329 -2.039995,1.773329 z"
       style="fill:#ffffff"
       id="path41889" />
    <path
       d="m 15.309806,-18.30815 v 9.3333098 h 0.293333 V -18.30815 Z"
       style="fill:#ffffff"
       id="path41891" />
    <path
       d="m 20.6831,-18.374816 c -1.439996,0 -1.946662,1.119997 -1.946662,2.413327 v 0.493332 h 0.28 v -0.506665 c 0,-1.119998 0.399999,-2.133328 1.653329,-2.133328 1.29333,0 1.666662,0.959997 1.666662,2.133328 0,2.50666 -3.599991,3.306658 -3.599991,6.7999823 v 0.1999995 h 3.839991 v -0.2799993 h -3.546658 v -0.053333 c 0.05333,-3.2133255 3.599991,-4.0799895 3.599991,-6.6799835 0,-1.319996 -0.479999,-2.38666 -1.946662,-2.38666 z"
       style="fill:#ffffff"
       id="path41893" />
    <path
       d="m 25.656408,-18.374816 c -1.439997,0 -1.999995,1.039997 -1.999995,2.359994 v 4.746654 c 0,1.3066637 0.559998,2.3599943 1.999995,2.3599943 1.426663,0 1.986661,-1.0533306 1.986661,-2.3599943 v -0.933331 c 0,-1.29333 -0.533332,-2.333327 -1.919995,-2.333327 -0.906664,0 -1.399996,0.319999 -1.773329,1.106664 v -2.573327 c 0,-1.17333 0.453333,-2.106661 1.706663,-2.106661 1.239997,0 1.666662,0.893331 1.666662,2.026661 v 0.08 h 0.279999 v -0.06667 c 0,-1.306663 -0.533332,-2.30666 -1.946661,-2.30666 z m 0,4.119989 c 1.239997,0 1.693329,0.933331 1.693329,2.066662 v 0.919997 c 0,1.159997 -0.453332,2.079995 -1.693329,2.079995 -1.25333,0 -1.706663,-0.919998 -1.706663,-2.079995 v -0.919997 c 0,-1.093331 0.453333,-2.066662 1.706663,-2.066662 z"
       style="fill:#ffffff"
       id="path41895" />
    <path
       d="m 28.683053,-11.268168 c 0,1.3066637 0.559998,2.3599943 1.986661,2.3599943 1.426663,0 1.986662,-1.0533306 1.986662,-2.3599943 v -4.746654 c 0,-1.319997 -0.559999,-2.359994 -1.986662,-2.359994 -1.426663,0 -1.986661,1.039997 -1.986661,2.359994 z m 0.293332,-4.759988 c 0,-1.146663 0.453332,-2.079994 1.693329,-2.079994 1.239997,0 1.693329,0.933331 1.693329,2.079994 v 4.759988 c 0,1.159997 -0.453332,2.0933283 -1.693329,2.0933283 -1.239997,0 -1.693329,-0.9333313 -1.693329,-2.0933283 z"
       style="fill:#ffffff"
       id="path41897" />
    <path
       d="m 33.696366,-11.268168 c 0,1.3066637 0.559999,2.3599943 1.986662,2.3599943 1.426663,0 1.986661,-1.0533306 1.986661,-2.3599943 v -4.746654 c 0,-1.319997 -0.559998,-2.359994 -1.986661,-2.359994 -1.426663,0 -1.986662,1.039997 -1.986662,2.359994 z m 0.293333,-4.759988 c 0,-1.146663 0.453332,-2.079994 1.693329,-2.079994 1.239996,0 1.693329,0.933331 1.693329,2.079994 v 4.759988 c 0,1.159997 -0.453333,2.0933283 -1.693329,2.0933283 -1.239997,0 -1.693329,-0.9333313 -1.693329,-2.0933283 z"
       style="fill:#ffffff"
       id="path41899" />
  </g>
</svg>
