<?xml version="1.0" encoding="UTF-8" standalone="no"?>
<!-- Created with Inkscape (http://www.inkscape.org/) -->

<svg
   version="1.1"
   id="svg2"
   width="132.43921"
   height="9.4666424"
   viewBox="0 0 132.43921 9.4666423"
   sodipodi:docname="nes.svg"
   inkscape:version="1.1 (c68e22c387, 2021-05-23)"
   inkscape:export-filename="C:\Users\BUCH\Desktop\Retrogaming\Recalbox\travail thèmes\Thème vignette !!!!!!!\Maquette 2 !!!!\image1250.png"
   inkscape:export-xdpi="96.460785"
   inkscape:export-ydpi="96.460785"
   xmlns:inkscape="http://www.inkscape.org/namespaces/inkscape"
   xmlns:sodipodi="http://sodipodi.sourceforge.net/DTD/sodipodi-0.dtd"
   xmlns="http://www.w3.org/2000/svg"
   xmlns:svg="http://www.w3.org/2000/svg">
  <defs
     id="defs6">
    <clipPath
       clipPathUnits="userSpaceOnUse"
       id="clipPath3185">
      <path
         id="path3187"
         style="fill:#ffffff;fill-rule:evenodd;stroke:#ffffff;stroke-width:5.15903;stroke-linecap:round;stroke-linejoin:round;paint-order:stroke fill markers"
         d="m 1157.5591,335.78677 h 462.4206 L 1362.3723,1410.6277 H 899.95176 Z"
         sodipodi:nodetypes="ccccc"
         inkscape:export-filename="C:\Users\BUCH\Desktop\Retrogaming\Recalbox\travail thèmes\Thème vignette !!!!!!!\Maquette 2 !!!!\rect849.png"
         inkscape:export-xdpi="247.96268"
         inkscape:export-ydpi="247.96268" />
    </clipPath>
  </defs>
  <sodipodi:namedview
     id="namedview4"
     pagecolor="#ffffff"
     bordercolor="#666666"
     borderopacity="1.0"
     inkscape:pageshadow="2"
     inkscape:pageopacity="0.0"
     inkscape:pagecheckerboard="true"
     showgrid="false"
     inkscape:showpageshadow="false"
     inkscape:zoom="6.2396655"
     inkscape:cx="61.141098"
     inkscape:cy="22.597365"
     inkscape:window-width="1920"
     inkscape:window-height="1138"
     inkscape:window-x="-8"
     inkscape:window-y="-8"
     inkscape:window-maximized="1"
     inkscape:current-layer="svg2"
     fit-margin-top="0"
     fit-margin-left="0"
     fit-margin-right="0"
     fit-margin-bottom="0" />
  <g
     aria-label="nintendo entertainment system"
     id="text2284"
     style="font-weight:300;font-size:13.3333px;line-height:1.25;font-family:'Bebas Neue';-inkscape-font-specification:'Bebas Neue, Light';fill:#ffffff"
     transform="translate(44.180604,20.698659)">
    <path
       d="m -43.900605,-20.205327 3.333325,8.906644 h 0.359999 v -9.33331 h -0.279999 v 8.733311 l -3.279992,-8.733311 h -0.413332 v 9.33331 h 0.279999 z"
       id="path3723" />
    <path
       d="m -39.140639,-20.631993 v 9.33331 h 0.293333 v -9.33331 z"
       id="path3725" />
    <path
       d="m -37.500653,-20.205327 3.333325,8.906644 h 0.359999 v -9.33331 h -0.279999 v 8.733311 l -3.279992,-8.733311 h -0.413332 v 9.33331 h 0.279999 z"
       id="path3727" />
    <path
       d="m -30.700691,-11.298683 v -9.053311 h 2.039994 v -0.279999 h -4.359989 v 0.279999 h 2.026662 v 9.053311 z"
       id="path3729" />
    <path
       d="m -27.55405,-16.165338 v -4.186656 h 3.266659 v -0.279999 h -3.559991 v 9.33331 h 3.559991 v -0.279999 h -3.266659 v -4.31999 h 2.74666 v -0.266666 z"
       id="path3731" />
    <path
       d="m -22.967404,-20.205327 3.333325,8.906644 h 0.359999 v -9.33331 h -0.279999 v 8.733311 l -3.279992,-8.733311 h -0.413332 v 9.33331 h 0.279999 z"
       id="path3733" />
    <path
       d="m -18.207438,-20.631993 v 9.33331 h 1.959995 c 1.413329,0 2.013328,-0.999998 2.013328,-2.319994 v -4.679988 c 0,-1.33333 -0.599999,-2.333328 -2.026662,-2.333328 z m 0.293332,9.053311 v -8.773312 h 1.653329 c 1.239997,0 1.733329,0.866665 1.733329,2.039995 v 4.706655 c 0,1.159997 -0.479998,2.026662 -1.733329,2.026662 z"
       id="path3735" />
    <path
       d="m -13.207458,-13.592011 c 0,1.306664 0.559998,2.359994 1.973328,2.359994 1.4399963,0 1.9999949,-1.05333 1.9999949,-2.359994 v -4.746654 c 0,-1.306664 -0.5599986,-2.359994 -1.9999949,-2.359994 -1.41333,0 -1.973328,1.05333 -1.973328,2.359994 z m 0.293332,-4.759988 c 0,-1.146663 0.439999,-2.079994 1.679996,-2.079994 1.2533302,0 1.7066623,0.933331 1.7066623,2.079994 v 4.773322 c 0,1.146663 -0.4533321,2.079994 -1.7066623,2.079994 -1.239997,0 -1.679996,-0.933331 -1.679996,-2.079994 z"
       id="path3737" />
    <path
       d="m -5.8208345,-16.165338 v -4.186656 h 3.2666584 v -0.279999 h -3.559991 v 9.33331 h 3.559991 v -0.279999 h -3.2666584 v -4.31999 h 2.7466597 v -0.266666 z"
       id="path3739" />
    <path
       d="m -1.2341884,-20.205327 3.3333249,8.906644 h 0.3599991 v -9.33331 H 2.1791363 v 8.733311 l -3.2799917,-8.733311 h -0.4133323 v 9.33331 h 0.2799993 z"
       id="path3741" />
    <path
       d="m 5.5657737,-11.298683 v -9.053311 h 2.0399949 v -0.279999 h -4.359989 v 0.279999 h 2.0266615 v 9.053311 z"
       id="path3743" />
    <path
       d="m 8.7124144,-16.165338 v -4.186656 h 3.2666586 v -0.279999 H 8.4190818 v 9.33331 h 3.5599912 v -0.279999 H 8.7124144 v -4.31999 h 2.7466596 v -0.266666 z"
       id="path3745" />
    <path
       d="m 13.019061,-20.631993 v 9.33331 h 0.293333 v -4.306656 h 1.146664 c 1.21333,0 2.039994,0.359999 2.039994,1.733329 v 1.466663 c 0,0.399999 0.04,0.813331 0.226667,1.106664 h 0.319999 c -0.213333,-0.293333 -0.253333,-0.746665 -0.253333,-1.106664 v -1.466663 c 0,-1.026664 -0.439999,-1.706662 -1.479996,-1.866662 1.026664,-0.186666 1.479996,-0.813331 1.479996,-1.959995 v -0.839998 c 0,-1.279997 -0.533332,-2.093328 -1.919995,-2.093328 z m 0.293333,4.746655 v -4.466656 h 1.546663 c 1.199997,0 1.639995,0.706665 1.639995,1.839996 v 0.853331 c 0,1.439996 -0.746664,1.773329 -2.039994,1.773329 z"
       id="path3747" />
    <path
       d="m 20.125699,-11.298683 v -9.053311 h 2.039995 v -0.279999 h -4.359989 v 0.279999 h 2.026661 v 9.053311 z"
       id="path3749" />
    <path
       d="m 26.565666,-13.498678 0.546665,2.199995 h 0.293332 l -2.30666,-9.346643 H 24.68567 l -2.253327,9.346643 h 0.266666 l 0.546665,-2.199995 z m -1.679996,-6.799982 1.626662,6.533316 h -3.213325 z"
       id="path3751" />
    <path
       d="m 28.432304,-20.631993 v 9.33331 h 0.293332 v -9.33331 z"
       id="path3753" />
    <path
       d="m 30.072296,-20.205327 3.333325,8.906644 h 0.359999 v -9.33331 h -0.279999 v 8.733311 l -3.279992,-8.733311 h -0.413332 v 9.33331 h 0.279999 z"
       id="path3755" />
    <path
       d="m 40.032246,-20.191994 v 8.893311 h 0.293333 v -9.33331 h -0.453332 l -2.293328,8.853311 -2.293328,-8.853311 h -0.453332 v 9.33331 h 0.266666 v -8.893311 l 2.306661,8.866644 h 0.333333 z"
       id="path3757" />
    <path
       d="m 41.685559,-16.165338 v -4.186656 h 3.266658 v -0.279999 h -3.559991 v 9.33331 h 3.559991 v -0.279999 h -3.266658 v -4.31999 h 2.74666 v -0.266666 z"
       id="path3759" />
    <path
       d="m 46.272201,-20.205327 3.333325,8.906644 h 0.359999 v -9.33331 h -0.279999 v 8.733311 l -3.279992,-8.733311 h -0.413332 v 9.33331 h 0.279999 z"
       id="path3761" />
    <path
       d="m 53.07216,-11.298683 v -9.053311 h 2.039994 v -0.279999 h -4.359989 v 0.279999 h 2.026662 v 9.053311 z"
       id="path3763" />
    <path
       d="m 59.925446,-20.698659 c -1.346663,0.01333 -1.919995,0.946664 -1.919995,2.30666 0,2.573327 3.573325,2.493327 3.573325,4.853321 0,1.133331 -0.439999,2.026662 -1.666663,2.026662 -1.226663,0 -1.666662,-0.893331 -1.666662,-2.026662 v -0.466665 h -0.28 v 0.453332 c 0,1.29333 0.533332,2.319994 1.946662,2.319994 1.426663,0 1.959995,-1.026664 1.959995,-2.319994 0,-2.533327 -3.573324,-2.46666 -3.573324,-4.853321 0,-1.106664 0.413332,-2.026661 1.639996,-2.026661 1.21333,0 1.626662,0.933331 1.626662,2.039994 v 0.186667 h 0.293333 v -0.173333 c 0,-1.279997 -0.519999,-2.319994 -1.933329,-2.319994 z"
       id="path3765" />
    <path
       d="m 64.938735,-11.298683 h 0.293332 v -3.773324 l 2.213328,-5.559986 h -0.306666 l -2.039995,5.159987 -2.039995,-5.159987 h -0.293332 l 2.173328,5.559986 z"
       id="path3767" />
    <path
       d="m 70.285348,-20.698659 c -1.346663,0.01333 -1.919995,0.946664 -1.919995,2.30666 0,2.573327 3.573324,2.493327 3.573324,4.853321 0,1.133331 -0.439999,2.026662 -1.666662,2.026662 -1.226664,0 -1.666663,-0.893331 -1.666663,-2.026662 v -0.466665 h -0.279999 v 0.453332 c 0,1.29333 0.533332,2.319994 1.946662,2.319994 1.426663,0 1.959995,-1.026664 1.959995,-2.319994 0,-2.533327 -3.573325,-2.46666 -3.573325,-4.853321 0,-1.106664 0.413333,-2.026661 1.639996,-2.026661 1.21333,0 1.626663,0.933331 1.626663,2.039994 v 0.186667 h 0.293332 v -0.173333 c 0,-1.279997 -0.519998,-2.319994 -1.933328,-2.319994 z"
       id="path3769" />
    <path
       d="m 75.311997,-11.298683 v -9.053311 h 2.039995 v -0.279999 h -4.359989 v 0.279999 h 2.026662 v 9.053311 z"
       id="path3771" />
    <path
       d="m 78.458638,-16.165338 v -4.186656 h 3.266658 v -0.279999 h -3.559991 v 9.33331 h 3.559991 v -0.279999 h -3.266658 v -4.31999 h 2.74666 v -0.266666 z"
       id="path3773" />
    <path
       d="m 87.965268,-20.191994 v 8.893311 H 88.2586 v -9.33331 h -0.453332 l -2.293327,8.853311 -2.293328,-8.853311 h -0.453332 v 9.33331 h 0.266666 v -8.893311 l 2.306661,8.866644 h 0.333332 z"
       id="path3775" />
  </g>
</svg>
