<?xml version="1.0" encoding="UTF-8" standalone="no"?>
<!-- Created with Inkscape (http://www.inkscape.org/) -->

<svg
   version="1.1"
   id="svg2"
   width="36.333115"
   height="9.4666424"
   viewBox="0 0 36.333115 9.4666423"
   sodipodi:docname="pcengine.svg"
   inkscape:version="1.1 (c68e22c387, 2021-05-23)"
   inkscape:export-filename="C:\Users\BUCH\Desktop\Retrogaming\Recalbox\travail thèmes\Thème vignette !!!!!!!\Maquette 2 !!!!\image1250.png"
   inkscape:export-xdpi="96.460785"
   inkscape:export-ydpi="96.460785"
   xmlns:inkscape="http://www.inkscape.org/namespaces/inkscape"
   xmlns:sodipodi="http://sodipodi.sourceforge.net/DTD/sodipodi-0.dtd"
   xmlns="http://www.w3.org/2000/svg"
   xmlns:svg="http://www.w3.org/2000/svg">
  <defs
     id="defs6">
    <clipPath
       clipPathUnits="userSpaceOnUse"
       id="clipPath3185">
      <path
         id="path3187"
         style="fill:#ffffff;fill-rule:evenodd;stroke:#ffffff;stroke-width:5.15903;stroke-linecap:round;stroke-linejoin:round;paint-order:stroke fill markers"
         d="m 1157.5591,335.78677 h 462.4206 L 1362.3723,1410.6277 H 899.95176 Z"
         sodipodi:nodetypes="ccccc"
         inkscape:export-filename="C:\Users\BUCH\Desktop\Retrogaming\Recalbox\travail thèmes\Thème vignette !!!!!!!\Maquette 2 !!!!\rect849.png"
         inkscape:export-xdpi="247.96268"
         inkscape:export-ydpi="247.96268" />
    </clipPath>
  </defs>
  <sodipodi:namedview
     id="namedview4"
     pagecolor="#ffffff"
     bordercolor="#666666"
     borderopacity="1.0"
     inkscape:pageshadow="2"
     inkscape:pageopacity="0.0"
     inkscape:pagecheckerboard="true"
     showgrid="false"
     inkscape:showpageshadow="false"
     inkscape:zoom="12.479331"
     inkscape:cx="30.570549"
     inkscape:cy="22.677498"
     inkscape:window-width="1920"
     inkscape:window-height="1138"
     inkscape:window-x="-8"
     inkscape:window-y="-8"
     inkscape:window-maximized="1"
     inkscape:current-layer="svg2"
     fit-margin-top="0"
     fit-margin-left="0"
     fit-margin-right="0"
     fit-margin-bottom="0" />
  <g
     aria-label="pc engine"
     id="text11518"
     style="font-weight:300;font-size:13.3333px;line-height:1.25;font-family:'Bebas Neue';-inkscape-font-specification:'Bebas Neue, Light';fill:#ffffff"
     transform="translate(5.3163408,16.611901)">
    <path
       d="m -5.3163408,-16.545235 v 9.33331 h 0.2933326 v -3.95999 h 1.3333299 c 1.4799963,0 2.1466613,-0.706665 2.1466613,-2.186661 v -0.933331 c 0,-1.306664 -0.4933321,-2.253328 -1.9333285,-2.253328 z m 0.2933326,5.093321 v -4.813321 h 1.5466627 c 1.2533302,0 1.6399959,0.813331 1.6399959,1.959995 v 0.959997 c 0,1.319997 -0.5466653,1.893329 -1.8533287,1.893329 z"
       id="path11703" />
    <path
       d="m 1.4036321,-16.611901 c -1.41332976,0 -1.94666175,1.066664 -1.94666175,2.359994 v 4.7466544 c 0,1.2933301 0.53333199,2.3599941 1.94666175,2.3599941 1.4266631,0 1.959995,-1.066664 1.959995,-2.3599941 V -10.518583 H 3.0702946 v 1.0266637 c 0,1.1333305 -0.4266656,2.0666615 -1.6533292,2.0666615 -1.23999687,0 -1.66666246,-0.933331 -1.66666246,-2.0666615 v -4.7733217 c 0,-1.13333 0.42666559,-2.079994 1.66666246,-2.079994 1.2266636,0 1.6533292,0.946664 1.6533292,2.079994 v 0.733332 h 0.2933325 v -0.719998 c 0,-1.29333 -0.5333319,-2.359994 -1.959995,-2.359994 z"
       id="path11705" />
    <path
       d="m 6.7635881,-12.078579 v -4.186656 h 3.2666579 v -0.28 H 6.4702555 v 9.33331 H 10.030246 V -7.4919243 H 6.7635881 v -4.3199887 h 2.7466597 v -0.266666 z"
       id="path11707" />
    <path
       d="m 11.350234,-16.118569 3.333325,8.906644 h 0.359999 v -9.33331 h -0.279999 v 8.7333115 l -3.279992,-8.7333115 h -0.413332 v 9.33331 h 0.279999 z"
       id="path11709" />
    <path
       d="m 18.043528,-16.611901 c -1.41333,0 -1.946662,1.066664 -1.946662,2.359994 v 4.7466544 c 0,1.2933301 0.533332,2.3599941 1.946662,2.3599941 1.426663,0 1.959995,-1.066664 1.959995,-2.3599941 V -11.87858 h -1.746662 v 0.266666 h 1.453329 v 2.1199947 c 0,1.1333305 -0.426665,2.0666615 -1.653329,2.0666615 -1.239997,0 -1.666662,-0.933331 -1.666662,-2.0666615 v -4.7733217 c 0,-1.13333 0.426665,-2.079994 1.666662,-2.079994 1.226664,0 1.653329,0.946664 1.653329,2.079994 v 0.626666 h 0.293333 v -0.613332 c 0,-1.29333 -0.533332,-2.359994 -1.959995,-2.359994 z"
       id="path11711" />
    <path
       d="m 21.056832,-16.545235 v 9.33331 h 0.293333 v -9.33331 z"
       id="path11713" />
    <path
       d="m 22.696819,-16.118569 3.333324,8.906644 h 0.36 v -9.33331 h -0.28 v 8.7333115 l -3.279992,-8.7333115 h -0.413332 v 9.33331 h 0.28 z"
       id="path11715" />
    <path
       d="m 27.750116,-12.078579 v -4.186656 h 3.266659 v -0.28 h -3.559991 v 9.33331 h 3.559991 v -0.2799993 h -3.266659 v -4.3199887 h 2.74666 v -0.266666 z"
       id="path11717" />
  </g>
</svg>
