<?xml version="1.0" encoding="UTF-8" standalone="no"?>
<!-- Created with Inkscape (http://www.inkscape.org/) -->

<svg
   version="1.1"
   id="svg2"
   width="61.306332"
   height="9.4666433"
   viewBox="0 0 61.306332 9.4666433"
   sodipodi:docname="snes.svg"
   inkscape:version="1.1 (c68e22c387, 2021-05-23)"
   inkscape:export-filename="C:\Users\BUCH\Desktop\Retrogaming\Recalbox\travail thèmes\Thème vignette !!!!!!!\Maquette 2 !!!!\image1250.png"
   inkscape:export-xdpi="96.460785"
   inkscape:export-ydpi="96.460785"
   xmlns:inkscape="http://www.inkscape.org/namespaces/inkscape"
   xmlns:sodipodi="http://sodipodi.sourceforge.net/DTD/sodipodi-0.dtd"
   xmlns="http://www.w3.org/2000/svg"
   xmlns:svg="http://www.w3.org/2000/svg">
  <defs
     id="defs6">
    <clipPath
       clipPathUnits="userSpaceOnUse"
       id="clipPath3185">
      <path
         id="path3187"
         style="fill:#ffffff;fill-rule:evenodd;stroke:#ffffff;stroke-width:5.15903;stroke-linecap:round;stroke-linejoin:round;paint-order:stroke fill markers"
         d="m 1157.5591,335.78677 h 462.4206 L 1362.3723,1410.6277 H 899.95176 Z"
         sodipodi:nodetypes="ccccc"
         inkscape:export-filename="C:\Users\BUCH\Desktop\Retrogaming\Recalbox\travail thèmes\Thème vignette !!!!!!!\Maquette 2 !!!!\rect849.png"
         inkscape:export-xdpi="247.96268"
         inkscape:export-ydpi="247.96268" />
    </clipPath>
  </defs>
  <sodipodi:namedview
     id="namedview4"
     pagecolor="#ffffff"
     bordercolor="#666666"
     borderopacity="1.0"
     inkscape:pageshadow="2"
     inkscape:pageopacity="0.0"
     inkscape:pagecheckerboard="true"
     showgrid="false"
     inkscape:showpageshadow="false"
     inkscape:zoom="12.479331"
     inkscape:cx="31.211609"
     inkscape:cy="4.5675525"
     inkscape:window-width="1920"
     inkscape:window-height="1138"
     inkscape:window-x="-8"
     inkscape:window-y="-8"
     inkscape:window-maximized="1"
     inkscape:current-layer="svg2"
     fit-margin-top="0"
     fit-margin-left="0"
     fit-margin-right="0"
     fit-margin-bottom="0" />
  <g
     aria-label="super nintendo"
     id="text4351"
     style="font-weight:300;font-size:13.3333px;line-height:1.25;font-family:'Bebas Neue';-inkscape-font-specification:'Bebas Neue, Light';fill:#ffffff"
     transform="translate(15.599967,-14.800038)">
    <path
       d="m -13.639972,14.800038 c -1.346663,0.01333 -1.919995,0.946664 -1.919995,2.306661 0,2.573327 3.573324,2.493327 3.573324,4.853321 0,1.13333 -0.439999,2.026661 -1.666662,2.026661 -1.226664,0 -1.666663,-0.893331 -1.666663,-2.026661 v -0.466666 h -0.279999 v 0.453332 c 0,1.293331 0.533332,2.319995 1.946662,2.319995 1.426663,0 1.959995,-1.026664 1.959995,-2.319995 0,-2.533326 -3.573324,-2.46666 -3.573324,-4.853321 0,-1.106663 0.413332,-2.026661 1.639995,-2.026661 1.213331,0 1.626663,0.933331 1.626663,2.039995 v 0.186666 h 0.293333 v -0.173333 c 0,-1.279997 -0.519999,-2.319994 -1.933329,-2.319994 z"
       id="path4998" />
    <path
       d="m -10.37332,14.866704 h -0.293333 v 7.026649 c 0,1.279997 0.506665,2.373328 1.9333284,2.373328 1.4133298,0 1.9199952,-1.093331 1.9199952,-2.373328 v -7.026649 h -0.2799993 v 7.039983 c 0,1.119997 -0.399999,2.093328 -1.6399959,2.093328 -1.2399968,0 -1.6399954,-0.973331 -1.6399954,-2.093328 z"
       id="path5000" />
    <path
       d="m -5.7600163,14.866704 v 9.33331 h 0.2933326 v -3.95999 h 1.3333299 c 1.4799963,0 2.1466613,-0.706665 2.1466613,-2.186661 v -0.933331 c 0,-1.306663 -0.4933321,-2.253328 -1.9333285,-2.253328 z m 0.2933326,5.093321 v -4.813321 h 1.5466627 c 1.2533302,0 1.6399959,0.813331 1.6399959,1.959995 v 0.959997 c 0,1.319997 -0.5466653,1.893329 -1.8533287,1.893329 z"
       id="path5002" />
    <path
       d="M -0.68003975,19.33336 V 15.146704 H 2.5866187 v -0.28 h -3.55999104 v 9.33331 H 2.5866187 V 23.920015 H -0.68003975 V 19.600026 H 2.06662 V 19.33336 Z"
       id="path5004" />
    <path
       d="m 3.6266071,14.866704 v 9.33331 h 0.2933325 v -4.306656 h 1.1466638 c 1.2133303,0 2.0399949,0.359999 2.0399949,1.733329 v 1.466663 c 0,0.399999 0.04,0.813332 0.2266661,1.106664 H 7.6532635 C 7.4399308,23.906682 7.3999309,23.453349 7.3999309,23.09335 v -1.466663 c 0,-1.026664 -0.4399989,-1.706662 -1.4799963,-1.866662 1.0266641,-0.186666 1.4799963,-0.813331 1.4799963,-1.959995 v -0.839998 c 0,-1.279996 -0.533332,-2.093328 -1.9199952,-2.093328 z m 0.2933325,4.746655 v -4.466655 h 1.5466628 c 1.199997,0 1.6399959,0.706665 1.6399959,1.839995 v 0.853331 c 0,1.439997 -0.7466648,1.773329 -2.0399949,1.773329 z"
       id="path5006" />
    <path
       d="m 11.039894,15.29337 3.333325,8.906644 h 0.359999 v -9.33331 h -0.28 v 8.733312 l -3.279991,-8.733312 h -0.413333 v 9.33331 h 0.28 z"
       id="path5008" />
    <path
       d="m 15.799861,14.866704 v 9.33331 h 0.293333 v -9.33331 z"
       id="path5010" />
    <path
       d="m 17.439846,15.29337 3.333325,8.906644 h 0.359999 v -9.33331 h -0.28 v 8.733312 l -3.279991,-8.733312 h -0.413333 v 9.33331 h 0.28 z"
       id="path5012" />
    <path
       d="m 24.239808,24.200014 v -9.05331 h 2.039995 v -0.28 h -4.359989 v 0.28 h 2.026661 v 9.05331 z"
       id="path5014" />
    <path
       d="m 27.386449,19.33336 v -4.186656 h 3.266658 v -0.28 h -3.559991 v 9.33331 h 3.559991 v -0.279999 h -3.266658 v -4.319989 h 2.746659 V 19.33336 Z"
       id="path5016" />
    <path
       d="m 31.973095,15.29337 3.333325,8.906644 h 0.359999 v -9.33331 h -0.28 v 8.733312 l -3.279991,-8.733312 h -0.413333 v 9.33331 h 0.28 z"
       id="path5018" />
    <path
       d="m 36.733062,14.866704 v 9.33331 h 1.959995 c 1.41333,0 2.013328,-0.999997 2.013328,-2.319994 v -4.679988 c 0,-1.33333 -0.599998,-2.333328 -2.026661,-2.333328 z m 0.293332,9.053311 v -8.773311 h 1.65333 c 1.239997,0 1.733329,0.866664 1.733329,2.039995 v 4.706654 c 0,1.159997 -0.479999,2.026662 -1.733329,2.026662 z"
       id="path5020" />
    <path
       d="m 41.733042,21.906687 c 0,1.306663 0.559998,2.359994 1.973328,2.359994 1.439997,0 1.999995,-1.053331 1.999995,-2.359994 v -4.746655 c 0,-1.306663 -0.559998,-2.359994 -1.999995,-2.359994 -1.41333,0 -1.973328,1.053331 -1.973328,2.359994 z m 0.293332,-4.759988 c 0,-1.146664 0.439999,-2.079995 1.679996,-2.079995 1.25333,0 1.706663,0.933331 1.706663,2.079995 v 4.773321 c 0,1.146664 -0.453333,2.079995 -1.706663,2.079995 -1.239997,0 -1.679996,-0.933331 -1.679996,-2.079995 z"
       id="path5022" />
  </g>
</svg>
