<?xml version="1.0" encoding="UTF-8" standalone="no"?>
<!-- Created with Inkscape (http://www.inkscape.org/) -->

<svg
   version="1.1"
   id="svg2"
   width="13.933269"
   height="9.4666433"
   viewBox="0 0 13.933269 9.4666434"
   sodipodi:docname="3do.svg"
   inkscape:version="1.1 (c68e22c387, 2021-05-23)"
   inkscape:export-filename="C:\Users\BUCH\Desktop\Retrogaming\Recalbox\travail thèmes\Thème vignette !!!!!!!\Maquette 2 !!!!\image1250.png"
   inkscape:export-xdpi="96.460785"
   inkscape:export-ydpi="96.460785"
   xmlns:inkscape="http://www.inkscape.org/namespaces/inkscape"
   xmlns:sodipodi="http://sodipodi.sourceforge.net/DTD/sodipodi-0.dtd"
   xmlns="http://www.w3.org/2000/svg"
   xmlns:svg="http://www.w3.org/2000/svg">
  <g
     aria-label="3do"
     id="text11878"
     style="font-weight:300;font-size:13.3333px;line-height:1.25;font-family:'Bebas Neue';-inkscape-font-specification:'Bebas Neue, Light'"
     transform="translate(2.1243738,22.541707)">
    <path
       d="m -0.16437873,-22.541707 c -1.42666307,0 -1.95999507,1.053331 -1.95999507,2.359994 v 0.266666 h 0.2933326 v -0.279999 c 0,-1.146664 0.4133323,-2.079995 1.65332917,-2.079995 1.23999683,0 1.66666243,0.933331 1.66666243,2.093328 v 0.266666 c 0,0.946665 -0.58666516,1.69333 -1.53332943,1.773329 h -0.69333159 v 0.266666 h 0.67999829 c 0.99999747,0.05333 1.54666273,0.706665 1.54666273,1.719996 v 0.706665 c 0,1.159997 -0.4266656,2.106661 -1.66666243,2.106661 -1.23999687,0 -1.65332917,-0.946664 -1.65332917,-2.093328 v -0.439999 h -0.2933326 v 0.439999 c 0,1.306664 0.533332,2.359994 1.95999507,2.359994 1.42666303,0 1.94666173,-1.05333 1.94666173,-2.359994 v -0.719998 c 0,-0.906664 -0.4399989,-1.639996 -1.33332995,-1.866662 0.83999785,-0.266666 1.33332995,-1.039997 1.33332995,-1.933328 v -0.226667 c 0,-1.306663 -0.5199987,-2.359994 -1.94666173,-2.359994 z"
       style="fill:#ffffff"
       id="path18025" />
    <path
       d="m 2.8355919,-22.47504 v 9.33331 H 4.795587 c 1.4133297,0 2.0133282,-0.999998 2.0133282,-2.319994 v -4.679989 c 0,-1.33333 -0.5999985,-2.333327 -2.0266615,-2.333327 z m 0.2933326,9.05331 v -8.773311 h 1.6533292 c 1.2399968,0 1.7333289,0.866665 1.7333289,2.039995 v 4.706655 c 0,1.159997 -0.4799988,2.026661 -1.7333289,2.026661 z"
       style="fill:#ffffff"
       id="path18027" />
    <path
       d="m 7.8355719,-15.435058 c 0,1.306664 0.5599986,2.359994 1.9733283,2.359994 1.4399968,0 1.9999948,-1.05333 1.9999948,-2.359994 v -4.746655 c 0,-1.306663 -0.559998,-2.359994 -1.9999948,-2.359994 -1.4133297,0 -1.9733283,1.053331 -1.9733283,2.359994 z m 0.2933326,-4.759988 c 0,-1.146664 0.4399989,-2.079995 1.6799957,-2.079995 1.2533298,0 1.7066628,0.933331 1.7066628,2.079995 v 4.773321 c 0,1.146664 -0.453333,2.079995 -1.7066628,2.079995 -1.2399968,0 -1.6799957,-0.933331 -1.6799957,-2.079995 z"
       style="fill:#ffffff"
       id="path18029" />
  </g>
  <defs
     id="defs6">
    <clipPath
       clipPathUnits="userSpaceOnUse"
       id="clipPath3185">
      <path
         id="path3187"
         style="fill:#ffffff;fill-rule:evenodd;stroke:#ffffff;stroke-width:5.15903;stroke-linecap:round;stroke-linejoin:round;paint-order:stroke fill markers"
         d="m 1157.5591,335.78677 h 462.4206 L 1362.3723,1410.6277 H 899.95176 Z"
         sodipodi:nodetypes="ccccc"
         inkscape:export-filename="C:\Users\BUCH\Desktop\Retrogaming\Recalbox\travail thèmes\Thème vignette !!!!!!!\Maquette 2 !!!!\rect849.png"
         inkscape:export-xdpi="247.96268"
         inkscape:export-ydpi="247.96268" />
    </clipPath>
  </defs>
  <sodipodi:namedview
     id="namedview4"
     pagecolor="#ffffff"
     bordercolor="#666666"
     borderopacity="1.0"
     inkscape:pageshadow="2"
     inkscape:pageopacity="0.0"
     inkscape:pagecheckerboard="true"
     showgrid="false"
     inkscape:showpageshadow="false"
     inkscape:zoom="12.479331"
     inkscape:cx="10.537424"
     inkscape:cy="26.764255"
     inkscape:window-width="1920"
     inkscape:window-height="1138"
     inkscape:window-x="-8"
     inkscape:window-y="-8"
     inkscape:window-maximized="1"
     inkscape:current-layer="svg2"
     fit-margin-top="0"
     fit-margin-left="0"
     fit-margin-right="0"
     fit-margin-bottom="0" />
  <text
     xml:space="preserve"
     style="font-size:13.3333px;line-height:1.25;font-family:'Bebas Neue';-inkscape-font-specification:'Bebas Neue, Normal'"
     x="-1.6418537"
     y="14.848987"
     id="text5602"><tspan
       sodipodi:role="line"
       id="tspan5600"
       x="-1.6418537"
       y="14.848987" /></text>
</svg>
