<?xml version="1.0" encoding="UTF-8" standalone="no"?>
<!-- Created with Inkscape (http://www.inkscape.org/) -->

<svg
   version="1.1"
   id="svg2"
   width="43.959732"
   height="9.4666433"
   viewBox="0 0 43.959734 9.4666433"
   sodipodi:docname="amiga1200.svg"
   inkscape:version="1.1 (c68e22c387, 2021-05-23)"
   inkscape:export-filename="C:\Users\BUCH\Desktop\Retrogaming\Recalbox\travail thèmes\Thème vignette !!!!!!!\Maquette 2 !!!!\image1250.png"
   inkscape:export-xdpi="96.460785"
   inkscape:export-ydpi="96.460785"
   xmlns:inkscape="http://www.inkscape.org/namespaces/inkscape"
   xmlns:sodipodi="http://sodipodi.sourceforge.net/DTD/sodipodi-0.dtd"
   xmlns="http://www.w3.org/2000/svg"
   xmlns:svg="http://www.w3.org/2000/svg">
  <defs
     id="defs6">
    <clipPath
       clipPathUnits="userSpaceOnUse"
       id="clipPath3185">
      <path
         id="path3187"
         style="fill:#ffffff;fill-rule:evenodd;stroke:#ffffff;stroke-width:5.15903;stroke-linecap:round;stroke-linejoin:round;paint-order:stroke fill markers"
         d="m 1157.5591,335.78677 h 462.4206 L 1362.3723,1410.6277 H 899.95176 Z"
         sodipodi:nodetypes="ccccc"
         inkscape:export-filename="C:\Users\BUCH\Desktop\Retrogaming\Recalbox\travail thèmes\Thème vignette !!!!!!!\Maquette 2 !!!!\rect849.png"
         inkscape:export-xdpi="247.96268"
         inkscape:export-ydpi="247.96268" />
    </clipPath>
  </defs>
  <sodipodi:namedview
     id="namedview4"
     pagecolor="#ffffff"
     bordercolor="#666666"
     borderopacity="1.0"
     inkscape:pageshadow="2"
     inkscape:pageopacity="0.0"
     inkscape:pagecheckerboard="true"
     showgrid="false"
     inkscape:showpageshadow="false"
     inkscape:zoom="12.479331"
     inkscape:cx="22.797696"
     inkscape:cy="8.0132501"
     inkscape:window-width="1920"
     inkscape:window-height="1138"
     inkscape:window-x="-8"
     inkscape:window-y="-8"
     inkscape:window-maximized="1"
     inkscape:current-layer="svg2"
     fit-margin-top="0"
     fit-margin-left="0"
     fit-margin-right="0"
     fit-margin-bottom="0" />
  <g
     aria-label="amiga 1200"
     id="text7058"
     style="font-weight:300;font-size:13.3333px;line-height:1.25;font-family:'Bebas Neue';-inkscape-font-specification:'Bebas Neue, Light'"
     transform="translate(8.7219055,-14.960303)">
    <path
       d="m -4.5885826,22.160285 0.5466652,2.199994 h 0.2933326 l -2.3066608,-9.346643 h -0.4133323 l -2.2533276,9.346643 h 0.266666 l 0.5466652,-2.199994 z m -1.6799958,-6.799983 1.6266626,6.533317 h -3.2133253 z"
       style="fill:#ffffff"
       id="path10587" />
    <path
       d="m 2.4780474,15.466968 v 8.893311 H 2.77138 v -9.33331 H 2.3180478 L 0.02472028,23.88028 -2.2686073,15.026969 h -0.4533321 v 9.33331 h 0.2666659 v -8.893311 l 2.30666088,8.866644 h 0.33333249 z"
       style="fill:#ffffff"
       id="path10589" />
    <path
       d="m 3.8380262,15.026969 v 9.33331 h 0.2933326 v -9.33331 z"
       style="fill:#ffffff"
       id="path10591" />
    <path
       d="m 7.1313419,14.960303 c -1.4133298,0 -1.9466618,1.066664 -1.9466618,2.359994 v 4.746655 c 0,1.29333 0.533332,2.359994 1.9466618,2.359994 1.426663,0 1.959995,-1.066664 1.959995,-2.359994 V 19.693624 H 7.3446747 v 0.266666 h 1.4533296 v 2.119995 c 0,1.13333 -0.4266656,2.066661 -1.6533291,2.066661 -1.2399969,0 -1.6666625,-0.933331 -1.6666625,-2.066661 v -4.773321 c 0,-1.133331 0.4266656,-2.079995 1.6666625,-2.079995 1.2266635,0 1.6533291,0.946664 1.6533291,2.079995 v 0.626665 h 0.2933326 v -0.613332 c 0,-1.29333 -0.533332,-2.359994 -1.959995,-2.359994 z"
       style="fill:#ffffff"
       id="path10593" />
    <path
       d="m 14.224617,22.160285 0.546666,2.199994 h 0.293332 l -2.306661,-9.346643 h -0.413332 l -2.253328,9.346643 h 0.266666 l 0.546666,-2.199994 z m -1.679995,-6.799983 1.626662,6.533317 h -3.213325 z"
       style="fill:#ffffff"
       id="path10595" />
    <path
       d="m 19.824568,24.360279 h 0.293333 v -9.346643 h -0.28 c -0.253332,0.719998 -0.746664,1.266664 -1.573329,1.346663 v 0.266666 c 0.719998,-0.08 1.25333,-0.426665 1.559996,-1.039997 z"
       style="fill:#ffffff"
       id="path10597" />
    <path
       d="m 23.277879,14.960303 c -1.439997,0 -1.946662,1.119997 -1.946662,2.413327 v 0.493332 h 0.279999 v -0.506665 c 0,-1.119997 0.399999,-2.133328 1.653329,-2.133328 1.29333,0 1.666663,0.959997 1.666663,2.133328 0,2.50666 -3.599991,3.306658 -3.599991,6.799983 v 0.199999 h 3.83999 V 24.08028 H 21.62455 v -0.05333 c 0.05333,-3.213326 3.59999,-4.07999 3.59999,-6.679984 0,-1.319996 -0.479998,-2.38666 -1.946661,-2.38666 z"
       style="fill:#ffffff"
       id="path10599" />
    <path
       d="m 26.251191,22.066952 c 0,1.306663 0.559999,2.359994 1.986662,2.359994 1.426663,0 1.986662,-1.053331 1.986662,-2.359994 v -4.746655 c 0,-1.319997 -0.559999,-2.359994 -1.986662,-2.359994 -1.426663,0 -1.986662,1.039997 -1.986662,2.359994 z m 0.293333,-4.759988 c 0,-1.146664 0.453332,-2.079995 1.693329,-2.079995 1.239997,0 1.693329,0.933331 1.693329,2.079995 v 4.759988 c 0,1.159997 -0.453332,2.093328 -1.693329,2.093328 -1.239997,0 -1.693329,-0.933331 -1.693329,-2.093328 z"
       style="fill:#ffffff"
       id="path10601" />
    <path
       d="m 31.264505,22.066952 c 0,1.306663 0.559998,2.359994 1.986661,2.359994 1.426663,0 1.986662,-1.053331 1.986662,-2.359994 v -4.746655 c 0,-1.319997 -0.559999,-2.359994 -1.986662,-2.359994 -1.426663,0 -1.986661,1.039997 -1.986661,2.359994 z m 0.293332,-4.759988 c 0,-1.146664 0.453332,-2.079995 1.693329,-2.079995 1.239997,0 1.693329,0.933331 1.693329,2.079995 v 4.759988 c 0,1.159997 -0.453332,2.093328 -1.693329,2.093328 -1.239997,0 -1.693329,-0.933331 -1.693329,-2.093328 z"
       style="fill:#ffffff"
       id="path10603" />
  </g>
</svg>
