<?xml version="1.0" encoding="UTF-8" standalone="no"?>
<!-- Created with Inkscape (http://www.inkscape.org/) -->

<svg
   version="1.1"
   id="svg2"
   width="40.439774"
   height="9.4666433"
   viewBox="0 0 40.439775 9.4666433"
   sodipodi:docname="apple2gs.svg"
   inkscape:version="1.1 (c68e22c387, 2021-05-23)"
   inkscape:export-filename="C:\Users\BUCH\Desktop\Retrogaming\Recalbox\travail thèmes\Thème vignette !!!!!!!\Maquette 2 !!!!\image1250.png"
   inkscape:export-xdpi="96.460785"
   inkscape:export-ydpi="96.460785"
   xmlns:inkscape="http://www.inkscape.org/namespaces/inkscape"
   xmlns:sodipodi="http://sodipodi.sourceforge.net/DTD/sodipodi-0.dtd"
   xmlns="http://www.w3.org/2000/svg"
   xmlns:svg="http://www.w3.org/2000/svg">
  <defs
     id="defs6">
    <clipPath
       clipPathUnits="userSpaceOnUse"
       id="clipPath3185">
      <path
         id="path3187"
         style="fill:#ffffff;fill-rule:evenodd;stroke:#ffffff;stroke-width:5.15903;stroke-linecap:round;stroke-linejoin:round;paint-order:stroke fill markers"
         d="m 1157.5591,335.78677 h 462.4206 L 1362.3723,1410.6277 H 899.95176 Z"
         sodipodi:nodetypes="ccccc"
         inkscape:export-filename="C:\Users\BUCH\Desktop\Retrogaming\Recalbox\travail thèmes\Thème vignette !!!!!!!\Maquette 2 !!!!\rect849.png"
         inkscape:export-xdpi="247.96268"
         inkscape:export-ydpi="247.96268" />
    </clipPath>
  </defs>
  <sodipodi:namedview
     id="namedview4"
     pagecolor="#ffffff"
     bordercolor="#666666"
     borderopacity="1.0"
     inkscape:pageshadow="2"
     inkscape:pageopacity="0.0"
     inkscape:pagecheckerboard="true"
     showgrid="false"
     inkscape:showpageshadow="false"
     inkscape:zoom="12.479331"
     inkscape:cx="17.749349"
     inkscape:cy="5.5291425"
     inkscape:window-width="1920"
     inkscape:window-height="1138"
     inkscape:window-x="-8"
     inkscape:window-y="-8"
     inkscape:window-maximized="1"
     inkscape:current-layer="svg2"
     fit-margin-top="0"
     fit-margin-left="0"
     fit-margin-right="0"
     fit-margin-bottom="0" />
  <g
     aria-label="apple 2gs"
     id="text23342"
     style="font-weight:300;font-size:13.3333px;line-height:1.25;font-family:'Bebas Neue';-inkscape-font-specification:'Bebas Neue, Light'"
     transform="translate(-5.2211496,-16.562954)">
    <path
       d="m 9.3544725,23.762936 0.5466653,2.199995 H 10.19447 L 7.8878095,16.616288 H 7.4744773 l -2.2533277,9.346643 h 0.266666 L 6.0344809,23.762936 Z M 7.6744768,16.962953 9.3011393,23.49627 H 6.0878141 Z"
       style="fill:#ffffff"
       id="path26983" />
    <path
       d="m 11.221116,16.629621 v 9.33331 h 0.293332 v -3.95999 h 1.33333 c 1.479997,0 2.146662,-0.706665 2.146662,-2.186661 v -0.933331 c 0,-1.306664 -0.493333,-2.253328 -1.933329,-2.253328 z m 0.293332,5.09332 V 16.90962 h 1.546663 c 1.25333,0 1.639996,0.813332 1.639996,1.959995 v 0.959998 c 0,1.319997 -0.546665,1.893328 -1.853329,1.893328 z"
       style="fill:#ffffff"
       id="path26985" />
    <path
       d="m 16.00776,16.629621 v 9.33331 h 0.293333 v -3.95999 h 1.33333 c 1.479996,0 2.146661,-0.706665 2.146661,-2.186661 v -0.933331 c 0,-1.306664 -0.493332,-2.253328 -1.933328,-2.253328 z m 0.293333,5.09332 V 16.90962 h 1.546663 c 1.25333,0 1.639995,0.813332 1.639995,1.959995 v 0.959998 c 0,1.319997 -0.546665,1.893328 -1.853328,1.893328 z"
       style="fill:#ffffff"
       id="path26987" />
    <path
       d="m 24.221062,25.962931 v -0.28 h -3.133325 v -9.05331 h -0.293333 v 9.33331 z"
       style="fill:#ffffff"
       id="path26989" />
    <path
       d="M 25.527703,21.096276 V 16.90962 h 3.266658 V 16.629621 H 25.23437 v 9.33331 h 3.559991 v -0.28 h -3.266658 v -4.319989 h 2.74666 v -0.266666 z"
       style="fill:#ffffff"
       id="path26991" />
    <path
       d="m 33.847656,16.562954 c -1.439996,0 -1.946662,1.119998 -1.946662,2.413328 v 0.493332 h 0.28 v -0.506666 c 0,-1.119997 0.399999,-2.133328 1.653329,-2.133328 1.29333,0 1.666662,0.959998 1.666662,2.133328 0,2.506661 -3.599991,3.306659 -3.599991,6.799983 v 0.2 h 3.839991 v -0.28 h -3.546658 v -0.05333 c 0.05333,-3.213325 3.599991,-4.07999 3.599991,-6.679983 0,-1.319997 -0.479999,-2.386661 -1.946662,-2.386661 z"
       style="fill:#ffffff"
       id="path26993" />
    <path
       d="m 38.767631,16.562954 c -1.41333,0 -1.946662,1.066664 -1.946662,2.359994 v 4.746655 c 0,1.29333 0.533332,2.359994 1.946662,2.359994 1.426663,0 1.959995,-1.066664 1.959995,-2.359994 v -2.373327 h -1.746663 v 0.266666 h 1.45333 v 2.119994 c 0,1.133331 -0.426666,2.066662 -1.653329,2.066662 -1.239997,0 -1.666663,-0.933331 -1.666663,-2.066662 v -4.773321 c 0,-1.13333 0.426666,-2.079995 1.666663,-2.079995 1.226663,0 1.653329,0.946665 1.653329,2.079995 v 0.626665 h 0.293333 v -0.613332 c 0,-1.29333 -0.533332,-2.359994 -1.959995,-2.359994 z"
       style="fill:#ffffff"
       id="path26995" />
    <path
       d="m 43.714261,16.562954 c -1.346663,0.01333 -1.919995,0.946665 -1.919995,2.306661 0,2.573327 3.573324,2.493327 3.573324,4.853321 0,1.133331 -0.439999,2.026662 -1.666662,2.026662 -1.226664,0 -1.666663,-0.893331 -1.666663,-2.026662 v -0.466665 h -0.279999 v 0.453332 c 0,1.29333 0.533332,2.319994 1.946662,2.319994 1.426663,0 1.959995,-1.026664 1.959995,-2.319994 0,-2.533327 -3.573325,-2.46666 -3.573325,-4.853321 0,-1.106664 0.413333,-2.026662 1.639996,-2.026662 1.213331,0 1.626663,0.933331 1.626663,2.039995 v 0.186666 h 0.293332 v -0.173332 c 0,-1.279997 -0.519998,-2.319995 -1.933328,-2.319995 z"
       style="fill:#ffffff"
       id="path26997" />
  </g>
</svg>
