<?xml version="1.0" encoding="UTF-8" standalone="no"?>
<!-- Created with Inkscape (http://www.inkscape.org/) -->

<svg
   version="1.1"
   id="svg2"
   width="30.533186"
   height="9.4666433"
   viewBox="0 0 30.533187 9.4666433"
   sodipodi:docname="arcade.svg"
   inkscape:version="1.1 (c68e22c387, 2021-05-23)"
   inkscape:export-filename="C:\Users\BUCH\Desktop\Retrogaming\Recalbox\travail thèmes\Thème vignette !!!!!!!\Maquette 2 !!!!\image1250.png"
   inkscape:export-xdpi="96.460785"
   inkscape:export-ydpi="96.460785"
   xmlns:inkscape="http://www.inkscape.org/namespaces/inkscape"
   xmlns:sodipodi="http://sodipodi.sourceforge.net/DTD/sodipodi-0.dtd"
   xmlns="http://www.w3.org/2000/svg"
   xmlns:svg="http://www.w3.org/2000/svg">
  <defs
     id="defs6">
    <clipPath
       clipPathUnits="userSpaceOnUse"
       id="clipPath3185">
      <path
         id="path3187"
         style="fill:#ffffff;fill-rule:evenodd;stroke:#ffffff;stroke-width:5.15903;stroke-linecap:round;stroke-linejoin:round;paint-order:stroke fill markers"
         d="m 1157.5591,335.78677 h 462.4206 L 1362.3723,1410.6277 H 899.95176 Z"
         sodipodi:nodetypes="ccccc"
         inkscape:export-filename="C:\Users\BUCH\Desktop\Retrogaming\Recalbox\travail thèmes\Thème vignette !!!!!!!\Maquette 2 !!!!\rect849.png"
         inkscape:export-xdpi="247.96268"
         inkscape:export-ydpi="247.96268" />
    </clipPath>
  </defs>
  <sodipodi:namedview
     id="namedview4"
     pagecolor="#ffffff"
     bordercolor="#666666"
     borderopacity="1.0"
     inkscape:pageshadow="2"
     inkscape:pageopacity="0.0"
     inkscape:pagecheckerboard="true"
     showgrid="false"
     inkscape:showpageshadow="false"
     inkscape:zoom="12.479331"
     inkscape:cx="12.861266"
     inkscape:cy="22.356968"
     inkscape:window-width="1920"
     inkscape:window-height="1138"
     inkscape:window-x="-8"
     inkscape:window-y="-8"
     inkscape:window-maximized="1"
     inkscape:current-layer="svg2"
     fit-margin-top="0"
     fit-margin-left="0"
     fit-margin-right="0"
     fit-margin-bottom="0" />
  <g
     aria-label="arcade"
     id="text27481"
     style="font-weight:300;font-size:13.3333px;line-height:1.25;font-family:'Bebas Neue';-inkscape-font-specification:'Bebas Neue, Light'"
     transform="translate(-4.9006197,16.852299)">
    <path
       d="m 9.0339426,-9.6523169 0.5466653,2.1999944 H 9.8739404 L 7.5672796,-16.798966 H 7.1539473 l -2.2533276,9.3466435 h 0.266666 L 5.713951,-9.6523169 Z M 7.3539468,-16.4523 8.9806094,-9.9189829 H 5.7672842 Z"
       style="fill:#ffffff"
       id="path29474" />
    <path
       d="m 10.900586,-16.785632 v 9.3333095 h 0.293332 v -4.3066555 h 1.146664 c 1.21333,0 2.039995,0.359999 2.039995,1.733329 v 1.4666626 c 0,0.399999 0.04,0.8133313 0.226666,1.1066639 h 0.319999 C 14.713909,-7.7456551 14.67391,-8.1989873 14.67391,-8.5589864 v -1.4666626 c 0,-1.026664 -0.439999,-1.706663 -1.479997,-1.866662 1.026664,-0.186666 1.479997,-0.813332 1.479997,-1.959995 v -0.839998 c 0,-1.279997 -0.533332,-2.093328 -1.919996,-2.093328 z m 0.293332,4.746654 v -4.466655 h 1.546663 c 1.199997,0 1.639996,0.706665 1.639996,1.839995 v 0.853332 c 0,1.439996 -0.746665,1.773328 -2.039995,1.773328 z"
       style="fill:#ffffff"
       id="path29476" />
    <path
       d="m 17.900557,-16.852299 c -1.413329,0 -1.946661,1.066664 -1.946661,2.359994 v 4.746655 c 0,1.29333 0.533332,2.359994 1.946661,2.359994 1.426664,0 1.959995,-1.066664 1.959995,-2.359994 v -1.013331 H 19.56722 v 1.0266643 c 0,1.1333304 -0.426666,2.0666614 -1.653329,2.0666614 -1.239997,0 -1.666663,-0.933331 -1.666663,-2.0666614 v -4.7733213 c 0,-1.13333 0.426666,-2.079995 1.666663,-2.079995 1.226663,0 1.653329,0.946665 1.653329,2.079995 v 0.733331 h 0.293332 v -0.719998 c 0,-1.29333 -0.533331,-2.359994 -1.959995,-2.359994 z"
       style="fill:#ffffff"
       id="path29478" />
    <path
       d="m 24.993858,-9.6523169 0.546665,2.1999944 h 0.293333 l -2.306661,-9.3466435 h -0.413333 l -2.253327,9.3466435 h 0.266666 l 0.546665,-2.1999944 z m -1.679996,-6.7999831 1.626663,6.5333171 h -3.213326 z"
       style="fill:#ffffff"
       id="path29480" />
    <path
       d="m 26.860501,-16.785632 v 9.3333095 h 1.959995 c 1.41333,0 2.013329,-0.9999975 2.013329,-2.3199941 v -4.6799884 c 0,-1.33333 -0.599999,-2.333327 -2.026662,-2.333327 z m 0.293333,9.0533102 v -8.7733112 h 1.653329 c 1.239997,0 1.733329,0.866665 1.733329,2.039995 v 4.7066547 c 0,1.159997 -0.479999,2.0266615 -1.733329,2.0266615 z"
       style="fill:#ffffff"
       id="path29482" />
    <path
       d="m 32.167147,-12.318977 v -4.186656 h 3.266659 v -0.279999 h -3.559991 v 9.3333095 h 3.559991 v -0.2799993 h -3.266659 v -4.3199892 h 2.74666 v -0.266666 z"
       style="fill:#ffffff"
       id="path29484" />
  </g>
</svg>
