<?xml version="1.0" encoding="UTF-8" standalone="no"?>
<!-- Created with Inkscape (http://www.inkscape.org/) -->

<svg
   version="1.1"
   id="svg2"
   width="35.30648"
   height="9.4666433"
   viewBox="0 0 35.306482 9.4666433"
   sodipodi:docname="arduboy.svg"
   inkscape:version="1.1 (c68e22c387, 2021-05-23)"
   inkscape:export-filename="C:\Users\BUCH\Desktop\Retrogaming\Recalbox\travail thèmes\Thème vignette !!!!!!!\Maquette 2 !!!!\image1250.png"
   inkscape:export-xdpi="96.460785"
   inkscape:export-ydpi="96.460785"
   xmlns:inkscape="http://www.inkscape.org/namespaces/inkscape"
   xmlns:sodipodi="http://sodipodi.sourceforge.net/DTD/sodipodi-0.dtd"
   xmlns="http://www.w3.org/2000/svg"
   xmlns:svg="http://www.w3.org/2000/svg">
  <defs
     id="defs6">
    <clipPath
       clipPathUnits="userSpaceOnUse"
       id="clipPath3185">
      <path
         id="path3187"
         style="fill:#ffffff;fill-rule:evenodd;stroke:#ffffff;stroke-width:5.15903;stroke-linecap:round;stroke-linejoin:round;paint-order:stroke fill markers"
         d="m 1157.5591,335.78677 h 462.4206 L 1362.3723,1410.6277 H 899.95176 Z"
         sodipodi:nodetypes="ccccc"
         inkscape:export-filename="C:\Users\BUCH\Desktop\Retrogaming\Recalbox\travail thèmes\Thème vignette !!!!!!!\Maquette 2 !!!!\rect849.png"
         inkscape:export-xdpi="247.96268"
         inkscape:export-ydpi="247.96268" />
    </clipPath>
  </defs>
  <sodipodi:namedview
     id="namedview4"
     pagecolor="#ffffff"
     bordercolor="#666666"
     borderopacity="1.0"
     inkscape:pageshadow="2"
     inkscape:pageopacity="0.0"
     inkscape:pagecheckerboard="true"
     showgrid="false"
     inkscape:showpageshadow="false"
     inkscape:zoom="12.479331"
     inkscape:cx="16.867891"
     inkscape:cy="2.724505"
     inkscape:window-width="1920"
     inkscape:window-height="1138"
     inkscape:window-x="-8"
     inkscape:window-y="-8"
     inkscape:window-maximized="1"
     inkscape:current-layer="svg2"
     fit-margin-top="0"
     fit-margin-left="0"
     fit-margin-right="0"
     fit-margin-bottom="0" />
  <g
     aria-label="arduboy"
     id="text30428"
     style="font-weight:300;font-size:13.3333px;line-height:1.25;font-family:'Bebas Neue';-inkscape-font-specification:'Bebas Neue, Light'"
     transform="translate(3.994088,-19.607989)">
    <path
       d="m 0.13923489,26.807971 0.54666529,2.199994 H 0.97923277 L -1.3274281,19.661322 h -0.4133323 l -2.2533276,9.346643 h 0.266666 l 0.5466653,-2.199994 z M -1.5407609,20.007988 0.08590169,26.541305 H -3.1274235 Z"
       style="fill:#ffffff"
       id="path32473" />
    <path
       d="m 2.0058781,19.674655 v 9.33331 h 0.2933326 v -4.306656 h 1.1466637 c 1.2133303,0 2.0399949,0.359999 2.0399949,1.733329 v 1.466663 c 0,0.399999 0.04,0.813331 0.2266661,1.106664 H 6.0325346 C 5.8192018,28.714632 5.7792019,28.2613 5.7792019,27.901301 v -1.466663 c 0,-1.026664 -0.4399989,-1.706662 -1.4799963,-1.866662 1.0266641,-0.186666 1.4799963,-0.813331 1.4799963,-1.959995 v -0.839998 c 0,-1.279996 -0.533332,-2.093328 -1.9199952,-2.093328 z m 0.2933326,4.746655 v -4.466655 h 1.5466627 c 1.199997,0 1.6399959,0.706665 1.6399959,1.839995 v 0.853331 c 0,1.439997 -0.7466648,1.773329 -2.0399949,1.773329 z"
       style="fill:#ffffff"
       id="path32475" />
    <path
       d="m 7.0725213,19.674655 v 9.33331 h 1.9599951 c 1.4133296,0 2.0133286,-0.999997 2.0133286,-2.319994 v -4.679988 c 0,-1.33333 -0.599999,-2.333328 -2.0266619,-2.333328 z m 0.2933326,9.053311 v -8.773311 h 1.6533292 c 1.2399969,0 1.7333289,0.866664 1.7333289,2.039994 v 4.706655 c 0,1.159997 -0.479999,2.026662 -1.7333289,2.026662 z"
       style="fill:#ffffff"
       id="path32477" />
    <path
       d="m 12.365834,19.674655 h -0.293333 v 7.026649 c 0,1.279997 0.506666,2.373328 1.933329,2.373328 1.41333,0 1.919995,-1.093331 1.919995,-2.373328 v -7.026649 h -0.279999 v 7.039983 c 0,1.119997 -0.399999,2.093328 -1.639996,2.093328 -1.239997,0 -1.639996,-0.973331 -1.639996,-2.093328 z"
       style="fill:#ffffff"
       id="path32479" />
    <path
       d="m 16.979138,19.674655 v 9.33331 h 1.879995 c 1.41333,0 1.973328,-0.826664 1.973328,-2.146661 v -0.826665 c 0,-1.079997 -0.413332,-1.839995 -1.519996,-1.999995 1.053331,-0.159999 1.33333,-0.786664 1.33333,-1.826662 v -0.599998 c 0,-1.25333 -0.439999,-1.933329 -1.799996,-1.933329 z m 0.293332,4.23999 v -3.95999 h 1.573329 c 1.173331,0 1.506663,0.573332 1.506663,1.666662 v 0.626665 c 0,1.359997 -0.573332,1.666663 -1.866662,1.666663 z m 0,4.813321 v -4.546655 h 1.346663 c 1.279997,0 1.919996,0.493332 1.919996,1.839995 v 0.839998 c 0,1.17333 -0.453333,1.866662 -1.679996,1.866662 z"
       style="fill:#ffffff"
       id="path32481" />
    <path
       d="m 21.859107,26.714638 c 0,1.306663 0.559999,2.359994 1.973328,2.359994 1.439997,0 1.999995,-1.053331 1.999995,-2.359994 v -4.746655 c 0,-1.306663 -0.559998,-2.359994 -1.999995,-2.359994 -1.413329,0 -1.973328,1.053331 -1.973328,2.359994 z M 22.15244,21.95465 c 0,-1.146664 0.439999,-2.079995 1.679995,-2.079995 1.253331,0 1.706663,0.933331 1.706663,2.079995 v 4.773321 c 0,1.146664 -0.453332,2.079995 -1.706663,2.079995 -1.239996,0 -1.679995,-0.933331 -1.679995,-2.079995 z"
       style="fill:#ffffff"
       id="path32483" />
    <path
       d="m 28.805732,29.007965 h 0.293333 v -3.773324 l 2.213328,-5.559986 h -0.306666 l -2.039995,5.159987 -2.039995,-5.159987 h -0.293332 l 2.173327,5.559986 z"
       style="fill:#ffffff"
       id="path32485" />
  </g>
</svg>
