<?xml version="1.0" encoding="UTF-8" standalone="no"?>
<!-- Created with Inkscape (http://www.inkscape.org/) -->

<svg
   version="1.1"
   id="svg2"
   width="17.159922"
   height="9.4666433"
   viewBox="0 0 17.159922 9.4666433"
   sodipodi:docname="auto-rpgjapanese.svg"
   inkscape:version="1.1 (c68e22c387, 2021-05-23)"
   inkscape:export-filename="C:\Users\BUCH\Desktop\Retrogaming\Recalbox\travail thèmes\Thème vignette !!!!!!!\Maquette 2 !!!!\image1250.png"
   inkscape:export-xdpi="96.460785"
   inkscape:export-ydpi="96.460785"
   xmlns:inkscape="http://www.inkscape.org/namespaces/inkscape"
   xmlns:sodipodi="http://sodipodi.sourceforge.net/DTD/sodipodi-0.dtd"
   xmlns="http://www.w3.org/2000/svg"
   xmlns:svg="http://www.w3.org/2000/svg">
  <defs
     id="defs6">
    <clipPath
       clipPathUnits="userSpaceOnUse"
       id="clipPath3185">
      <path
         id="path3187"
         style="fill:#ffffff;fill-rule:evenodd;stroke:#ffffff;stroke-width:5.15903;stroke-linecap:round;stroke-linejoin:round;paint-order:stroke fill markers"
         d="m 1157.5591,335.78677 h 462.4206 L 1362.3723,1410.6277 H 899.95176 Z"
         sodipodi:nodetypes="ccccc"
         inkscape:export-filename="C:\Users\BUCH\Desktop\Retrogaming\Recalbox\travail thèmes\Thème vignette !!!!!!!\Maquette 2 !!!!\rect849.png"
         inkscape:export-xdpi="247.96268"
         inkscape:export-ydpi="247.96268" />
    </clipPath>
  </defs>
  <sodipodi:namedview
     id="namedview4"
     pagecolor="#ffffff"
     bordercolor="#666666"
     borderopacity="1.0"
     inkscape:pageshadow="2"
     inkscape:pageopacity="0.0"
     inkscape:pagecheckerboard="true"
     showgrid="false"
     inkscape:showpageshadow="false"
     inkscape:zoom="12.479331"
     inkscape:cx="21.355311"
     inkscape:cy="8.4940451"
     inkscape:window-width="1920"
     inkscape:window-height="1138"
     inkscape:window-x="-8"
     inkscape:window-y="-8"
     inkscape:window-maximized="1"
     inkscape:current-layer="svg2"
     fit-margin-top="0"
     fit-margin-left="0"
     fit-margin-right="0"
     fit-margin-bottom="0" />
  <g
     aria-label="jrpg"
     id="text1001"
     style="font-weight:300;font-size:13.3333px;line-height:1.25;font-family:'Bebas Neue';-inkscape-font-specification:'Bebas Neue, Light';fill:#ffffff"
     transform="translate(6.5716613,-13.678183)">
    <path
       d="m -6.5716613,23.078159 c 0.2133328,0.01333 0.399999,0 0.5866652,-0.01333 1.1333305,-0.08 1.7733289,-0.719998 1.7733289,-2.266661 V 13.74485 h -0.2933326 v 7.066648 c 0,1.306664 -0.4666655,1.879996 -1.5066629,1.973329 -0.1733329,0.01333 -0.3599991,0.02667 -0.5599986,0.01333 z"
       id="path1318" />
    <path
       d="m -3.1583513,13.74485 v 9.333309 h 0.2933326 v -4.306655 h 1.1466638 c 1.21333022,0 2.0399948,0.359999 2.0399948,1.733329 v 1.466662 c 0,0.399999 0.0399999,0.813332 0.22666609,1.106664 H 0.86830518 C 0.65497239,22.784827 0.61497249,22.331495 0.61497249,21.971495 v -1.466662 c 0,-1.026665 -0.43999889,-1.706663 -1.47999626,-1.866662 1.02666407,-0.186667 1.47999626,-0.813332 1.47999626,-1.959995 v -0.839998 c 0,-1.279997 -0.53333199,-2.093328 -1.91999519,-2.093328 z m 0.2933326,4.746654 v -4.466655 h 1.5466627 c 1.19999701,0 1.6399959,0.706665 1.6399959,1.839995 v 0.853331 c 0,1.439997 -0.74666478,1.773329 -2.0399948,1.773329 z"
       id="path1320" />
    <path
       d="m 1.9082915,13.74485 v 9.333309 H 2.201624 v -3.95999 h 1.33333 c 1.4799963,0 2.1466613,-0.706665 2.1466613,-2.186661 v -0.933331 c 0,-1.306663 -0.4933321,-2.253327 -1.9333285,-2.253327 z m 0.2933325,5.09332 v -4.813321 h 1.5466628 c 1.2533302,0 1.6399959,0.813331 1.6399959,1.959995 v 0.959997 c 0,1.319997 -0.5466653,1.893329 -1.8533287,1.893329 z"
       id="path1322" />
    <path
       d="m 8.6282648,13.678183 c -1.4133297,0 -1.9466617,1.066664 -1.9466617,2.359994 v 4.746655 c 0,1.29333 0.533332,2.359994 1.9466617,2.359994 1.4266632,0 1.9599952,-1.066664 1.9599952,-2.359994 V 18.411504 H 8.8415976 v 0.266666 h 1.4533294 v 2.119995 c 0,1.133331 -0.4266653,2.066662 -1.6533289,2.066662 -1.2399968,0 -1.6666624,-0.933331 -1.6666624,-2.066662 v -4.773321 c 0,-1.133331 0.4266656,-2.079995 1.6666624,-2.079995 1.2266636,0 1.6533289,0.946664 1.6533289,2.079995 v 0.626665 h 0.293333 v -0.613332 c 0,-1.29333 -0.533332,-2.359994 -1.9599952,-2.359994 z"
       id="path1324" />
  </g>
</svg>
