<?xml version="1.0" encoding="UTF-8" standalone="no"?>
<!-- Created with Inkscape (http://www.inkscape.org/) -->

<svg
   version="1.1"
   id="svg2"
   width="97.119453"
   height="9.4666433"
   viewBox="0 0 97.119457 9.4666432"
   sodipodi:docname="auto-arcade-itech.svg"
   inkscape:version="1.1 (c68e22c387, 2021-05-23)"
   inkscape:export-filename="C:\Users\BUCH\Desktop\Retrogaming\Recalbox\travail thèmes\Thème vignette !!!!!!!\Maquette 2 !!!!\image1250.png"
   inkscape:export-xdpi="96.460785"
   inkscape:export-ydpi="96.460785"
   xmlns:inkscape="http://www.inkscape.org/namespaces/inkscape"
   xmlns:sodipodi="http://sodipodi.sourceforge.net/DTD/sodipodi-0.dtd"
   xmlns="http://www.w3.org/2000/svg"
   xmlns:svg="http://www.w3.org/2000/svg">
  <defs
     id="defs6">
    <clipPath
       clipPathUnits="userSpaceOnUse"
       id="clipPath3185">
      <path
         id="path3187"
         style="fill:#ffffff;fill-rule:evenodd;stroke:#ffffff;stroke-width:5.15903;stroke-linecap:round;stroke-linejoin:round;paint-order:stroke fill markers"
         d="m 1157.5591,335.78677 h 462.4206 L 1362.3723,1410.6277 H 899.95176 Z"
         sodipodi:nodetypes="ccccc"
         inkscape:export-filename="C:\Users\BUCH\Desktop\Retrogaming\Recalbox\travail thèmes\Thème vignette !!!!!!!\Maquette 2 !!!!\rect849.png"
         inkscape:export-xdpi="247.96268"
         inkscape:export-ydpi="247.96268" />
    </clipPath>
  </defs>
  <sodipodi:namedview
     id="namedview4"
     pagecolor="#ffffff"
     bordercolor="#666666"
     borderopacity="1.0"
     inkscape:pageshadow="2"
     inkscape:pageopacity="0.0"
     inkscape:pagecheckerboard="true"
     showgrid="false"
     inkscape:showpageshadow="false"
     inkscape:zoom="6.2396655"
     inkscape:cx="53.127848"
     inkscape:cy="16.34703"
     inkscape:window-width="1920"
     inkscape:window-height="1138"
     inkscape:window-x="-8"
     inkscape:window-y="-8"
     inkscape:window-maximized="1"
     inkscape:current-layer="svg2"
     fit-margin-top="0"
     fit-margin-left="0"
     fit-margin-right="0"
     fit-margin-bottom="0" />
  <g
     aria-label="incredible technologies"
     id="text4723"
     style="font-weight:300;font-size:13.3333px;line-height:1.25;font-family:'Bebas Neue';-inkscape-font-specification:'Bebas Neue, Light';fill:#ffffff"
     transform="translate(18.377938,17.413227)">
    <path
       d="m -18.377938,-17.34656 v 9.3333096 h 0.293332 V -17.34656 Z"
       id="path6162" />
    <path
       d="m -16.737952,-16.919895 3.333325,8.9066446 h 0.359999 V -17.34656 h -0.279999 v 8.7333112 l -3.279992,-8.7333112 h -0.413332 v 9.3333096 h 0.279999 z"
       id="path6164" />
    <path
       d="m -10.044658,-17.413227 c -1.41333,0 -1.946662,1.066664 -1.946662,2.359994 v 4.746655 c 0,1.2933302 0.533332,2.3599941 1.946662,2.3599941 1.4266633,0 1.9599953,-1.0666639 1.9599953,-2.3599941 v -1.013331 h -0.2933326 v 1.026664 c 0,1.1333309 -0.4266656,2.0666619 -1.6533287,2.0666619 -1.239997,0 -1.666663,-0.933331 -1.666663,-2.0666619 v -4.773321 c 0,-1.13333 0.426666,-2.079995 1.666663,-2.079995 1.2266631,0 1.6533287,0.946665 1.6533287,2.079995 v 0.733332 h 0.2933326 v -0.719999 c 0,-1.29333 -0.533332,-2.359994 -1.9599953,-2.359994 z"
       id="path6166" />
    <path
       d="m -7.0446795,-17.34656 v 9.3333096 h 0.2933326 v -4.3066556 h 1.1466637 c 1.2133303,0 2.0399949,0.359999 2.0399949,1.733329 v 1.4666628 c 0,0.399999 0.04,0.8133313 0.2266661,1.1066638 h 0.3199992 c -0.2133328,-0.2933325 -0.2533327,-0.7466647 -0.2533327,-1.1066638 v -1.4666628 c 0,-1.026664 -0.4399989,-1.706663 -1.4799963,-1.866662 1.0266641,-0.186666 1.4799963,-0.813331 1.4799963,-1.959995 v -0.839998 c 0,-1.279997 -0.533332,-2.093328 -1.9199952,-2.093328 z m 0.2933326,4.746655 v -4.466656 h 1.5466627 c 1.199997,0 1.6399959,0.706665 1.6399959,1.839996 v 0.853331 c 0,1.439996 -0.7466648,1.773329 -2.0399949,1.773329 z"
       id="path6168" />
    <path
       d="m -1.6847032,-12.879905 v -4.186656 h 3.2666584 v -0.279999 h -3.559991 v 9.3333096 h 3.559991 v -0.2799992 h -3.2666584 v -4.3199894 h 2.7466597 v -0.266666 z"
       id="path6170" />
    <path
       d="m 2.6219436,-17.34656 v 9.3333096 h 1.959995 c 1.4133298,0 2.0133283,-0.9999974 2.0133283,-2.3199936 v -4.679989 c 0,-1.33333 -0.5999985,-2.333327 -2.0266616,-2.333327 z m 0.2933326,9.0533104 v -8.7733114 h 1.6533291 c 1.2399969,0 1.733329,0.866665 1.733329,2.039995 v 4.706655 c 0,1.1599969 -0.4799988,2.0266614 -1.733329,2.0266614 z"
       id="path6172" />
    <path
       d="m 7.6352569,-17.34656 v 9.3333096 H 7.9285895 V -17.34656 Z"
       id="path6174" />
    <path
       d="m 8.9952422,-17.34656 v 9.3333096 h 1.8799948 c 1.41333,0 1.973329,-0.8266645 1.973329,-2.1466616 v -0.826664 c 0,-1.079997 -0.413332,-1.839996 -1.519996,-1.999995 1.05333,-0.16 1.33333,-0.786665 1.33333,-1.826662 v -0.599999 c 0,-1.25333 -0.439999,-1.933328 -1.799996,-1.933328 z m 0.2933326,4.239989 v -3.95999 h 1.5733292 c 1.173331,0 1.506663,0.573332 1.506663,1.666663 v 0.626665 c 0,1.359996 -0.573332,1.666662 -1.866662,1.666662 z m 0,4.8133214 v -4.5466554 h 1.3466632 c 1.279997,0 1.919995,0.493332 1.919995,1.839996 v 0.839997 c 0,1.1733308 -0.453332,1.8666624 -1.679996,1.8666624 z"
       id="path6176" />
    <path
       d="M 17.315203,-8.0132504 V -8.2932496 H 14.181878 V -17.34656 h -0.293333 v 9.3333096 z"
       id="path6178" />
    <path
       d="m 18.621846,-12.879905 v -4.186656 h 3.266658 v -0.279999 h -3.559991 v 9.3333096 h 3.559991 v -0.2799992 h -3.266658 v -4.3199894 h 2.74666 v -0.266666 z"
       id="path6180" />
    <path
       d="m 27.03513,-8.0132504 v -9.0533106 h 2.039995 v -0.279999 h -4.359989 v 0.279999 h 2.026662 v 9.0533106 z"
       id="path6182" />
    <path
       d="m 30.181775,-12.879905 v -4.186656 h 3.266658 v -0.279999 h -3.559991 v 9.3333096 h 3.559991 v -0.2799992 h -3.266658 v -4.3199894 h 2.746659 v -0.266666 z"
       id="path6184" />
    <path
       d="m 36.421746,-17.413227 c -1.41333,0 -1.946662,1.066664 -1.946662,2.359994 v 4.746655 c 0,1.2933302 0.533332,2.3599941 1.946662,2.3599941 1.426663,0 1.959995,-1.0666639 1.959995,-2.3599941 v -1.013331 h -0.293332 v 1.026664 c 0,1.1333309 -0.426666,2.0666619 -1.65333,2.0666619 -1.239996,0 -1.666662,-0.933331 -1.666662,-2.0666619 v -4.773321 c 0,-1.13333 0.426666,-2.079995 1.666662,-2.079995 1.226664,0 1.65333,0.946665 1.65333,2.079995 v 0.733332 h 0.293332 v -0.719999 c 0,-1.29333 -0.533332,-2.359994 -1.959995,-2.359994 z"
       id="path6186" />
    <path
       d="m 43.088383,-12.546572 v 4.5333216 h 0.293332 V -17.34656 h -0.293332 v 4.533322 h -3.373325 v -4.533322 h -0.293333 v 9.3333096 h 0.293333 v -4.5333216 z"
       id="path6188" />
    <path
       d="m 44.728367,-16.919895 3.333324,8.9066446 h 0.36 V -17.34656 h -0.28 v 8.7333112 L 44.8617,-17.34656 h -0.413333 v 9.3333096 h 0.28 z"
       id="path6190" />
    <path
       d="m 49.475001,-10.306578 c 0,1.3066635 0.559998,2.3599941 1.973328,2.3599941 1.439996,0 1.999995,-1.0533306 1.999995,-2.3599941 v -4.746655 c 0,-1.306663 -0.559999,-2.359994 -1.999995,-2.359994 -1.41333,0 -1.973328,1.053331 -1.973328,2.359994 z m 0.293332,-4.759988 c 0,-1.146664 0.439999,-2.079995 1.679996,-2.079995 1.25333,0 1.706662,0.933331 1.706662,2.079995 v 4.773321 c 0,1.1466642 -0.453332,2.0799952 -1.706662,2.0799952 -1.239997,0 -1.679996,-0.933331 -1.679996,-2.0799952 z"
       id="path6192" />
    <path
       d="M 57.928305,-8.0132504 V -8.2932496 H 54.79498 V -17.34656 h -0.293333 v 9.3333096 z"
       id="path6194" />
    <path
       d="m 58.928278,-10.306578 c 0,1.3066635 0.559999,2.3599941 1.973328,2.3599941 1.439997,0 1.999995,-1.0533306 1.999995,-2.3599941 v -4.746655 c 0,-1.306663 -0.559998,-2.359994 -1.999995,-2.359994 -1.413329,0 -1.973328,1.053331 -1.973328,2.359994 z m 0.293333,-4.759988 c 0,-1.146664 0.439999,-2.079995 1.679995,-2.079995 1.253331,0 1.706663,0.933331 1.706663,2.079995 v 4.773321 c 0,1.1466642 -0.453332,2.0799952 -1.706663,2.0799952 -1.239996,0 -1.679995,-0.933331 -1.679995,-2.0799952 z"
       id="path6196" />
    <path
       d="m 65.888253,-17.413227 c -1.41333,0 -1.946662,1.066664 -1.946662,2.359994 v 4.746655 c 0,1.2933302 0.533332,2.3599941 1.946662,2.3599941 1.426663,0 1.959995,-1.0666639 1.959995,-2.3599941 v -2.373327 h -1.746662 v 0.266666 h 1.45333 v 2.119994 c 0,1.1333309 -0.426666,2.0666619 -1.65333,2.0666619 -1.239996,0 -1.666662,-0.933331 -1.666662,-2.0666619 v -4.773321 c 0,-1.13333 0.426666,-2.079995 1.666662,-2.079995 1.226664,0 1.65333,0.946665 1.65333,2.079995 v 0.626665 h 0.293332 v -0.613332 c 0,-1.29333 -0.533332,-2.359994 -1.959995,-2.359994 z"
       id="path6198" />
    <path
       d="m 68.901557,-17.34656 v 9.3333096 H 69.19489 V -17.34656 Z"
       id="path6200" />
    <path
       d="m 70.554875,-12.879905 v -4.186656 h 3.266658 v -0.279999 h -3.559991 v 9.3333096 h 3.559991 v -0.2799992 h -3.266658 v -4.3199894 h 2.74666 v -0.266666 z"
       id="path6202" />
    <path
       d="m 76.794854,-17.413227 c -1.346663,0.01333 -1.919995,0.946665 -1.919995,2.306661 0,2.573327 3.573324,2.493327 3.573324,4.853321 0,1.1333308 -0.439999,2.0266619 -1.666662,2.0266619 -1.226664,0 -1.666663,-0.8933311 -1.666663,-2.0266619 v -0.466665 h -0.279999 v 0.453332 c 0,1.2933301 0.533332,2.3199941 1.946662,2.3199941 1.426663,0 1.959995,-1.026664 1.959995,-2.3199941 0,-2.533327 -3.573324,-2.46666 -3.573324,-4.853321 0,-1.106664 0.413332,-2.026662 1.639995,-2.026662 1.213331,0 1.626663,0.933331 1.626663,2.039995 v 0.186666 h 0.293333 v -0.173332 c 0,-1.279997 -0.519999,-2.319995 -1.933329,-2.319995 z"
       id="path6204" />
  </g>
</svg>
