<?xml version="1.0" encoding="UTF-8" standalone="no"?>
<!-- Created with Inkscape (http://www.inkscape.org/) -->

<svg
   version="1.1"
   id="svg2"
   width="73.412918"
   height="9.4666424"
   viewBox="0 0 73.41292 9.4666423"
   sodipodi:docname="auto-arcade-nintendo.svg"
   inkscape:version="1.1 (c68e22c387, 2021-05-23)"
   inkscape:export-filename="C:\Users\BUCH\Desktop\Retrogaming\Recalbox\travail thèmes\Thème vignette !!!!!!!\Maquette 2 !!!!\image1250.png"
   inkscape:export-xdpi="96.460785"
   inkscape:export-ydpi="96.460785"
   xmlns:inkscape="http://www.inkscape.org/namespaces/inkscape"
   xmlns:sodipodi="http://sodipodi.sourceforge.net/DTD/sodipodi-0.dtd"
   xmlns="http://www.w3.org/2000/svg"
   xmlns:svg="http://www.w3.org/2000/svg">
  <defs
     id="defs6">
    <clipPath
       clipPathUnits="userSpaceOnUse"
       id="clipPath3185">
      <path
         id="path3187"
         style="fill:#ffffff;fill-rule:evenodd;stroke:#ffffff;stroke-width:5.15903;stroke-linecap:round;stroke-linejoin:round;paint-order:stroke fill markers"
         d="m 1157.5591,335.78677 h 462.4206 L 1362.3723,1410.6277 H 899.95176 Z"
         sodipodi:nodetypes="ccccc"
         inkscape:export-filename="C:\Users\BUCH\Desktop\Retrogaming\Recalbox\travail thèmes\Thème vignette !!!!!!!\Maquette 2 !!!!\rect849.png"
         inkscape:export-xdpi="247.96268"
         inkscape:export-ydpi="247.96268" />
    </clipPath>
  </defs>
  <sodipodi:namedview
     id="namedview4"
     pagecolor="#ffffff"
     bordercolor="#666666"
     borderopacity="1.0"
     inkscape:pageshadow="2"
     inkscape:pageopacity="0.0"
     inkscape:pagecheckerboard="true"
     showgrid="false"
     inkscape:showpageshadow="false"
     inkscape:zoom="12.479331"
     inkscape:cx="38.423534"
     inkscape:cy="9.7761651"
     inkscape:window-width="1920"
     inkscape:window-height="1138"
     inkscape:window-x="-8"
     inkscape:window-y="-8"
     inkscape:window-maximized="1"
     inkscape:current-layer="svg2"
     fit-margin-top="0"
     fit-margin-left="0"
     fit-margin-right="0"
     fit-margin-bottom="0" />
  <g
     aria-label="nintendo classics"
     id="text1715"
     style="font-weight:300;font-size:13.3333px;line-height:1.25;font-family:'Bebas Neue';-inkscape-font-specification:'Bebas Neue, Light';fill:#ffffff">
    <path
       d="M 0.27999929,0.49333162 3.6133242,9.3999758 H 3.9733233 V 0.06666603 H 3.693324 V 8.7999773 L 0.41333228,0.06666603 H 0 V 9.3999758 h 0.27999929 z"
       id="path4078" />
    <path
       d="M 5.0399651,0.06666603 V 9.3999758 H 5.3332977 V 0.06666603 Z"
       id="path4080" />
    <path
       d="M 6.6799512,0.49333162 10.013276,9.3999758 h 0.359999 V 0.06666603 H 10.093276 V 8.7999773 L 6.8132842,0.06666603 H 6.3999519 V 9.3999758 h 0.2799993 z"
       id="path4082" />
    <path
       d="M 13.479912,9.3999758 V 0.34666532 h 2.039995 V 0.06666603 H 11.159918 V 0.34666532 H 13.18658 V 9.3999758 Z"
       id="path4084" />
    <path
       d="M 16.626554,4.5333214 V 0.34666532 h 3.266658 V 0.06666603 H 16.333221 V 9.3999758 h 3.559991 V 9.1199765 H 16.626554 V 4.7999874 h 2.74666 v -0.266666 z"
       id="path4086" />
    <path
       d="m 21.2132,0.49333162 3.333325,8.90664418 h 0.359999 V 0.06666603 H 24.626525 V 8.7999773 L 21.346533,0.06666603 H 20.933201 V 9.3999758 H 21.2132 Z"
       id="path4088" />
    <path
       d="M 25.973166,0.06666603 V 9.3999758 h 1.959995 c 1.413329,0 2.013328,-0.9999975 2.013328,-2.3199942 V 2.3999935 c 0,-1.33333 -0.599999,-2.33332747 -2.026662,-2.33332747 z M 26.266498,9.1199765 V 0.34666532 h 1.653329 c 1.239997,0 1.733329,0.86666448 1.733329,2.03999488 v 4.7066547 c 0,1.1599971 -0.479999,2.0266616 -1.733329,2.0266616 z"
       id="path4090" />
    <path
       d="m 30.973146,7.1066482 c 0,1.3066634 0.559998,2.3599941 1.973328,2.3599941 1.439996,0 1.999995,-1.0533307 1.999995,-2.3599941 V 2.3599936 C 34.946469,1.0533302 34.38647,-4.6730042e-7 32.946474,-4.6730042e-7 31.533144,-4.6730042e-7 30.973146,1.0533302 30.973146,2.3599936 Z m 0.293332,-4.7599879 c 0,-1.1466638 0.439999,-2.07999477 1.679996,-2.07999477 1.25333,0 1.706662,0.93333097 1.706662,2.07999477 v 4.7733212 c 0,1.1466638 -0.453332,2.0799948 -1.706662,2.0799948 -1.239997,0 -1.679996,-0.933331 -1.679996,-2.0799948 z"
       id="path4092" />
    <path
       d="M 39.999765,-4.6730042e-7 C 38.586435,-4.6730042e-7 38.053103,1.0666635 38.053103,2.3599936 v 4.7466546 c 0,1.2933301 0.533332,2.3599941 1.946662,2.3599941 1.426663,0 1.959995,-1.066664 1.959995,-2.3599941 V 6.0933175 h -0.293332 v 1.026664 c 0,1.1333305 -0.426666,2.0666615 -1.653329,2.0666615 -1.239997,0 -1.666663,-0.933331 -1.666663,-2.0666615 V 2.3466603 c 0,-1.1333305 0.426666,-2.07999477 1.666663,-2.07999477 1.226663,0 1.653329,0.94666427 1.653329,2.07999477 V 3.0799917 H 41.95976 V 2.3599936 C 41.95976,1.0666635 41.426428,-4.6730042e-7 39.999765,-4.6730042e-7 Z"
       id="path4094" />
    <path
       d="M 46.426402,9.3999758 V 9.1199765 H 43.293077 V 0.06666603 H 42.999744 V 9.3999758 Z"
       id="path4096" />
    <path
       d="m 51.533032,7.1999813 0.546665,2.1999945 H 52.37303 L 50.066369,0.05333273 H 49.653036 L 47.399709,9.3999758 h 0.266666 L 48.21304,7.1999813 Z M 49.853036,0.39999852 51.479698,6.9333153 h -3.213325 z"
       id="path4098" />
    <path
       d="M 55.333006,-4.6730042e-7 C 53.986342,0.01333283 53.413011,0.94666381 53.413011,2.3066604 c 0,2.5733268 3.573324,2.493327 3.573324,4.853321 0,1.1333305 -0.439999,2.0266616 -1.666663,2.0266616 -1.226663,0 -1.666662,-0.8933311 -1.666662,-2.0266616 V 6.693316 h -0.279999 v 0.4533321 c 0,1.2933301 0.533332,2.3199942 1.946661,2.3199942 1.426663,0 1.959995,-1.0266641 1.959995,-2.3199942 0,-2.5333269 -3.573324,-2.4666604 -3.573324,-4.853321 0,-1.1066639 0.413332,-2.02666157 1.639996,-2.02666157 1.21333,0 1.626663,0.93333097 1.626663,2.03999487 v 0.1866662 h 0.293332 V 2.3199937 C 57.266334,1.0399969 56.746335,-4.6730042e-7 55.333006,-4.6730042e-7 Z"
       id="path4100" />
    <path
       d="M 60.252985,-4.6730042e-7 C 58.906322,0.01333283 58.33299,0.94666381 58.33299,2.3066604 c 0,2.5733268 3.573324,2.493327 3.573324,4.853321 0,1.1333305 -0.439999,2.0266616 -1.666662,2.0266616 -1.226664,0 -1.666663,-0.8933311 -1.666663,-2.0266616 V 6.693316 H 58.29299 v 0.4533321 c 0,1.2933301 0.533332,2.3199942 1.946662,2.3199942 1.426663,0 1.959995,-1.0266641 1.959995,-2.3199942 0,-2.5333269 -3.573325,-2.4666604 -3.573325,-4.853321 0,-1.1066639 0.413333,-2.02666157 1.639996,-2.02666157 1.21333,0 1.626663,0.93333097 1.626663,2.03999487 v 0.1866662 h 0.293332 V 2.3199937 C 62.186313,1.0399969 61.666315,-4.6730042e-7 60.252985,-4.6730042e-7 Z"
       id="path4102" />
    <path
       d="M 63.239635,0.06666603 V 9.3999758 h 0.293333 V 0.06666603 Z"
       id="path4104" />
    <path
       d="M 66.532953,-4.6730042e-7 C 65.119623,-4.6730042e-7 64.586291,1.0666635 64.586291,2.3599936 v 4.7466546 c 0,1.2933301 0.533332,2.3599941 1.946662,2.3599941 1.426663,0 1.959995,-1.066664 1.959995,-2.3599941 V 6.0933175 h -0.293332 v 1.026664 c 0,1.1333305 -0.426666,2.0666615 -1.65333,2.0666615 -1.239996,0 -1.666662,-0.933331 -1.666662,-2.0666615 V 2.3466603 c 0,-1.1333305 0.426666,-2.07999477 1.666662,-2.07999477 1.226664,0 1.65333,0.94666427 1.65333,2.07999477 v 0.7333314 h 0.293332 V 2.3599936 C 68.492948,1.0666635 67.959616,-4.6730042e-7 66.532953,-4.6730042e-7 Z"
       id="path4106" />
    <path
       d="M 71.466257,-4.6730042e-7 C 70.119594,0.01333283 69.546262,0.94666381 69.546262,2.3066604 c 0,2.5733268 3.573324,2.493327 3.573324,4.853321 0,1.1333305 -0.439999,2.0266616 -1.666662,2.0266616 -1.226664,0 -1.666663,-0.8933311 -1.666663,-2.0266616 V 6.693316 h -0.279999 v 0.4533321 c 0,1.2933301 0.533332,2.3199942 1.946662,2.3199942 1.426663,0 1.959995,-1.0266641 1.959995,-2.3199942 0,-2.5333269 -3.573325,-2.4666604 -3.573325,-4.853321 0,-1.1066639 0.413333,-2.02666157 1.639996,-2.02666157 1.21333,0 1.626663,0.93333097 1.626663,2.03999487 v 0.1866662 h 0.293332 V 2.3199937 C 73.399585,1.0399969 72.879587,-4.6730042e-7 71.466257,-4.6730042e-7 Z"
       id="path4108" />
  </g>
</svg>
