<?xml version="1.0" encoding="UTF-8" standalone="no"?>
<!-- Created with Inkscape (http://www.inkscape.org/) -->

<svg
   version="1.1"
   id="svg2"
   width="21.31988"
   height="9.3333101"
   viewBox="0 0 21.31988 9.33331"
   sodipodi:docname="auto-arcade-exidy.svg"
   inkscape:version="1.1 (c68e22c387, 2021-05-23)"
   inkscape:export-filename="C:\Users\BUCH\Desktop\Retrogaming\Recalbox\travail thèmes\Thème vignette !!!!!!!\Maquette 2 !!!!\image1250.png"
   inkscape:export-xdpi="96.460785"
   inkscape:export-ydpi="96.460785"
   xmlns:inkscape="http://www.inkscape.org/namespaces/inkscape"
   xmlns:sodipodi="http://sodipodi.sourceforge.net/DTD/sodipodi-0.dtd"
   xmlns="http://www.w3.org/2000/svg"
   xmlns:svg="http://www.w3.org/2000/svg">
  <g
     aria-label="exidy"
     id="text1053"
     style="font-weight:300;font-size:13.3333px;line-height:1.25;font-family:'Bebas Neue';-inkscape-font-specification:'Bebas Neue, Light';fill:#ffffff"
     transform="translate(11.807073,26.081002)">
    <path
       d="m -11.513741,-21.614346 v -4.186657 h 3.2666585 v -0.279999 h -3.5599905 v 9.33331 h 3.5599905 v -0.279999 h -3.2666585 v -4.319989 h 2.7466598 v -0.266666 z"
       id="path1450" />
    <path
       d="m -2.6337723,-16.747692 h 0.3199992 l -2.2666609,-4.853321 2.1199946,-4.479989 H -2.753772 l -2.0133282,4.226656 -2.0133283,-4.226656 h -0.3066659 l 2.1199947,4.479989 -2.2799943,4.853321 h 0.3066659 l 2.1466613,-4.586655 z"
       id="path1452" />
    <path
       d="m -1.2871312,-26.081002 v 9.33331 h 0.2933326 v -9.33331 z"
       id="path1454" />
    <path
       d="m 0.07285606,-26.081002 v 9.33331 H 2.0328511 c 1.4133298,0 2.0133283,-0.999998 2.0133283,-2.319994 v -4.679988 c 0,-1.33333 -0.5999985,-2.333328 -2.0266616,-2.333328 z m 0.2933326,9.053311 v -8.773312 H 2.0195178 c 1.2399969,0 1.733329,0.866665 1.733329,2.039995 v 4.706655 c 0,1.159997 -0.4799988,2.026662 -1.733329,2.026662 z"
       id="path1456" />
    <path
       d="m 7.006147,-16.747692 h 0.2933326 v -3.773324 l 2.2133278,-5.559986 H 9.2061415 l -2.0399949,5.159987 -2.0399948,-5.159987 H 4.8328192 l 2.1733278,5.559986 z"
       id="path1458" />
  </g>
  <defs
     id="defs6">
    <clipPath
       clipPathUnits="userSpaceOnUse"
       id="clipPath3185">
      <path
         id="path3187"
         style="fill:#ffffff;fill-rule:evenodd;stroke:#ffffff;stroke-width:5.15903;stroke-linecap:round;stroke-linejoin:round;paint-order:stroke fill markers"
         d="m 1157.5591,335.78677 h 462.4206 L 1362.3723,1410.6277 H 899.95176 Z"
         sodipodi:nodetypes="ccccc"
         inkscape:export-filename="C:\Users\BUCH\Desktop\Retrogaming\Recalbox\travail thèmes\Thème vignette !!!!!!!\Maquette 2 !!!!\rect849.png"
         inkscape:export-xdpi="247.96268"
         inkscape:export-ydpi="247.96268" />
    </clipPath>
  </defs>
  <sodipodi:namedview
     id="namedview4"
     pagecolor="#ffffff"
     bordercolor="#666666"
     borderopacity="1.0"
     inkscape:pageshadow="2"
     inkscape:pageopacity="0.0"
     inkscape:pagecheckerboard="true"
     showgrid="false"
     inkscape:showpageshadow="false"
     inkscape:zoom="12.479331"
     inkscape:cx="15.986434"
     inkscape:cy="14.664248"
     inkscape:window-width="1920"
     inkscape:window-height="1138"
     inkscape:window-x="-8"
     inkscape:window-y="-8"
     inkscape:window-maximized="1"
     inkscape:current-layer="svg2"
     fit-margin-top="0"
     fit-margin-left="0"
     fit-margin-right="0"
     fit-margin-bottom="0" />
</svg>
