<?xml version="1.0" encoding="UTF-8" standalone="no"?>
<!-- Created with Inkscape (http://www.inkscape.org/) -->

<svg
   version="1.1"
   id="svg2"
   width="23.599863"
   height="9.4666424"
   viewBox="0 0 23.599864 9.4666423"
   sodipodi:docname="auto-arcade-atlus.svg"
   inkscape:version="1.1 (c68e22c387, 2021-05-23)"
   inkscape:export-filename="C:\Users\BUCH\Desktop\Retrogaming\Recalbox\travail thèmes\Thème vignette !!!!!!!\Maquette 2 !!!!\image1250.png"
   inkscape:export-xdpi="96.460785"
   inkscape:export-ydpi="96.460785"
   xmlns:inkscape="http://www.inkscape.org/namespaces/inkscape"
   xmlns:sodipodi="http://sodipodi.sourceforge.net/DTD/sodipodi-0.dtd"
   xmlns="http://www.w3.org/2000/svg"
   xmlns:svg="http://www.w3.org/2000/svg">
  <defs
     id="defs6">
    <clipPath
       clipPathUnits="userSpaceOnUse"
       id="clipPath3185">
      <path
         id="path3187"
         style="fill:#ffffff;fill-rule:evenodd;stroke:#ffffff;stroke-width:5.15903;stroke-linecap:round;stroke-linejoin:round;paint-order:stroke fill markers"
         d="m 1157.5591,335.78677 h 462.4206 L 1362.3723,1410.6277 H 899.95176 Z"
         sodipodi:nodetypes="ccccc"
         inkscape:export-filename="C:\Users\BUCH\Desktop\Retrogaming\Recalbox\travail thèmes\Thème vignette !!!!!!!\Maquette 2 !!!!\rect849.png"
         inkscape:export-xdpi="247.96268"
         inkscape:export-ydpi="247.96268" />
    </clipPath>
  </defs>
  <sodipodi:namedview
     id="namedview4"
     pagecolor="#ffffff"
     bordercolor="#666666"
     borderopacity="1.0"
     inkscape:pageshadow="2"
     inkscape:pageopacity="0.0"
     inkscape:pagecheckerboard="true"
     showgrid="false"
     inkscape:showpageshadow="false"
     inkscape:zoom="12.479331"
     inkscape:cx="16.226831"
     inkscape:cy="-8.3337801"
     inkscape:window-width="1920"
     inkscape:window-height="1138"
     inkscape:window-x="-8"
     inkscape:window-y="-8"
     inkscape:window-maximized="1"
     inkscape:current-layer="svg2"
     fit-margin-top="0"
     fit-margin-left="0"
     fit-margin-right="0"
     fit-margin-bottom="0" />
  <g
     aria-label="atlus"
     id="text1715"
     style="font-weight:300;font-size:13.3333px;line-height:1.25;font-family:'Bebas Neue';-inkscape-font-specification:'Bebas Neue, Light';fill:#ffffff">
    <path
       d="M 4.1333229,7.1999813 4.6799882,9.3999758 H 4.9733208 L 2.6666599,0.05333273 H 2.2533276 L 0,9.3999758 H 0.26666599 L 0.81333128,7.1999813 Z M 2.4533271,0.39999852 4.0799897,6.9333153 H 0.86666447 Z"
       id="path6286" />
    <path
       d="M 7.5332943,9.3999758 V 0.34666532 H 9.5732891 V 0.06666603 H 5.2133001 V 0.34666532 H 7.2399617 V 9.3999758 Z"
       id="path6288" />
    <path
       d="M 13.813261,9.3999758 V 9.1199765 H 10.679936 V 0.06666603 H 10.386603 V 9.3999758 Z"
       id="path6290" />
    <path
       d="M 15.106568,0.06666603 H 14.813235 V 7.0933149 c 0,1.2799968 0.506666,2.3733274 1.933329,2.3733274 1.413329,0 1.919995,-1.0933306 1.919995,-2.3733274 V 0.06666603 H 18.38656 V 7.1066482 c 0,1.1199972 -0.399999,2.0933281 -1.639996,2.0933281 -1.239997,0 -1.639996,-0.9733309 -1.639996,-2.0933281 z"
       id="path6292" />
    <path
       d="M 21.653201,-4.6730042e-7 C 20.306538,0.01333283 19.733206,0.94666381 19.733206,2.3066604 c 0,2.5733268 3.573324,2.493327 3.573324,4.853321 0,1.1333305 -0.439999,2.0266616 -1.666662,2.0266616 -1.226664,0 -1.666663,-0.8933311 -1.666663,-2.0266616 V 6.693316 h -0.279999 v 0.4533321 c 0,1.2933301 0.533332,2.3199942 1.946662,2.3199942 1.426663,0 1.959995,-1.0266641 1.959995,-2.3199942 0,-2.5333269 -3.573325,-2.4666604 -3.573325,-4.853321 0,-1.1066639 0.413333,-2.02666157 1.639996,-2.02666157 1.21333,0 1.626663,0.93333097 1.626663,2.03999487 v 0.1866662 h 0.293332 V 2.3199937 C 23.586529,1.0399969 23.066531,-4.6730042e-7 21.653201,-4.6730042e-7 Z"
       id="path6294" />
  </g>
</svg>
