<?xml version="1.0" encoding="UTF-8" standalone="no"?>
<!-- Created with Inkscape (http://www.inkscape.org/) -->

<svg
   version="1.1"
   id="svg2"
   width="83.386147"
   height="9.4666433"
   viewBox="0 0 83.38615 9.4666433"
   sodipodi:docname="auto-simulationbuildandmanagement.svg"
   inkscape:version="1.1 (c68e22c387, 2021-05-23)"
   inkscape:export-filename="C:\Users\BUCH\Desktop\Retrogaming\Recalbox\travail thèmes\Thème vignette !!!!!!!\Maquette 2 !!!!\image1250.png"
   inkscape:export-xdpi="96.460785"
   inkscape:export-ydpi="96.460785"
   xmlns:inkscape="http://www.inkscape.org/namespaces/inkscape"
   xmlns:sodipodi="http://sodipodi.sourceforge.net/DTD/sodipodi-0.dtd"
   xmlns="http://www.w3.org/2000/svg"
   xmlns:svg="http://www.w3.org/2000/svg">
  <defs
     id="defs6">
    <clipPath
       clipPathUnits="userSpaceOnUse"
       id="clipPath3185">
      <path
         id="path3187"
         style="fill:#ffffff;fill-rule:evenodd;stroke:#ffffff;stroke-width:5.15903;stroke-linecap:round;stroke-linejoin:round;paint-order:stroke fill markers"
         d="m 1157.5591,335.78677 h 462.4206 L 1362.3723,1410.6277 H 899.95176 Z"
         sodipodi:nodetypes="ccccc"
         inkscape:export-filename="C:\Users\BUCH\Desktop\Retrogaming\Recalbox\travail thèmes\Thème vignette !!!!!!!\Maquette 2 !!!!\rect849.png"
         inkscape:export-xdpi="247.96268"
         inkscape:export-ydpi="247.96268" />
    </clipPath>
  </defs>
  <sodipodi:namedview
     id="namedview4"
     pagecolor="#ffffff"
     bordercolor="#666666"
     borderopacity="1.0"
     inkscape:pageshadow="2"
     inkscape:pageopacity="0.0"
     inkscape:pagecheckerboard="true"
     showgrid="false"
     inkscape:showpageshadow="false"
     inkscape:zoom="8.8242196"
     inkscape:cx="39.153604"
     inkscape:cy="9.179282"
     inkscape:window-width="1920"
     inkscape:window-height="1138"
     inkscape:window-x="-8"
     inkscape:window-y="-8"
     inkscape:window-maximized="1"
     inkscape:current-layer="svg2"
     fit-margin-top="0"
     fit-margin-left="0"
     fit-margin-right="0"
     fit-margin-bottom="0" />
  <g
     aria-label="build &amp; management"
     id="text2300"
     style="font-weight:300;font-size:13.3333px;line-height:1.25;font-family:'Bebas Neue';-inkscape-font-specification:'Bebas Neue, Light';fill:#ffffff"
     transform="translate(15.172638,-11.835137)">
    <path
       d="m -15.172638,11.901803 v 9.33331 h 1.879995 c 1.41333,0 1.973329,-0.826664 1.973329,-2.146661 v -0.826665 c 0,-1.079997 -0.413333,-1.839995 -1.519996,-1.999995 1.05333,-0.159999 1.33333,-0.786664 1.33333,-1.826662 v -0.599998 c 0,-1.25333 -0.439999,-1.933329 -1.799996,-1.933329 z m 0.293333,4.23999 v -3.95999 h 1.573329 c 1.17333,0 1.506663,0.573332 1.506663,1.666662 v 0.626665 c 0,1.359997 -0.573332,1.666663 -1.866662,1.666663 z m 0,4.813321 v -4.546655 h 1.346663 c 1.279997,0 1.919995,0.493332 1.919995,1.839995 v 0.839998 c 0,1.17333 -0.453332,1.866662 -1.679996,1.866662 z"
       id="path2485" />
    <path
       d="m -9.9993351,11.901803 h -0.2933329 v 7.026649 c 0,1.279997 0.5066657,2.373328 1.9333287,2.373328 1.4133298,0 1.9199952,-1.093331 1.9199952,-2.373328 v -7.026649 h -0.2799993 v 7.039983 c 0,1.119997 -0.399999,2.093328 -1.6399959,2.093328 -1.2399968,0 -1.6399958,-0.973331 -1.6399958,-2.093328 z"
       id="path2487" />
    <path
       d="m -5.386031,11.901803 v 9.33331 h 0.2933326 v -9.33331 z"
       id="path2489" />
    <path
       d="M -0.59938577,21.235113 V 20.955114 H -3.7327112 v -9.053311 h -0.2933326 v 9.33331 z"
       id="path2491" />
    <path
       d="m 0.41392147,11.901803 v 9.33331 H 2.3739165 c 1.4133298,0 2.0133283,-0.999997 2.0133283,-2.319994 v -4.679988 c 0,-1.33333 -0.5999985,-2.333328 -2.0266616,-2.333328 z m 0.29333259,9.053311 V 12.181803 H 2.3605832 c 1.2399969,0 1.733329,0.866664 1.733329,2.039995 v 4.706654 c 0,1.159997 -0.4799988,2.026662 -1.733329,2.026662 z"
       id="path2493" />
    <path
       d="m 10.933871,12.181803 v -0.28 H 9.7472071 c -1.5199962,0 -2.2533277,0.839998 -2.2533277,2.319995 v 0.253332 c 0,0.853331 0.399999,1.666663 1.2933301,1.879995 -0.8666645,0.266666 -1.2933301,1.066664 -1.2933301,1.933329 v 0.853331 c 0,1.239997 0.533332,2.159995 1.8266621,2.159995 0.7199985,0 1.3599965,-0.333333 1.6399955,-1.013331 0,0.359999 0.05333,0.639998 0.226666,0.946664 h 0.32 C 11.240537,20.835114 11.240537,20.435115 11.240537,19.96845 v -3.466658 h 0.559998 v -0.266666 h -0.559998 v -1.039998 h -0.293333 v 1.039998 H 9.2138751 C 8.2938774,16.168459 7.787212,15.395128 7.787212,14.51513 v -0.306666 c 0,-1.319996 0.6399984,-2.026661 1.9599951,-2.026661 z m 0.01333,4.319989 v 3.039992 c 0,0.919998 -0.666665,1.49333 -1.559996,1.49333 -1.1466638,0 -1.599996,-0.826665 -1.599996,-1.906662 v -0.853331 c 0,-0.959998 0.5466653,-1.693329 1.5066629,-1.773329 z"
       id="path2495" />
    <path
       d="m 20.080476,12.341802 v 8.893311 h 0.293333 v -9.33331 h -0.453332 l -2.293328,8.853311 -2.293327,-8.853311 h -0.453333 v 9.33331 h 0.266666 v -8.893311 l 2.306661,8.866645 h 0.333333 z"
       id="path2497" />
    <path
       d="m 25.533776,19.035119 0.546665,2.199994 h 0.293333 L 24.067113,11.88847 H 23.65378 l -2.253327,9.346643 h 0.266666 l 0.546665,-2.199994 z m -1.679996,-6.799983 1.626662,6.533317 h -3.213325 z"
       id="path2499" />
    <path
       d="m 27.680421,12.328469 3.333324,8.906644 h 0.36 v -9.33331 h -0.28 v 8.733312 l -3.279991,-8.733312 h -0.413333 v 9.33331 h 0.28 z"
       id="path2501" />
    <path
       d="m 36.533707,19.035119 0.546665,2.199994 h 0.293333 L 35.067044,11.88847 h -0.413332 l -2.253328,9.346643 h 0.266666 l 0.546665,-2.199994 z m -1.679996,-6.799983 1.626663,6.533317 h -3.213325 z"
       id="path2503" />
    <path
       d="m 40.32033,11.835137 c -1.41333,0 -1.946662,1.066664 -1.946662,2.359994 v 4.746655 c 0,1.29333 0.533332,2.359994 1.946662,2.359994 1.426663,0 1.959995,-1.066664 1.959995,-2.359994 v -2.373328 h -1.746663 v 0.266666 h 1.45333 v 2.119995 c 0,1.13333 -0.426666,2.066661 -1.653329,2.066661 -1.239997,0 -1.666663,-0.933331 -1.666663,-2.066661 v -4.773321 c 0,-1.133331 0.426666,-2.079995 1.666663,-2.079995 1.226663,0 1.653329,0.946664 1.653329,2.079995 v 0.626665 h 0.293333 v -0.613332 c 0,-1.29333 -0.533332,-2.359994 -1.959995,-2.359994 z"
       id="path2505" />
    <path
       d="m 43.626966,16.368459 v -4.186656 h 3.266659 v -0.28 h -3.559991 v 9.33331 h 3.559991 v -0.279999 h -3.266659 v -4.319989 h 2.74666 v -0.266666 z"
       id="path2507" />
    <path
       d="m 53.1336,12.341802 v 8.893311 h 0.293332 v -9.33331 H 52.9736 l -2.293327,8.853311 -2.293328,-8.853311 h -0.453332 v 9.33331 h 0.266666 v -8.893311 l 2.306661,8.866645 h 0.333332 z"
       id="path2509" />
    <path
       d="m 54.786909,16.368459 v -4.186656 h 3.266658 v -0.28 h -3.559991 v 9.33331 h 3.559991 v -0.279999 h -3.266658 v -4.319989 h 2.746659 v -0.266666 z"
       id="path2511" />
    <path
       d="m 59.373559,12.328469 3.333325,8.906644 h 0.359999 v -9.33331 h -0.28 v 8.733312 l -3.279991,-8.733312 h -0.413333 v 9.33331 h 0.28 z"
       id="path2513" />
    <path
       d="m 66.173517,21.235113 v -9.05331 h 2.039995 v -0.28 h -4.359989 v 0.28 h 2.026661 v 9.05331 z"
       id="path2515" />
  </g>
</svg>
