<?xml version="1.0" encoding="UTF-8" standalone="no"?>
<!-- Created with Inkscape (http://www.inkscape.org/) -->

<svg
   version="1.1"
   id="svg2"
   width="44.119778"
   height="9.4666424"
   viewBox="0 0 44.119779 9.4666423"
   sodipodi:docname="auto-arcade-banpresto.svg"
   inkscape:version="1.1 (c68e22c387, 2021-05-23)"
   inkscape:export-filename="C:\Users\BUCH\Desktop\Retrogaming\Recalbox\travail thèmes\Thème vignette !!!!!!!\Maquette 2 !!!!\image1250.png"
   inkscape:export-xdpi="96.460785"
   inkscape:export-ydpi="96.460785"
   xmlns:inkscape="http://www.inkscape.org/namespaces/inkscape"
   xmlns:sodipodi="http://sodipodi.sourceforge.net/DTD/sodipodi-0.dtd"
   xmlns="http://www.w3.org/2000/svg"
   xmlns:svg="http://www.w3.org/2000/svg">
  <defs
     id="defs6">
    <clipPath
       clipPathUnits="userSpaceOnUse"
       id="clipPath3185">
      <path
         id="path3187"
         style="fill:#ffffff;fill-rule:evenodd;stroke:#ffffff;stroke-width:5.15903;stroke-linecap:round;stroke-linejoin:round;paint-order:stroke fill markers"
         d="m 1157.5591,335.78677 h 462.4206 L 1362.3723,1410.6277 H 899.95176 Z"
         sodipodi:nodetypes="ccccc"
         inkscape:export-filename="C:\Users\BUCH\Desktop\Retrogaming\Recalbox\travail thèmes\Thème vignette !!!!!!!\Maquette 2 !!!!\rect849.png"
         inkscape:export-xdpi="247.96268"
         inkscape:export-ydpi="247.96268" />
    </clipPath>
  </defs>
  <sodipodi:namedview
     id="namedview4"
     pagecolor="#ffffff"
     bordercolor="#666666"
     borderopacity="1.0"
     inkscape:pageshadow="2"
     inkscape:pageopacity="0.0"
     inkscape:pagecheckerboard="true"
     showgrid="false"
     inkscape:showpageshadow="false"
     inkscape:zoom="12.479331"
     inkscape:cx="15.024844"
     inkscape:cy="5.3688775"
     inkscape:window-width="1920"
     inkscape:window-height="1138"
     inkscape:window-x="-8"
     inkscape:window-y="-8"
     inkscape:window-maximized="1"
     inkscape:current-layer="svg2"
     fit-margin-top="0"
     fit-margin-left="0"
     fit-margin-right="0"
     fit-margin-bottom="0" />
  <g
     aria-label="banpresto"
     id="text1715"
     style="font-weight:300;font-size:13.3333px;line-height:1.25;font-family:'Bebas Neue';-inkscape-font-specification:'Bebas Neue, Light';fill:#ffffff">
    <path
       d="M 0,0.06666603 V 9.3999758 h 1.8799952 c 1.4133298,0 1.9733284,-0.8266646 1.9733284,-2.1466613 V 6.42665 c 0,-1.0799973 -0.4133323,-1.8399954 -1.5199962,-1.999995 1.0533307,-0.1599996 1.33333,-0.7866647 1.33333,-1.826662 V 1.9999945 c 0,-1.25333019 -0.4399989,-1.93332847 -1.7999955,-1.93332847 z M 0.29333259,4.3066553 V 0.34666532 H 1.8666619 c 1.1733304,0 1.5066629,0.57333189 1.5066629,1.66666248 v 0.6266651 c 0,1.3599965 -0.5733319,1.6666624 -1.8666619,1.6666624 z m 0,4.8133212 V 4.5733213 H 1.6399959 c 1.2799967,0 1.9199951,0.4933321 1.9199951,1.8399954 v 0.8399978 c 0,1.1733304 -0.4533322,1.866662 -1.6799958,1.866662 z"
       id="path4204" />
    <path
       d="M 8.9866264,7.1999813 9.5332917,9.3999758 H 9.8266243 L 7.5199634,0.05333273 H 7.1066311 L 4.8533035,9.3999758 h 0.266666 L 5.6666348,7.1999813 Z M 7.3066306,0.39999852 8.9332932,6.9333153 H 5.719968 Z"
       id="path4206" />
    <path
       d="m 11.133269,0.49333162 3.333325,8.90664418 h 0.359999 V 0.06666603 H 14.546594 V 8.7999773 L 11.266602,0.06666603 H 10.85327 V 9.3999758 h 0.279999 z"
       id="path4208" />
    <path
       d="M 15.893234,0.06666603 V 9.3999758 h 0.293333 v -3.95999 h 1.33333 c 1.479996,0 2.146661,-0.7066649 2.146661,-2.1866612 V 2.3199937 c 0,-1.3066634 -0.493332,-2.25332767 -1.933328,-2.25332767 z M 16.186567,5.1599865 V 0.34666532 h 1.546663 c 1.25333,0 1.639995,0.81333128 1.639995,1.95999508 v 0.9599975 c 0,1.3199967 -0.546665,1.8933286 -1.853328,1.8933286 z"
       id="path4210" />
    <path
       d="M 20.679878,0.06666603 V 9.3999758 h 0.293333 V 5.09332 h 1.146664 c 1.21333,0 2.039994,0.3599991 2.039994,1.7333289 v 1.466663 c 0,0.399999 0.04,0.8133313 0.226667,1.1066639 h 0.319999 C 24.493202,9.1066432 24.453202,8.653311 24.453202,8.2933119 v -1.466663 c 0,-1.026664 -0.439999,-1.7066623 -1.479996,-1.8666619 1.026664,-0.1866662 1.479996,-0.8133313 1.479996,-1.959995 V 2.1599941 c 0,-1.27999679 -0.533332,-2.09332807 -1.919995,-2.09332807 z M 20.973211,4.8133207 V 0.34666532 h 1.546663 c 1.199997,0 1.639995,0.70666488 1.639995,1.83999538 v 0.8533311 c 0,1.4399964 -0.746664,1.7733289 -2.039994,1.7733289 z"
       id="path4212" />
    <path
       d="M 26.039854,4.5333214 V 0.34666532 h 3.266658 V 0.06666603 H 25.746521 V 9.3999758 h 3.559991 V 9.1199765 H 26.039854 V 4.7999874 h 2.746659 v -0.266666 z"
       id="path4214" />
    <path
       d="M 32.279829,-4.6730042e-7 C 30.933166,0.01333283 30.359834,0.94666381 30.359834,2.3066604 c 0,2.5733268 3.573324,2.493327 3.573324,4.853321 0,1.1333305 -0.439999,2.0266616 -1.666662,2.0266616 -1.226664,0 -1.666663,-0.8933311 -1.666663,-2.0266616 V 6.693316 h -0.279999 v 0.4533321 c 0,1.2933301 0.533332,2.3199942 1.946662,2.3199942 1.426663,0 1.959995,-1.0266641 1.959995,-2.3199942 0,-2.5333269 -3.573325,-2.4666604 -3.573325,-4.853321 0,-1.1066639 0.413333,-2.02666157 1.639996,-2.02666157 1.21333,0 1.626663,0.93333097 1.626663,2.03999487 v 0.1866662 h 0.293332 V 2.3199937 C 34.213157,1.0399969 33.693159,-4.6730042e-7 32.279829,-4.6730042e-7 Z"
       id="path4216" />
    <path
       d="M 37.306478,9.3999758 V 0.34666532 h 2.039995 V 0.06666603 h -4.359989 v 0.27999929 h 2.026662 V 9.3999758 Z"
       id="path4218" />
    <path
       d="m 40.146453,7.1066482 c 0,1.3066634 0.559999,2.3599941 1.973328,2.3599941 1.439997,0 1.999995,-1.0533307 1.999995,-2.3599941 V 2.3599936 C 44.119776,1.0533302 43.559778,-4.6730042e-7 42.119781,-4.6730042e-7 40.706452,-4.6730042e-7 40.146453,1.0533302 40.146453,2.3599936 Z m 0.293333,-4.7599879 c 0,-1.1466638 0.439998,-2.07999477 1.679995,-2.07999477 1.25333,0 1.706663,0.93333097 1.706663,2.07999477 v 4.7733212 c 0,1.1466638 -0.453333,2.0799948 -1.706663,2.0799948 -1.239997,0 -1.679995,-0.933331 -1.679995,-2.0799948 z"
       id="path4220" />
  </g>
</svg>
