<?xml version="1.0" encoding="UTF-8" standalone="no"?>
<!-- Created with Inkscape (http://www.inkscape.org/) -->

<svg
   version="1.1"
   id="svg2"
   width="42.879726"
   height="9.4666433"
   viewBox="0 0 42.879728 9.4666433"
   sodipodi:docname="auto-allgames.svg"
   inkscape:version="1.1 (c68e22c387, 2021-05-23)"
   inkscape:export-filename="C:\Users\BUCH\Desktop\Retrogaming\Recalbox\travail thèmes\Thème vignette !!!!!!!\Maquette 2 !!!!\image1250.png"
   inkscape:export-xdpi="96.460785"
   inkscape:export-ydpi="96.460785"
   xmlns:inkscape="http://www.inkscape.org/namespaces/inkscape"
   xmlns:sodipodi="http://sodipodi.sourceforge.net/DTD/sodipodi-0.dtd"
   xmlns="http://www.w3.org/2000/svg"
   xmlns:svg="http://www.w3.org/2000/svg">
  <g
     aria-label="all games"
     id="text1649"
     style="font-weight:300;font-size:13.3333px;line-height:1.25;font-family:'Bebas Neue';-inkscape-font-specification:'Bebas Neue, Light';fill:#ffffff"
     transform="translate(-0.8939946,19.41654)">
    <path
       d="m 5.0273175,-12.216558 0.5466653,2.199995 H 5.8673154 L 3.5606545,-19.363206 H 3.1473222 l -2.2533276,9.346643 h 0.266666 l 0.5466653,-2.199995 z m -1.6799958,-6.799983 1.6266626,6.533317 H 1.7606591 Z"
       id="path2442" />
    <path
       d="m 10.320619,-10.016563 v -0.28 H 7.1872933 v -9.05331 H 6.8939607 v 9.33331 z"
       id="path2444" />
    <path
       d="m 14.760584,-10.016563 v -0.28 h -3.133325 v -9.05331 h -0.293333 v 9.33331 z"
       id="path2446" />
    <path
       d="m 19.773867,-19.41654 c -1.41333,0 -1.946662,1.066664 -1.946662,2.359994 v 4.746655 c 0,1.29333 0.533332,2.3599941 1.946662,2.3599941 1.426663,0 1.959995,-1.0666641 1.959995,-2.3599941 v -2.373327 h -1.746663 v 0.266666 h 1.45333 v 2.119994 c 0,1.133331 -0.426665,2.066662 -1.653329,2.066662 -1.239997,0 -1.666662,-0.933331 -1.666662,-2.066662 v -4.773321 c 0,-1.13333 0.426665,-2.079995 1.666662,-2.079995 1.226664,0 1.653329,0.946665 1.653329,2.079995 v 0.626665 h 0.293333 v -0.613332 c 0,-1.29333 -0.533332,-2.359994 -1.959995,-2.359994 z"
       id="path2448" />
    <path
       d="m 26.867142,-12.216558 0.546665,2.199995 h 0.293333 l -2.306661,-9.346643 h -0.413332 l -2.253328,9.346643 h 0.266666 l 0.546666,-2.199995 z m -1.679996,-6.799983 1.626663,6.533317 h -3.213325 z"
       id="path2450" />
    <path
       d="m 33.933771,-18.909874 v 8.893311 h 0.293332 v -9.33331 h -0.453332 l -2.293327,8.853311 -2.293328,-8.853311 h -0.453332 v 9.33331 h 0.266666 v -8.893311 l 2.306661,8.866644 h 0.333332 z"
       id="path2452" />
    <path
       d="m 35.587084,-14.883218 v -4.186656 h 3.266658 v -0.279999 h -3.559991 v 9.33331 h 3.559991 v -0.28 h -3.266658 v -4.319989 h 2.746659 v -0.266666 z"
       id="path2454" />
    <path
       d="m 41.827059,-19.41654 c -1.346663,0.01333 -1.919995,0.946665 -1.919995,2.306661 0,2.573327 3.573324,2.493327 3.573324,4.853321 0,1.133331 -0.439999,2.026662 -1.666662,2.026662 -1.226664,0 -1.666663,-0.893331 -1.666663,-2.026662 v -0.466665 h -0.279999 v 0.453332 c 0,1.29333 0.533332,2.3199941 1.946662,2.3199941 1.426663,0 1.959995,-1.0266641 1.959995,-2.3199941 0,-2.533327 -3.573325,-2.46666 -3.573325,-4.853321 0,-1.106664 0.413333,-2.026662 1.639996,-2.026662 1.21333,0 1.626663,0.933331 1.626663,2.039995 v 0.186666 h 0.293332 v -0.173333 c 0,-1.279996 -0.519998,-2.319994 -1.933328,-2.319994 z"
       id="path2456" />
  </g>
  <defs
     id="defs6">
    <clipPath
       clipPathUnits="userSpaceOnUse"
       id="clipPath3185">
      <path
         id="path3187"
         style="fill:#ffffff;fill-rule:evenodd;stroke:#ffffff;stroke-width:5.15903;stroke-linecap:round;stroke-linejoin:round;paint-order:stroke fill markers"
         d="m 1157.5591,335.78677 h 462.4206 L 1362.3723,1410.6277 H 899.95176 Z"
         sodipodi:nodetypes="ccccc"
         inkscape:export-filename="C:\Users\BUCH\Desktop\Retrogaming\Recalbox\travail thèmes\Thème vignette !!!!!!!\Maquette 2 !!!!\rect849.png"
         inkscape:export-xdpi="247.96268"
         inkscape:export-ydpi="247.96268" />
    </clipPath>
  </defs>
  <sodipodi:namedview
     id="namedview4"
     pagecolor="#ffffff"
     bordercolor="#666666"
     borderopacity="1.0"
     inkscape:pageshadow="2"
     inkscape:pageopacity="0.0"
     inkscape:pagecheckerboard="true"
     showgrid="false"
     inkscape:showpageshadow="false"
     inkscape:zoom="12.479331"
     inkscape:cx="13.983121"
     inkscape:cy="3.045035"
     inkscape:window-width="1920"
     inkscape:window-height="1138"
     inkscape:window-x="-8"
     inkscape:window-y="-8"
     inkscape:window-maximized="1"
     inkscape:current-layer="svg2"
     fit-margin-top="0"
     fit-margin-left="0"
     fit-margin-right="0"
     fit-margin-bottom="0" />
</svg>
