<?xml version="1.0" encoding="UTF-8" standalone="no"?>
<!-- Created with Inkscape (http://www.inkscape.org/) -->

<svg
   version="1.1"
   id="svg2"
   width="43.079762"
   height="9.4133091"
   viewBox="0 0 43.079763 9.413309"
   sodipodi:docname="auto-actionbeatemup.svg"
   inkscape:version="1.1 (c68e22c387, 2021-05-23)"
   inkscape:export-filename="C:\Users\BUCH\Desktop\Retrogaming\Recalbox\travail thèmes\Thème vignette !!!!!!!\Maquette 2 !!!!\image1250.png"
   inkscape:export-xdpi="96.460785"
   inkscape:export-ydpi="96.460785"
   xmlns:inkscape="http://www.inkscape.org/namespaces/inkscape"
   xmlns:sodipodi="http://sodipodi.sourceforge.net/DTD/sodipodi-0.dtd"
   xmlns="http://www.w3.org/2000/svg"
   xmlns:svg="http://www.w3.org/2000/svg">
  <defs
     id="defs6">
    <clipPath
       clipPathUnits="userSpaceOnUse"
       id="clipPath3185">
      <path
         id="path3187"
         style="fill:#ffffff;fill-rule:evenodd;stroke:#ffffff;stroke-width:5.15903;stroke-linecap:round;stroke-linejoin:round;paint-order:stroke fill markers"
         d="m 1157.5591,335.78677 h 462.4206 L 1362.3723,1410.6277 H 899.95176 Z"
         sodipodi:nodetypes="ccccc"
         inkscape:export-filename="C:\Users\BUCH\Desktop\Retrogaming\Recalbox\travail thèmes\Thème vignette !!!!!!!\Maquette 2 !!!!\rect849.png"
         inkscape:export-xdpi="247.96268"
         inkscape:export-ydpi="247.96268" />
    </clipPath>
  </defs>
  <sodipodi:namedview
     id="namedview4"
     pagecolor="#ffffff"
     bordercolor="#666666"
     borderopacity="1.0"
     inkscape:pageshadow="2"
     inkscape:pageopacity="0.0"
     inkscape:pagecheckerboard="true"
     showgrid="false"
     inkscape:showpageshadow="false"
     inkscape:zoom="12.479331"
     inkscape:cx="28.006309"
     inkscape:cy="21.15498"
     inkscape:window-width="1920"
     inkscape:window-height="1138"
     inkscape:window-x="-8"
     inkscape:window-y="-8"
     inkscape:window-maximized="1"
     inkscape:current-layer="svg2"
     fit-margin-top="0"
     fit-margin-left="0"
     fit-margin-right="0"
     fit-margin-bottom="0" />
  <g
     aria-label="beat'em up"
     id="text3129"
     style="font-weight:300;font-size:13.3333px;line-height:1.25;font-family:'Bebas Neue';-inkscape-font-specification:'Bebas Neue, Light';fill:#ffffff"
     transform="translate(6.1977981,19.844001)">
    <path
       d="m -6.1977981,-19.830668 v 9.33331 h 1.8799952 c 1.4133298,0 1.9733284,-0.826665 1.9733284,-2.146662 v -0.826664 c 0,-1.079997 -0.4133323,-1.839995 -1.5199962,-1.999995 1.0533307,-0.16 1.33333,-0.786665 1.33333,-1.826662 v -0.599999 c 0,-1.25333 -0.4399989,-1.933328 -1.7999955,-1.933328 z m 0.2933326,4.239989 v -3.95999 h 1.5733293 c 1.1733304,0 1.5066629,0.573332 1.5066629,1.666663 v 0.626665 c 0,1.359996 -0.5733319,1.666662 -1.866662,1.666662 z m 0,4.813321 v -4.546655 h 1.3466632 c 1.2799968,0 1.9199952,0.493332 1.9199952,1.839996 v 0.839997 c 0,1.173331 -0.4533322,1.866662 -1.6799958,1.866662 z"
       id="path5572" />
    <path
       d="m -1.0111622,-15.364013 v -4.186656 h 3.2666585 v -0.279999 h -3.559991 v 9.33331 h 3.559991 v -0.28 h -3.2666585 v -4.319989 h 2.7466598 v -0.266666 z"
       id="path5574" />
    <path
       d="m 7.3888072,-12.697353 0.5466653,2.199995 H 8.228805 L 5.9221442,-19.844001 H 5.5088119 l -2.2533276,9.346643 h 0.266666 l 0.5466653,-2.199995 z m -1.6799958,-6.799983 1.6266626,6.533317 H 4.1221488 Z"
       id="path5576" />
    <path
       d="m 10.78878,-10.497358 v -9.053311 h 2.039994 v -0.279999 H 8.4687854 v 0.279999 h 2.0266616 v 9.053311 z"
       id="path5578" />
    <path
       d="m 13.642088,-19.844001 0.01333,2.146661 h 0.239999 l 0.02667,-2.146661 z"
       id="path5580" />
    <path
       d="m 15.282081,-15.364013 v -4.186656 h 3.266658 v -0.279999 h -3.559991 v 9.33331 h 3.559991 v -0.28 h -3.266658 v -4.319989 h 2.74666 v -0.266666 z"
       id="path5582" />
    <path
       d="m 24.788714,-19.390669 v 8.893311 h 0.293333 v -9.33331 h -0.453332 l -2.293328,8.853311 -2.293327,-8.853311 h -0.453332 v 9.33331 h 0.266666 v -8.893311 l 2.30666,8.866644 h 0.333333 z"
       id="path5584" />
    <path
       d="m 28.495337,-19.830668 h -0.293333 v 7.026649 c 0,1.279997 0.506665,2.373327 1.933329,2.373327 1.413329,0 1.919995,-1.09333 1.919995,-2.373327 v -7.026649 h -0.28 v 7.039982 c 0,1.119997 -0.399999,2.093328 -1.639995,2.093328 -1.239997,0 -1.639996,-0.973331 -1.639996,-2.093328 z"
       id="path5586" />
    <path
       d="m 33.10864,-19.830668 v 9.33331 h 0.293333 v -3.95999 h 1.33333 c 1.479996,0 2.146661,-0.706665 2.146661,-2.186661 v -0.933331 c 0,-1.306664 -0.493332,-2.253328 -1.933328,-2.253328 z m 0.293333,5.09332 v -4.813321 h 1.546663 c 1.25333,0 1.639996,0.813332 1.639996,1.959995 v 0.959998 c 0,1.319997 -0.546666,1.893328 -1.853329,1.893328 z"
       id="path5588" />
  </g>
</svg>
