<?xml version="1.0" encoding="UTF-8" standalone="no"?>
<!-- Created with Inkscape (http://www.inkscape.org/) -->

<svg
   version="1.1"
   id="svg2"
   width="50.533035"
   height="9.4666424"
   viewBox="0 0 50.533037 9.4666423"
   sodipodi:docname="auto-adventurerealtime3d.svg"
   inkscape:version="1.1 (c68e22c387, 2021-05-23)"
   inkscape:export-filename="C:\Users\BUCH\Desktop\Retrogaming\Recalbox\travail thèmes\Thème vignette !!!!!!!\Maquette 2 !!!!\image1250.png"
   inkscape:export-xdpi="96.460785"
   inkscape:export-ydpi="96.460785"
   xmlns:inkscape="http://www.inkscape.org/namespaces/inkscape"
   xmlns:sodipodi="http://sodipodi.sourceforge.net/DTD/sodipodi-0.dtd"
   xmlns="http://www.w3.org/2000/svg"
   xmlns:svg="http://www.w3.org/2000/svg">
  <defs
     id="defs6">
    <clipPath
       clipPathUnits="userSpaceOnUse"
       id="clipPath3185">
      <path
         id="path3187"
         style="fill:#ffffff;fill-rule:evenodd;stroke:#ffffff;stroke-width:5.15903;stroke-linecap:round;stroke-linejoin:round;paint-order:stroke fill markers"
         d="m 1157.5591,335.78677 h 462.4206 L 1362.3723,1410.6277 H 899.95176 Z"
         sodipodi:nodetypes="ccccc"
         inkscape:export-filename="C:\Users\BUCH\Desktop\Retrogaming\Recalbox\travail thèmes\Thème vignette !!!!!!!\Maquette 2 !!!!\rect849.png"
         inkscape:export-xdpi="247.96268"
         inkscape:export-ydpi="247.96268" />
    </clipPath>
  </defs>
  <sodipodi:namedview
     id="namedview4"
     pagecolor="#ffffff"
     bordercolor="#666666"
     borderopacity="1.0"
     inkscape:pageshadow="2"
     inkscape:pageopacity="0.0"
     inkscape:pagecheckerboard="true"
     showgrid="false"
     inkscape:showpageshadow="false"
     inkscape:zoom="12.479331"
     inkscape:cx="30.009622"
     inkscape:cy="15.225175"
     inkscape:window-width="1920"
     inkscape:window-height="1138"
     inkscape:window-x="-8"
     inkscape:window-y="-8"
     inkscape:window-maximized="1"
     inkscape:current-layer="svg2"
     fit-margin-top="0"
     fit-margin-left="0"
     fit-margin-right="0"
     fit-margin-bottom="0" />
  <g
     aria-label="real time 3d"
     id="text3691"
     style="font-weight:300;font-size:13.3333px;line-height:1.25;font-family:'Bebas Neue';-inkscape-font-specification:'Bebas Neue, Light';fill:#ffffff"
     transform="translate(-5.8220769,17.092696)">
    <path
       d="m 5.8220769,-17.02603 v 9.3333101 h 0.2933326 v -4.3066561 h 1.1466638 c 1.2133302,0 2.0399948,0.359999 2.0399948,1.733329 v 1.4666632 c 0,0.399999 0.04,0.8133313 0.2266661,1.1066639 H 9.8487334 C 9.6354006,-7.9860525 9.5954007,-8.4393847 9.5954007,-8.7993838 v -1.4666632 c 0,-1.026664 -0.4399989,-1.706662 -1.4799963,-1.866662 1.0266641,-0.186666 1.4799963,-0.813331 1.4799963,-1.959995 v -0.839998 c 0,-1.279996 -0.533332,-2.093328 -1.9199951,-2.093328 z m 0.2933326,4.746655 v -4.466655 h 1.5466628 c 1.1999969,0 1.6399958,0.706664 1.6399958,1.839995 v 0.853331 c 0,1.439996 -0.7466648,1.773329 -2.0399948,1.773329 z"
       id="path4062" />
    <path
       d="m 11.182052,-12.559374 v -4.186656 h 3.266659 v -0.28 H 10.88872 v 9.3333101 h 3.559991 v -0.2799993 h -3.266659 v -4.3199888 h 2.74666 v -0.266666 z"
       id="path4064" />
    <path
       d="m 19.582022,-9.8927144 0.546665,2.1999945 h 0.293333 l -2.306661,-9.3466431 h -0.413332 l -2.253328,9.3466431 h 0.266666 l 0.546665,-2.1999945 z m -1.679996,-6.7999826 1.626663,6.533317 h -3.213325 z"
       id="path4066" />
    <path
       d="M 24.875324,-7.6927199 V -7.9727192 H 21.741998 V -17.02603 h -0.293332 v 9.3333101 z"
       id="path4068" />
    <path
       d="M 29.995271,-7.6927199 V -16.74603 h 2.039995 v -0.28 h -4.359989 v 0.28 h 2.026662 v 9.0533101 z"
       id="path4070" />
    <path
       d="m 32.84858,-17.02603 v 9.3333101 h 0.293332 V -17.02603 Z"
       id="path4072" />
    <path
       d="m 39.408554,-16.586031 v 8.8933111 h 0.293332 V -17.02603 h -0.453332 l -2.293327,8.8533113 -2.293328,-8.8533113 h -0.453332 v 9.3333101 h 0.266666 v -8.8933111 l 2.306661,8.8666445 h 0.333332 z"
       id="path4074" />
    <path
       d="m 41.061866,-12.559374 v -4.186656 h 3.266659 v -0.28 h -3.559991 v 9.3333101 h 3.559991 v -0.2799993 h -3.266659 v -4.3199888 h 2.74666 v -0.266666 z"
       id="path4076" />
    <path
       d="m 49.381818,-17.092696 c -1.426663,0 -1.959995,1.05333 -1.959995,2.359994 v 0.266666 h 0.293332 v -0.279999 c 0,-1.146664 0.413333,-2.079995 1.653329,-2.079995 1.239997,0 1.666663,0.933331 1.666663,2.093328 v 0.266666 c 0,0.946664 -0.586665,1.693329 -1.53333,1.773329 h -0.693331 v 0.266666 h 0.679998 c 0.999998,0.05333 1.546663,0.706665 1.546663,1.719995 v 0.7066652 c 0,1.1599971 -0.426666,2.1066614 -1.666663,2.1066614 -1.239996,0 -1.653329,-0.9466643 -1.653329,-2.0933281 v -0.4399985 h -0.293332 v 0.4399985 c 0,1.3066634 0.533332,2.3599941 1.959995,2.3599941 1.426663,0 1.946661,-1.0533307 1.946661,-2.3599941 v -0.7199985 c 0,-0.906664 -0.439998,-1.639996 -1.333329,-1.866662 0.839997,-0.266666 1.333329,-1.039997 1.333329,-1.933328 v -0.226666 c 0,-1.306664 -0.519998,-2.359994 -1.946661,-2.359994 z"
       id="path4078" />
    <path
       d="m 52.381788,-17.02603 v 9.3333101 h 1.959995 c 1.41333,0 2.013329,-0.9999975 2.013329,-2.3199941 v -4.679988 c 0,-1.33333 -0.599999,-2.333328 -2.026662,-2.333328 z m 0.293333,9.0533108 V -16.74603 h 1.653329 c 1.239997,0 1.733329,0.866664 1.733329,2.039994 v 4.7066552 c 0,1.1599971 -0.479999,2.0266616 -1.733329,2.0266616 z"
       id="path4080" />
  </g>
</svg>
