<?xml version="1.0" encoding="UTF-8" standalone="no"?>
<!-- Created with Inkscape (http://www.inkscape.org/) -->

<svg
   version="1.1"
   id="svg2"
   width="74.89296"
   height="9.4666424"
   viewBox="0 0 74.892963 9.4666423"
   sodipodi:docname="auto-sportcompetitive.svg"
   inkscape:version="1.1 (c68e22c387, 2021-05-23)"
   inkscape:export-filename="C:\Users\BUCH\Desktop\Retrogaming\Recalbox\travail thèmes\Thème vignette !!!!!!!\Maquette 2 !!!!\image1250.png"
   inkscape:export-xdpi="96.460785"
   inkscape:export-ydpi="96.460785"
   xmlns:inkscape="http://www.inkscape.org/namespaces/inkscape"
   xmlns:sodipodi="http://sodipodi.sourceforge.net/DTD/sodipodi-0.dtd"
   xmlns="http://www.w3.org/2000/svg"
   xmlns:svg="http://www.w3.org/2000/svg">
  <defs
     id="defs6">
    <clipPath
       clipPathUnits="userSpaceOnUse"
       id="clipPath3185">
      <path
         id="path3187"
         style="fill:#ffffff;fill-rule:evenodd;stroke:#ffffff;stroke-width:5.15903;stroke-linecap:round;stroke-linejoin:round;paint-order:stroke fill markers"
         d="m 1157.5591,335.78677 h 462.4206 L 1362.3723,1410.6277 H 899.95176 Z"
         sodipodi:nodetypes="ccccc"
         inkscape:export-filename="C:\Users\BUCH\Desktop\Retrogaming\Recalbox\travail thèmes\Thème vignette !!!!!!!\Maquette 2 !!!!\rect849.png"
         inkscape:export-xdpi="247.96268"
         inkscape:export-ydpi="247.96268" />
    </clipPath>
  </defs>
  <sodipodi:namedview
     id="namedview4"
     pagecolor="#ffffff"
     bordercolor="#666666"
     borderopacity="1.0"
     inkscape:pageshadow="2"
     inkscape:pageopacity="0.0"
     inkscape:pagecheckerboard="true"
     showgrid="false"
     inkscape:showpageshadow="false"
     inkscape:zoom="8.8242196"
     inkscape:cx="37.907035"
     inkscape:cy="0.22664894"
     inkscape:window-width="1920"
     inkscape:window-height="1138"
     inkscape:window-x="-8"
     inkscape:window-y="-8"
     inkscape:window-maximized="1"
     inkscape:current-layer="svg2"
     fit-margin-top="0"
     fit-margin-left="0"
     fit-margin-right="0"
     fit-margin-bottom="0" />
  <g
     aria-label="competitive sport"
     id="text2128"
     style="font-weight:300;font-size:13.3333px;line-height:1.25;font-family:'Bebas Neue';-inkscape-font-specification:'Bebas Neue, Light';fill:#ffffff"
     transform="translate(0.7621213,-13.598052)">
    <path
       d="m 1.1845404,13.598052 c -1.41332972,0 -1.9466617,1.066664 -1.9466617,2.359994 V 20.7047 c 0,1.29333 0.53333198,2.359994 1.9466617,2.359994 1.4266631,0 1.9599951,-1.066664 1.9599951,-2.359994 V 19.691369 H 2.8512029 v 1.026665 c 0,1.13333 -0.4266656,2.066661 -1.6533292,2.066661 -1.23999682,0 -1.66666241,-0.933331 -1.66666241,-2.066661 v -4.773322 c 0,-1.13333 0.42666559,-2.079994 1.66666241,-2.079994 1.2266636,0 1.6533292,0.946664 1.6533292,2.079994 v 0.733332 h 0.2933326 v -0.719998 c 0,-1.29333 -0.533332,-2.359994 -1.9599951,-2.359994 z"
       id="path2841" />
    <path
       d="m 4.1711854,20.7047 c 0,1.306664 0.5599986,2.359994 1.9733283,2.359994 1.4399964,0 1.999995,-1.05333 1.999995,-2.359994 v -4.746654 c 0,-1.306664 -0.5599986,-2.359994 -1.999995,-2.359994 -1.4133297,0 -1.9733283,1.05333 -1.9733283,2.359994 z M 4.464518,15.944712 c 0,-1.146663 0.4399989,-2.079994 1.6799957,-2.079994 1.2533302,0 1.7066624,0.933331 1.7066624,2.079994 v 4.773322 c 0,1.146663 -0.4533322,2.079994 -1.7066624,2.079994 -1.2399968,0 -1.6799957,-0.933331 -1.6799957,-2.079994 z"
       id="path2843" />
    <path
       d="m 14.397819,14.104717 v 8.893311 h 0.293332 v -9.33331 H 14.237819 L 11.944492,22.518029 9.6511642,13.664718 H 9.197832 v 9.33331 h 0.266666 v -8.893311 l 2.306661,8.866644 h 0.333332 z"
       id="path2845" />
    <path
       d="m 15.757798,13.664718 v 9.33331 h 0.293333 v -3.95999 h 1.33333 c 1.479996,0 2.146661,-0.706665 2.146661,-2.186661 v -0.933331 c 0,-1.306664 -0.493332,-2.253328 -1.933329,-2.253328 z m 0.293333,5.093321 v -4.813322 h 1.546662 c 1.253331,0 1.639996,0.813332 1.639996,1.959995 v 0.959998 c 0,1.319997 -0.546665,1.893329 -1.853328,1.893329 z"
       id="path2847" />
    <path
       d="m 20.837775,18.131373 v -4.186656 h 3.266658 v -0.279999 h -3.559991 v 9.33331 h 3.559991 v -0.279999 h -3.266658 v -4.31999 h 2.746659 v -0.266666 z"
       id="path2849" />
    <path
       d="m 27.184416,22.998028 v -9.053311 h 2.039995 v -0.279999 h -4.359989 v 0.279999 h 2.026662 v 9.053311 z"
       id="path2851" />
    <path
       d="m 30.037724,13.664718 v 9.33331 h 0.293333 v -9.33331 z"
       id="path2853" />
    <path
       d="m 33.437706,22.998028 v -9.053311 h 2.039995 v -0.279999 h -4.359989 v 0.279999 h 2.026662 v 9.053311 z"
       id="path2855" />
    <path
       d="m 36.291015,13.664718 v 9.33331 h 0.293332 v -9.33331 z"
       id="path2857" />
    <path
       d="m 37.611004,13.664718 2.279994,9.33331 h 0.439999 l 2.239994,-9.33331 h -0.279999 l -2.186661,8.999977 -2.186661,-8.999977 z"
       id="path2859" />
    <path
       d="m 43.890976,18.131373 v -4.186656 h 3.266659 v -0.279999 h -3.559991 v 9.33331 h 3.559991 v -0.279999 h -3.266659 v -4.31999 h 2.74666 v -0.266666 z"
       id="path2861" />
    <path
       d="m 52.197594,13.598052 c -1.346663,0.01333 -1.919995,0.946664 -1.919995,2.30666 0,2.573327 3.573324,2.493327 3.573324,4.853321 0,1.133331 -0.439998,2.026662 -1.666662,2.026662 -1.226664,0 -1.666662,-0.893331 -1.666662,-2.026662 v -0.466665 h -0.28 V 20.7447 c 0,1.29333 0.533332,2.319994 1.946662,2.319994 1.426663,0 1.959995,-1.026664 1.959995,-2.319994 0,-2.533327 -3.573324,-2.46666 -3.573324,-4.853321 0,-1.106664 0.413332,-2.026661 1.639996,-2.026661 1.21333,0 1.626662,0.933331 1.626662,2.039994 v 0.186667 h 0.293333 v -0.173333 c 0,-1.279997 -0.519999,-2.319994 -1.933329,-2.319994 z"
       id="path2863" />
    <path
       d="m 55.184249,13.664718 v 9.33331 h 0.293332 v -3.95999 h 1.33333 c 1.479997,0 2.146662,-0.706665 2.146662,-2.186661 v -0.933331 c 0,-1.306664 -0.493332,-2.253328 -1.933329,-2.253328 z m 0.293332,5.093321 v -4.813322 h 1.546663 c 1.25333,0 1.639996,0.813332 1.639996,1.959995 v 0.959998 c 0,1.319997 -0.546665,1.893329 -1.853329,1.893329 z"
       id="path2865" />
    <path
       d="m 59.957559,20.7047 c 0,1.306664 0.559999,2.359994 1.973329,2.359994 1.439996,0 1.999995,-1.05333 1.999995,-2.359994 v -4.746654 c 0,-1.306664 -0.559999,-2.359994 -1.999995,-2.359994 -1.41333,0 -1.973329,1.05333 -1.973329,2.359994 z m 0.293333,-4.759988 c 0,-1.146663 0.439999,-2.079994 1.679996,-2.079994 1.25333,0 1.706662,0.933331 1.706662,2.079994 v 4.773322 c 0,1.146663 -0.453332,2.079994 -1.706662,2.079994 -1.239997,0 -1.679996,-0.933331 -1.679996,-2.079994 z"
       id="path2867" />
    <path
       d="m 64.984206,13.664718 v 9.33331 h 0.293333 v -4.306656 h 1.146663 c 1.213331,0 2.039995,0.359999 2.039995,1.733329 v 1.466663 c 0,0.399999 0.04,0.813331 0.226666,1.106664 h 0.32 C 68.79753,22.704695 68.75753,22.251363 68.75753,21.891364 v -1.466663 c 0,-1.026664 -0.439999,-1.706662 -1.479996,-1.866662 1.026664,-0.186666 1.479996,-0.813331 1.479996,-1.959995 v -0.839998 c 0,-1.279997 -0.533332,-2.093328 -1.919995,-2.093328 z m 0.293333,4.746655 v -4.466656 h 1.546662 c 1.199997,0 1.639996,0.706665 1.639996,1.839996 v 0.853331 c 0,1.439996 -0.746664,1.773329 -2.039995,1.773329 z"
       id="path2869" />
    <path
       d="m 72.090844,22.998028 v -9.053311 h 2.039995 V 13.664718 H 69.77085 v 0.279999 h 2.026661 v 9.053311 z"
       id="path2871" />
  </g>
</svg>
