<?xml version="1.0" encoding="UTF-8" standalone="no"?>
<!-- Created with Inkscape (http://www.inkscape.org/) -->

<svg
   version="1.1"
   id="svg2"
   width="40.653122"
   height="9.4666433"
   viewBox="0 0 40.653122 9.4666432"
   sodipodi:docname="auto-educative.svg"
   inkscape:version="1.1 (c68e22c387, 2021-05-23)"
   inkscape:export-filename="C:\Users\BUCH\Desktop\Retrogaming\Recalbox\travail thèmes\Thème vignette !!!!!!!\Maquette 2 !!!!\image1250.png"
   inkscape:export-xdpi="96.460785"
   inkscape:export-ydpi="96.460785"
   xmlns:inkscape="http://www.inkscape.org/namespaces/inkscape"
   xmlns:sodipodi="http://sodipodi.sourceforge.net/DTD/sodipodi-0.dtd"
   xmlns="http://www.w3.org/2000/svg"
   xmlns:svg="http://www.w3.org/2000/svg">
  <defs
     id="defs6">
    <clipPath
       clipPathUnits="userSpaceOnUse"
       id="clipPath3185">
      <path
         id="path3187"
         style="fill:#ffffff;fill-rule:evenodd;stroke:#ffffff;stroke-width:5.15903;stroke-linecap:round;stroke-linejoin:round;paint-order:stroke fill markers"
         d="m 1157.5591,335.78677 h 462.4206 L 1362.3723,1410.6277 H 899.95176 Z"
         sodipodi:nodetypes="ccccc"
         inkscape:export-filename="C:\Users\BUCH\Desktop\Retrogaming\Recalbox\travail thèmes\Thème vignette !!!!!!!\Maquette 2 !!!!\rect849.png"
         inkscape:export-xdpi="247.96268"
         inkscape:export-ydpi="247.96268" />
    </clipPath>
  </defs>
  <sodipodi:namedview
     id="namedview4"
     pagecolor="#ffffff"
     bordercolor="#666666"
     borderopacity="1.0"
     inkscape:pageshadow="2"
     inkscape:pageopacity="0.0"
     inkscape:pagecheckerboard="true"
     showgrid="false"
     inkscape:showpageshadow="false"
     inkscape:zoom="12.479331"
     inkscape:cx="24.079816"
     inkscape:cy="18.029813"
     inkscape:window-width="1920"
     inkscape:window-height="1138"
     inkscape:window-x="-8"
     inkscape:window-y="-8"
     inkscape:window-maximized="1"
     inkscape:current-layer="svg2"
     fit-margin-top="0"
     fit-margin-left="0"
     fit-margin-right="0"
     fit-margin-bottom="0" />
  <g
     aria-label="educative"
     id="text10834"
     style="font-weight:300;font-size:13.3333px;line-height:1.25;font-family:'Bebas Neue';-inkscape-font-specification:'Bebas Neue, Light';fill:#ffffff"
     transform="translate(-6.2227393,18.935744)">
    <path
       d="m 6.5160719,-14.402422 v -4.186656 h 3.2666584 v -0.279999 h -3.559991 v 9.3333094 h 3.559991 V -9.8157668 H 6.5160719 v -4.3199892 h 2.7466598 v -0.266666 z"
       id="path11613" />
    <path
       d="m 10.822719,-18.869077 v 9.3333094 h 1.959995 c 1.41333,0 2.013328,-0.9999974 2.013328,-2.3199944 v -4.679988 c 0,-1.33333 -0.599998,-2.333327 -2.026662,-2.333327 z m 0.293332,9.0533102 v -8.7733112 h 1.653329 c 1.239997,0 1.733329,0.866664 1.733329,2.039995 v 4.706655 c 0,1.159997 -0.479998,2.0266612 -1.733329,2.0266612 z"
       id="path11615" />
    <path
       d="m 16.116031,-18.869077 h -0.293332 v 7.026649 c 0,1.279996 0.506665,2.3733269 1.933328,2.3733269 1.41333,0 1.919995,-1.0933309 1.919995,-2.3733269 v -7.026649 h -0.279999 v 7.039982 c 0,1.119997 -0.399999,2.093328 -1.639996,2.093328 -1.239997,0 -1.639996,-0.973331 -1.639996,-2.093328 z"
       id="path11617" />
    <path
       d="m 22.662663,-18.935744 c -1.413329,0 -1.946661,1.066664 -1.946661,2.359994 v 4.746655 c 0,1.29333 0.533332,2.3599939 1.946661,2.3599939 1.426663,0 1.959995,-1.0666639 1.959995,-2.3599939 v -1.013331 h -0.293332 v 1.026664 c 0,1.133331 -0.426666,2.0666617 -1.653329,2.0666617 -1.239997,0 -1.666663,-0.9333307 -1.666663,-2.0666617 v -4.773321 c 0,-1.133331 0.426666,-2.079995 1.666663,-2.079995 1.226663,0 1.653329,0.946664 1.653329,2.079995 v 0.733331 h 0.293332 v -0.719998 c 0,-1.29333 -0.533332,-2.359994 -1.959995,-2.359994 z"
       id="path11619" />
    <path
       d="m 29.755966,-11.735762 0.546665,2.1999944 h 0.293332 l -2.30666,-9.3466434 H 27.87597 l -2.253327,9.3466434 h 0.266666 l 0.546665,-2.1999944 z m -1.679996,-6.799983 1.626662,6.533317 h -3.213325 z"
       id="path11621" />
    <path
       d="m 33.155936,-9.5357676 v -9.0533104 h 2.039995 v -0.279999 h -4.359989 v 0.279999 h 2.026661 v 9.0533104 z"
       id="path11623" />
    <path
       d="m 36.009246,-18.869077 v 9.3333094 h 0.293333 v -9.3333094 z"
       id="path11625" />
    <path
       d="m 37.329231,-18.869077 2.279995,9.3333094 h 0.439999 l 2.239994,-9.3333094 H 42.00922 l -2.186662,8.999977 -2.186661,-8.999977 z"
       id="path11627" />
    <path
       d="m 43.609204,-14.402422 v -4.186656 h 3.266658 v -0.279999 h -3.559991 v 9.3333094 h 3.559991 v -0.2799992 h -3.266658 v -4.3199892 h 2.74666 v -0.266666 z"
       id="path11629" />
  </g>
</svg>
