<?xml version="1.0" encoding="UTF-8" standalone="no"?>
<!-- Created with Inkscape (http://www.inkscape.org/) -->

<svg
   version="1.1"
   id="svg2"
   width="28.213173"
   height="9.3999758"
   viewBox="0 0 28.213173 9.3999756"
   sodipodi:docname="auto-puzzleandlogic.svg"
   inkscape:version="1.1 (c68e22c387, 2021-05-23)"
   inkscape:export-filename="C:\Users\BUCH\Desktop\Retrogaming\Recalbox\travail thèmes\Thème vignette !!!!!!!\Maquette 2 !!!!\image1250.png"
   inkscape:export-xdpi="96.460785"
   inkscape:export-ydpi="96.460785"
   xmlns:inkscape="http://www.inkscape.org/namespaces/inkscape"
   xmlns:sodipodi="http://sodipodi.sourceforge.net/DTD/sodipodi-0.dtd"
   xmlns="http://www.w3.org/2000/svg"
   xmlns:svg="http://www.w3.org/2000/svg">
  <defs
     id="defs6">
    <clipPath
       clipPathUnits="userSpaceOnUse"
       id="clipPath3185">
      <path
         id="path3187"
         style="fill:#ffffff;fill-rule:evenodd;stroke:#ffffff;stroke-width:5.15903;stroke-linecap:round;stroke-linejoin:round;paint-order:stroke fill markers"
         d="m 1157.5591,335.78677 h 462.4206 L 1362.3723,1410.6277 H 899.95176 Z"
         sodipodi:nodetypes="ccccc"
         inkscape:export-filename="C:\Users\BUCH\Desktop\Retrogaming\Recalbox\travail thèmes\Thème vignette !!!!!!!\Maquette 2 !!!!\rect849.png"
         inkscape:export-xdpi="247.96268"
         inkscape:export-ydpi="247.96268" />
    </clipPath>
  </defs>
  <sodipodi:namedview
     id="namedview4"
     pagecolor="#ffffff"
     bordercolor="#666666"
     borderopacity="1.0"
     inkscape:pageshadow="2"
     inkscape:pageopacity="0.0"
     inkscape:pagecheckerboard="true"
     showgrid="false"
     inkscape:showpageshadow="false"
     inkscape:zoom="12.479331"
     inkscape:cx="26.403659"
     inkscape:cy="22.597365"
     inkscape:window-width="1920"
     inkscape:window-height="1138"
     inkscape:window-x="-8"
     inkscape:window-y="-8"
     inkscape:window-maximized="1"
     inkscape:current-layer="svg2"
     fit-margin-top="0"
     fit-margin-left="0"
     fit-margin-right="0"
     fit-margin-bottom="0" />
  <g
     aria-label="puzzle"
     id="text6235"
     style="font-weight:300;font-size:13.3333px;line-height:1.25;font-family:'Bebas Neue';-inkscape-font-specification:'Bebas Neue, Light';fill:#ffffff"
     transform="translate(-0.37306699,15.663777)">
    <path
       d="m 0.37306699,-15.663777 v 9.3333093 H 0.66639958 V -10.290458 H 1.9997295 c 1.4799963,0 2.1466613,-0.706665 2.1466613,-2.186661 v -0.933331 c 0,-1.306663 -0.4933321,-2.253327 -1.9333285,-2.253327 z m 0.29333259,5.09332 v -4.813321 H 2.2130623 c 1.2533302,0 1.6399959,0.813331 1.6399959,1.959995 v 0.959997 c 0,1.319997 -0.5466653,1.893329 -1.8533287,1.893329 z"
       id="path6684" />
    <path
       d="M 5.4397107,-15.663777 H 5.1463781 v 7.0266485 c 0,1.2799967 0.5066654,2.3733273 1.9333285,2.3733273 1.4133298,0 1.9199951,-1.0933306 1.9199951,-2.3733273 V -15.663777 H 8.7197024 v 7.0399818 c 0,1.1199971 -0.3999989,2.093328 -1.6399958,2.093328 -1.2399969,0 -1.6399959,-0.9733309 -1.6399959,-2.093328 z"
       id="path6686" />
    <path
       d="m 14.199671,-6.610467 h -3.866657 l 3.933324,-8.759978 v -0.293332 h -4.053324 v 0.279999 h 3.733324 l -3.91999,8.773311 v 0.2799993 h 4.173323 z"
       id="path6688" />
    <path
       d="m 19.466305,-6.610467 h -3.866657 l 3.933324,-8.759978 v -0.293332 h -4.053324 v 0.279999 h 3.733324 l -3.91999,8.773311 v 0.2799993 h 4.173323 z"
       id="path6690" />
    <path
       d="M 24.01294,-6.3304677 V -6.610467 h -3.133326 v -9.05331 h -0.293332 v 9.3333093 z"
       id="path6692" />
    <path
       d="m 25.319581,-11.197122 v -4.186656 h 3.266658 v -0.279999 h -3.559991 v 9.3333093 h 3.559991 V -6.610467 h -3.266658 v -4.319989 h 2.746659 v -0.266666 z"
       id="path6694" />
  </g>
</svg>
