<?xml version="1.0" encoding="UTF-8" standalone="no"?>
<!-- Created with Inkscape (http://www.inkscape.org/) -->

<svg
   version="1.1"
   id="svg2"
   width="72.119614"
   height="9.4666433"
   viewBox="0 0 72.119617 9.4666433"
   sodipodi:docname="auto-arcade-technos.svg"
   inkscape:version="1.1 (c68e22c387, 2021-05-23)"
   inkscape:export-filename="C:\Users\BUCH\Desktop\Retrogaming\Recalbox\travail thèmes\Thème vignette !!!!!!!\Maquette 2 !!!!\image1250.png"
   inkscape:export-xdpi="96.460785"
   inkscape:export-ydpi="96.460785"
   xmlns:inkscape="http://www.inkscape.org/namespaces/inkscape"
   xmlns:sodipodi="http://sodipodi.sourceforge.net/DTD/sodipodi-0.dtd"
   xmlns="http://www.w3.org/2000/svg"
   xmlns:svg="http://www.w3.org/2000/svg">
  <defs
     id="defs6">
    <clipPath
       clipPathUnits="userSpaceOnUse"
       id="clipPath3185">
      <path
         id="path3187"
         style="fill:#ffffff;fill-rule:evenodd;stroke:#ffffff;stroke-width:5.15903;stroke-linecap:round;stroke-linejoin:round;paint-order:stroke fill markers"
         d="m 1157.5591,335.78677 h 462.4206 L 1362.3723,1410.6277 H 899.95176 Z"
         sodipodi:nodetypes="ccccc"
         inkscape:export-filename="C:\Users\BUCH\Desktop\Retrogaming\Recalbox\travail thèmes\Thème vignette !!!!!!!\Maquette 2 !!!!\rect849.png"
         inkscape:export-xdpi="247.96268"
         inkscape:export-ydpi="247.96268" />
    </clipPath>
  </defs>
  <sodipodi:namedview
     id="namedview4"
     pagecolor="#ffffff"
     bordercolor="#666666"
     borderopacity="1.0"
     inkscape:pageshadow="2"
     inkscape:pageopacity="0.0"
     inkscape:pagecheckerboard="true"
     showgrid="false"
     inkscape:showpageshadow="false"
     inkscape:zoom="12.479331"
     inkscape:cx="35.218234"
     inkscape:cy="9.1351051"
     inkscape:window-width="1920"
     inkscape:window-height="1138"
     inkscape:window-x="-8"
     inkscape:window-y="-8"
     inkscape:window-maximized="1"
     inkscape:current-layer="svg2"
     fit-margin-top="0"
     fit-margin-left="0"
     fit-margin-right="0"
     fit-margin-bottom="0" />
  <g
     aria-label="technos classics"
     id="text945"
     style="font-weight:300;font-size:13.3333px;line-height:1.25;font-family:'Bebas Neue';-inkscape-font-specification:'Bebas Neue, Light';fill:#ffffff"
     transform="translate(1.9102449,-19.768254)">
    <path
       d="M 0.40974927,29.16823 V 20.11492 H 2.4497441 v -0.28 h -4.359989 v 0.28 h 2.02666158 v 9.05331 z"
       id="path1592" />
    <path
       d="M 3.5563904,24.301576 V 20.11492 h 3.2666584 v -0.28 h -3.559991 v 9.33331 h 3.559991 V 28.888231 H 3.5563904 v -4.319989 h 2.7466597 v -0.266666 z"
       id="path1594" />
    <path
       d="m 9.7963652,19.768254 c -1.4133298,0 -1.9466618,1.066664 -1.9466618,2.359994 v 4.746655 c 0,1.29333 0.533332,2.359994 1.9466618,2.359994 1.4266628,0 1.9599948,-1.066664 1.9599948,-2.359994 v -1.013331 h -0.293332 v 1.026664 c 0,1.13333 -0.426666,2.066661 -1.6533295,2.066661 -1.2399969,0 -1.6666625,-0.933331 -1.6666625,-2.066661 v -4.773321 c 0,-1.133331 0.4266656,-2.079995 1.6666625,-2.079995 1.2266635,0 1.6533295,0.946664 1.6533295,2.079995 v 0.733331 h 0.293332 v -0.719998 c 0,-1.29333 -0.533332,-2.359994 -1.9599948,-2.359994 z"
       id="path1596" />
    <path
       d="m 16.463002,24.634908 v 4.533322 h 0.293332 v -9.33331 h -0.293332 v 4.533322 H 13.089677 V 19.83492 h -0.293333 v 9.33331 h 0.293333 v -4.533322 z"
       id="path1598" />
    <path
       d="m 18.102982,20.261586 3.333325,8.906644 h 0.359999 v -9.33331 h -0.28 v 8.733312 L 18.236315,19.83492 h -0.413333 v 9.33331 h 0.28 z"
       id="path1600" />
    <path
       d="m 22.849616,26.874903 c 0,1.306663 0.559998,2.359994 1.973328,2.359994 1.439996,0 1.999995,-1.053331 1.999995,-2.359994 v -4.746655 c 0,-1.306664 -0.559999,-2.359994 -1.999995,-2.359994 -1.41333,0 -1.973328,1.05333 -1.973328,2.359994 z m 0.293332,-4.759988 c 0,-1.146664 0.439999,-2.079995 1.679996,-2.079995 1.25333,0 1.706662,0.933331 1.706662,2.079995 v 4.773321 c 0,1.146664 -0.453332,2.079995 -1.706662,2.079995 -1.239997,0 -1.679996,-0.933331 -1.679996,-2.079995 z"
       id="path1602" />
    <path
       d="m 29.809591,19.768254 c -1.346664,0.01333 -1.919995,0.946664 -1.919995,2.306661 0,2.573326 3.573324,2.493327 3.573324,4.853321 0,1.13333 -0.439999,2.026661 -1.666663,2.026661 -1.226663,0 -1.666662,-0.893331 -1.666662,-2.026661 V 26.46157 h -0.279999 v 0.453332 c 0,1.29333 0.533332,2.319995 1.946661,2.319995 1.426664,0 1.959995,-1.026665 1.959995,-2.319995 0,-2.533327 -3.573324,-2.46666 -3.573324,-4.853321 0,-1.106664 0.413332,-2.026661 1.639996,-2.026661 1.21333,0 1.626663,0.933331 1.626663,2.039995 v 0.186666 h 0.293332 v -0.173333 c 0,-1.279997 -0.519998,-2.319994 -1.933328,-2.319994 z"
       id="path1604" />
    <path
       d="m 36.796216,19.768254 c -1.413329,0 -1.946661,1.066664 -1.946661,2.359994 v 4.746655 c 0,1.29333 0.533332,2.359994 1.946661,2.359994 1.426663,0 1.959995,-1.066664 1.959995,-2.359994 v -1.013331 h -0.293332 v 1.026664 c 0,1.13333 -0.426666,2.066661 -1.653329,2.066661 -1.239997,0 -1.666663,-0.933331 -1.666663,-2.066661 v -4.773321 c 0,-1.133331 0.426666,-2.079995 1.666663,-2.079995 1.226663,0 1.653329,0.946664 1.653329,2.079995 v 0.733331 h 0.293332 v -0.719998 c 0,-1.29333 -0.533332,-2.359994 -1.959995,-2.359994 z"
       id="path1606" />
    <path
       d="M 43.222854,29.16823 V 28.888231 H 40.089528 V 19.83492 h -0.293332 v 9.33331 z"
       id="path1608" />
    <path
       d="m 48.329483,26.968236 0.546665,2.199994 h 0.293333 L 46.86282,19.821587 H 46.449488 L 44.19616,29.16823 h 0.266666 l 0.546665,-2.199994 z m -1.679996,-6.799983 1.626663,6.533317 h -3.213326 z"
       id="path1610" />
    <path
       d="m 52.129453,19.768254 c -1.346663,0.01333 -1.919995,0.946664 -1.919995,2.306661 0,2.573326 3.573324,2.493327 3.573324,4.853321 0,1.13333 -0.439999,2.026661 -1.666662,2.026661 -1.226664,0 -1.666663,-0.893331 -1.666663,-2.026661 V 26.46157 h -0.279999 v 0.453332 c 0,1.29333 0.533332,2.319995 1.946662,2.319995 1.426663,0 1.959995,-1.026665 1.959995,-2.319995 0,-2.533327 -3.573324,-2.46666 -3.573324,-4.853321 0,-1.106664 0.413332,-2.026661 1.639995,-2.026661 1.213331,0 1.626663,0.933331 1.626663,2.039995 v 0.186666 h 0.293333 v -0.173333 c 0,-1.279997 -0.519999,-2.319994 -1.933329,-2.319994 z"
       id="path1612" />
    <path
       d="m 57.049436,19.768254 c -1.346663,0.01333 -1.919995,0.946664 -1.919995,2.306661 0,2.573326 3.573324,2.493327 3.573324,4.853321 0,1.13333 -0.439999,2.026661 -1.666662,2.026661 -1.226664,0 -1.666663,-0.893331 -1.666663,-2.026661 V 26.46157 h -0.279999 v 0.453332 c 0,1.29333 0.533332,2.319995 1.946662,2.319995 1.426663,0 1.959995,-1.026665 1.959995,-2.319995 0,-2.533327 -3.573325,-2.46666 -3.573325,-4.853321 0,-1.106664 0.413333,-2.026661 1.639996,-2.026661 1.213331,0 1.626663,0.933331 1.626663,2.039995 v 0.186666 h 0.293332 v -0.173333 c 0,-1.279997 -0.519998,-2.319994 -1.933328,-2.319994 z"
       id="path1614" />
    <path
       d="m 60.036087,19.83492 v 9.33331 h 0.293332 v -9.33331 z"
       id="path1616" />
    <path
       d="m 63.329404,19.768254 c -1.413329,0 -1.946661,1.066664 -1.946661,2.359994 v 4.746655 c 0,1.29333 0.533332,2.359994 1.946661,2.359994 1.426663,0 1.959995,-1.066664 1.959995,-2.359994 v -1.013331 h -0.293332 v 1.026664 c 0,1.13333 -0.426666,2.066661 -1.653329,2.066661 -1.239997,0 -1.666663,-0.933331 -1.666663,-2.066661 v -4.773321 c 0,-1.133331 0.426666,-2.079995 1.666663,-2.079995 1.226663,0 1.653329,0.946664 1.653329,2.079995 v 0.733331 h 0.293332 v -0.719998 c 0,-1.29333 -0.533332,-2.359994 -1.959995,-2.359994 z"
       id="path1618" />
    <path
       d="m 68.262708,19.768254 c -1.346663,0.01333 -1.919995,0.946664 -1.919995,2.306661 0,2.573326 3.573324,2.493327 3.573324,4.853321 0,1.13333 -0.439999,2.026661 -1.666662,2.026661 -1.226664,0 -1.666663,-0.893331 -1.666663,-2.026661 V 26.46157 h -0.279999 v 0.453332 c 0,1.29333 0.533332,2.319995 1.946662,2.319995 1.426663,0 1.959995,-1.026665 1.959995,-2.319995 0,-2.533327 -3.573324,-2.46666 -3.573324,-4.853321 0,-1.106664 0.413332,-2.026661 1.639995,-2.026661 1.213331,0 1.626663,0.933331 1.626663,2.039995 v 0.186666 h 0.293333 v -0.173333 c 0,-1.279997 -0.519999,-2.319994 -1.933329,-2.319994 z"
       id="path1620" />
  </g>
</svg>
