<?xml version="1.0" encoding="UTF-8" standalone="no"?>
<!-- Created with Inkscape (http://www.inkscape.org/) -->

<svg
   version="1.1"
   id="svg2"
   width="53.933014"
   height="9.4666433"
   viewBox="0 0 53.933015 9.4666432"
   sodipodi:docname="auto-board.svg"
   inkscape:version="1.1 (c68e22c387, 2021-05-23)"
   inkscape:export-filename="C:\Users\BUCH\Desktop\Retrogaming\Recalbox\travail thèmes\Thème vignette !!!!!!!\Maquette 2 !!!!\image1250.png"
   inkscape:export-xdpi="96.460785"
   inkscape:export-ydpi="96.460785"
   xmlns:inkscape="http://www.inkscape.org/namespaces/inkscape"
   xmlns:sodipodi="http://sodipodi.sourceforge.net/DTD/sodipodi-0.dtd"
   xmlns="http://www.w3.org/2000/svg"
   xmlns:svg="http://www.w3.org/2000/svg">
  <defs
     id="defs6">
    <clipPath
       clipPathUnits="userSpaceOnUse"
       id="clipPath3185">
      <path
         id="path3187"
         style="fill:#ffffff;fill-rule:evenodd;stroke:#ffffff;stroke-width:5.15903;stroke-linecap:round;stroke-linejoin:round;paint-order:stroke fill markers"
         d="m 1157.5591,335.78677 h 462.4206 L 1362.3723,1410.6277 H 899.95176 Z"
         sodipodi:nodetypes="ccccc"
         inkscape:export-filename="C:\Users\BUCH\Desktop\Retrogaming\Recalbox\travail thèmes\Thème vignette !!!!!!!\Maquette 2 !!!!\rect849.png"
         inkscape:export-xdpi="247.96268"
         inkscape:export-ydpi="247.96268" />
    </clipPath>
  </defs>
  <sodipodi:namedview
     id="namedview4"
     pagecolor="#ffffff"
     bordercolor="#666666"
     borderopacity="1.0"
     inkscape:pageshadow="2"
     inkscape:pageopacity="0.0"
     inkscape:pagecheckerboard="true"
     showgrid="false"
     inkscape:showpageshadow="false"
     inkscape:zoom="12.479331"
     inkscape:cx="30.009622"
     inkscape:cy="6.6509976"
     inkscape:window-width="1920"
     inkscape:window-height="1138"
     inkscape:window-x="-8"
     inkscape:window-y="-8"
     inkscape:window-maximized="1"
     inkscape:current-layer="svg2"
     fit-margin-top="0"
     fit-margin-left="0"
     fit-margin-right="0"
     fit-margin-bottom="0" />
  <g
     aria-label="board games"
     id="text3680"
     style="font-weight:300;font-size:13.3333px;line-height:1.25;font-family:'Bebas Neue';-inkscape-font-specification:'Bebas Neue, Light';fill:#ffffff"
     transform="translate(-1.5750545,-16.883484)">
    <path
       d="m 1.5750545,16.950151 v 9.33331 h 1.8799953 c 1.4133297,0 1.9733283,-0.826665 1.9733283,-2.146662 v -0.826664 c 0,-1.079997 -0.4133323,-1.839996 -1.5199961,-1.999995 1.0533306,-0.16 1.3333299,-0.786665 1.3333299,-1.826662 v -0.599999 c 0,-1.25333 -0.4399989,-1.933328 -1.7999954,-1.933328 z m 0.2933326,4.239989 v -3.95999 h 1.5733294 c 1.1733303,0 1.5066628,0.573332 1.5066628,1.666663 v 0.626665 c 0,1.359996 -0.5733319,1.666662 -1.8666619,1.666662 z m 0,4.813321 v -4.546655 h 1.3466633 c 1.2799967,0 1.9199951,0.493332 1.9199951,1.839995 v 0.839998 c 0,1.173331 -0.4533322,1.866662 -1.6799957,1.866662 z"
       id="path4063" />
    <path
       d="m 6.4550246,23.990133 c 0,1.306663 0.5599986,2.359994 1.9733284,2.359994 1.4399963,0 1.999995,-1.053331 1.999995,-2.359994 v -4.746655 c 0,-1.306663 -0.5599987,-2.359994 -1.999995,-2.359994 -1.4133298,0 -1.9733284,1.053331 -1.9733284,2.359994 z m 0.2933326,-4.759988 c 0,-1.146664 0.4399989,-2.079995 1.6799958,-2.079995 1.2533301,0 1.706662,0.933331 1.706662,2.079995 v 4.773321 c 0,1.146664 -0.4533319,2.079995 -1.706662,2.079995 -1.2399969,0 -1.6799958,-0.933331 -1.6799958,-2.079995 z"
       id="path4065" />
    <path
       d="m 15.561642,24.083466 0.546666,2.199995 h 0.293332 l -2.306661,-9.346643 h -0.413332 l -2.253328,9.346643 h 0.266666 l 0.546666,-2.199995 z m -1.679995,-6.799983 1.626662,6.533317 h -3.213325 z"
       id="path4067" />
    <path
       d="m 17.428286,16.950151 v 9.33331 h 0.293333 v -4.306656 h 1.146663 c 1.213331,0 2.039995,0.359999 2.039995,1.733329 v 1.466663 c 0,0.399999 0.04,0.813331 0.226666,1.106664 h 0.319999 C 21.24161,25.990128 21.20161,25.536796 21.20161,25.176797 v -1.466663 c 0,-1.026664 -0.439999,-1.706663 -1.479997,-1.866662 1.026665,-0.186666 1.479997,-0.813331 1.479997,-1.959995 v -0.839998 c 0,-1.279997 -0.533332,-2.093328 -1.919995,-2.093328 z m 0.293333,4.746655 V 17.23015 h 1.546662 c 1.199997,0 1.639996,0.706665 1.639996,1.839996 v 0.853331 c 0,1.439996 -0.746665,1.773329 -2.039995,1.773329 z"
       id="path4069" />
    <path
       d="m 22.494929,16.950151 v 9.33331 h 1.959995 c 1.41333,0 2.013328,-0.999998 2.013328,-2.319995 v -4.679988 c 0,-1.33333 -0.599998,-2.333327 -2.026662,-2.333327 z m 0.293332,9.05331 V 17.23015 h 1.653329 c 1.239997,0 1.733329,0.866665 1.733329,2.039995 V 23.9768 c 0,1.159997 -0.479998,2.026661 -1.733329,2.026661 z"
       id="path4071" />
    <path
       d="m 31.508215,16.883484 c -1.41333,0 -1.946662,1.066664 -1.946662,2.359994 v 4.746655 c 0,1.29333 0.533332,2.359994 1.946662,2.359994 1.426663,0 1.959995,-1.066664 1.959995,-2.359994 v -2.373327 h -1.746662 v 0.266666 h 1.45333 v 2.119994 c 0,1.133331 -0.426666,2.066662 -1.65333,2.066662 -1.239996,0 -1.666662,-0.933331 -1.666662,-2.066662 v -4.773321 c 0,-1.13333 0.426666,-2.079995 1.666662,-2.079995 1.226664,0 1.65333,0.946665 1.65333,2.079995 v 0.626665 h 0.293332 v -0.613332 c 0,-1.29333 -0.533332,-2.359994 -1.959995,-2.359994 z"
       id="path4073" />
    <path
       d="m 38.601491,24.083466 0.546665,2.199995 h 0.293332 l -2.30666,-9.346643 h -0.413333 l -2.253327,9.346643 h 0.266666 l 0.546665,-2.199995 z m -1.679996,-6.799983 1.626662,6.533317 h -3.213325 z"
       id="path4075" />
    <path
       d="m 45.668123,17.39015 v 8.893311 h 0.293333 v -9.33331 h -0.453333 l -2.293327,8.853311 -2.293328,-8.853311 h -0.453332 v 9.33331 h 0.266666 V 17.39015 l 2.306661,8.866644 h 0.333333 z"
       id="path4077" />
    <path
       d="M 47.321432,21.416806 V 17.23015 h 3.266658 v -0.279999 h -3.559991 v 9.33331 h 3.559991 v -0.28 h -3.266658 v -4.319989 h 2.74666 v -0.266666 z"
       id="path4079" />
    <path
       d="m 53.561407,16.883484 c -1.346663,0.01333 -1.919995,0.946665 -1.919995,2.306661 0,2.573327 3.573324,2.493327 3.573324,4.853321 0,1.133331 -0.439998,2.026662 -1.666662,2.026662 -1.226664,0 -1.666662,-0.893331 -1.666662,-2.026662 v -0.466665 h -0.28 v 0.453332 c 0,1.29333 0.533332,2.319994 1.946662,2.319994 1.426663,0 1.959995,-1.026664 1.959995,-2.319994 0,-2.533327 -3.573324,-2.46666 -3.573324,-4.853321 0,-1.106664 0.413332,-2.026662 1.639996,-2.026662 1.21333,0 1.626662,0.933331 1.626662,2.039995 v 0.186666 h 0.293333 v -0.173332 c 0,-1.279997 -0.519999,-2.319995 -1.933329,-2.319995 z"
       id="path4081" />
  </g>
</svg>
