<?xml version="1.0" encoding="UTF-8" standalone="no"?>
<!-- Created with Inkscape (http://www.inkscape.org/) -->

<svg
   version="1.1"
   id="svg2"
   width="56.066345"
   height="9.4666424"
   viewBox="0 0 56.066348 9.4666423"
   sodipodi:docname="auto-strategyautobattler.svg"
   inkscape:version="1.1 (c68e22c387, 2021-05-23)"
   inkscape:export-filename="C:\Users\BUCH\Desktop\Retrogaming\Recalbox\travail thèmes\Thème vignette !!!!!!!\Maquette 2 !!!!\image1250.png"
   inkscape:export-xdpi="96.460785"
   inkscape:export-ydpi="96.460785"
   xmlns:inkscape="http://www.inkscape.org/namespaces/inkscape"
   xmlns:sodipodi="http://sodipodi.sourceforge.net/DTD/sodipodi-0.dtd"
   xmlns="http://www.w3.org/2000/svg"
   xmlns:svg="http://www.w3.org/2000/svg">
  <defs
     id="defs6">
    <clipPath
       clipPathUnits="userSpaceOnUse"
       id="clipPath3185">
      <path
         id="path3187"
         style="fill:#ffffff;fill-rule:evenodd;stroke:#ffffff;stroke-width:5.15903;stroke-linecap:round;stroke-linejoin:round;paint-order:stroke fill markers"
         d="m 1157.5591,335.78677 h 462.4206 L 1362.3723,1410.6277 H 899.95176 Z"
         sodipodi:nodetypes="ccccc"
         inkscape:export-filename="C:\Users\BUCH\Desktop\Retrogaming\Recalbox\travail thèmes\Thème vignette !!!!!!!\Maquette 2 !!!!\rect849.png"
         inkscape:export-xdpi="247.96268"
         inkscape:export-ydpi="247.96268" />
    </clipPath>
  </defs>
  <sodipodi:namedview
     id="namedview4"
     pagecolor="#ffffff"
     bordercolor="#666666"
     borderopacity="1.0"
     inkscape:pageshadow="2"
     inkscape:pageopacity="0.0"
     inkscape:pagecheckerboard="true"
     showgrid="false"
     inkscape:showpageshadow="false"
     inkscape:zoom="12.479331"
     inkscape:cx="33.455319"
     inkscape:cy="23.07816"
     inkscape:window-width="1920"
     inkscape:window-height="1138"
     inkscape:window-x="-8"
     inkscape:window-y="-8"
     inkscape:window-maximized="1"
     inkscape:current-layer="svg2"
     fit-margin-top="0"
     fit-margin-left="0"
     fit-margin-right="0"
     fit-margin-bottom="0" />
  <g
     aria-label="auto battler"
     id="text7290"
     style="font-weight:300;font-size:13.3333px;line-height:1.25;font-family:'Bebas Neue';-inkscape-font-specification:'Bebas Neue, Light';fill:#ffffff"
     transform="translate(0.94905287,17.252961)">
    <path
       d="m 3.18427,-10.052979 0.5466653,2.1999941 H 4.0242679 L 1.7176071,-17.199628 H 1.3042748 l -2.25332767,9.3466431 h 0.26666599 l 0.54666529,-2.1999941 z m -1.6799957,-6.799983 1.6266625,6.533317 h -3.2133252 z"
       id="path7607" />
    <path
       d="M 5.3309125,-17.186295 H 5.0375799 v 7.026649 c 0,1.279997 0.5066654,2.3733276 1.9333285,2.3733276 1.4133297,0 1.9199951,-1.0933306 1.9199951,-2.3733276 v -7.026649 H 8.6109042 v 7.039983 c 0,1.1199967 -0.399999,2.0933276 -1.6399958,2.0933276 -1.2399969,0 -1.6399959,-0.9733309 -1.6399959,-2.0933276 z"
       id="path7609" />
    <path
       d="m 11.984211,-7.8529849 v -9.0533101 h 2.039995 v -0.28 H 9.6642173 v 0.28 h 2.0266617 v 9.0533101 z"
       id="path7611" />
    <path
       d="m 14.824186,-10.146312 c 0,1.3066629 0.559999,2.3599936 1.973329,2.3599936 1.439996,0 1.999995,-1.0533307 1.999995,-2.3599936 v -4.746655 c 0,-1.306663 -0.559999,-2.359994 -1.999995,-2.359994 -1.41333,0 -1.973329,1.053331 -1.973329,2.359994 z m 0.293333,-4.759988 c 0,-1.146664 0.439999,-2.079995 1.679996,-2.079995 1.25333,0 1.706662,0.933331 1.706662,2.079995 v 4.773321 c 0,1.1466636 -0.453332,2.0799946 -1.706662,2.0799946 -1.239997,0 -1.679996,-0.933331 -1.679996,-2.0799946 z"
       id="path7613" />
    <path
       d="m 21.917477,-17.186295 v 9.3333101 h 1.879996 c 1.413329,0 1.973328,-0.8266646 1.973328,-2.1466612 v -0.8266649 c 0,-1.079997 -0.413332,-1.839995 -1.519996,-1.999995 1.053331,-0.159999 1.33333,-0.786664 1.33333,-1.826662 v -0.599998 c 0,-1.25333 -0.439999,-1.933329 -1.799996,-1.933329 z m 0.293333,4.23999 v -3.95999 h 1.573329 c 1.173331,0 1.506663,0.573332 1.506663,1.666662 v 0.626665 c 0,1.359997 -0.573332,1.666663 -1.866662,1.666663 z m 0,4.8133208 v -4.5466548 h 1.346663 c 1.279997,0 1.919995,0.493332 1.919995,1.839995 v 0.8399979 c 0,1.1733303 -0.453332,1.8666619 -1.679995,1.8666619 z"
       id="path7615" />
    <path
       d="m 30.904105,-10.052979 0.546666,2.1999941 h 0.293332 L 29.437442,-17.199628 H 29.02411 l -2.253328,9.3466431 h 0.266666 l 0.546666,-2.1999941 z m -1.679995,-6.799983 1.626662,6.533317 h -3.213325 z"
       id="path7617" />
    <path
       d="m 34.304076,-7.8529849 v -9.0533101 h 2.039995 v -0.28 h -4.359989 v 0.28 h 2.026661 v 9.0533101 z"
       id="path7619" />
    <path
       d="m 39.197379,-7.8529849 v -9.0533101 h 2.039994 v -0.28 h -4.359988 v 0.28 h 2.026661 v 9.0533101 z"
       id="path7621" />
    <path
       d="m 45.477345,-7.8529849 v -0.2799993 h -3.133326 v -9.0533108 h -0.293332 v 9.3333101 z"
       id="path7623" />
    <path
       d="m 46.783987,-12.719639 v -4.186656 h 3.266659 v -0.28 h -3.559991 v 9.3333101 h 3.559991 v -0.2799993 h -3.266659 v -4.3199888 h 2.74666 v -0.266666 z"
       id="path7625" />
    <path
       d="m 51.090634,-17.186295 v 9.3333101 h 0.293333 v -4.3066561 h 1.146664 c 1.21333,0 2.039994,0.359999 2.039994,1.733329 v 1.4666632 c 0,0.399999 0.04,0.8133313 0.226667,1.1066639 h 0.319999 c -0.213333,-0.2933326 -0.253333,-0.7466648 -0.253333,-1.1066639 v -1.4666632 c 0,-1.026664 -0.439999,-1.706662 -1.479996,-1.866662 1.026664,-0.186666 1.479996,-0.813331 1.479996,-1.959995 v -0.839998 c 0,-1.279996 -0.533332,-2.093328 -1.919995,-2.093328 z m 0.293333,4.746655 v -4.466655 h 1.546663 c 1.199997,0 1.639995,0.706665 1.639995,1.839995 v 0.853331 c 0,1.439997 -0.746664,1.773329 -2.039994,1.773329 z"
       id="path7627" />
  </g>
</svg>
