<?xml version="1.0" encoding="UTF-8" standalone="no"?>
<!-- Created with Inkscape (http://www.inkscape.org/) -->

<svg
   version="1.1"
   id="svg2"
   width="52.79974"
   height="9.4666424"
   viewBox="0 0 52.799741 9.4666423"
   sodipodi:docname="auto-arcade-capcom-cps3.svg"
   inkscape:version="1.1 (c68e22c387, 2021-05-23)"
   inkscape:export-filename="C:\Users\BUCH\Desktop\Retrogaming\Recalbox\travail thèmes\Thème vignette !!!!!!!\Maquette 2 !!!!\image1250.png"
   inkscape:export-xdpi="96.460785"
   inkscape:export-ydpi="96.460785"
   xmlns:inkscape="http://www.inkscape.org/namespaces/inkscape"
   xmlns:sodipodi="http://sodipodi.sourceforge.net/DTD/sodipodi-0.dtd"
   xmlns="http://www.w3.org/2000/svg"
   xmlns:svg="http://www.w3.org/2000/svg">
  <defs
     id="defs6">
    <clipPath
       clipPathUnits="userSpaceOnUse"
       id="clipPath3185">
      <path
         id="path3187"
         style="fill:#ffffff;fill-rule:evenodd;stroke:#ffffff;stroke-width:5.15903;stroke-linecap:round;stroke-linejoin:round;paint-order:stroke fill markers"
         d="m 1157.5591,335.78677 h 462.4206 L 1362.3723,1410.6277 H 899.95176 Z"
         sodipodi:nodetypes="ccccc"
         inkscape:export-filename="C:\Users\BUCH\Desktop\Retrogaming\Recalbox\travail thèmes\Thème vignette !!!!!!!\Maquette 2 !!!!\rect849.png"
         inkscape:export-xdpi="247.96268"
         inkscape:export-ydpi="247.96268" />
    </clipPath>
  </defs>
  <sodipodi:namedview
     id="namedview4"
     pagecolor="#ffffff"
     bordercolor="#666666"
     borderopacity="1.0"
     inkscape:pageshadow="2"
     inkscape:pageopacity="0.0"
     inkscape:pagecheckerboard="true"
     showgrid="false"
     inkscape:showpageshadow="false"
     inkscape:zoom="12.479331"
     inkscape:cx="26.243394"
     inkscape:cy="0.88145751"
     inkscape:window-width="1920"
     inkscape:window-height="1138"
     inkscape:window-x="-8"
     inkscape:window-y="-8"
     inkscape:window-maximized="1"
     inkscape:current-layer="svg2"
     fit-margin-top="0"
     fit-margin-left="0"
     fit-margin-right="0"
     fit-margin-bottom="0" />
  <g
     aria-label="capcom cps3"
     id="text1936"
     style="font-weight:300;font-size:13.3333px;line-height:1.25;font-family:'Bebas Neue';-inkscape-font-specification:'Bebas Neue, Light';fill:#ffffff"
     transform="translate(10.217756,-13.758317)">
    <path
       d="m -8.2710944,13.758317 c -1.4133298,0 -1.9466616,1.066663 -1.9466616,2.359994 v 4.746654 c 0,1.29333 0.5333318,2.359994 1.9466616,2.359994 1.4266631,0 1.9599951,-1.066664 1.9599951,-2.359994 v -1.013331 h -0.2933326 v 1.026665 c 0,1.13333 -0.4266656,2.066661 -1.6533292,2.066661 -1.2399969,0 -1.6666624,-0.933331 -1.6666624,-2.066661 v -4.773322 c 0,-1.13333 0.4266655,-2.079994 1.6666624,-2.079994 1.2266636,0 1.6533292,0.946664 1.6533292,2.079994 v 0.733332 h 0.2933326 v -0.719998 c 0,-1.293331 -0.533332,-2.359994 -1.9599951,-2.359994 z"
       id="path3609" />
    <path
       d="m -1.1777932,20.958298 0.54666533,2.199995 h 0.29333259 L -2.6444561,13.81165 h -0.4133323 l -2.2533276,9.346643 h 0.266666 l 0.5466652,-2.199995 z m -1.6799957,-6.799982 1.6266625,6.533316 h -3.2133252 z"
       id="path3611" />
    <path
       d="m 0.68884956,13.824983 v 9.33331 h 0.2933326 v -3.95999 H 2.3155121 c 1.4799963,0 2.1466613,-0.706665 2.1466613,-2.186661 v -0.933331 c 0,-1.306664 -0.4933321,-2.253328 -1.9333285,-2.253328 z m 0.2933326,5.09332 V 14.104982 H 2.5288449 c 1.2533302,0 1.6399959,0.813332 1.6399959,1.959995 v 0.959998 c 0,1.319997 -0.5466653,1.893328 -1.8533287,1.893328 z"
       id="path3613" />
    <path
       d="m 7.4088229,13.758317 c -1.4133297,0 -1.9466617,1.066663 -1.9466617,2.359994 v 4.746654 c 0,1.29333 0.533332,2.359994 1.9466617,2.359994 1.4266631,0 1.9599951,-1.066664 1.9599951,-2.359994 V 19.851634 H 9.0754854 v 1.026665 c 0,1.13333 -0.4266656,2.066661 -1.6533292,2.066661 -1.2399968,0 -1.6666624,-0.933331 -1.6666624,-2.066661 v -4.773322 c 0,-1.13333 0.4266656,-2.079994 1.6666624,-2.079994 1.2266636,0 1.6533292,0.946664 1.6533292,2.079994 v 0.733332 H 9.368818 v -0.719998 c 0,-1.293331 -0.533332,-2.359994 -1.9599951,-2.359994 z"
       id="path3615" />
    <path
       d="m 10.395468,20.864965 c 0,1.306664 0.559998,2.359994 1.973328,2.359994 1.439997,0 1.999995,-1.05333 1.999995,-2.359994 v -4.746654 c 0,-1.306664 -0.559998,-2.359994 -1.999995,-2.359994 -1.41333,0 -1.973328,1.05333 -1.973328,2.359994 z M 10.6888,16.104977 c 0,-1.146664 0.439999,-2.079994 1.679996,-2.079994 1.25333,0 1.706663,0.93333 1.706663,2.079994 v 4.773322 c 0,1.146663 -0.453333,2.079994 -1.706663,2.079994 -1.239997,0 -1.679996,-0.933331 -1.679996,-2.079994 z"
       id="path3617" />
    <path
       d="m 20.622101,14.264982 v 8.893311 h 0.293333 v -9.33331 h -0.453332 l -2.293328,8.853311 -2.293327,-8.853311 h -0.453333 v 9.33331 h 0.266666 v -8.893311 l 2.306661,8.866644 h 0.333333 z"
       id="path3619" />
    <path
       d="m 25.982053,13.758317 c -1.41333,0 -1.946662,1.066663 -1.946662,2.359994 v 4.746654 c 0,1.29333 0.533332,2.359994 1.946662,2.359994 1.426663,0 1.959995,-1.066664 1.959995,-2.359994 v -1.013331 h -0.293333 v 1.026665 c 0,1.13333 -0.426665,2.066661 -1.653329,2.066661 -1.239997,0 -1.666662,-0.933331 -1.666662,-2.066661 v -4.773322 c 0,-1.13333 0.426665,-2.079994 1.666662,-2.079994 1.226664,0 1.653329,0.946664 1.653329,2.079994 v 0.733332 h 0.293333 v -0.719998 c 0,-1.293331 -0.533332,-2.359994 -1.959995,-2.359994 z"
       id="path3621" />
    <path
       d="m 28.982032,13.824983 v 9.33331 h 0.293333 v -3.95999 h 1.333329 c 1.479997,0 2.146662,-0.706665 2.146662,-2.186661 v -0.933331 c 0,-1.306664 -0.493332,-2.253328 -1.933329,-2.253328 z m 0.293333,5.09332 v -4.813321 h 1.546662 c 1.25333,0 1.639996,0.813332 1.639996,1.959995 v 0.959998 c 0,1.319997 -0.546665,1.893328 -1.853329,1.893328 z"
       id="path3623" />
    <path
       d="m 35.702004,13.758317 c -1.346663,0.01333 -1.919995,0.946664 -1.919995,2.30666 0,2.573327 3.573325,2.493327 3.573325,4.853321 0,1.133331 -0.439999,2.026662 -1.666663,2.026662 -1.226664,0 -1.666662,-0.893331 -1.666662,-2.026662 v -0.466665 h -0.28 v 0.453332 c 0,1.29333 0.533332,2.319994 1.946662,2.319994 1.426663,0 1.959995,-1.026664 1.959995,-2.319994 0,-2.533327 -3.573324,-2.46666 -3.573324,-4.853321 0,-1.106664 0.413332,-2.026661 1.639996,-2.026661 1.21333,0 1.626662,0.93333 1.626662,2.039994 v 0.186667 h 0.293333 v -0.173333 c 0,-1.279997 -0.519999,-2.319994 -1.933329,-2.319994 z"
       id="path3625" />
    <path
       d="m 40.635321,13.758317 c -1.426663,0 -1.959995,1.05333 -1.959995,2.359994 v 0.266666 h 0.293332 v -0.28 c 0,-1.146664 0.413332,-2.079994 1.653329,-2.079994 1.239997,0 1.666663,0.93333 1.666663,2.093328 v 0.266666 c 0,0.946664 -0.586665,1.693329 -1.53333,1.773328 h -0.693331 v 0.266666 h 0.679998 c 0.999997,0.05333 1.546663,0.706665 1.546663,1.719996 v 0.706665 c 0,1.159997 -0.426666,2.106661 -1.666663,2.106661 -1.239997,0 -1.653329,-0.946664 -1.653329,-2.093328 v -0.439999 h -0.293332 v 0.439999 c 0,1.306664 0.533332,2.359994 1.959995,2.359994 1.426663,0 1.946661,-1.05333 1.946661,-2.359994 v -0.719998 c 0,-0.906664 -0.439999,-1.639996 -1.33333,-1.866662 0.839998,-0.266666 1.33333,-1.039997 1.33333,-1.933328 v -0.226666 c 0,-1.306664 -0.519998,-2.359994 -1.946661,-2.359994 z"
       id="path3627" />
  </g>
</svg>
