<?xml version="1.0" encoding="UTF-8" standalone="no"?>
<!-- Created with Inkscape (http://www.inkscape.org/) -->

<svg
   version="1.1"
   id="svg2"
   width="69.479614"
   height="9.4666433"
   viewBox="0 0 69.479617 9.4666433"
   sodipodi:docname="auto-adventuresurvivalhorror.svg"
   inkscape:version="1.1 (c68e22c387, 2021-05-23)"
   inkscape:export-filename="C:\Users\BUCH\Desktop\Retrogaming\Recalbox\travail thèmes\Thème vignette !!!!!!!\Maquette 2 !!!!\image1250.png"
   inkscape:export-xdpi="96.460785"
   inkscape:export-ydpi="96.460785"
   xmlns:inkscape="http://www.inkscape.org/namespaces/inkscape"
   xmlns:sodipodi="http://sodipodi.sourceforge.net/DTD/sodipodi-0.dtd"
   xmlns="http://www.w3.org/2000/svg"
   xmlns:svg="http://www.w3.org/2000/svg">
  <defs
     id="defs6">
    <clipPath
       clipPathUnits="userSpaceOnUse"
       id="clipPath3185">
      <path
         id="path3187"
         style="fill:#ffffff;fill-rule:evenodd;stroke:#ffffff;stroke-width:5.15903;stroke-linecap:round;stroke-linejoin:round;paint-order:stroke fill markers"
         d="m 1157.5591,335.78677 h 462.4206 L 1362.3723,1410.6277 H 899.95176 Z"
         sodipodi:nodetypes="ccccc"
         inkscape:export-filename="C:\Users\BUCH\Desktop\Retrogaming\Recalbox\travail thèmes\Thème vignette !!!!!!!\Maquette 2 !!!!\rect849.png"
         inkscape:export-xdpi="247.96268"
         inkscape:export-ydpi="247.96268" />
    </clipPath>
  </defs>
  <sodipodi:namedview
     id="namedview4"
     pagecolor="#ffffff"
     bordercolor="#666666"
     borderopacity="1.0"
     inkscape:pageshadow="2"
     inkscape:pageopacity="0.0"
     inkscape:pagecheckerboard="true"
     showgrid="false"
     inkscape:showpageshadow="false"
     inkscape:zoom="12.479331"
     inkscape:cx="38.503667"
     inkscape:cy="4.4072875"
     inkscape:window-width="1920"
     inkscape:window-height="1138"
     inkscape:window-x="-8"
     inkscape:window-y="-8"
     inkscape:window-maximized="1"
     inkscape:current-layer="svg2"
     fit-margin-top="0"
     fit-margin-left="0"
     fit-margin-right="0"
     fit-margin-bottom="0" />
  <g
     aria-label="survival horror"
     id="text1129"
     style="font-weight:300;font-size:13.3333px;line-height:1.25;font-family:'Bebas Neue';-inkscape-font-specification:'Bebas Neue, Light';fill:#ffffff"
     transform="translate(10.711884,-21.611302)">
    <path
       d="m -8.7518893,21.611302 c -1.3466637,0.01333 -1.9199947,0.946664 -1.9199947,2.306661 0,2.573327 3.5733239,2.493327 3.5733239,4.853321 0,1.13333 -0.4399989,2.026661 -1.6666625,2.026661 -1.2266636,0 -1.6666624,-0.893331 -1.6666624,-2.026661 v -0.466666 h -0.279999 v 0.453333 c 0,1.29333 0.533332,2.319994 1.9466614,2.319994 1.4266631,0 1.9599951,-1.026664 1.9599951,-2.319994 0,-2.533327 -3.5733245,-2.466661 -3.5733245,-4.853322 0,-1.106663 0.4133324,-2.026661 1.639996,-2.026661 1.2133303,0 1.6266626,0.933331 1.6266626,2.039995 v 0.186666 h 0.2933326 v -0.173333 c 0,-1.279997 -0.5199987,-2.319994 -1.9333285,-2.319994 z"
       id="path1896" />
    <path
       d="m -5.4852379,21.677968 h -0.2933326 v 7.026649 c 0,1.279997 0.5066654,2.373328 1.9333284,2.373328 1.4133298,0 1.9199952,-1.093331 1.9199952,-2.373328 v -7.026649 h -0.2799993 v 7.039983 c 0,1.119997 -0.399999,2.093328 -1.6399959,2.093328 -1.2399968,0 -1.6399958,-0.973331 -1.6399958,-2.093328 z"
       id="path1898" />
    <path
       d="m -0.87193382,21.677968 v 9.33331 h 0.29333259 v -4.306656 h 1.14666377 c 1.21333026,0 2.03999486,0.359999 2.03999486,1.733329 v 1.466663 c 0,0.399999 0.04,0.813332 0.2266661,1.106664 H 3.1547227 C 2.9413899,30.717946 2.90139,30.264613 2.90139,29.904614 v -1.466663 c 0,-1.026664 -0.4399989,-1.706662 -1.4799963,-1.866662 C 2.4480578,26.384623 2.90139,25.757958 2.90139,24.611294 v -0.839998 c 0,-1.279996 -0.533332,-2.093328 -1.91999517,-2.093328 z m 0.29333259,4.746655 v -4.466655 h 1.54666276 c 1.19999697,0 1.63999587,0.706665 1.63999587,1.839995 v 0.853331 c 0,1.439997 -0.7466648,1.773329 -2.03999486,1.773329 z"
       id="path1900" />
    <path
       d="m 4.128031,21.677968 2.2799942,9.33331 h 0.4399989 l 2.2399943,-9.33331 H 8.8080191 L 6.621358,30.677946 4.4346968,21.677968 Z"
       id="path1902" />
    <path
       d="m 10.114671,21.677968 v 9.33331 h 0.293332 v -9.33331 z"
       id="path1904" />
    <path
       d="m 11.434658,21.677968 2.279994,9.33331 h 0.439999 l 2.239995,-9.33331 h -0.28 l -2.186661,8.999978 -2.186661,-8.999978 z"
       id="path1906" />
    <path
       d="m 21.181268,28.811284 0.546665,2.199994 h 0.293333 l -2.306661,-9.346643 h -0.413332 l -2.253328,9.346643 h 0.266666 l 0.546665,-2.199994 z m -1.679996,-6.799983 1.626663,6.533317 H 17.91461 Z"
       id="path1908" />
    <path
       d="m 26.474572,31.011278 v -0.279999 h -3.133326 v -9.053311 h -0.293332 v 9.33331 z"
       id="path1910" />
    <path
       d="m 33.221182,26.477956 v 4.533322 h 0.293333 v -9.33331 h -0.293333 v 4.533322 h -3.373325 v -4.533322 h -0.293332 v 9.33331 h 0.293332 v -4.533322 z"
       id="path1912" />
    <path
       d="m 34.567829,28.717951 c 0,1.306663 0.559999,2.359994 1.973329,2.359994 1.439996,0 1.999995,-1.053331 1.999995,-2.359994 v -4.746655 c 0,-1.306663 -0.559999,-2.359994 -1.999995,-2.359994 -1.41333,0 -1.973329,1.053331 -1.973329,2.359994 z m 0.293333,-4.759988 c 0,-1.146664 0.439999,-2.079995 1.679996,-2.079995 1.25333,0 1.706662,0.933331 1.706662,2.079995 v 4.773321 c 0,1.146664 -0.453332,2.079995 -1.706662,2.079995 -1.239997,0 -1.679996,-0.933331 -1.679996,-2.079995 z"
       id="path1914" />
    <path
       d="m 39.594476,21.677968 v 9.33331 h 0.293332 v -4.306656 h 1.146664 c 1.21333,0 2.039995,0.359999 2.039995,1.733329 v 1.466663 c 0,0.399999 0.04,0.813332 0.226666,1.106664 h 0.319999 C 43.4078,30.717946 43.3678,30.264613 43.3678,29.904614 v -1.466663 c 0,-1.026664 -0.439999,-1.706662 -1.479997,-1.866662 1.026664,-0.186666 1.479997,-0.813331 1.479997,-1.959995 v -0.839998 c 0,-1.279996 -0.533332,-2.093328 -1.919995,-2.093328 z m 0.293332,4.746655 v -4.466655 h 1.546663 c 1.199997,0 1.639996,0.706665 1.639996,1.839995 v 0.853331 c 0,1.439997 -0.746665,1.773329 -2.039995,1.773329 z"
       id="path1916" />
    <path
       d="m 44.661119,21.677968 v 9.33331 h 0.293332 v -4.306656 h 1.146664 c 1.21333,0 2.039995,0.359999 2.039995,1.733329 v 1.466663 c 0,0.399999 0.04,0.813332 0.226666,1.106664 h 0.319999 c -0.213333,-0.293332 -0.253333,-0.746665 -0.253333,-1.106664 v -1.466663 c 0,-1.026664 -0.439998,-1.706662 -1.479996,-1.866662 1.026664,-0.186666 1.479996,-0.813331 1.479996,-1.959995 v -0.839998 c 0,-1.279996 -0.533332,-2.093328 -1.919995,-2.093328 z m 0.293332,4.746655 v -4.466655 h 1.546663 c 1.199997,0 1.639996,0.706665 1.639996,1.839995 v 0.853331 c 0,1.439997 -0.746665,1.773329 -2.039995,1.773329 z"
       id="path1918" />
    <path
       d="m 49.714428,28.717951 c 0,1.306663 0.559999,2.359994 1.973328,2.359994 1.439997,0 1.999995,-1.053331 1.999995,-2.359994 v -4.746655 c 0,-1.306663 -0.559998,-2.359994 -1.999995,-2.359994 -1.413329,0 -1.973328,1.053331 -1.973328,2.359994 z m 0.293333,-4.759988 c 0,-1.146664 0.439999,-2.079995 1.679995,-2.079995 1.253331,0 1.706663,0.933331 1.706663,2.079995 v 4.773321 c 0,1.146664 -0.453332,2.079995 -1.706663,2.079995 -1.239996,0 -1.679995,-0.933331 -1.679995,-2.079995 z"
       id="path1920" />
    <path
       d="m 54.741075,21.677968 v 9.33331 h 0.293332 v -4.306656 h 1.146664 c 1.21333,0 2.039995,0.359999 2.039995,1.733329 v 1.466663 c 0,0.399999 0.04,0.813332 0.226666,1.106664 h 0.319999 c -0.213333,-0.293332 -0.253333,-0.746665 -0.253333,-1.106664 v -1.466663 c 0,-1.026664 -0.439998,-1.706662 -1.479996,-1.866662 1.026664,-0.186666 1.479996,-0.813331 1.479996,-1.959995 v -0.839998 c 0,-1.279996 -0.533332,-2.093328 -1.919995,-2.093328 z m 0.293332,4.746655 v -4.466655 h 1.546663 c 1.199997,0 1.639996,0.706665 1.639996,1.839995 v 0.853331 c 0,1.439997 -0.746665,1.773329 -2.039995,1.773329 z"
       id="path1922" />
  </g>
</svg>
