<?xml version="1.0" encoding="UTF-8" standalone="no"?>
<!-- Created with Inkscape (http://www.inkscape.org/) -->

<svg
   version="1.1"
   id="svg2"
   width="64.919647"
   height="9.4666424"
   viewBox="0 0 64.919649 9.4666423"
   sodipodi:docname="auto-arcade-namco.svg"
   inkscape:version="1.1 (c68e22c387, 2021-05-23)"
   inkscape:export-filename="C:\Users\BUCH\Desktop\Retrogaming\Recalbox\travail thèmes\Thème vignette !!!!!!!\Maquette 2 !!!!\image1250.png"
   inkscape:export-xdpi="96.460785"
   inkscape:export-ydpi="96.460785"
   xmlns:inkscape="http://www.inkscape.org/namespaces/inkscape"
   xmlns:sodipodi="http://sodipodi.sourceforge.net/DTD/sodipodi-0.dtd"
   xmlns="http://www.w3.org/2000/svg"
   xmlns:svg="http://www.w3.org/2000/svg">
  <g
     aria-label="namco classics"
     id="text1178"
     style="font-weight:300;font-size:13.3333px;line-height:1.25;font-family:'Bebas Neue';-inkscape-font-specification:'Bebas Neue, Light';fill:#ffffff"
     transform="translate(4.8355454,19.176141)">
    <path
       d="m -4.5555461,-18.682809 3.3333249,8.906644 h 0.35999907 v -9.33331 H -1.1422214 v 8.733312 l -3.2799917,-8.733312 h -0.4133323 v 9.33331 h 0.2799993 z"
       id="path1707" />
    <path
       d="M 4.2977427,-11.976159 4.844408,-9.776165 H 5.1377406 L 2.8310798,-19.122808 H 2.4177475 l -2.25332767,9.346643 h 0.26666599 l 0.54666529,-2.199994 z m -1.6799957,-6.799983 1.6266625,6.533317 H 1.0310843 Z"
       id="path1709" />
    <path
       d="m 11.364373,-18.669476 v 8.893311 h 0.293332 v -9.33331 h -0.453332 l -2.2933274,8.853311 -2.2933275,-8.853311 H 6.1643859 v 9.33331 h 0.266666 v -8.893311 l 2.3066608,8.8666444 h 0.3333325 z"
       id="path1711" />
    <path
       d="m 14.657679,-19.176141 c -1.413329,0 -1.946661,1.066664 -1.946661,2.359994 v 4.746654 c 0,1.293331 0.533332,2.3599945 1.946661,2.3599945 1.426664,0 1.959996,-1.0666635 1.959996,-2.3599945 v -1.01333 h -0.293333 v 1.026664 c 0,1.13333 -0.426666,2.0666612 -1.653329,2.0666612 -1.239997,0 -1.666663,-0.9333312 -1.666663,-2.0666612 v -4.773322 c 0,-1.13333 0.426666,-2.079994 1.666663,-2.079994 1.226663,0 1.653329,0.946664 1.653329,2.079994 v 0.733332 h 0.293333 v -0.719998 c 0,-1.29333 -0.533332,-2.359994 -1.959996,-2.359994 z"
       id="path1713" />
    <path
       d="m 17.644325,-12.069493 c 0,1.306664 0.559999,2.3599945 1.973329,2.3599945 1.439996,0 1.999995,-1.0533305 1.999995,-2.3599945 v -4.746654 c 0,-1.306664 -0.559999,-2.359994 -1.999995,-2.359994 -1.41333,0 -1.973329,1.05333 -1.973329,2.359994 z m 0.293333,-4.759988 c 0,-1.146663 0.439999,-2.079994 1.679996,-2.079994 1.25333,0 1.706662,0.933331 1.706662,2.079994 v 4.773322 c 0,1.146664 -0.453332,2.0799945 -1.706662,2.0799945 -1.239997,0 -1.679996,-0.9333305 -1.679996,-2.0799945 z"
       id="path1715" />
    <path
       d="m 26.670945,-19.176141 c -1.41333,0 -1.946662,1.066664 -1.946662,2.359994 v 4.746654 c 0,1.293331 0.533332,2.3599945 1.946662,2.3599945 1.426663,0 1.959995,-1.0666635 1.959995,-2.3599945 v -1.01333 h -0.293332 v 1.026664 c 0,1.13333 -0.426666,2.0666612 -1.65333,2.0666612 -1.239996,0 -1.666662,-0.9333312 -1.666662,-2.0666612 v -4.773322 c 0,-1.13333 0.426666,-2.079994 1.666662,-2.079994 1.226664,0 1.65333,0.946664 1.65333,2.079994 v 0.733332 h 0.293332 v -0.719998 c 0,-1.29333 -0.533332,-2.359994 -1.959995,-2.359994 z"
       id="path1717" />
    <path
       d="m 33.097582,-9.776165 v -0.279999 h -3.133325 v -9.053311 h -0.293333 v 9.33331 z"
       id="path1719" />
    <path
       d="m 38.204212,-11.976159 0.546665,2.199994 h 0.293332 l -2.30666,-9.346643 h -0.413333 l -2.253327,9.346643 h 0.266666 l 0.546665,-2.199994 z m -1.679996,-6.799983 1.626662,6.533317 h -3.213325 z"
       id="path1721" />
    <path
       d="m 42.004186,-19.176141 c -1.346664,0.01333 -1.919996,0.946664 -1.919996,2.306661 0,2.573326 3.573325,2.493327 3.573325,4.853321 0,1.13333 -0.439999,2.0266612 -1.666663,2.0266612 -1.226663,0 -1.666662,-0.8933312 -1.666662,-2.0266612 v -0.466666 h -0.279999 v 0.453332 c 0,1.29333 0.533332,2.3199945 1.946661,2.3199945 1.426663,0 1.959995,-1.0266645 1.959995,-2.3199945 0,-2.533327 -3.573324,-2.46666 -3.573324,-4.853321 0,-1.106664 0.413332,-2.026661 1.639996,-2.026661 1.21333,0 1.626662,0.933331 1.626662,2.039995 v 0.186666 h 0.293333 v -0.173333 c 0,-1.279997 -0.519999,-2.319994 -1.933328,-2.319994 z"
       id="path1723" />
    <path
       d="m 46.924165,-19.176141 c -1.346664,0.01333 -1.919995,0.946664 -1.919995,2.306661 0,2.573326 3.573324,2.493327 3.573324,4.853321 0,1.13333 -0.439999,2.0266612 -1.666663,2.0266612 -1.226663,0 -1.666662,-0.8933312 -1.666662,-2.0266612 v -0.466666 H 44.96417 v 0.453332 c 0,1.29333 0.533332,2.3199945 1.946661,2.3199945 1.426663,0 1.959995,-1.0266645 1.959995,-2.3199945 0,-2.533327 -3.573324,-2.46666 -3.573324,-4.853321 0,-1.106664 0.413332,-2.026661 1.639996,-2.026661 1.21333,0 1.626663,0.933331 1.626663,2.039995 v 0.186666 h 0.293332 v -0.173333 c 0,-1.279997 -0.519999,-2.319994 -1.933328,-2.319994 z"
       id="path1725" />
    <path
       d="m 49.910815,-19.109475 v 9.33331 h 0.293333 v -9.33331 z"
       id="path1727" />
    <path
       d="m 53.204133,-19.176141 c -1.41333,0 -1.946662,1.066664 -1.946662,2.359994 v 4.746654 c 0,1.293331 0.533332,2.3599945 1.946662,2.3599945 1.426663,0 1.959995,-1.0666635 1.959995,-2.3599945 v -1.01333 h -0.293333 v 1.026664 c 0,1.13333 -0.426665,2.0666612 -1.653329,2.0666612 -1.239997,0 -1.666662,-0.9333312 -1.666662,-2.0666612 v -4.773322 c 0,-1.13333 0.426665,-2.079994 1.666662,-2.079994 1.226664,0 1.653329,0.946664 1.653329,2.079994 v 0.733332 h 0.293333 v -0.719998 c 0,-1.29333 -0.533332,-2.359994 -1.959995,-2.359994 z"
       id="path1729" />
    <path
       d="m 58.137437,-19.176141 c -1.346663,0.01333 -1.919995,0.946664 -1.919995,2.306661 0,2.573326 3.573324,2.493327 3.573324,4.853321 0,1.13333 -0.439999,2.0266612 -1.666662,2.0266612 -1.226664,0 -1.666663,-0.8933312 -1.666663,-2.0266612 v -0.466666 h -0.279999 v 0.453332 c 0,1.29333 0.533332,2.3199945 1.946662,2.3199945 1.426663,0 1.959995,-1.0266645 1.959995,-2.3199945 0,-2.533327 -3.573325,-2.46666 -3.573325,-4.853321 0,-1.106664 0.413333,-2.026661 1.639996,-2.026661 1.21333,0 1.626663,0.933331 1.626663,2.039995 v 0.186666 h 0.293332 v -0.173333 c 0,-1.279997 -0.519998,-2.319994 -1.933328,-2.319994 z"
       id="path1731" />
  </g>
  <defs
     id="defs6">
    <clipPath
       clipPathUnits="userSpaceOnUse"
       id="clipPath3185">
      <path
         id="path3187"
         style="fill:#ffffff;fill-rule:evenodd;stroke:#ffffff;stroke-width:5.15903;stroke-linecap:round;stroke-linejoin:round;paint-order:stroke fill markers"
         d="m 1157.5591,335.78677 h 462.4206 L 1362.3723,1410.6277 H 899.95176 Z"
         sodipodi:nodetypes="ccccc"
         inkscape:export-filename="C:\Users\BUCH\Desktop\Retrogaming\Recalbox\travail thèmes\Thème vignette !!!!!!!\Maquette 2 !!!!\rect849.png"
         inkscape:export-xdpi="247.96268"
         inkscape:export-ydpi="247.96268" />
    </clipPath>
  </defs>
  <sodipodi:namedview
     id="namedview4"
     pagecolor="#ffffff"
     bordercolor="#666666"
     borderopacity="1.0"
     inkscape:pageshadow="2"
     inkscape:pageopacity="0.0"
     inkscape:pagecheckerboard="true"
     showgrid="false"
     inkscape:showpageshadow="false"
     inkscape:zoom="12.479331"
     inkscape:cx="28.006309"
     inkscape:cy="14.503983"
     inkscape:window-width="1920"
     inkscape:window-height="1138"
     inkscape:window-x="-8"
     inkscape:window-y="-8"
     inkscape:window-maximized="1"
     inkscape:current-layer="svg2"
     fit-margin-top="0"
     fit-margin-left="0"
     fit-margin-right="0"
     fit-margin-bottom="0" />
</svg>
