<?xml version="1.0" encoding="UTF-8" standalone="no"?>
<!-- Created with Inkscape (http://www.inkscape.org/) -->

<svg
   version="1.1"
   id="svg2"
   width="50.866409"
   height="9.4666433"
   viewBox="0 0 50.866411 9.4666433"
   sodipodi:docname="auto-arcade-capcom-cps1.svg"
   inkscape:version="1.1 (c68e22c387, 2021-05-23)"
   inkscape:export-filename="C:\Users\BUCH\Desktop\Retrogaming\Recalbox\travail thèmes\Thème vignette !!!!!!!\Maquette 2 !!!!\image1250.png"
   inkscape:export-xdpi="96.460785"
   inkscape:export-ydpi="96.460785"
   xmlns:inkscape="http://www.inkscape.org/namespaces/inkscape"
   xmlns:sodipodi="http://sodipodi.sourceforge.net/DTD/sodipodi-0.dtd"
   xmlns="http://www.w3.org/2000/svg"
   xmlns:svg="http://www.w3.org/2000/svg">
  <g
     aria-label="capcom cps1"
     id="text1046"
     style="font-weight:300;font-size:13.3333px;line-height:1.25;font-family:'Bebas Neue';-inkscape-font-specification:'Bebas Neue, Light';fill:#ffffff"
     transform="translate(12.541599,23.583429)">
    <path
       d="m -10.594937,-23.583429 c -1.41333,0 -1.946662,1.066664 -1.946662,2.359994 v 4.746655 c 0,1.29333 0.533332,2.359994 1.946662,2.359994 1.4266627,0 1.9599947,-1.066664 1.9599947,-2.359994 v -1.013331 h -0.2933326 v 1.026664 c 0,1.133331 -0.4266656,2.066662 -1.6533291,2.066662 -1.239997,0 -1.666663,-0.933331 -1.666663,-2.066662 v -4.773321 c 0,-1.133331 0.426666,-2.079995 1.666663,-2.079995 1.2266635,0 1.6533291,0.946664 1.6533291,2.079995 v 0.733331 h 0.2933326 v -0.719998 c 0,-1.29333 -0.533332,-2.359994 -1.9599947,-2.359994 z"
       id="path2987" />
    <path
       d="m -3.5016362,-16.383447 0.5466653,2.199994 h 0.2933326 l -2.3066608,-9.346643 h -0.4133323 l -2.2533276,9.346643 h 0.2666659 l 0.5466653,-2.199994 z m -1.6799957,-6.799983 1.6266625,6.533317 h -3.2133252 z"
       id="path2989" />
    <path
       d="m -1.6349934,-23.516762 v 9.333309 h 0.2933326 v -3.95999 h 1.33332992 c 1.47999628,0 2.14666128,-0.706664 2.14666128,-2.186661 v -0.933331 c 0,-1.306663 -0.4933321,-2.253327 -1.93332849,-2.253327 z m 0.2933326,5.09332 v -4.813321 h 1.54666271 c 1.25333019,0 1.63999589,0.813331 1.63999589,1.959995 v 0.959998 c 0,1.319996 -0.5466653,1.893328 -1.85332868,1.893328 z"
       id="path2991" />
    <path
       d="m 5.0849799,-23.583429 c -1.4133297,0 -1.9466617,1.066664 -1.9466617,2.359994 v 4.746655 c 0,1.29333 0.533332,2.359994 1.9466617,2.359994 1.4266631,0 1.9599951,-1.066664 1.9599951,-2.359994 v -1.013331 H 6.7516424 v 1.026664 c 0,1.133331 -0.4266656,2.066662 -1.6533292,2.066662 -1.2399968,0 -1.6666624,-0.933331 -1.6666624,-2.066662 v -4.773321 c 0,-1.133331 0.4266656,-2.079995 1.6666624,-2.079995 1.2266636,0 1.6533292,0.946664 1.6533292,2.079995 v 0.733331 H 7.044975 v -0.719998 c 0,-1.29333 -0.533332,-2.359994 -1.9599951,-2.359994 z"
       id="path2993" />
    <path
       d="m 8.0716249,-16.47678 c 0,1.306663 0.5599986,2.359994 1.9733281,2.359994 1.439997,0 1.999995,-1.053331 1.999995,-2.359994 v -4.746655 c 0,-1.306663 -0.559998,-2.359994 -1.999995,-2.359994 -1.4133295,0 -1.9733281,1.053331 -1.9733281,2.359994 z m 0.2933326,-4.759988 c 0,-1.146664 0.4399989,-2.079995 1.6799955,-2.079995 1.25333,0 1.706663,0.933331 1.706663,2.079995 v 4.773321 c 0,1.146664 -0.453333,2.079995 -1.706663,2.079995 -1.2399966,0 -1.6799955,-0.933331 -1.6799955,-2.079995 z"
       id="path2995" />
    <path
       d="m 18.298258,-23.076763 v 8.89331 h 0.293333 v -9.333309 h -0.453332 l -2.293328,8.853311 -2.293327,-8.853311 h -0.453333 v 9.333309 h 0.266666 v -8.89331 l 2.306661,8.866644 h 0.333333 z"
       id="path2997" />
    <path
       d="m 23.65821,-23.583429 c -1.41333,0 -1.946662,1.066664 -1.946662,2.359994 v 4.746655 c 0,1.29333 0.533332,2.359994 1.946662,2.359994 1.426663,0 1.959995,-1.066664 1.959995,-2.359994 v -1.013331 h -0.293333 v 1.026664 c 0,1.133331 -0.426665,2.066662 -1.653329,2.066662 -1.239997,0 -1.666662,-0.933331 -1.666662,-2.066662 v -4.773321 c 0,-1.133331 0.426665,-2.079995 1.666662,-2.079995 1.226664,0 1.653329,0.946664 1.653329,2.079995 v 0.733331 h 0.293333 v -0.719998 c 0,-1.29333 -0.533332,-2.359994 -1.959995,-2.359994 z"
       id="path2999" />
    <path
       d="m 26.658189,-23.516762 v 9.333309 h 0.293333 v -3.95999 h 1.333329 c 1.479997,0 2.146662,-0.706664 2.146662,-2.186661 v -0.933331 c 0,-1.306663 -0.493332,-2.253327 -1.933329,-2.253327 z m 0.293333,5.09332 v -4.813321 h 1.546662 c 1.25333,0 1.639996,0.813331 1.639996,1.959995 v 0.959998 c 0,1.319996 -0.546665,1.893328 -1.853329,1.893328 z"
       id="path3001" />
    <path
       d="m 33.378161,-23.583429 c -1.346663,0.01333 -1.919995,0.946664 -1.919995,2.306661 0,2.573327 3.573325,2.493327 3.573325,4.853321 0,1.133331 -0.439999,2.026662 -1.666663,2.026662 -1.226664,0 -1.666662,-0.893331 -1.666662,-2.026662 v -0.466665 h -0.28 v 0.453332 c 0,1.29333 0.533332,2.319994 1.946662,2.319994 1.426663,0 1.959995,-1.026664 1.959995,-2.319994 0,-2.533327 -3.573324,-2.466661 -3.573324,-4.853321 0,-1.106664 0.413332,-2.026662 1.639996,-2.026662 1.21333,0 1.626662,0.933331 1.626662,2.039995 v 0.186666 h 0.293333 v -0.173333 c 0,-1.279996 -0.519999,-2.319994 -1.933329,-2.319994 z"
       id="path3003" />
    <path
       d="m 38.031478,-14.183453 h 0.293333 v -9.346643 h -0.279999 c -0.253333,0.719999 -0.746665,1.266664 -1.57333,1.346664 v 0.266666 c 0.719998,-0.08 1.25333,-0.426666 1.559996,-1.039998 z"
       id="path3005" />
  </g>
  <defs
     id="defs6">
    <clipPath
       clipPathUnits="userSpaceOnUse"
       id="clipPath3185">
      <path
         id="path3187"
         style="fill:#ffffff;fill-rule:evenodd;stroke:#ffffff;stroke-width:5.15903;stroke-linecap:round;stroke-linejoin:round;paint-order:stroke fill markers"
         d="m 1157.5591,335.78677 h 462.4206 L 1362.3723,1410.6277 H 899.95176 Z"
         sodipodi:nodetypes="ccccc"
         inkscape:export-filename="C:\Users\BUCH\Desktop\Retrogaming\Recalbox\travail thèmes\Thème vignette !!!!!!!\Maquette 2 !!!!\rect849.png"
         inkscape:export-xdpi="247.96268"
         inkscape:export-ydpi="247.96268" />
    </clipPath>
  </defs>
  <sodipodi:namedview
     id="namedview4"
     pagecolor="#ffffff"
     bordercolor="#666666"
     borderopacity="1.0"
     inkscape:pageshadow="2"
     inkscape:pageopacity="0.0"
     inkscape:pagecheckerboard="true"
     showgrid="false"
     inkscape:showpageshadow="false"
     inkscape:zoom="8.8242196"
     inkscape:cx="28.841077"
     inkscape:cy="15.298803"
     inkscape:window-width="1920"
     inkscape:window-height="1138"
     inkscape:window-x="-8"
     inkscape:window-y="-8"
     inkscape:window-maximized="1"
     inkscape:current-layer="svg2"
     fit-margin-top="0"
     fit-margin-left="0"
     fit-margin-right="0"
     fit-margin-bottom="0" />
</svg>
