<?xml version="1.0" encoding="UTF-8" standalone="no"?>
<!-- Created with Inkscape (http://www.inkscape.org/) -->

<svg
   version="1.1"
   id="svg2"
   width="19.639908"
   height="9.4666433"
   viewBox="0 0 19.639909 9.4666433"
   sodipodi:docname="auto-arcade-seibu.svg"
   inkscape:version="1.1 (c68e22c387, 2021-05-23)"
   inkscape:export-filename="C:\Users\BUCH\Desktop\Retrogaming\Recalbox\travail thèmes\Thème vignette !!!!!!!\Maquette 2 !!!!\image1250.png"
   inkscape:export-xdpi="96.460785"
   inkscape:export-ydpi="96.460785"
   xmlns:inkscape="http://www.inkscape.org/namespaces/inkscape"
   xmlns:sodipodi="http://sodipodi.sourceforge.net/DTD/sodipodi-0.dtd"
   xmlns="http://www.w3.org/2000/svg"
   xmlns:svg="http://www.w3.org/2000/svg">
  <defs
     id="defs6">
    <clipPath
       clipPathUnits="userSpaceOnUse"
       id="clipPath3185">
      <path
         id="path3187"
         style="fill:#ffffff;fill-rule:evenodd;stroke:#ffffff;stroke-width:5.15903;stroke-linecap:round;stroke-linejoin:round;paint-order:stroke fill markers"
         d="m 1157.5591,335.78677 h 462.4206 L 1362.3723,1410.6277 H 899.95176 Z"
         sodipodi:nodetypes="ccccc"
         inkscape:export-filename="C:\Users\BUCH\Desktop\Retrogaming\Recalbox\travail thèmes\Thème vignette !!!!!!!\Maquette 2 !!!!\rect849.png"
         inkscape:export-xdpi="247.96268"
         inkscape:export-ydpi="247.96268" />
    </clipPath>
  </defs>
  <sodipodi:namedview
     id="namedview4"
     pagecolor="#ffffff"
     bordercolor="#666666"
     borderopacity="1.0"
     inkscape:pageshadow="2"
     inkscape:pageopacity="0.0"
     inkscape:pagecheckerboard="true"
     showgrid="false"
     inkscape:showpageshadow="false"
     inkscape:zoom="12.479331"
     inkscape:cx="15.425506"
     inkscape:cy="-1.3622525"
     inkscape:window-width="1920"
     inkscape:window-height="1138"
     inkscape:window-x="-8"
     inkscape:window-y="-8"
     inkscape:window-maximized="1"
     inkscape:current-layer="svg2"
     fit-margin-top="0"
     fit-margin-left="0"
     fit-margin-right="0"
     fit-margin-bottom="0" />
  <g
     aria-label="seibu"
     id="text1075"
     style="font-weight:300;font-size:13.3333px;line-height:1.25;font-family:'Bebas Neue';-inkscape-font-specification:'Bebas Neue, Light';fill:#ffffff"
     transform="translate(-17.334491,-19.527857)">
    <path
       d="m 19.294486,19.527857 c -1.346663,0.01333 -1.919995,0.946665 -1.919995,2.306661 0,2.573327 3.573324,2.493327 3.573324,4.853321 0,1.133331 -0.439999,2.026662 -1.666662,2.026662 -1.226664,0 -1.666663,-0.893331 -1.666663,-2.026662 v -0.466665 h -0.279999 v 0.453332 c 0,1.29333 0.533332,2.319994 1.946662,2.319994 1.426663,0 1.959995,-1.026664 1.959995,-2.319994 0,-2.533327 -3.573325,-2.466661 -3.573325,-4.853321 0,-1.106664 0.413333,-2.026662 1.639996,-2.026662 1.213331,0 1.626663,0.933331 1.626663,2.039995 v 0.186666 h 0.293332 v -0.173333 c 0,-1.279996 -0.519998,-2.319994 -1.933328,-2.319994 z"
       id="path2162" />
    <path
       d="m 22.574471,24.061179 v -4.186656 h 3.266658 v -0.279999 h -3.559991 v 9.33331 h 3.559991 v -0.28 h -3.266658 v -4.319989 h 2.746659 v -0.266666 z"
       id="path2164" />
    <path
       d="m 26.881118,19.594524 v 9.33331 h 0.293333 v -9.33331 z"
       id="path2166" />
    <path
       d="m 28.241104,19.594524 v 9.33331 h 1.879995 c 1.41333,0 1.973329,-0.826665 1.973329,-2.146662 v -0.826664 c 0,-1.079998 -0.413332,-1.839996 -1.519996,-1.999995 1.05333,-0.16 1.33333,-0.786665 1.33333,-1.826662 v -0.599999 c 0,-1.25333 -0.439999,-1.933328 -1.799996,-1.933328 z m 0.293333,4.239989 v -3.95999 h 1.573329 c 1.173331,0 1.506663,0.573332 1.506663,1.666663 v 0.626665 c 0,1.359996 -0.573332,1.666662 -1.866662,1.666662 z m 0,4.813321 V 24.101179 H 29.8811 c 1.279997,0 1.919995,0.493332 1.919995,1.839995 v 0.839998 c 0,1.173331 -0.453332,1.866662 -1.679996,1.866662 z"
       id="path2168" />
    <path
       d="m 33.414407,19.594524 h -0.293332 v 7.026649 c 0,1.279996 0.506665,2.373327 1.933328,2.373327 1.41333,0 1.919995,-1.093331 1.919995,-2.373327 v -7.026649 h -0.279999 v 7.039982 c 0,1.119997 -0.399999,2.093328 -1.639996,2.093328 -1.239997,0 -1.639996,-0.973331 -1.639996,-2.093328 z"
       id="path2170" />
  </g>
</svg>
