<?xml version="1.0" encoding="UTF-8" standalone="no"?>
<!-- Created with Inkscape (http://www.inkscape.org/) -->

<svg
   version="1.1"
   id="svg2"
   width="67.066315"
   height="9.4666433"
   viewBox="0 0 67.066318 9.4666433"
   sodipodi:docname="auto-arcade-sammy.svg"
   inkscape:version="1.1 (c68e22c387, 2021-05-23)"
   inkscape:export-filename="C:\Users\BUCH\Desktop\Retrogaming\Recalbox\travail thèmes\Thème vignette !!!!!!!\Maquette 2 !!!!\image1250.png"
   inkscape:export-xdpi="96.460785"
   inkscape:export-ydpi="96.460785"
   xmlns:inkscape="http://www.inkscape.org/namespaces/inkscape"
   xmlns:sodipodi="http://sodipodi.sourceforge.net/DTD/sodipodi-0.dtd"
   xmlns="http://www.w3.org/2000/svg"
   xmlns:svg="http://www.w3.org/2000/svg">
  <defs
     id="defs6">
    <clipPath
       clipPathUnits="userSpaceOnUse"
       id="clipPath3185">
      <path
         id="path3187"
         style="fill:#ffffff;fill-rule:evenodd;stroke:#ffffff;stroke-width:5.15903;stroke-linecap:round;stroke-linejoin:round;paint-order:stroke fill markers"
         d="m 1157.5591,335.78677 h 462.4206 L 1362.3723,1410.6277 H 899.95176 Z"
         sodipodi:nodetypes="ccccc"
         inkscape:export-filename="C:\Users\BUCH\Desktop\Retrogaming\Recalbox\travail thèmes\Thème vignette !!!!!!!\Maquette 2 !!!!\rect849.png"
         inkscape:export-xdpi="247.96268"
         inkscape:export-ydpi="247.96268" />
    </clipPath>
  </defs>
  <sodipodi:namedview
     id="namedview4"
     pagecolor="#ffffff"
     bordercolor="#666666"
     borderopacity="1.0"
     inkscape:pageshadow="2"
     inkscape:pageopacity="0.0"
     inkscape:pagecheckerboard="true"
     showgrid="false"
     inkscape:showpageshadow="false"
     inkscape:zoom="12.479331"
     inkscape:cx="37.622209"
     inkscape:cy="25.161605"
     inkscape:window-width="1920"
     inkscape:window-height="1138"
     inkscape:window-x="-8"
     inkscape:window-y="-8"
     inkscape:window-maximized="1"
     inkscape:current-layer="svg2"
     fit-margin-top="0"
     fit-margin-left="0"
     fit-margin-right="0"
     fit-margin-bottom="0" />
  <g
     aria-label="sammy classics"
     id="text1213"
     style="font-weight:300;font-size:13.3333px;line-height:1.25;font-family:'Bebas Neue';-inkscape-font-specification:'Bebas Neue, Light';fill:#ffffff"
     transform="translate(2.3781045,16.050974)">
    <path
       d="m -0.41810948,-16.050974 c -1.34666322,0.01333 -1.91999512,0.946664 -1.91999512,2.306661 0,2.573327 3.5733243,2.493327 3.5733243,4.853321 0,1.1333305 -0.43999892,2.0266616 -1.66666248,2.0266616 -1.22666352,0 -1.66666242,-0.8933311 -1.66666242,-2.0266616 v -0.4666655 h -0.2799993 v 0.4533322 c 0,1.2933301 0.533332,2.3199942 1.94666172,2.3199942 1.42666306,0 1.95999508,-1.0266641 1.95999508,-2.3199942 0,-2.5333267 -3.5733243,-2.4666607 -3.5733243,-4.8533207 0,-1.106664 0.4133322,-2.026662 1.63999582,-2.026662 1.21333026,0 1.62666258,0.933331 1.62666258,2.039995 v 0.186666 H 1.515219 v -0.173333 c 0,-1.279997 -0.51999872,-2.319994 -1.93332848,-2.319994 z"
       id="path2760" />
    <path
       d="m 6.6618656,-8.8509921 0.5466653,2.1999945 H 7.5018635 L 5.1952026,-15.997641 H 4.7818703 l -2.2533276,9.3466434 h 0.266666 L 3.341874,-8.8509921 Z M 4.9818698,-15.650975 6.6085324,-9.1176581 H 3.3952072 Z"
       id="path2762" />
    <path
       d="m 13.728496,-15.544308 v 8.8933104 h 0.293332 V -15.984307 H 13.568496 L 11.275169,-7.1309964 8.981841,-15.984307 H 8.5285088 v 9.3333094 h 0.266666 v -8.8933104 l 2.3066612,8.8666438 h 0.333332 z"
       id="path2764" />
    <path
       d="m 20.288462,-15.544308 v 8.8933104 h 0.293332 v -9.3333094 h -0.453332 l -2.293327,8.8533106 -2.293328,-8.8533106 h -0.453332 v 9.3333094 h 0.266666 v -8.8933104 l 2.306661,8.8666438 h 0.333332 z"
       id="path2766" />
    <path
       d="m 23.768435,-6.6509976 h 0.293332 v -3.7733234 l 2.213328,-5.559986 h -0.306666 l -2.039995,5.159987 -2.039995,-5.159987 h -0.293332 l 2.173328,5.559986 z"
       id="path2768" />
    <path
       d="m 31.275052,-16.050974 c -1.41333,0 -1.946662,1.066664 -1.946662,2.359994 v 4.7466548 c 0,1.2933301 0.533332,2.3599941 1.946662,2.3599941 1.426663,0 1.959995,-1.066664 1.959995,-2.3599941 v -1.0133307 h -0.293333 v 1.026664 c 0,1.1333305 -0.426666,2.0666615 -1.653329,2.0666615 -1.239997,0 -1.666663,-0.933331 -1.666663,-2.0666615 v -4.7733211 c 0,-1.133331 0.426666,-2.079995 1.666663,-2.079995 1.226663,0 1.653329,0.946664 1.653329,2.079995 v 0.733331 h 0.293333 v -0.719998 c 0,-1.29333 -0.533332,-2.359994 -1.959995,-2.359994 z"
       id="path2770" />
    <path
       d="m 37.701689,-6.6509976 v -0.2799993 h -3.133326 v -9.0533101 h -0.293332 v 9.3333094 z"
       id="path2772" />
    <path
       d="m 42.808318,-8.8509921 0.546665,2.1999945 h 0.293333 l -2.306661,-9.3466434 h -0.413332 l -2.253328,9.3466434 h 0.266666 l 0.546665,-2.1999945 z m -1.679996,-6.7999829 1.626663,6.5333169 H 39.54166 Z"
       id="path2774" />
    <path
       d="m 46.608292,-16.050974 c -1.346663,0.01333 -1.919995,0.946664 -1.919995,2.306661 0,2.573327 3.573324,2.493327 3.573324,4.853321 0,1.1333305 -0.439999,2.0266616 -1.666662,2.0266616 -1.226664,0 -1.666663,-0.8933311 -1.666663,-2.0266616 v -0.4666655 h -0.279999 v 0.4533322 c 0,1.2933301 0.533332,2.3199942 1.946662,2.3199942 1.426663,0 1.959995,-1.0266641 1.959995,-2.3199942 0,-2.5333267 -3.573325,-2.4666607 -3.573325,-4.8533207 0,-1.106664 0.413333,-2.026662 1.639996,-2.026662 1.213331,0 1.626663,0.933331 1.626663,2.039995 v 0.186666 h 0.293332 v -0.173333 c 0,-1.279997 -0.519998,-2.319994 -1.933328,-2.319994 z"
       id="path2776" />
    <path
       d="m 51.528271,-16.050974 c -1.346663,0.01333 -1.919995,0.946664 -1.919995,2.306661 0,2.573327 3.573324,2.493327 3.573324,4.853321 0,1.1333305 -0.439999,2.0266616 -1.666662,2.0266616 -1.226664,0 -1.666663,-0.8933311 -1.666663,-2.0266616 v -0.4666655 h -0.279999 v 0.4533322 c 0,1.2933301 0.533332,2.3199942 1.946662,2.3199942 1.426663,0 1.959995,-1.0266641 1.959995,-2.3199942 0,-2.5333267 -3.573324,-2.4666607 -3.573324,-4.8533207 0,-1.106664 0.413332,-2.026662 1.639995,-2.026662 1.213331,0 1.626663,0.933331 1.626663,2.039995 v 0.186666 H 53.4616 v -0.173333 c 0,-1.279997 -0.519999,-2.319994 -1.933329,-2.319994 z"
       id="path2778" />
    <path
       d="m 54.514926,-15.984307 v 9.3333094 h 0.293332 v -9.3333094 z"
       id="path2780" />
    <path
       d="m 57.808239,-16.050974 c -1.413329,0 -1.946661,1.066664 -1.946661,2.359994 v 4.7466548 c 0,1.2933301 0.533332,2.3599941 1.946661,2.3599941 1.426663,0 1.959995,-1.066664 1.959995,-2.3599941 v -1.0133307 h -0.293332 v 1.026664 c 0,1.1333305 -0.426666,2.0666615 -1.653329,2.0666615 -1.239997,0 -1.666663,-0.933331 -1.666663,-2.0666615 v -4.7733211 c 0,-1.133331 0.426666,-2.079995 1.666663,-2.079995 1.226663,0 1.653329,0.946664 1.653329,2.079995 v 0.733331 h 0.293332 v -0.719998 c 0,-1.29333 -0.533332,-2.359994 -1.959995,-2.359994 z"
       id="path2782" />
    <path
       d="m 62.741547,-16.050974 c -1.346663,0.01333 -1.919995,0.946664 -1.919995,2.306661 0,2.573327 3.573324,2.493327 3.573324,4.853321 0,1.1333305 -0.439999,2.0266616 -1.666662,2.0266616 -1.226664,0 -1.666663,-0.8933311 -1.666663,-2.0266616 v -0.4666655 h -0.279999 v 0.4533322 c 0,1.2933301 0.533332,2.3199942 1.946662,2.3199942 1.426663,0 1.959995,-1.0266641 1.959995,-2.3199942 0,-2.5333267 -3.573325,-2.4666607 -3.573325,-4.8533207 0,-1.106664 0.413333,-2.026662 1.639996,-2.026662 1.213331,0 1.626663,0.933331 1.626663,2.039995 v 0.186666 h 0.293332 v -0.173333 c 0,-1.279997 -0.519998,-2.319994 -1.933328,-2.319994 z"
       id="path2784" />
  </g>
</svg>
