<?xml version="1.0" encoding="UTF-8" standalone="no"?>
<!-- Created with Inkscape (http://www.inkscape.org/) -->

<svg
   version="1.1"
   id="svg2"
   width="69.612968"
   height="9.4666433"
   viewBox="0 0 69.612971 9.4666433"
   sodipodi:docname="auto-arcade-capcom.svg"
   inkscape:version="1.1 (c68e22c387, 2021-05-23)"
   inkscape:export-filename="C:\Users\BUCH\Desktop\Retrogaming\Recalbox\travail thèmes\Thème vignette !!!!!!!\Maquette 2 !!!!\image1250.png"
   inkscape:export-xdpi="96.460785"
   inkscape:export-ydpi="96.460785"
   xmlns:inkscape="http://www.inkscape.org/namespaces/inkscape"
   xmlns:sodipodi="http://sodipodi.sourceforge.net/DTD/sodipodi-0.dtd"
   xmlns="http://www.w3.org/2000/svg"
   xmlns:svg="http://www.w3.org/2000/svg">
  <g
     aria-label="capcom classics"
     id="text2366"
     style="font-weight:300;font-size:13.3333px;line-height:1.25;font-family:'Bebas Neue';-inkscape-font-specification:'Bebas Neue, Light';fill:#ffffff"
     transform="translate(7.4932517,29.593366)">
    <path
       d="m -5.5465899,-29.593366 c -1.4133298,0 -1.9466618,1.066664 -1.9466618,2.359994 v 4.746655 c 0,1.29333 0.533332,2.359994 1.9466618,2.359994 1.426663,0 1.959995,-1.066664 1.959995,-2.359994 v -1.013331 h -0.2933326 v 1.026664 c 0,1.13333 -0.4266656,2.066661 -1.6533291,2.066661 -1.2399969,0 -1.6666625,-0.933331 -1.6666625,-2.066661 v -4.773321 c 0,-1.133331 0.4266656,-2.079995 1.6666625,-2.079995 1.2266635,0 1.6533291,0.946664 1.6533291,2.079995 v 0.733331 h 0.2933326 v -0.719998 c 0,-1.29333 -0.533332,-2.359994 -1.959995,-2.359994 z"
       id="path3267" />
    <path
       d="m 1.5467113,-22.393384 0.5466653,2.199994 h 0.2933326 l -2.30666084,-9.346643 h -0.41333229 l -2.25332767,9.346643 h 0.266666 l 0.5466653,-2.199994 z m -1.67999574,-6.799983 1.62666254,6.533317 h -3.2133252 z"
       id="path3269" />
    <path
       d="m 3.413354,-29.5267 v 9.33331 h 0.2933326 v -3.95999 h 1.33333 c 1.4799962,0 2.1466612,-0.706665 2.1466612,-2.186661 v -0.933331 c 0,-1.306663 -0.4933321,-2.253328 -1.9333284,-2.253328 z m 0.2933326,5.093321 V -29.2467 h 1.5466628 c 1.2533302,0 1.6399958,0.813331 1.6399958,1.959995 v 0.959997 c 0,1.319997 -0.5466652,1.893329 -1.8533286,1.893329 z"
       id="path3271" />
    <path
       d="m 10.133327,-29.593366 c -1.4133293,0 -1.9466613,1.066664 -1.9466613,2.359994 v 4.746655 c 0,1.29333 0.533332,2.359994 1.9466613,2.359994 1.426663,0 1.959995,-1.066664 1.959995,-2.359994 v -1.013331 H 11.79999 v 1.026664 c 0,1.13333 -0.426666,2.066661 -1.653329,2.066661 -1.2399971,0 -1.6666627,-0.933331 -1.6666627,-2.066661 v -4.773321 c 0,-1.133331 0.4266656,-2.079995 1.6666627,-2.079995 1.226663,0 1.653329,0.946664 1.653329,2.079995 v 0.733331 h 0.293332 v -0.719998 c 0,-1.29333 -0.533332,-2.359994 -1.959995,-2.359994 z"
       id="path3273" />
    <path
       d="m 13.119972,-22.486717 c 0,1.306663 0.559999,2.359994 1.973329,2.359994 1.439996,0 1.999995,-1.053331 1.999995,-2.359994 v -4.746655 c 0,-1.306663 -0.559999,-2.359994 -1.999995,-2.359994 -1.41333,0 -1.973329,1.053331 -1.973329,2.359994 z m 0.293333,-4.759988 c 0,-1.146664 0.439999,-2.079995 1.679996,-2.079995 1.25333,0 1.706662,0.933331 1.706662,2.079995 v 4.773321 c 0,1.146664 -0.453332,2.079995 -1.706662,2.079995 -1.239997,0 -1.679996,-0.933331 -1.679996,-2.079995 z"
       id="path3275" />
    <path
       d="m 23.346606,-29.086701 v 8.893311 h 0.293332 v -9.33331 h -0.453332 l -2.293327,8.853311 -2.293328,-8.853311 h -0.453332 v 9.33331 h 0.266666 v -8.893311 l 2.306661,8.866645 h 0.333332 z"
       id="path3277" />
    <path
       d="m 28.706557,-29.593366 c -1.41333,0 -1.946662,1.066664 -1.946662,2.359994 v 4.746655 c 0,1.29333 0.533332,2.359994 1.946662,2.359994 1.426663,0 1.959995,-1.066664 1.959995,-2.359994 v -1.013331 H 30.37322 v 1.026664 c 0,1.13333 -0.426666,2.066661 -1.653329,2.066661 -1.239997,0 -1.666663,-0.933331 -1.666663,-2.066661 v -4.773321 c 0,-1.133331 0.426666,-2.079995 1.666663,-2.079995 1.226663,0 1.653329,0.946664 1.653329,2.079995 v 0.733331 h 0.293332 v -0.719998 c 0,-1.29333 -0.533332,-2.359994 -1.959995,-2.359994 z"
       id="path3279" />
    <path
       d="m 35.133194,-20.19339 v -0.279999 H 31.999869 V -29.5267 h -0.293333 v 9.33331 z"
       id="path3281" />
    <path
       d="m 40.239824,-22.393384 0.546665,2.199994 h 0.293333 l -2.306661,-9.346643 h -0.413333 l -2.253327,9.346643 h 0.266666 l 0.546665,-2.199994 z m -1.679996,-6.799983 1.626662,6.533317 h -3.213325 z"
       id="path3283" />
    <path
       d="m 44.039798,-29.593366 c -1.346664,0.01333 -1.919995,0.946664 -1.919995,2.306661 0,2.573327 3.573324,2.493327 3.573324,4.853321 0,1.13333 -0.439999,2.026661 -1.666663,2.026661 -1.226663,0 -1.666662,-0.893331 -1.666662,-2.026661 v -0.466666 h -0.279999 v 0.453332 c 0,1.293331 0.533332,2.319995 1.946661,2.319995 1.426663,0 1.959995,-1.026664 1.959995,-2.319995 0,-2.533326 -3.573324,-2.46666 -3.573324,-4.853321 0,-1.106663 0.413332,-2.026661 1.639996,-2.026661 1.21333,0 1.626663,0.933331 1.626663,2.039995 v 0.186666 h 0.293332 v -0.173333 c 0,-1.279997 -0.519999,-2.319994 -1.933328,-2.319994 z"
       id="path3285" />
    <path
       d="m 48.959777,-29.593366 c -1.346663,0.01333 -1.919995,0.946664 -1.919995,2.306661 0,2.573327 3.573324,2.493327 3.573324,4.853321 0,1.13333 -0.439999,2.026661 -1.666662,2.026661 -1.226664,0 -1.666663,-0.893331 -1.666663,-2.026661 v -0.466666 h -0.279999 v 0.453332 c 0,1.293331 0.533332,2.319995 1.946662,2.319995 1.426663,0 1.959995,-1.026664 1.959995,-2.319995 0,-2.533326 -3.573325,-2.46666 -3.573325,-4.853321 0,-1.106663 0.413333,-2.026661 1.639996,-2.026661 1.21333,0 1.626663,0.933331 1.626663,2.039995 v 0.186666 h 0.293332 v -0.173333 c 0,-1.279997 -0.519998,-2.319994 -1.933328,-2.319994 z"
       id="path3287" />
    <path
       d="m 51.946427,-29.5267 v 9.33331 h 0.293333 v -9.33331 z"
       id="path3289" />
    <path
       d="m 55.239745,-29.593366 c -1.41333,0 -1.946662,1.066664 -1.946662,2.359994 v 4.746655 c 0,1.29333 0.533332,2.359994 1.946662,2.359994 1.426663,0 1.959995,-1.066664 1.959995,-2.359994 v -1.013331 h -0.293332 v 1.026664 c 0,1.13333 -0.426666,2.066661 -1.65333,2.066661 -1.239996,0 -1.666662,-0.933331 -1.666662,-2.066661 v -4.773321 c 0,-1.133331 0.426666,-2.079995 1.666662,-2.079995 1.226664,0 1.65333,0.946664 1.65333,2.079995 v 0.733331 h 0.293332 v -0.719998 c 0,-1.29333 -0.533332,-2.359994 -1.959995,-2.359994 z"
       id="path3291" />
    <path
       d="m 60.173053,-29.593366 c -1.346664,0.01333 -1.919995,0.946664 -1.919995,2.306661 0,2.573327 3.573324,2.493327 3.573324,4.853321 0,1.13333 -0.439999,2.026661 -1.666663,2.026661 -1.226663,0 -1.666662,-0.893331 -1.666662,-2.026661 v -0.466666 h -0.279999 v 0.453332 c 0,1.293331 0.533332,2.319995 1.946661,2.319995 1.426663,0 1.959995,-1.026664 1.959995,-2.319995 0,-2.533326 -3.573324,-2.46666 -3.573324,-4.853321 0,-1.106663 0.413332,-2.026661 1.639996,-2.026661 1.21333,0 1.626663,0.933331 1.626663,2.039995 v 0.186666 h 0.293332 v -0.173333 c 0,-1.279997 -0.519999,-2.319994 -1.933328,-2.319994 z"
       id="path3293" />
  </g>
  <defs
     id="defs6">
    <clipPath
       clipPathUnits="userSpaceOnUse"
       id="clipPath3185">
      <path
         id="path3187"
         style="fill:#ffffff;fill-rule:evenodd;stroke:#ffffff;stroke-width:5.15903;stroke-linecap:round;stroke-linejoin:round;paint-order:stroke fill markers"
         d="m 1157.5591,335.78677 h 462.4206 L 1362.3723,1410.6277 H 899.95176 Z"
         sodipodi:nodetypes="ccccc"
         inkscape:export-filename="C:\Users\BUCH\Desktop\Retrogaming\Recalbox\travail thèmes\Thème vignette !!!!!!!\Maquette 2 !!!!\rect849.png"
         inkscape:export-xdpi="247.96268"
         inkscape:export-ydpi="247.96268" />
    </clipPath>
  </defs>
  <sodipodi:namedview
     id="namedview4"
     pagecolor="#ffffff"
     bordercolor="#666666"
     borderopacity="1.0"
     inkscape:pageshadow="2"
     inkscape:pageopacity="0.0"
     inkscape:pagecheckerboard="true"
     showgrid="false"
     inkscape:showpageshadow="false"
     inkscape:zoom="12.479331"
     inkscape:cx="32.653994"
     inkscape:cy="20.433788"
     inkscape:window-width="1920"
     inkscape:window-height="1138"
     inkscape:window-x="-8"
     inkscape:window-y="-8"
     inkscape:window-maximized="1"
     inkscape:current-layer="svg2"
     fit-margin-top="0"
     fit-margin-left="0"
     fit-margin-right="0"
     fit-margin-bottom="0" />
</svg>
