<?xml version="1.0" encoding="UTF-8" standalone="no"?>
<!-- Created with Inkscape (http://www.inkscape.org/) -->

<svg
   version="1.1"
   id="svg2"
   width="38.986446"
   height="9.4666433"
   viewBox="0 0 38.986447 9.4666433"
   sodipodi:docname="cdi.svg"
   inkscape:version="1.1 (c68e22c387, 2021-05-23)"
   inkscape:export-filename="C:\Users\BUCH\Desktop\Retrogaming\Recalbox\travail thèmes\Thème vignette !!!!!!!\Maquette 2 !!!!\image1250.png"
   inkscape:export-xdpi="96.460785"
   inkscape:export-ydpi="96.460785"
   xmlns:inkscape="http://www.inkscape.org/namespaces/inkscape"
   xmlns:sodipodi="http://sodipodi.sourceforge.net/DTD/sodipodi-0.dtd"
   xmlns="http://www.w3.org/2000/svg"
   xmlns:svg="http://www.w3.org/2000/svg">
  <defs
     id="defs6">
    <clipPath
       clipPathUnits="userSpaceOnUse"
       id="clipPath3185">
      <path
         id="path3187"
         style="fill:#ffffff;fill-rule:evenodd;stroke:#ffffff;stroke-width:5.15903;stroke-linecap:round;stroke-linejoin:round;paint-order:stroke fill markers"
         d="m 1157.5591,335.78677 h 462.4206 L 1362.3723,1410.6277 H 899.95176 Z"
         sodipodi:nodetypes="ccccc"
         inkscape:export-filename="C:\Users\BUCH\Desktop\Retrogaming\Recalbox\travail thèmes\Thème vignette !!!!!!!\Maquette 2 !!!!\rect849.png"
         inkscape:export-xdpi="247.96268"
         inkscape:export-ydpi="247.96268" />
    </clipPath>
  </defs>
  <sodipodi:namedview
     id="namedview4"
     pagecolor="#ffffff"
     bordercolor="#666666"
     borderopacity="1.0"
     inkscape:pageshadow="2"
     inkscape:pageopacity="0.0"
     inkscape:pagecheckerboard="true"
     showgrid="false"
     inkscape:showpageshadow="false"
     inkscape:zoom="12.479331"
     inkscape:cx="26.403659"
     inkscape:cy="6.3304676"
     inkscape:window-width="1920"
     inkscape:window-height="1138"
     inkscape:window-x="-8"
     inkscape:window-y="-8"
     inkscape:window-maximized="1"
     inkscape:current-layer="svg2"
     fit-margin-top="0"
     fit-margin-left="0"
     fit-margin-right="0"
     fit-margin-bottom="0" />
  <g
     aria-label="philips cdi"
     id="text7474"
     style="font-weight:300;font-size:13.3333px;line-height:1.25;font-family:'Bebas Neue';-inkscape-font-specification:'Bebas Neue, Light';fill:#ffffff"
     transform="translate(7.0792555,-13.678183)">
    <path
       d="m -7.0792555,13.74485 v 9.333309 h 0.2933326 v -3.95999 h 1.33333 c 1.4799962,0 2.1466612,-0.706665 2.1466612,-2.186661 v -0.933331 c 0,-1.306663 -0.4933321,-2.253327 -1.9333284,-2.253327 z m 0.2933326,5.09332 v -4.813321 h 1.5466628 c 1.2533301,0 1.6399958,0.813331 1.6399958,1.959995 v 0.959997 c 0,1.319997 -0.5466652,1.893329 -1.8533286,1.893329 z"
       id="path8241" />
    <path
       d="m 1.3740464,18.544837 v 4.533322 H 1.667379 V 13.74485 H 1.3740464 v 4.533321 H -1.9992784 V 13.74485 H -2.292611 v 9.333309 h 0.2933326 v -4.533322 z"
       id="path8243" />
    <path
       d="m 2.7340285,13.74485 v 9.333309 H 3.027361 V 13.74485 Z"
       id="path8245" />
    <path
       d="M 7.5206737,23.078159 V 22.79816 H 4.3873483 V 13.74485 H 4.0940157 v 9.333309 z"
       id="path8247" />
    <path
       d="m 8.533981,13.74485 v 9.333309 H 8.8273136 V 13.74485 Z"
       id="path8249" />
    <path
       d="m 9.8939692,13.74485 v 9.333309 h 0.2933328 v -3.95999 h 1.33333 c 1.479996,0 2.146661,-0.706665 2.146661,-2.186661 v -0.933331 c 0,-1.306663 -0.493332,-2.253327 -1.933328,-2.253327 z m 0.2933328,5.09332 v -4.813321 h 1.546663 c 1.25333,0 1.639995,0.813331 1.639995,1.959995 v 0.959997 c 0,1.319997 -0.546665,1.893329 -1.853328,1.893329 z"
       id="path8251" />
    <path
       d="m 16.613942,13.678183 c -1.346664,0.01333 -1.919996,0.946664 -1.919996,2.306661 0,2.573327 3.573325,2.493327 3.573325,4.853321 0,1.13333 -0.439999,2.026662 -1.666663,2.026662 -1.226663,0 -1.666662,-0.893332 -1.666662,-2.026662 V 20.3715 h -0.279999 v 0.453332 c 0,1.29333 0.533332,2.319994 1.946661,2.319994 1.426663,0 1.959995,-1.026664 1.959995,-2.319994 0,-2.533327 -3.573324,-2.466661 -3.573324,-4.853321 0,-1.106664 0.413332,-2.026662 1.639996,-2.026662 1.21333,0 1.626662,0.933331 1.626662,2.039995 v 0.186666 h 0.293333 v -0.173333 c 0,-1.279997 -0.519999,-2.319994 -1.933328,-2.319994 z"
       id="path8253" />
    <path
       d="m 23.600567,13.678183 c -1.413329,0 -1.946661,1.066664 -1.946661,2.359994 v 4.746655 c 0,1.29333 0.533332,2.359994 1.946661,2.359994 1.426663,0 1.959995,-1.066664 1.959995,-2.359994 V 19.771501 H 25.26723 v 1.026664 c 0,1.133331 -0.426666,2.066662 -1.653329,2.066662 -1.239997,0 -1.666663,-0.933331 -1.666663,-2.066662 v -4.773321 c 0,-1.133331 0.426666,-2.079995 1.666663,-2.079995 1.226663,0 1.653329,0.946664 1.653329,2.079995 v 0.733331 h 0.293332 v -0.719998 c 0,-1.29333 -0.533332,-2.359994 -1.959995,-2.359994 z"
       id="path8255" />
    <path
       d="m 26.600546,13.74485 v 9.333309 h 1.959996 c 1.413329,0 2.013328,-0.999997 2.013328,-2.319994 v -4.679988 c 0,-1.33333 -0.599999,-2.333327 -2.026662,-2.333327 z m 0.293333,9.05331 v -8.773311 h 1.653329 c 1.239997,0 1.733329,0.866664 1.733329,2.039995 v 4.706654 c 0,1.159998 -0.479999,2.026662 -1.733329,2.026662 z"
       id="path8257" />
    <path
       d="m 31.61386,13.74485 v 9.333309 h 0.293332 V 13.74485 Z"
       id="path8259" />
  </g>
</svg>
