<?xml version="1.0" encoding="UTF-8" standalone="no"?>
<!-- Created with Inkscape (http://www.inkscape.org/) -->

<svg
   version="1.1"
   id="svg2"
   width="29.373169"
   height="9.3466434"
   viewBox="0 0 29.37317 9.3466434"
   sodipodi:docname="daphne.svg"
   inkscape:version="1.1 (c68e22c387, 2021-05-23)"
   inkscape:export-filename="C:\Users\BUCH\Desktop\Retrogaming\Recalbox\travail thèmes\Thème vignette !!!!!!!\Maquette 2 !!!!\image1250.png"
   inkscape:export-xdpi="96.460785"
   inkscape:export-ydpi="96.460785"
   xmlns:inkscape="http://www.inkscape.org/namespaces/inkscape"
   xmlns:sodipodi="http://sodipodi.sourceforge.net/DTD/sodipodi-0.dtd"
   xmlns="http://www.w3.org/2000/svg"
   xmlns:svg="http://www.w3.org/2000/svg">
  <defs
     id="defs6">
    <clipPath
       clipPathUnits="userSpaceOnUse"
       id="clipPath3185">
      <path
         id="path3187"
         style="fill:#ffffff;fill-rule:evenodd;stroke:#ffffff;stroke-width:5.15903;stroke-linecap:round;stroke-linejoin:round;paint-order:stroke fill markers"
         d="m 1157.5591,335.78677 h 462.4206 L 1362.3723,1410.6277 H 899.95176 Z"
         sodipodi:nodetypes="ccccc"
         inkscape:export-filename="C:\Users\BUCH\Desktop\Retrogaming\Recalbox\travail thèmes\Thème vignette !!!!!!!\Maquette 2 !!!!\rect849.png"
         inkscape:export-xdpi="247.96268"
         inkscape:export-ydpi="247.96268" />
    </clipPath>
  </defs>
  <sodipodi:namedview
     id="namedview4"
     pagecolor="#ffffff"
     bordercolor="#666666"
     borderopacity="1.0"
     inkscape:pageshadow="2"
     inkscape:pageopacity="0.0"
     inkscape:pagecheckerboard="true"
     showgrid="false"
     inkscape:showpageshadow="false"
     inkscape:zoom="12.479331"
     inkscape:cx="19.592396"
     inkscape:cy="23.639088"
     inkscape:window-width="1920"
     inkscape:window-height="1138"
     inkscape:window-x="-8"
     inkscape:window-y="-8"
     inkscape:window-maximized="1"
     inkscape:current-layer="svg2"
     fit-margin-top="0"
     fit-margin-left="0"
     fit-margin-right="0"
     fit-margin-bottom="0" />
  <g
     aria-label="daphne"
     id="text11139"
     style="font-weight:300;font-size:13.3333px;line-height:1.25;font-family:'Bebas Neue';-inkscape-font-specification:'Bebas Neue, Light';fill:#ffffff"
     transform="translate(0.42825801,18.722146)">
    <path
       d="m -0.42825801,-18.708812 v 9.3333094 H 1.531737 c 1.4133298,0 2.0133283,-0.9999974 2.0133283,-2.3199944 v -4.679988 c 0,-1.33333 -0.5999985,-2.333327 -2.0266616,-2.333327 z m 0.2933326,9.0533101 V -18.428813 H 1.5184037 c 1.2399969,0 1.733329,0.866664 1.733329,2.039995 v 4.706655 c 0,1.159997 -0.4799988,2.0266611 -1.733329,2.0266611 z"
       id="path11654" />
    <path
       d="m 8.6650268,-11.575497 0.5466653,2.1999944 H 9.5050247 L 7.1983639,-18.722146 H 6.7850316 l -2.2533277,9.3466434 h 0.266666 l 0.5466653,-2.1999944 z m -1.6799957,-6.799983 1.6266625,6.533317 H 5.3983684 Z"
       id="path11656" />
    <path
       d="m 10.531671,-18.708812 v 9.3333094 h 0.293332 v -3.9599904 h 1.33333 c 1.479996,0 2.146661,-0.706664 2.146661,-2.186661 v -0.933331 c 0,-1.306663 -0.493332,-2.253327 -1.933328,-2.253327 z m 0.293332,5.09332 v -4.813321 h 1.546663 c 1.25333,0 1.639996,0.813331 1.639996,1.959995 v 0.959998 c 0,1.319996 -0.546666,1.893328 -1.853329,1.893328 z"
       id="path11658" />
    <path
       d="m 18.984972,-13.908824 v 4.5333214 h 0.293332 v -9.3333094 h -0.293332 v 4.533322 h -3.373325 v -4.533322 h -0.293333 v 9.3333094 h 0.293333 v -4.5333214 z"
       id="path11660" />
    <path
       d="m 20.624954,-18.282147 3.333325,8.9066444 h 0.359999 v -9.3333094 h -0.28 v 8.7333109 l -3.279991,-8.7333109 h -0.413333 v 9.3333094 h 0.28 z"
       id="path11662" />
    <path
       d="m 25.678252,-14.242157 v -4.186656 h 3.266658 v -0.279999 h -3.559991 v 9.3333094 h 3.559991 v -0.2799993 h -3.266658 v -4.3199891 h 2.746659 v -0.266666 z"
       id="path11664" />
  </g>
</svg>
