<?xml version="1.0" encoding="UTF-8" standalone="no"?>
<!-- Created with Inkscape (http://www.inkscape.org/) -->

<svg
   version="1.1"
   id="svg2"
   width="121.23928"
   height="9.4666424"
   viewBox="0 0 121.23929 9.4666424"
   sodipodi:docname="fds.svg"
   inkscape:version="1.1 (c68e22c387, 2021-05-23)"
   inkscape:export-filename="C:\Users\BUCH\Desktop\Retrogaming\Recalbox\travail thèmes\Thème vignette !!!!!!!\Maquette 2 !!!!\image1250.png"
   inkscape:export-xdpi="96.460785"
   inkscape:export-ydpi="96.460785"
   xmlns:inkscape="http://www.inkscape.org/namespaces/inkscape"
   xmlns:sodipodi="http://sodipodi.sourceforge.net/DTD/sodipodi-0.dtd"
   xmlns="http://www.w3.org/2000/svg"
   xmlns:svg="http://www.w3.org/2000/svg">
  <defs
     id="defs6">
    <clipPath
       clipPathUnits="userSpaceOnUse"
       id="clipPath3185">
      <path
         id="path3187"
         style="fill:#ffffff;fill-rule:evenodd;stroke:#ffffff;stroke-width:5.15903;stroke-linecap:round;stroke-linejoin:round;paint-order:stroke fill markers"
         d="m 1157.5591,335.78677 h 462.4206 L 1362.3723,1410.6277 H 899.95176 Z"
         sodipodi:nodetypes="ccccc"
         inkscape:export-filename="C:\Users\BUCH\Desktop\Retrogaming\Recalbox\travail thèmes\Thème vignette !!!!!!!\Maquette 2 !!!!\rect849.png"
         inkscape:export-xdpi="247.96268"
         inkscape:export-ydpi="247.96268" />
    </clipPath>
  </defs>
  <sodipodi:namedview
     id="namedview4"
     pagecolor="#ffffff"
     bordercolor="#666666"
     borderopacity="1.0"
     inkscape:pageshadow="2"
     inkscape:pageopacity="0.0"
     inkscape:pagecheckerboard="true"
     showgrid="false"
     inkscape:showpageshadow="false"
     inkscape:zoom="6.2396655"
     inkscape:cx="77.327863"
     inkscape:cy="2.403975"
     inkscape:window-width="1920"
     inkscape:window-height="1138"
     inkscape:window-x="-8"
     inkscape:window-y="-8"
     inkscape:window-maximized="1"
     inkscape:current-layer="svg2"
     fit-margin-top="0"
     fit-margin-left="0"
     fit-margin-right="0"
     fit-margin-bottom="0" />
  <g
     aria-label="family computer disk system"
     id="text4762"
     style="font-weight:300;font-size:13.3333px;line-height:1.25;font-family:'Bebas Neue';-inkscape-font-specification:'Bebas Neue, Light';fill:#ffffff"
     transform="translate(-12.553207,-20.890109)">
    <path
       d="m 12.846539,25.650097 v -4.413323 h 3.133326 v -0.279999 h -3.426658 v 9.33331 h 0.293332 v -4.359989 h 2.613327 v -0.279999 z"
       id="path4881" />
    <path
       d="m 20.913156,28.09009 0.546665,2.199995 h 0.293333 l -2.306661,-9.346643 h -0.413332 l -2.253328,9.346643 h 0.266666 l 0.546665,-2.199995 z m -1.679996,-6.799982 1.626663,6.533316 h -3.213326 z"
       id="path4883" />
    <path
       d="m 27.979786,21.396774 v 8.893311 h 0.293333 v -9.33331 h -0.453332 l -2.293328,8.853311 -2.293327,-8.853311 H 22.7798 v 9.33331 h 0.266666 v -8.893311 l 2.30666,8.866644 h 0.333333 z"
       id="path4885" />
    <path
       d="m 29.339765,20.956775 v 9.33331 h 0.293332 v -9.33331 z"
       id="path4887" />
    <path
       d="m 34.12641,30.290085 v -0.279999 h -3.133325 v -9.053311 h -0.293333 v 9.33331 z"
       id="path4889" />
    <path
       d="m 36.433043,30.290085 h 0.293333 v -3.773324 l 2.213327,-5.559986 h -0.306665 l -2.039995,5.159987 -2.039995,-5.159987 h -0.293333 l 2.173328,5.559986 z"
       id="path4891" />
    <path
       d="m 43.939662,20.890109 c -1.41333,0 -1.946662,1.066664 -1.946662,2.359994 v 4.746654 c 0,1.29333 0.533332,2.359994 1.946662,2.359994 1.426663,0 1.959995,-1.066664 1.959995,-2.359994 v -1.01333 h -0.293333 v 1.026664 c 0,1.13333 -0.426665,2.066661 -1.653329,2.066661 -1.239997,0 -1.666662,-0.933331 -1.666662,-2.066661 v -4.773322 c 0,-1.13333 0.426665,-2.079994 1.666662,-2.079994 1.226664,0 1.653329,0.946664 1.653329,2.079994 v 0.733332 h 0.293333 v -0.719998 c 0,-1.29333 -0.533332,-2.359994 -1.959995,-2.359994 z"
       id="path4893" />
    <path
       d="m 46.926306,27.996757 c 0,1.306664 0.559998,2.359994 1.973328,2.359994 1.439997,0 1.999995,-1.05333 1.999995,-2.359994 v -4.746654 c 0,-1.306664 -0.559998,-2.359994 -1.999995,-2.359994 -1.41333,0 -1.973328,1.05333 -1.973328,2.359994 z m 0.293332,-4.759988 c 0,-1.146663 0.439999,-2.079994 1.679996,-2.079994 1.25333,0 1.706663,0.933331 1.706663,2.079994 v 4.773322 c 0,1.146663 -0.453333,2.079994 -1.706663,2.079994 -1.239997,0 -1.679996,-0.933331 -1.679996,-2.079994 z"
       id="path4895" />
    <path
       d="m 57.152939,21.396774 v 8.893311 h 0.293333 v -9.33331 H 56.99294 l -2.293328,8.853311 -2.293327,-8.853311 h -0.453333 v 9.33331 h 0.266666 v -8.893311 l 2.306661,8.866644 h 0.333333 z"
       id="path4897" />
    <path
       d="m 58.51292,20.956775 v 9.33331 h 0.293332 v -3.95999 h 1.33333 c 1.479996,0 2.146661,-0.706665 2.146661,-2.186661 v -0.933331 c 0,-1.306664 -0.493332,-2.253328 -1.933328,-2.253328 z m 0.293332,5.093321 v -4.813322 h 1.546663 c 1.25333,0 1.639996,0.813332 1.639996,1.959995 v 0.959998 c 0,1.319997 -0.546666,1.893329 -1.853329,1.893329 z"
       id="path4899" />
    <path
       d="M 63.579563,20.956775 H 63.28623 v 7.026649 c 0,1.279997 0.506666,2.373327 1.933329,2.373327 1.413329,0 1.919995,-1.09333 1.919995,-2.373327 v -7.026649 h -0.279999 v 7.039982 c 0,1.119997 -0.399999,2.093328 -1.639996,2.093328 -1.239997,0 -1.639996,-0.973331 -1.639996,-2.093328 z"
       id="path4901" />
    <path
       d="m 70.232861,30.290085 v -9.053311 h 2.039995 v -0.279999 h -4.359989 v 0.279999 h 2.026662 v 9.053311 z"
       id="path4903" />
    <path
       d="m 73.379502,25.42343 v -4.186656 h 3.266658 v -0.279999 h -3.559991 v 9.33331 h 3.559991 v -0.279999 h -3.266658 v -4.31999 h 2.74666 V 25.42343 Z"
       id="path4905" />
    <path
       d="m 77.686149,20.956775 v 9.33331 h 0.293332 v -4.306656 h 1.146664 c 1.21333,0 2.039995,0.359999 2.039995,1.733329 v 1.466663 c 0,0.399999 0.04,0.813331 0.226666,1.106664 h 0.319999 C 81.499472,29.996752 81.459473,29.54342 81.459473,29.183421 v -1.466663 c 0,-1.026664 -0.439999,-1.706662 -1.479997,-1.866662 1.026664,-0.186666 1.479997,-0.813331 1.479997,-1.959995 v -0.839998 c 0,-1.279997 -0.533332,-2.093328 -1.919996,-2.093328 z m 0.293332,4.746655 v -4.466656 h 1.546663 c 1.199997,0 1.639996,0.706665 1.639996,1.839996 v 0.853331 c 0,1.439996 -0.746665,1.773329 -2.039995,1.773329 z"
       id="path4907" />
    <path
       d="m 84.819434,20.956775 v 9.33331 h 1.959995 c 1.41333,0 2.013329,-0.999998 2.013329,-2.319994 v -4.679988 c 0,-1.33333 -0.599999,-2.333328 -2.026662,-2.333328 z m 0.293333,9.053311 v -8.773312 h 1.653329 c 1.239997,0 1.733329,0.866665 1.733329,2.039995 v 4.706655 c 0,1.159997 -0.479999,2.026662 -1.733329,2.026662 z"
       id="path4909" />
    <path
       d="m 89.832748,20.956775 v 9.33331 h 0.293332 v -9.33331 z"
       id="path4911" />
    <path
       d="m 93.126069,20.890109 c -1.346663,0.01333 -1.919995,0.946664 -1.919995,2.30666 0,2.573327 3.573324,2.493327 3.573324,4.853321 0,1.133331 -0.439999,2.026662 -1.666662,2.026662 -1.226664,0 -1.666663,-0.893331 -1.666663,-2.026662 v -0.466665 h -0.279999 v 0.453332 c 0,1.29333 0.533332,2.319994 1.946662,2.319994 1.426663,0 1.959995,-1.026664 1.959995,-2.319994 0,-2.533327 -3.573325,-2.46666 -3.573325,-4.853321 0,-1.106664 0.413333,-2.026661 1.639996,-2.026661 1.213331,0 1.626663,0.933331 1.626663,2.039994 v 0.186667 h 0.293332 v -0.173333 c 0,-1.279997 -0.519998,-2.319994 -1.933328,-2.319994 z"
       id="path4913" />
    <path
       d="m 100.11271,30.290085 h 0.31999 l -3.13332,-4.919988 2.89333,-4.413322 h -0.320004 l -3.466658,5.266653 v -5.266653 h -0.293332 v 9.33331 h 0.293332 v -3.573324 l 0.706665,-1.066664 z"
       id="path4915" />
    <path
       d="m 105.45933,20.890109 c -1.34666,0.01333 -1.92,0.946664 -1.92,2.30666 0,2.573327 3.57333,2.493327 3.57333,4.853321 0,1.133331 -0.44,2.026662 -1.66666,2.026662 -1.22667,0 -1.66667,-0.893331 -1.66667,-2.026662 v -0.466665 h -0.28 v 0.453332 c 0,1.29333 0.53334,2.319994 1.94667,2.319994 1.42666,0 1.95999,-1.026664 1.95999,-2.319994 0,-2.533327 -3.57332,-2.46666 -3.57332,-4.853321 0,-1.106664 0.41333,-2.026661 1.63999,-2.026661 1.21333,0 1.62666,0.933331 1.62666,2.039994 v 0.186667 h 0.29334 v -0.173333 c 0,-1.279997 -0.52,-2.319994 -1.93333,-2.319994 z"
       id="path4917" />
    <path
       d="m 110.47262,30.290085 h 0.29334 v -3.773324 l 2.21332,-5.559986 h -0.30666 l -2.04,5.159987 -2.03999,-5.159987 h -0.29333 l 2.17332,5.559986 z"
       id="path4919" />
    <path
       d="m 115.81924,20.890109 c -1.34667,0.01333 -1.92,0.946664 -1.92,2.30666 0,2.573327 3.57333,2.493327 3.57333,4.853321 0,1.133331 -0.44,2.026662 -1.66667,2.026662 -1.22666,0 -1.66666,-0.893331 -1.66666,-2.026662 v -0.466665 h -0.28 v 0.453332 c 0,1.29333 0.53333,2.319994 1.94666,2.319994 1.42667,0 1.96,-1.026664 1.96,-2.319994 0,-2.533327 -3.57332,-2.46666 -3.57332,-4.853321 0,-1.106664 0.41333,-2.026661 1.63999,-2.026661 1.21333,0 1.62666,0.933331 1.62666,2.039994 v 0.186667 h 0.29334 v -0.173333 c 0,-1.279997 -0.52,-2.319994 -1.93333,-2.319994 z"
       id="path4921" />
    <path
       d="m 120.84588,30.290085 v -9.053311 h 2.03999 v -0.279999 h -4.35998 v 0.279999 h 2.02666 v 9.053311 z"
       id="path4923" />
    <path
       d="m 123.99252,25.42343 v -4.186656 h 3.26666 v -0.279999 h -3.55999 v 9.33331 h 3.55999 v -0.279999 h -3.26666 v -4.31999 h 2.74666 V 25.42343 Z"
       id="path4925" />
    <path
       d="m 133.49916,21.396774 v 8.893311 h 0.29333 v -9.33331 h -0.45333 l -2.29333,8.853311 -2.29333,-8.853311 h -0.45333 v 9.33331 h 0.26667 v -8.893311 l 2.30666,8.866644 h 0.33333 z"
       id="path4927" />
  </g>
</svg>
