<?xml version="1.0" encoding="UTF-8" standalone="no"?>
<!-- Created with Inkscape (http://www.inkscape.org/) -->

<svg
   version="1.1"
   id="svg2"
   width="43.666405"
   height="9.4666424"
   viewBox="0 0 43.666408 9.4666424"
   sodipodi:docname="gamegear.svg"
   inkscape:version="1.1 (c68e22c387, 2021-05-23)"
   inkscape:export-filename="C:\Users\BUCH\Desktop\Retrogaming\Recalbox\travail thèmes\Thème vignette !!!!!!!\Maquette 2 !!!!\image1250.png"
   inkscape:export-xdpi="96.460785"
   inkscape:export-ydpi="96.460785"
   xmlns:inkscape="http://www.inkscape.org/namespaces/inkscape"
   xmlns:sodipodi="http://sodipodi.sourceforge.net/DTD/sodipodi-0.dtd"
   xmlns="http://www.w3.org/2000/svg"
   xmlns:svg="http://www.w3.org/2000/svg">
  <defs
     id="defs6">
    <clipPath
       clipPathUnits="userSpaceOnUse"
       id="clipPath3185">
      <path
         id="path3187"
         style="fill:#ffffff;fill-rule:evenodd;stroke:#ffffff;stroke-width:5.15903;stroke-linecap:round;stroke-linejoin:round;paint-order:stroke fill markers"
         d="m 1157.5591,335.78677 h 462.4206 L 1362.3723,1410.6277 H 899.95176 Z"
         sodipodi:nodetypes="ccccc"
         inkscape:export-filename="C:\Users\BUCH\Desktop\Retrogaming\Recalbox\travail thèmes\Thème vignette !!!!!!!\Maquette 2 !!!!\rect849.png"
         inkscape:export-xdpi="247.96268"
         inkscape:export-ydpi="247.96268" />
    </clipPath>
  </defs>
  <sodipodi:namedview
     id="namedview4"
     pagecolor="#ffffff"
     bordercolor="#666666"
     borderopacity="1.0"
     inkscape:pageshadow="2"
     inkscape:pageopacity="0.0"
     inkscape:pagecheckerboard="true"
     showgrid="false"
     inkscape:showpageshadow="false"
     inkscape:zoom="8.8242196"
     inkscape:cx="20.115093"
     inkscape:cy="19.038511"
     inkscape:window-width="1920"
     inkscape:window-height="1138"
     inkscape:window-x="-8"
     inkscape:window-y="-8"
     inkscape:window-maximized="1"
     inkscape:current-layer="svg2"
     fit-margin-top="0"
     fit-margin-left="0"
     fit-margin-right="0"
     fit-margin-bottom="0" />
  <g
     aria-label="game gear"
     id="text6403"
     style="font-weight:300;font-size:13.3333px;line-height:1.25;font-family:'Bebas Neue';-inkscape-font-specification:'Bebas Neue, Light';fill:#ffffff"
     transform="translate(-31.130613,23.984091)">
    <path
       d="m 33.077275,-23.984091 c -1.41333,0 -1.946662,1.066664 -1.946662,2.359994 v 4.746654 c 0,1.29333 0.533332,2.359994 1.946662,2.359994 1.426663,0 1.959995,-1.066664 1.959995,-2.359994 v -2.373327 h -1.746662 v 0.266666 h 1.45333 v 2.119995 c 0,1.13333 -0.426666,2.066661 -1.653329,2.066661 -1.239997,0 -1.666663,-0.933331 -1.666663,-2.066661 v -4.773322 c 0,-1.13333 0.426666,-2.079994 1.666663,-2.079994 1.226663,0 1.653329,0.946664 1.653329,2.079994 v 0.626666 h 0.293332 v -0.613332 c 0,-1.29333 -0.533332,-2.359994 -1.959995,-2.359994 z"
       id="path6720" />
    <path
       d="m 40.170551,-16.784109 0.546665,2.199994 h 0.293333 l -2.306661,-9.346643 h -0.413332 l -2.253328,9.346643 h 0.266666 l 0.546666,-2.199994 z m -1.679996,-6.799983 1.626663,6.533317 h -3.213325 z"
       id="path6722" />
    <path
       d="m 47.237181,-23.477426 v 8.893311 h 0.293333 v -9.33331 h -0.453332 l -2.293328,8.853311 -2.293327,-8.853311 h -0.453333 v 9.33331 h 0.266666 v -8.893311 l 2.306661,8.866644 h 0.333333 z"
       id="path6724" />
    <path
       d="m 48.890492,-19.450769 v -4.186656 h 3.266659 v -0.28 H 48.59716 v 9.33331 h 3.559991 v -0.279999 h -3.266659 v -4.319989 h 2.74666 v -0.266666 z"
       id="path6726" />
    <path
       d="m 57.197114,-23.984091 c -1.41333,0 -1.946662,1.066664 -1.946662,2.359994 v 4.746654 c 0,1.29333 0.533332,2.359994 1.946662,2.359994 1.426663,0 1.959995,-1.066664 1.959995,-2.359994 v -2.373327 h -1.746662 v 0.266666 h 1.453329 v 2.119995 c 0,1.13333 -0.426665,2.066661 -1.653329,2.066661 -1.239997,0 -1.666662,-0.933331 -1.666662,-2.066661 v -4.773322 c 0,-1.13333 0.426665,-2.079994 1.666662,-2.079994 1.226664,0 1.653329,0.946664 1.653329,2.079994 v 0.626666 h 0.293333 v -0.613332 c 0,-1.29333 -0.533332,-2.359994 -1.959995,-2.359994 z"
       id="path6728" />
    <path
       d="m 60.50375,-19.450769 v -4.186656 h 3.266659 v -0.28 h -3.559991 v 9.33331 h 3.559991 v -0.279999 H 60.50375 v -4.319989 h 2.74666 v -0.266666 z"
       id="path6730" />
    <path
       d="m 68.90372,-16.784109 0.546666,2.199994 h 0.293332 l -2.306661,-9.346643 h -0.413332 l -2.253328,9.346643 h 0.266666 l 0.546666,-2.199994 z m -1.679996,-6.799983 1.626663,6.533317 h -3.213325 z"
       id="path6732" />
    <path
       d="m 70.770362,-23.917425 v 9.33331 h 0.293333 v -4.306656 h 1.146663 c 1.213331,0 2.039995,0.359999 2.039995,1.733329 v 1.466663 c 0,0.399999 0.04,0.813331 0.226666,1.106664 h 0.32 c -0.213333,-0.293333 -0.253333,-0.746665 -0.253333,-1.106664 v -1.466663 c 0,-1.026664 -0.439999,-1.706662 -1.479996,-1.866662 1.026664,-0.186666 1.479996,-0.813331 1.479996,-1.959995 v -0.839998 c 0,-1.279996 -0.533332,-2.093328 -1.919995,-2.093328 z m 0.293333,4.746655 v -4.466655 h 1.546662 c 1.199997,0 1.639996,0.706664 1.639996,1.839995 v 0.853331 c 0,1.439996 -0.746665,1.773329 -2.039995,1.773329 z"
       id="path6734" />
  </g>
</svg>
