<?xml version="1.0" encoding="UTF-8" standalone="no"?>
<!-- Created with Inkscape (http://www.inkscape.org/) -->

<svg
   version="1.1"
   id="svg2"
   width="44.279766"
   height="9.4666433"
   viewBox="0 0 44.279769 9.4666433"
   sodipodi:docname="lowresnx.svg"
   inkscape:version="1.1 (c68e22c387, 2021-05-23)"
   inkscape:export-filename="C:\Users\BUCH\Desktop\Retrogaming\Recalbox\travail thèmes\Thème vignette !!!!!!!\Maquette 2 !!!!\image1250.png"
   inkscape:export-xdpi="96.460785"
   inkscape:export-ydpi="96.460785"
   xmlns:inkscape="http://www.inkscape.org/namespaces/inkscape"
   xmlns:sodipodi="http://sodipodi.sourceforge.net/DTD/sodipodi-0.dtd"
   xmlns="http://www.w3.org/2000/svg"
   xmlns:svg="http://www.w3.org/2000/svg">
  <defs
     id="defs6">
    <clipPath
       clipPathUnits="userSpaceOnUse"
       id="clipPath3185">
      <path
         id="path3187"
         style="fill:#ffffff;fill-rule:evenodd;stroke:#ffffff;stroke-width:5.15903;stroke-linecap:round;stroke-linejoin:round;paint-order:stroke fill markers"
         d="m 1157.5591,335.78677 h 462.4206 L 1362.3723,1410.6277 H 899.95176 Z"
         sodipodi:nodetypes="ccccc"
         inkscape:export-filename="C:\Users\BUCH\Desktop\Retrogaming\Recalbox\travail thèmes\Thème vignette !!!!!!!\Maquette 2 !!!!\rect849.png"
         inkscape:export-xdpi="247.96268"
         inkscape:export-ydpi="247.96268" />
    </clipPath>
  </defs>
  <sodipodi:namedview
     id="namedview4"
     pagecolor="#ffffff"
     bordercolor="#666666"
     borderopacity="1.0"
     inkscape:pageshadow="2"
     inkscape:pageopacity="0.0"
     inkscape:pagecheckerboard="true"
     showgrid="false"
     inkscape:showpageshadow="false"
     inkscape:zoom="12.479331"
     inkscape:cx="16.867891"
     inkscape:cy="5.0483475"
     inkscape:window-width="1920"
     inkscape:window-height="1138"
     inkscape:window-x="-8"
     inkscape:window-y="-8"
     inkscape:window-maximized="1"
     inkscape:current-layer="svg2"
     fit-margin-top="0"
     fit-margin-left="0"
     fit-margin-right="0"
     fit-margin-bottom="0" />
  <g
     aria-label="lowres nx"
     id="text1329"
     style="font-weight:300;font-size:13.3333px;line-height:1.25;font-family:'Bebas Neue';-inkscape-font-specification:'Bebas Neue, Light';fill:#ffffff"
     transform="translate(-1.174392,-17.684809)">
    <path
       d="M 4.60105,27.084785 V 26.804786 H 1.4677246 v -9.05331 H 1.174392 v 9.333309 z"
       id="path1822" />
    <path
       d="m 5.6010244,24.791458 c 0,1.306663 0.5599986,2.359994 1.9733284,2.359994 1.4399963,0 1.9999949,-1.053331 1.9999949,-2.359994 v -4.746655 c 0,-1.306663 -0.5599986,-2.359994 -1.9999949,-2.359994 -1.4133298,0 -1.9733284,1.053331 -1.9733284,2.359994 z M 5.894357,20.03147 c 0,-1.146664 0.4399989,-2.079995 1.6799958,-2.079995 1.2533301,0 1.7066623,0.933331 1.7066623,2.079995 v 4.773321 c 0,1.146664 -0.4533322,2.079995 -1.7066623,2.079995 -1.2399969,0 -1.6799958,-0.933331 -1.6799958,-2.079995 z"
       id="path1824" />
    <path
       d="m 14.294329,18.444807 1.506663,8.639978 h 0.386665 l 1.65333,-9.333309 h -0.266666 l -1.57333,8.879977 -1.519996,-8.826644 h -0.359999 l -1.613329,8.879977 -1.626663,-8.93331 h -0.293332 l 1.679995,9.333309 h 0.426666 z"
       id="path1826" />
    <path
       d="m 18.867625,17.751476 v 9.333309 h 0.293333 V 22.77813 h 1.146664 c 1.21333,0 2.039995,0.359999 2.039995,1.733329 v 1.466663 c 0,0.399999 0.04,0.813331 0.226666,1.106663 h 0.319999 c -0.213333,-0.293332 -0.253333,-0.746664 -0.253333,-1.106663 v -1.466663 c 0,-1.026664 -0.439999,-1.706663 -1.479996,-1.866662 1.026664,-0.186667 1.479996,-0.813332 1.479996,-1.959995 v -0.839998 c 0,-1.279997 -0.533332,-2.093328 -1.919995,-2.093328 z m 0.293333,4.746654 v -4.466655 h 1.546663 c 1.199997,0 1.639996,0.706665 1.639996,1.839995 v 0.853332 c 0,1.439996 -0.746665,1.773328 -2.039995,1.773328 z"
       id="path1828" />
    <path
       d="m 24.227601,22.218131 v -4.186656 h 3.266658 v -0.279999 h -3.559991 v 9.333309 h 3.559991 v -0.279999 h -3.266658 v -4.319989 h 2.74666 v -0.266666 z"
       id="path1830" />
    <path
       d="m 30.467576,17.684809 c -1.346663,0.01333 -1.919995,0.946664 -1.919995,2.306661 0,2.573327 3.573324,2.493327 3.573324,4.853321 0,1.133331 -0.439999,2.026662 -1.666662,2.026662 -1.226664,0 -1.666663,-0.893331 -1.666663,-2.026662 v -0.466665 h -0.279999 v 0.453332 c 0,1.29333 0.533332,2.319994 1.946662,2.319994 1.426663,0 1.959995,-1.026664 1.959995,-2.319994 0,-2.533327 -3.573324,-2.466661 -3.573324,-4.853321 0,-1.106664 0.413332,-2.026662 1.639995,-2.026662 1.213331,0 1.626663,0.933331 1.626663,2.039995 v 0.186666 h 0.293333 v -0.173333 c 0,-1.279996 -0.519999,-2.319994 -1.933329,-2.319994 z"
       id="path1832" />
    <path
       d="m 35.800873,18.178141 3.333325,8.906644 h 0.359999 v -9.333309 h -0.28 v 8.733311 l -3.279991,-8.733311 h -0.413333 v 9.333309 h 0.28 z"
       id="path1834" />
    <path
       d="m 45.134158,27.084785 h 0.319999 l -2.266661,-4.853321 2.119995,-4.479988 h -0.293333 l -2.013328,4.226656 -2.013328,-4.226656 h -0.306666 l 2.119994,4.479988 -2.279994,4.853321 h 0.306666 l 2.146661,-4.586655 z"
       id="path1836" />
  </g>
</svg>
