<?xml version="1.0" encoding="UTF-8" standalone="no"?>
<!-- Created with Inkscape (http://www.inkscape.org/) -->

<svg
   version="1.1"
   id="svg2"
   width="50.213039"
   height="9.4666433"
   viewBox="0 0 50.213042 9.4666433"
   sodipodi:docname="msxturbor.svg"
   inkscape:version="1.1 (c68e22c387, 2021-05-23)"
   inkscape:export-filename="C:\Users\BUCH\Desktop\Retrogaming\Recalbox\travail thèmes\Thème vignette !!!!!!!\Maquette 2 !!!!\image1250.png"
   inkscape:export-xdpi="96.460785"
   inkscape:export-ydpi="96.460785"
   xmlns:inkscape="http://www.inkscape.org/namespaces/inkscape"
   xmlns:sodipodi="http://sodipodi.sourceforge.net/DTD/sodipodi-0.dtd"
   xmlns="http://www.w3.org/2000/svg"
   xmlns:svg="http://www.w3.org/2000/svg">
  <defs
     id="defs6">
    <clipPath
       clipPathUnits="userSpaceOnUse"
       id="clipPath3185">
      <path
         id="path3187"
         style="fill:#ffffff;fill-rule:evenodd;stroke:#ffffff;stroke-width:5.15903;stroke-linecap:round;stroke-linejoin:round;paint-order:stroke fill markers"
         d="m 1157.5591,335.78677 h 462.4206 L 1362.3723,1410.6277 H 899.95176 Z"
         sodipodi:nodetypes="ccccc"
         inkscape:export-filename="C:\Users\BUCH\Desktop\Retrogaming\Recalbox\travail thèmes\Thème vignette !!!!!!!\Maquette 2 !!!!\rect849.png"
         inkscape:export-xdpi="247.96268"
         inkscape:export-ydpi="247.96268" />
    </clipPath>
  </defs>
  <sodipodi:namedview
     id="namedview4"
     pagecolor="#ffffff"
     bordercolor="#666666"
     borderopacity="1.0"
     inkscape:pageshadow="2"
     inkscape:pageopacity="0.0"
     inkscape:pagecheckerboard="true"
     showgrid="false"
     inkscape:showpageshadow="false"
     inkscape:zoom="12.479331"
     inkscape:cx="13.181796"
     inkscape:cy="0.480795"
     inkscape:window-width="1920"
     inkscape:window-height="1138"
     inkscape:window-x="-8"
     inkscape:window-y="-8"
     inkscape:window-maximized="1"
     inkscape:current-layer="svg2"
     fit-margin-top="0"
     fit-margin-left="0"
     fit-margin-right="0"
     fit-margin-bottom="0" />
  <g
     aria-label="msx turbo r"
     id="text3524"
     style="font-weight:300;font-size:13.3333px;line-height:1.25;font-family:'Bebas Neue';-inkscape-font-specification:'Bebas Neue, Light';fill:#ffffff"
     transform="translate(-9.9088346,-19.848387)">
    <path
       d="m 15.108821,20.355053 v 8.89331 h 0.293333 v -9.333309 h -0.453332 l -2.293328,8.853311 -2.293327,-8.853311 H 9.9088346 v 9.333309 h 0.2666664 v -8.89331 l 2.30666,8.866644 h 0.333333 z"
       id="path4435" />
    <path
       d="m 18.402129,19.848387 c -1.346664,0.01333 -1.919996,0.946665 -1.919996,2.306661 0,2.573327 3.573325,2.493327 3.573325,4.853321 0,1.133331 -0.439999,2.026662 -1.666663,2.026662 -1.226663,0 -1.666662,-0.893331 -1.666662,-2.026662 v -0.466665 h -0.279999 v 0.453332 c 0,1.29333 0.533332,2.319994 1.946661,2.319994 1.426663,0 1.959995,-1.026664 1.959995,-2.319994 0,-2.533327 -3.573324,-2.466661 -3.573324,-4.853321 0,-1.106664 0.413332,-2.026662 1.639996,-2.026662 1.21333,0 1.626662,0.933331 1.626662,2.039995 v 0.186666 h 0.293333 v -0.173333 c 0,-1.279996 -0.519999,-2.319994 -1.933328,-2.319994 z"
       id="path4437" />
    <path
       d="m 25.855419,29.248363 h 0.319999 l -2.266661,-4.853321 2.119995,-4.479988 h -0.293333 l -2.013328,4.226656 -2.013328,-4.226656 h -0.306666 l 2.119994,4.479988 -2.279994,4.853321 h 0.306666 l 2.146661,-4.586655 z"
       id="path4439" />
    <path
       d="m 31.3087,29.248363 v -9.05331 h 2.039995 v -0.279999 h -4.359989 v 0.279999 h 2.026662 v 9.05331 z"
       id="path4441" />
    <path
       d="m 34.442008,19.915054 h -0.293333 v 7.026649 c 0,1.279996 0.506665,2.373327 1.933329,2.373327 1.413329,0 1.919995,-1.093331 1.919995,-2.373327 v -7.026649 h -0.28 v 7.039982 c 0,1.119997 -0.399999,2.093328 -1.639995,2.093328 -1.239997,0 -1.639996,-0.973331 -1.639996,-2.093328 z"
       id="path4443" />
    <path
       d="m 39.055311,19.915054 v 9.333309 h 0.293333 v -4.306655 h 1.146664 c 1.21333,0 2.039995,0.359999 2.039995,1.733329 V 28.1417 c 0,0.399999 0.04,0.813331 0.226666,1.106663 h 0.319999 C 42.868635,28.955031 42.828635,28.501699 42.828635,28.1417 v -1.466663 c 0,-1.026664 -0.439999,-1.706663 -1.479996,-1.866662 1.026664,-0.186666 1.479996,-0.813332 1.479996,-1.959995 v -0.839998 c 0,-1.279997 -0.533332,-2.093328 -1.919995,-2.093328 z m 0.293333,4.746654 v -4.466655 h 1.546663 c 1.199997,0 1.639996,0.706665 1.639996,1.839995 v 0.853332 c 0,1.439996 -0.746665,1.773328 -2.039995,1.773328 z"
       id="path4445" />
    <path
       d="m 44.121954,19.915054 v 9.333309 h 1.879995 c 1.41333,0 1.973329,-0.826664 1.973329,-2.146661 v -0.826664 c 0,-1.079998 -0.413333,-1.839996 -1.519996,-1.999995 1.05333,-0.16 1.333329,-0.786665 1.333329,-1.826662 v -0.599999 c 0,-1.25333 -0.439998,-1.933328 -1.799995,-1.933328 z m 0.293333,4.239989 v -3.95999 h 1.573329 c 1.17333,0 1.506663,0.573332 1.506663,1.666662 v 0.626666 c 0,1.359996 -0.573332,1.666662 -1.866662,1.666662 z m 0,4.813321 v -4.546655 h 1.346663 c 1.279997,0 1.919995,0.493332 1.919995,1.839995 v 0.839998 c 0,1.173331 -0.453332,1.866662 -1.679996,1.866662 z"
       id="path4447" />
    <path
       d="m 49.001924,26.955036 c 0,1.306663 0.559998,2.359994 1.973328,2.359994 1.439996,0 1.999995,-1.053331 1.999995,-2.359994 v -4.746655 c 0,-1.306663 -0.559999,-2.359994 -1.999995,-2.359994 -1.41333,0 -1.973328,1.053331 -1.973328,2.359994 z m 0.293332,-4.759988 c 0,-1.146664 0.439999,-2.079995 1.679996,-2.079995 1.25333,0 1.706662,0.933331 1.706662,2.079995 v 4.773321 c 0,1.146664 -0.453332,2.079995 -1.706662,2.079995 -1.239997,0 -1.679996,-0.933331 -1.679996,-2.079995 z"
       id="path4449" />
    <path
       d="m 56.095217,19.915054 v 9.333309 h 0.293332 v -4.306655 h 1.146664 c 1.21333,0 2.039995,0.359999 2.039995,1.733329 V 28.1417 c 0,0.399999 0.04,0.813331 0.226666,1.106663 h 0.319999 C 59.908541,28.955031 59.868541,28.501699 59.868541,28.1417 v -1.466663 c 0,-1.026664 -0.439999,-1.706663 -1.479997,-1.866662 1.026664,-0.186666 1.479997,-0.813332 1.479997,-1.959995 v -0.839998 c 0,-1.279997 -0.533332,-2.093328 -1.919995,-2.093328 z m 0.293332,4.746654 v -4.466655 h 1.546663 c 1.199997,0 1.639996,0.706665 1.639996,1.839995 v 0.853332 c 0,1.439996 -0.746665,1.773328 -2.039995,1.773328 z"
       id="path4451" />
  </g>
</svg>
