<?xml version="1.0" encoding="UTF-8" standalone="no"?>
<!-- Created with Inkscape (http://www.inkscape.org/) -->

<svg
   version="1.1"
   id="svg2"
   width="47.479729"
   height="9.4666452"
   viewBox="0 0 47.47973 9.4666452"
   sodipodi:docname="n64.svg"
   inkscape:version="1.1 (c68e22c387, 2021-05-23)"
   inkscape:export-filename="C:\Users\BUCH\Desktop\Retrogaming\Recalbox\travail thèmes\Thème vignette !!!!!!!\Maquette 2 !!!!\image1250.png"
   inkscape:export-xdpi="96.460785"
   inkscape:export-ydpi="96.460785"
   xmlns:inkscape="http://www.inkscape.org/namespaces/inkscape"
   xmlns:sodipodi="http://sodipodi.sourceforge.net/DTD/sodipodi-0.dtd"
   xmlns="http://www.w3.org/2000/svg"
   xmlns:svg="http://www.w3.org/2000/svg">
  <defs
     id="defs6">
    <clipPath
       clipPathUnits="userSpaceOnUse"
       id="clipPath3185">
      <path
         id="path3187"
         style="fill:#ffffff;fill-rule:evenodd;stroke:#ffffff;stroke-width:5.15903;stroke-linecap:round;stroke-linejoin:round;paint-order:stroke fill markers"
         d="m 1157.5591,335.78677 h 462.4206 L 1362.3723,1410.6277 H 899.95176 Z"
         sodipodi:nodetypes="ccccc"
         inkscape:export-filename="C:\Users\BUCH\Desktop\Retrogaming\Recalbox\travail thèmes\Thème vignette !!!!!!!\Maquette 2 !!!!\rect849.png"
         inkscape:export-xdpi="247.96268"
         inkscape:export-ydpi="247.96268" />
    </clipPath>
  </defs>
  <sodipodi:namedview
     id="namedview4"
     pagecolor="#ffffff"
     bordercolor="#666666"
     borderopacity="1.0"
     inkscape:pageshadow="2"
     inkscape:pageopacity="0.0"
     inkscape:pagecheckerboard="true"
     showgrid="false"
     inkscape:showpageshadow="false"
     inkscape:zoom="12.479331"
     inkscape:cx="23.278491"
     inkscape:cy="2.403975"
     inkscape:window-width="1920"
     inkscape:window-height="1138"
     inkscape:window-x="-8"
     inkscape:window-y="-8"
     inkscape:window-maximized="1"
     inkscape:current-layer="svg2"
     fit-margin-top="0"
     fit-margin-left="0"
     fit-margin-right="0"
     fit-margin-bottom="0" />
  <g
     aria-label="nintendo 64"
     id="text1129"
     style="font-weight:300;font-size:13.3333px;line-height:1.25;font-family:'Bebas Neue';-inkscape-font-specification:'Bebas Neue, Light';fill:#ffffff"
     transform="translate(3.7136906,-21.210636)">
    <path
       d="m -3.4336914,21.703971 3.33332496,8.906644 h 0.35999909 v -9.33331 h -0.27999929 v 8.733311 L -3.3003584,21.277305 h -0.4133322 v 9.33331 h 0.2799992 z"
       id="path1358" />
    <path
       d="m 1.3262745,21.277305 v 9.33331 h 0.2933326 v -9.33331 z"
       id="path1360" />
    <path
       d="m 2.9662606,21.703971 3.3333249,8.906644 h 0.3599991 v -9.33331 H 6.3795853 v 8.733311 L 3.0995936,21.277305 H 2.6862613 v 9.33331 h 0.2799993 z"
       id="path1362" />
    <path
       d="M 9.7662218,30.610615 V 21.557304 H 11.806217 V 21.277305 H 7.4462276 v 0.279999 h 2.0266616 v 9.053311 z"
       id="path1364" />
    <path
       d="m 12.912863,25.74396 v -4.186656 h 3.266659 v -0.279999 h -3.559991 v 9.33331 h 3.559991 v -0.28 h -3.266659 v -4.319989 h 2.74666 V 25.74396 Z"
       id="path1366" />
    <path
       d="m 17.499509,21.703971 3.333325,8.906644 h 0.359999 v -9.33331 h -0.279999 v 8.733311 L 17.632842,21.277305 H 17.21951 v 9.33331 h 0.279999 z"
       id="path1368" />
    <path
       d="m 22.259475,21.277305 v 9.33331 h 1.959995 c 1.41333,0 2.013328,-0.999998 2.013328,-2.319994 v -4.679989 c 0,-1.333329 -0.599998,-2.333327 -2.026661,-2.333327 z m 0.293332,9.05331 v -8.773311 h 1.65333 c 1.239996,0 1.733329,0.866665 1.733329,2.039995 v 4.706655 c 0,1.159997 -0.479999,2.026661 -1.733329,2.026661 z"
       id="path1370" />
    <path
       d="m 27.259455,28.317287 c 0,1.306664 0.559998,2.359994 1.973328,2.359994 1.439997,0 1.999995,-1.05333 1.999995,-2.359994 v -4.746654 c 0,-1.306664 -0.559998,-2.359994 -1.999995,-2.359994 -1.41333,0 -1.973328,1.05333 -1.973328,2.359994 z m 0.293332,-4.759988 c 0,-1.146664 0.439999,-2.079994 1.679996,-2.079994 1.25333,0 1.706663,0.93333 1.706663,2.079994 v 4.773322 c 0,1.146663 -0.453333,2.079994 -1.706663,2.079994 -1.239997,0 -1.679996,-0.933331 -1.679996,-2.079994 z"
       id="path1372" />
    <path
       d="m 36.339408,21.210639 c -1.439997,0 -1.999995,1.039997 -1.999995,2.359994 v 4.746654 c 0,1.306664 0.559998,2.359994 1.999995,2.359994 1.426663,0 1.986661,-1.05333 1.986661,-2.359994 v -0.933331 c 0,-1.29333 -0.533332,-2.333327 -1.919995,-2.333327 -0.906664,0 -1.399996,0.319999 -1.773329,1.106664 v -2.573327 c 0,-1.173331 0.453333,-2.106661 1.706663,-2.106661 1.239997,0 1.666662,0.893331 1.666662,2.026661 v 0.08 h 0.28 v -0.06667 c 0,-1.306663 -0.533332,-2.30666 -1.946662,-2.30666 z m 0,4.119989 c 1.239997,0 1.693329,0.933331 1.693329,2.066662 v 0.919997 c 0,1.159997 -0.453332,2.079995 -1.693329,2.079995 -1.25333,0 -1.706663,-0.919998 -1.706663,-2.079995 V 27.39729 c 0,-1.093331 0.453333,-2.066662 1.706663,-2.066662 z"
       id="path1374" />
    <path
       d="m 43.76604,28.41062 v -0.279999 h -0.813332 v -6.866649 h -0.359999 l -3.253325,6.853316 v 0.293332 h 3.319992 v 2.199995 h 0.293332 V 28.41062 Z m -1.106664,-6.62665 v 6.346651 h -3.039992 z"
       id="path1376" />
  </g>
</svg>
