<?xml version="1.0" encoding="UTF-8" standalone="no"?>
<!-- Created with Inkscape (http://www.inkscape.org/) -->

<svg
   version="1.1"
   id="svg2"
   width="29.879814"
   height="9.4666424"
   viewBox="0 0 29.879815 9.4666423"
   sodipodi:docname="naomi2.svg"
   inkscape:version="1.1 (c68e22c387, 2021-05-23)"
   inkscape:export-filename="C:\Users\BUCH\Desktop\Retrogaming\Recalbox\travail thèmes\Thème vignette !!!!!!!\Maquette 2 !!!!\image1250.png"
   inkscape:export-xdpi="96.460785"
   inkscape:export-ydpi="96.460785"
   xmlns:inkscape="http://www.inkscape.org/namespaces/inkscape"
   xmlns:sodipodi="http://sodipodi.sourceforge.net/DTD/sodipodi-0.dtd"
   xmlns="http://www.w3.org/2000/svg"
   xmlns:svg="http://www.w3.org/2000/svg">
  <defs
     id="defs6">
    <clipPath
       clipPathUnits="userSpaceOnUse"
       id="clipPath3185">
      <path
         id="path3187"
         style="fill:#ffffff;fill-rule:evenodd;stroke:#ffffff;stroke-width:5.15903;stroke-linecap:round;stroke-linejoin:round;paint-order:stroke fill markers"
         d="m 1157.5591,335.78677 h 462.4206 L 1362.3723,1410.6277 H 899.95176 Z"
         sodipodi:nodetypes="ccccc"
         inkscape:export-filename="C:\Users\BUCH\Desktop\Retrogaming\Recalbox\travail thèmes\Thème vignette !!!!!!!\Maquette 2 !!!!\rect849.png"
         inkscape:export-xdpi="247.96268"
         inkscape:export-ydpi="247.96268" />
    </clipPath>
  </defs>
  <sodipodi:namedview
     id="namedview4"
     pagecolor="#ffffff"
     bordercolor="#666666"
     borderopacity="1.0"
     inkscape:pageshadow="2"
     inkscape:pageopacity="0.0"
     inkscape:pagecheckerboard="true"
     showgrid="false"
     inkscape:showpageshadow="false"
     inkscape:zoom="12.479331"
     inkscape:cx="16.226831"
     inkscape:cy="-8.3337801"
     inkscape:window-width="1920"
     inkscape:window-height="1138"
     inkscape:window-x="-8"
     inkscape:window-y="-8"
     inkscape:window-maximized="1"
     inkscape:current-layer="svg2"
     fit-margin-top="0"
     fit-margin-left="0"
     fit-margin-right="0"
     fit-margin-bottom="0" />
  <g
     aria-label="naomi 2"
     id="text1715"
     style="font-weight:300;font-size:13.3333px;line-height:1.25;font-family:'Bebas Neue';-inkscape-font-specification:'Bebas Neue, Light'">
    <path
       d="M 0.27999929,0.49333162 3.6133242,9.3999758 H 3.9733233 V 0.06666603 H 3.693324 V 8.7999773 L 0.41333228,0.06666603 H 0 V 9.3999758 h 0.27999929 z"
       style="fill:#ffffff"
       id="path11620" />
    <path
       d="M 9.1332881,7.1999813 9.6799534,9.3999758 H 9.973286 L 7.6666252,0.05333273 H 7.2532929 L 4.9999652,9.3999758 h 0.266666 L 5.8132965,7.1999813 Z M 7.4532924,0.39999852 9.0799549,6.9333153 H 5.8666297 Z"
       style="fill:#ffffff"
       id="path11622" />
    <path
       d="m 10.973247,7.1066482 c 0,1.3066634 0.559998,2.3599941 1.973328,2.3599941 1.439996,0 1.999995,-1.0533307 1.999995,-2.3599941 V 2.3599936 C 14.94657,1.0533302 14.386571,-4.6730042e-7 12.946575,-4.6730042e-7 11.533245,-4.6730042e-7 10.973247,1.0533302 10.973247,2.3599936 Z m 0.293332,-4.7599879 c 0,-1.1466638 0.439999,-2.07999477 1.679996,-2.07999477 1.25333,0 1.706662,0.93333097 1.706662,2.07999477 v 4.7733212 c 0,1.1466638 -0.453332,2.0799948 -1.706662,2.0799948 -1.239997,0 -1.679996,-0.933331 -1.679996,-2.0799948 z"
       style="fill:#ffffff"
       id="path11624" />
    <path
       d="M 21.19988,0.50666492 V 9.3999758 h 0.293333 V 0.06666603 H 21.03988 L 18.746553,8.919977 16.453225,0.06666603 H 15.999893 V 9.3999758 h 0.266666 V 0.50666492 L 18.57322,9.3733092 h 0.333333 z"
       style="fill:#ffffff"
       id="path11626" />
    <path
       d="M 22.559858,0.06666603 V 9.3999758 h 0.293333 V 0.06666603 Z"
       style="fill:#ffffff"
       id="path11628" />
    <path
       d="M 27.933152,-4.6730042e-7 C 26.493156,-4.6730042e-7 25.98649,1.1199967 25.98649,2.4133268 v 0.4933321 h 0.28 V 2.3999935 c 0,-1.1199972 0.399999,-2.13332797 1.653329,-2.13332797 1.29333,0 1.666662,0.95999757 1.666662,2.13332797 0,2.5066603 -3.599991,3.3066583 -3.599991,6.7999828 v 0.1999995 h 3.839991 V 9.1199765 h -3.546658 v -0.053333 c 0.05333,-3.2133252 3.599991,-4.0799897 3.599991,-6.6799831 0,-1.3199967 -0.479999,-2.38666066730042 -1.946662,-2.38666086730042 z"
       style="fill:#ffffff"
       id="path11630" />
  </g>
</svg>
