<?xml version="1.0" encoding="UTF-8" standalone="no"?>
<!-- Created with Inkscape (http://www.inkscape.org/) -->

<svg
   version="1.1"
   id="svg2"
   width="13.599949"
   height="9.4666424"
   viewBox="0 0 13.59995 9.4666423"
   sodipodi:docname="ps2.svg"
   inkscape:version="1.1 (c68e22c387, 2021-05-23)"
   inkscape:export-filename="C:\Users\BUCH\Desktop\Retrogaming\Recalbox\travail thèmes\Thème vignette !!!!!!!\Maquette 2 !!!!\image1250.png"
   inkscape:export-xdpi="96.460785"
   inkscape:export-ydpi="96.460785"
   xmlns:inkscape="http://www.inkscape.org/namespaces/inkscape"
   xmlns:sodipodi="http://sodipodi.sourceforge.net/DTD/sodipodi-0.dtd"
   xmlns="http://www.w3.org/2000/svg"
   xmlns:svg="http://www.w3.org/2000/svg">
  <defs
     id="defs6">
    <clipPath
       clipPathUnits="userSpaceOnUse"
       id="clipPath3185">
      <path
         id="path3187"
         style="fill:#ffffff;fill-rule:evenodd;stroke:#ffffff;stroke-width:5.15903;stroke-linecap:round;stroke-linejoin:round;paint-order:stroke fill markers"
         d="m 1157.5591,335.78677 h 462.4206 L 1362.3723,1410.6277 H 899.95176 Z"
         sodipodi:nodetypes="ccccc"
         inkscape:export-filename="C:\Users\BUCH\Desktop\Retrogaming\Recalbox\travail thèmes\Thème vignette !!!!!!!\Maquette 2 !!!!\rect849.png"
         inkscape:export-xdpi="247.96268"
         inkscape:export-ydpi="247.96268" />
    </clipPath>
  </defs>
  <sodipodi:namedview
     id="namedview4"
     pagecolor="#ffffff"
     bordercolor="#666666"
     borderopacity="1.0"
     inkscape:pageshadow="2"
     inkscape:pageopacity="0.0"
     inkscape:pagecheckerboard="true"
     showgrid="false"
     inkscape:showpageshadow="false"
     inkscape:zoom="12.479331"
     inkscape:cx="21.114914"
     inkscape:cy="6.1702026"
     inkscape:window-width="1920"
     inkscape:window-height="1138"
     inkscape:window-x="-8"
     inkscape:window-y="-8"
     inkscape:window-maximized="1"
     inkscape:current-layer="svg2"
     fit-margin-top="0"
     fit-margin-left="0"
     fit-margin-right="0"
     fit-margin-bottom="0" />
  <g
     aria-label="ps2
"
     id="text3381"
     style="font-weight:300;font-size:13.3333px;line-height:1.25;font-family:'Bebas Neue';-inkscape-font-specification:'Bebas Neue, Light';fill:#ffffff"
     transform="translate(-11.832015,-15.4411)">
    <path
       d="m 11.832015,15.507766 v 9.33331 h 0.293333 v -3.95999 h 1.33333 c 1.479996,0 2.146661,-0.706665 2.146661,-2.186661 v -0.933331 c 0,-1.306664 -0.493332,-2.253328 -1.933328,-2.253328 z m 0.293333,5.093321 v -4.813322 h 1.546663 c 1.25333,0 1.639995,0.813332 1.639995,1.959995 v 0.959998 c 0,1.319997 -0.546665,1.893329 -1.853328,1.893329 z"
       id="path5278" />
    <path
       d="m 18.551988,15.4411 c -1.346663,0.01333 -1.919995,0.946664 -1.919995,2.30666 0,2.573327 3.573324,2.493328 3.573324,4.853322 0,1.13333 -0.439999,2.026661 -1.666662,2.026661 -1.226664,0 -1.666663,-0.893331 -1.666663,-2.026661 v -0.466666 h -0.279999 v 0.453332 c 0,1.29333 0.533332,2.319994 1.946662,2.319994 1.426663,0 1.959995,-1.026664 1.959995,-2.319994 0,-2.533327 -3.573324,-2.46666 -3.573324,-4.853321 0,-1.106664 0.413332,-2.026661 1.639995,-2.026661 1.213331,0 1.626663,0.933331 1.626663,2.039994 v 0.186667 h 0.293333 v -0.173333 c 0,-1.279997 -0.519999,-2.319994 -1.933329,-2.319994 z"
       id="path5280" />
    <path
       d="m 23.485302,15.4411 c -1.439996,0 -1.946662,1.119997 -1.946662,2.413327 v 0.493332 h 0.279999 v -0.506665 c 0,-1.119998 0.399999,-2.133328 1.65333,-2.133328 1.29333,0 1.666662,0.959997 1.666662,2.133328 0,2.50666 -3.599991,3.306658 -3.599991,6.799982 v 0.2 h 3.83999 v -0.279999 h -3.546657 v -0.05333 c 0.05333,-3.213325 3.599991,-4.079989 3.599991,-6.679983 0,-1.319996 -0.479999,-2.38666 -1.946662,-2.38666 z"
       id="path5282" />
  </g>
</svg>
