<?xml version="1.0" encoding="UTF-8" standalone="no"?>
<!-- Created with Inkscape (http://www.inkscape.org/) -->

<svg
   version="1.1"
   id="svg2"
   width="42.719784"
   height="9.4666424"
   viewBox="0 0 42.719785 9.4666423"
   sodipodi:docname="samcoupe.svg"
   inkscape:version="1.1 (c68e22c387, 2021-05-23)"
   inkscape:export-filename="C:\Users\BUCH\Desktop\Retrogaming\Recalbox\travail thèmes\Thème vignette !!!!!!!\Maquette 2 !!!!\image1250.png"
   inkscape:export-xdpi="96.460785"
   inkscape:export-ydpi="96.460785"
   xmlns:inkscape="http://www.inkscape.org/namespaces/inkscape"
   xmlns:sodipodi="http://sodipodi.sourceforge.net/DTD/sodipodi-0.dtd"
   xmlns="http://www.w3.org/2000/svg"
   xmlns:svg="http://www.w3.org/2000/svg">
  <defs
     id="defs6">
    <clipPath
       clipPathUnits="userSpaceOnUse"
       id="clipPath3185">
      <path
         id="path3187"
         style="fill:#ffffff;fill-rule:evenodd;stroke:#ffffff;stroke-width:5.15903;stroke-linecap:round;stroke-linejoin:round;paint-order:stroke fill markers"
         d="m 1157.5591,335.78677 h 462.4206 L 1362.3723,1410.6277 H 899.95176 Z"
         sodipodi:nodetypes="ccccc"
         inkscape:export-filename="C:\Users\BUCH\Desktop\Retrogaming\Recalbox\travail thèmes\Thème vignette !!!!!!!\Maquette 2 !!!!\rect849.png"
         inkscape:export-xdpi="247.96268"
         inkscape:export-ydpi="247.96268" />
    </clipPath>
  </defs>
  <sodipodi:namedview
     id="namedview4"
     pagecolor="#ffffff"
     bordercolor="#666666"
     borderopacity="1.0"
     inkscape:pageshadow="2"
     inkscape:pageopacity="0.0"
     inkscape:pagecheckerboard="true"
     showgrid="false"
     inkscape:showpageshadow="false"
     inkscape:zoom="12.479331"
     inkscape:cx="27.926176"
     inkscape:cy="6.4907326"
     inkscape:window-width="1920"
     inkscape:window-height="1138"
     inkscape:window-x="-8"
     inkscape:window-y="-8"
     inkscape:window-maximized="1"
     inkscape:current-layer="svg2"
     fit-margin-top="0"
     fit-margin-left="0"
     fit-margin-right="0"
     fit-margin-bottom="0" />
  <g
     aria-label="sam coupe"
     id="text1067"
     style="font-weight:300;font-size:13.3333px;line-height:1.25;font-family:'Bebas Neue';-inkscape-font-specification:'Bebas Neue, Light';fill:#ffffff"
     transform="translate(3.4999598,-15.921895)">
    <path
       d="m -1.5399647,15.921895 c -1.3466633,0.01333 -1.9199952,0.946664 -1.9199952,2.30666 0,2.573327 3.57332431,2.493327 3.57332431,4.853321 0,1.133331 -0.43999889,2.026662 -1.66666241,2.026662 -1.2266636,0 -1.6666625,-0.893331 -1.6666625,-2.026662 v -0.466665 h -0.2799993 v 0.453332 c 0,1.29333 0.533332,2.319994 1.9466618,2.319994 1.42666302,0 1.959995,-1.026664 1.959995,-2.319994 0,-2.533327 -3.5733243,-2.46666 -3.5733243,-4.853321 0,-1.106664 0.4133323,-2.026661 1.6399959,-2.026661 1.21333022,0 1.62666251,0.933331 1.62666251,2.039994 v 0.186667 H 0.3933637 v -0.173333 c 0,-1.279997 -0.51999868,-2.319994 -1.9333284,-2.319994 z"
       id="path1956" />
    <path
       d="m 5.5400103,23.121876 0.5466653,2.199995 H 6.3800082 L 4.0733474,15.975228 H 3.6600151 l -2.2533277,9.346643 h 0.266666 L 2.2200187,23.121876 Z M 3.8600146,16.321894 5.4866771,22.85521 H 2.2733519 Z"
       id="path1958" />
    <path
       d="m 12.60664,16.42856 v 8.893311 h 0.293333 v -9.33331 H 12.446641 L 10.153313,24.841872 7.8599857,15.988561 H 7.4066535 v 9.33331 h 0.266666 V 16.42856 l 2.3066608,8.866644 h 0.3333327 z"
       id="path1960" />
    <path
       d="m 17.966593,15.921895 c -1.41333,0 -1.946662,1.066664 -1.946662,2.359994 v 4.746654 c 0,1.29333 0.533332,2.359994 1.946662,2.359994 1.426663,0 1.959995,-1.066664 1.959995,-2.359994 v -1.013331 h -0.293333 v 1.026665 c 0,1.13333 -0.426665,2.066661 -1.653329,2.066661 -1.239997,0 -1.666662,-0.933331 -1.666662,-2.066661 v -4.773322 c 0,-1.13333 0.426665,-2.079994 1.666662,-2.079994 1.226664,0 1.653329,0.946664 1.653329,2.079994 v 0.733332 h 0.293333 v -0.719998 c 0,-1.29333 -0.533332,-2.359994 -1.959995,-2.359994 z"
       id="path1962" />
    <path
       d="m 20.953239,23.028543 c 0,1.306664 0.559998,2.359994 1.973328,2.359994 1.439996,0 1.999995,-1.05333 1.999995,-2.359994 v -4.746654 c 0,-1.306664 -0.559999,-2.359994 -1.999995,-2.359994 -1.41333,0 -1.973328,1.05333 -1.973328,2.359994 z m 0.293332,-4.759988 c 0,-1.146663 0.439999,-2.079994 1.679996,-2.079994 1.25333,0 1.706662,0.933331 1.706662,2.079994 v 4.773322 c 0,1.146663 -0.453332,2.079994 -1.706662,2.079994 -1.239997,0 -1.679996,-0.933331 -1.679996,-2.079994 z"
       id="path1964" />
    <path
       d="m 26.259885,15.988561 h -0.293333 v 7.026649 c 0,1.279997 0.506665,2.373327 1.933328,2.373327 1.41333,0 1.919996,-1.09333 1.919996,-2.373327 v -7.026649 h -0.28 v 7.039982 c 0,1.119997 -0.399999,2.093328 -1.639996,2.093328 -1.239997,0 -1.639995,-0.973331 -1.639995,-2.093328 z"
       id="path1966" />
    <path
       d="m 30.873188,15.988561 v 9.33331 h 0.293333 v -3.95999 h 1.33333 c 1.479996,0 2.146661,-0.706665 2.146661,-2.186661 v -0.933331 c 0,-1.306664 -0.493332,-2.253328 -1.933329,-2.253328 z m 0.293333,5.093321 V 16.26856 h 1.546662 c 1.253331,0 1.639996,0.813332 1.639996,1.959995 v 0.959998 c 0,1.319997 -0.546665,1.893329 -1.853328,1.893329 z"
       id="path1968" />
    <path
       d="M 35.953165,20.455216 V 16.26856 h 3.266658 v -0.279999 h -3.559991 v 9.33331 h 3.559991 v -0.279999 h -3.266658 v -4.31999 h 2.746659 v -0.266666 z"
       id="path1970" />
  </g>
</svg>
