<?xml version="1.0" encoding="UTF-8" standalone="no"?>
<!-- Created with Inkscape (http://www.inkscape.org/) -->

<svg
   version="1.1"
   id="svg2"
   width="29.226521"
   height="9.4666424"
   viewBox="0 0 29.226521 9.4666423"
   sodipodi:docname="saturn.svg"
   inkscape:version="1.1 (c68e22c387, 2021-05-23)"
   inkscape:export-filename="C:\Users\BUCH\Desktop\Retrogaming\Recalbox\travail thèmes\Thème vignette !!!!!!!\Maquette 2 !!!!\image1250.png"
   inkscape:export-xdpi="96.460785"
   inkscape:export-ydpi="96.460785"
   xmlns:inkscape="http://www.inkscape.org/namespaces/inkscape"
   xmlns:sodipodi="http://sodipodi.sourceforge.net/DTD/sodipodi-0.dtd"
   xmlns="http://www.w3.org/2000/svg"
   xmlns:svg="http://www.w3.org/2000/svg">
  <defs
     id="defs6">
    <clipPath
       clipPathUnits="userSpaceOnUse"
       id="clipPath3185">
      <path
         id="path3187"
         style="fill:#ffffff;fill-rule:evenodd;stroke:#ffffff;stroke-width:5.15903;stroke-linecap:round;stroke-linejoin:round;paint-order:stroke fill markers"
         d="m 1157.5591,335.78677 h 462.4206 L 1362.3723,1410.6277 H 899.95176 Z"
         sodipodi:nodetypes="ccccc"
         inkscape:export-filename="C:\Users\BUCH\Desktop\Retrogaming\Recalbox\travail thèmes\Thème vignette !!!!!!!\Maquette 2 !!!!\rect849.png"
         inkscape:export-xdpi="247.96268"
         inkscape:export-ydpi="247.96268" />
    </clipPath>
  </defs>
  <sodipodi:namedview
     id="namedview4"
     pagecolor="#ffffff"
     bordercolor="#666666"
     borderopacity="1.0"
     inkscape:pageshadow="2"
     inkscape:pageopacity="0.0"
     inkscape:pagecheckerboard="true"
     showgrid="false"
     inkscape:showpageshadow="false"
     inkscape:zoom="12.479331"
     inkscape:cx="26.403659"
     inkscape:cy="8.6543101"
     inkscape:window-width="1920"
     inkscape:window-height="1138"
     inkscape:window-x="-8"
     inkscape:window-y="-8"
     inkscape:window-maximized="1"
     inkscape:current-layer="svg2"
     fit-margin-top="0"
     fit-margin-left="0"
     fit-margin-right="0"
     fit-margin-bottom="0" />
  <g
     aria-label="saturn"
     id="text4937"
     style="font-weight:300;font-size:13.3333px;line-height:1.25;font-family:'Bebas Neue';-inkscape-font-specification:'Bebas Neue, Light';fill:#ffffff"
     transform="translate(0.53505715,-13.758317)">
    <path
       d="m 1.4249379,13.758317 c -1.34666327,0.01333 -1.91999515,0.946664 -1.91999515,2.30666 0,2.573327 3.57332435,2.493327 3.57332435,4.853321 0,1.133331 -0.4399989,2.026662 -1.6666625,2.026662 -1.22666357,0 -1.66666246,-0.893331 -1.66666246,-2.026662 v -0.466665 h -0.27999929 v 0.453332 c 0,1.29333 0.53333199,2.319994 1.94666175,2.319994 1.4266631,0 1.959995,-1.026664 1.959995,-2.319994 0,-2.533327 -3.57332426,-2.46666 -3.57332426,-4.853321 0,-1.106664 0.41333229,-2.026661 1.63999586,-2.026661 1.2133303,0 1.6266626,0.93333 1.6266626,2.039994 v 0.186667 h 0.2933325 v -0.173333 c 0,-1.279997 -0.5199986,-2.319994 -1.9333284,-2.319994 z"
       id="path5188" />
    <path
       d="m 8.504913,20.958298 0.5466652,2.199995 H 9.3449108 L 7.03825,13.81165 H 6.6249177 l -2.2533276,9.346643 h 0.266666 L 5.1849214,20.958298 Z M 6.8249172,14.158316 8.4515798,20.691632 H 5.2382546 Z"
       id="path5190" />
    <path
       d="m 11.904884,23.158293 v -9.053311 h 2.039995 V 13.824983 H 9.5848897 v 0.279999 h 2.0266613 v 9.053311 z"
       id="path5192" />
    <path
       d="M 15.038192,13.824983 H 14.74486 v 7.026649 c 0,1.279997 0.506665,2.373327 1.933328,2.373327 1.41333,0 1.919995,-1.09333 1.919995,-2.373327 v -7.026649 h -0.279999 v 7.039982 c 0,1.119997 -0.399999,2.093328 -1.639996,2.093328 -1.239997,0 -1.639996,-0.973331 -1.639996,-2.093328 z"
       id="path5194" />
    <path
       d="m 19.651497,13.824983 v 9.33331 h 0.293332 v -4.306656 h 1.146664 c 1.21333,0 2.039995,0.359999 2.039995,1.733329 v 1.466663 c 0,0.399999 0.04,0.813331 0.226666,1.106664 h 0.319999 C 23.46482,22.86496 23.424821,22.411628 23.424821,22.051629 v -1.466663 c 0,-1.026664 -0.439999,-1.706662 -1.479997,-1.866662 1.026664,-0.186666 1.479997,-0.813331 1.479997,-1.959995 v -0.839998 c 0,-1.279997 -0.533332,-2.093328 -1.919996,-2.093328 z m 0.293332,4.746655 v -4.466656 h 1.546663 c 1.199997,0 1.639996,0.706665 1.639996,1.839996 v 0.853331 c 0,1.439996 -0.746665,1.773329 -2.039995,1.773329 z"
       id="path5196" />
    <path
       d="m 24.998139,14.251649 3.333325,8.906644 h 0.359999 v -9.33331 h -0.279999 v 8.733311 L 25.131472,13.824983 H 24.71814 v 9.33331 h 0.279999 z"
       id="path5198" />
  </g>
</svg>
