<?xml version="1.0" encoding="UTF-8" standalone="no"?>
<!-- Created with Inkscape (http://www.inkscape.org/) -->

<svg
   version="1.1"
   id="svg2"
   width="30.466513"
   height="9.4666433"
   viewBox="0 0 30.466513 9.4666433"
   sodipodi:docname="sg1000.svg"
   inkscape:version="1.1 (c68e22c387, 2021-05-23)"
   inkscape:export-filename="C:\Users\BUCH\Desktop\Retrogaming\Recalbox\travail thèmes\Thème vignette !!!!!!!\Maquette 2 !!!!\image1250.png"
   inkscape:export-xdpi="96.460785"
   inkscape:export-ydpi="96.460785"
   xmlns:inkscape="http://www.inkscape.org/namespaces/inkscape"
   xmlns:sodipodi="http://sodipodi.sourceforge.net/DTD/sodipodi-0.dtd"
   xmlns="http://www.w3.org/2000/svg"
   xmlns:svg="http://www.w3.org/2000/svg">
  <defs
     id="defs6">
    <clipPath
       clipPathUnits="userSpaceOnUse"
       id="clipPath3185">
      <path
         id="path3187"
         style="fill:#ffffff;fill-rule:evenodd;stroke:#ffffff;stroke-width:5.15903;stroke-linecap:round;stroke-linejoin:round;paint-order:stroke fill markers"
         d="m 1157.5591,335.78677 h 462.4206 L 1362.3723,1410.6277 H 899.95176 Z"
         sodipodi:nodetypes="ccccc"
         inkscape:export-filename="C:\Users\BUCH\Desktop\Retrogaming\Recalbox\travail thèmes\Thème vignette !!!!!!!\Maquette 2 !!!!\rect849.png"
         inkscape:export-xdpi="247.96268"
         inkscape:export-ydpi="247.96268" />
    </clipPath>
  </defs>
  <sodipodi:namedview
     id="namedview4"
     pagecolor="#ffffff"
     bordercolor="#666666"
     borderopacity="1.0"
     inkscape:pageshadow="2"
     inkscape:pageopacity="0.0"
     inkscape:pagecheckerboard="true"
     showgrid="false"
     inkscape:showpageshadow="false"
     inkscape:zoom="12.479331"
     inkscape:cx="15.585771"
     inkscape:cy="19.392065"
     inkscape:window-width="1920"
     inkscape:window-height="1138"
     inkscape:window-x="-8"
     inkscape:window-y="-8"
     inkscape:window-maximized="1"
     inkscape:current-layer="svg2"
     fit-margin-top="0"
     fit-margin-left="0"
     fit-margin-right="0"
     fit-margin-bottom="0" />
  <g
     aria-label="sg-1000"
     id="text3064"
     style="font-weight:300;font-size:13.3333px;line-height:1.25;font-family:'Bebas Neue';-inkscape-font-specification:'Bebas Neue, Light';fill:#ffffff"
     transform="translate(-4.8338205,17.172829)">
    <path
       d="m 6.7938155,-17.172829 c -1.3466632,0.01333 -1.9199951,0.946665 -1.9199951,2.306661 0,2.573327 3.5733243,2.493327 3.5733243,4.853321 0,1.1333307 -0.4399989,2.0266618 -1.6666625,2.0266618 -1.2266635,0 -1.6666624,-0.8933311 -1.6666624,-2.0266618 v -0.466665 H 4.8338205 v 0.453332 c 0,1.29333 0.533332,2.3199941 1.9466617,2.3199941 1.4266631,0 1.9599951,-1.0266641 1.9599951,-2.3199941 0,-2.533327 -3.5733243,-2.46666 -3.5733243,-4.853321 0,-1.106664 0.4133323,-2.026662 1.6399958,-2.026662 1.2133303,0 1.6266626,0.933331 1.6266626,2.039995 v 0.186666 H 8.727144 v -0.173333 c 0,-1.279996 -0.5199987,-2.319994 -1.9333285,-2.319994 z"
       id="path3513" />
    <path
       d="m 11.713796,-17.172829 c -1.41333,0 -1.9466617,1.066664 -1.9466617,2.359994 v 4.746655 c 0,1.2933301 0.5333317,2.3599941 1.9466617,2.3599941 1.426663,0 1.959995,-1.066664 1.959995,-2.3599941 v -2.373327 h -1.746662 v 0.266666 h 1.45333 v 2.119994 c 0,1.1333308 -0.426666,2.0666618 -1.65333,2.0666618 -1.239996,0 -1.666662,-0.933331 -1.666662,-2.0666618 v -4.773321 c 0,-1.13333 0.426666,-2.079995 1.666662,-2.079995 1.226664,0 1.65333,0.946665 1.65333,2.079995 v 0.626665 h 0.293332 v -0.613332 c 0,-1.29333 -0.533332,-2.359994 -1.959995,-2.359994 z"
       id="path3515" />
    <path
       d="m 14.713767,-12.306174 h 2.373328 v -0.266666 h -2.373328 z"
       id="path3517" />
    <path
       d="m 19.807068,-7.7728524 h 0.293333 v -9.3466426 h -0.279999 c -0.253333,0.719998 -0.746665,1.266663 -1.57333,1.346663 v 0.266666 c 0.719998,-0.08 1.25333,-0.426666 1.559996,-1.039998 z"
       id="path3519" />
    <path
       d="m 21.300384,-10.06618 c 0,1.3066634 0.559998,2.3599941 1.986661,2.3599941 1.426663,0 1.986662,-1.0533307 1.986662,-2.3599941 v -4.746655 c 0,-1.319996 -0.559999,-2.359994 -1.986662,-2.359994 -1.426663,0 -1.986661,1.039998 -1.986661,2.359994 z m 0.293332,-4.759988 c 0,-1.146664 0.453332,-2.079995 1.693329,-2.079995 1.239997,0 1.693329,0.933331 1.693329,2.079995 v 4.759988 c 0,1.1599971 -0.453332,2.0933281 -1.693329,2.0933281 -1.239997,0 -1.693329,-0.933331 -1.693329,-2.0933281 z"
       id="path3521" />
    <path
       d="m 26.313697,-10.06618 c 0,1.3066634 0.559999,2.3599941 1.986662,2.3599941 1.426663,0 1.986661,-1.0533307 1.986661,-2.3599941 v -4.746655 c 0,-1.319996 -0.559998,-2.359994 -1.986661,-2.359994 -1.426663,0 -1.986662,1.039998 -1.986662,2.359994 z m 0.293333,-4.759988 c 0,-1.146664 0.453332,-2.079995 1.693329,-2.079995 1.239997,0 1.693329,0.933331 1.693329,2.079995 v 4.759988 c 0,1.1599971 -0.453332,2.0933281 -1.693329,2.0933281 -1.239997,0 -1.693329,-0.933331 -1.693329,-2.0933281 z"
       id="path3523" />
    <path
       d="m 31.32701,-10.06618 c 0,1.3066634 0.559999,2.3599941 1.986662,2.3599941 1.426663,0 1.986662,-1.0533307 1.986662,-2.3599941 v -4.746655 c 0,-1.319996 -0.559999,-2.359994 -1.986662,-2.359994 -1.426663,0 -1.986662,1.039998 -1.986662,2.359994 z m 0.293333,-4.759988 c 0,-1.146664 0.453332,-2.079995 1.693329,-2.079995 1.239997,0 1.693329,0.933331 1.693329,2.079995 v 4.759988 c 0,1.1599971 -0.453332,2.0933281 -1.693329,2.0933281 -1.239997,0 -1.693329,-0.933331 -1.693329,-2.0933281 z"
       id="path3525" />
  </g>
</svg>
