<?xml version="1.0" encoding="UTF-8" standalone="no"?>
<!-- Created with Inkscape (http://www.inkscape.org/) -->

<svg
   version="1.1"
   id="svg2"
   width="55.733047"
   height="9.4666433"
   viewBox="0 0 55.733051 9.4666433"
   sodipodi:docname="spectravideo.svg"
   inkscape:version="1.1 (c68e22c387, 2021-05-23)"
   inkscape:export-filename="C:\Users\BUCH\Desktop\Retrogaming\Recalbox\travail thèmes\Thème vignette !!!!!!!\Maquette 2 !!!!\image1250.png"
   inkscape:export-xdpi="96.460785"
   inkscape:export-ydpi="96.460785"
   xmlns:inkscape="http://www.inkscape.org/namespaces/inkscape"
   xmlns:sodipodi="http://sodipodi.sourceforge.net/DTD/sodipodi-0.dtd"
   xmlns="http://www.w3.org/2000/svg"
   xmlns:svg="http://www.w3.org/2000/svg">
  <defs
     id="defs6">
    <clipPath
       clipPathUnits="userSpaceOnUse"
       id="clipPath3185">
      <path
         id="path3187"
         style="fill:#ffffff;fill-rule:evenodd;stroke:#ffffff;stroke-width:5.15903;stroke-linecap:round;stroke-linejoin:round;paint-order:stroke fill markers"
         d="m 1157.5591,335.78677 h 462.4206 L 1362.3723,1410.6277 H 899.95176 Z"
         sodipodi:nodetypes="ccccc"
         inkscape:export-filename="C:\Users\BUCH\Desktop\Retrogaming\Recalbox\travail thèmes\Thème vignette !!!!!!!\Maquette 2 !!!!\rect849.png"
         inkscape:export-xdpi="247.96268"
         inkscape:export-ydpi="247.96268" />
    </clipPath>
  </defs>
  <sodipodi:namedview
     id="namedview4"
     pagecolor="#ffffff"
     bordercolor="#666666"
     borderopacity="1.0"
     inkscape:pageshadow="2"
     inkscape:pageopacity="0.0"
     inkscape:pagecheckerboard="true"
     showgrid="false"
     inkscape:showpageshadow="false"
     inkscape:zoom="12.479331"
     inkscape:cx="27.204984"
     inkscape:cy="4.7278175"
     inkscape:window-width="1920"
     inkscape:window-height="1138"
     inkscape:window-x="-8"
     inkscape:window-y="-8"
     inkscape:window-maximized="1"
     inkscape:current-layer="svg2"
     fit-margin-top="0"
     fit-margin-left="0"
     fit-margin-right="0"
     fit-margin-bottom="0" />
  <g
     aria-label="spectravideo"
     id="text1764"
     style="font-weight:300;font-size:13.3333px;line-height:1.25;font-family:'Bebas Neue';-inkscape-font-specification:'Bebas Neue, Light';fill:#ffffff"
     transform="translate(-2.509978,-14.880171)">
    <path
       d="m 4.469973,14.880171 c -1.3466632,0.01333 -1.9199951,0.946665 -1.9199951,2.306661 0,2.573327 3.5733243,2.493327 3.5733243,4.853321 0,1.133331 -0.4399989,2.026662 -1.6666625,2.026662 -1.2266635,0 -1.6666624,-0.893331 -1.6666624,-2.026662 V 21.573488 H 2.509978 v 0.453332 c 0,1.29333 0.533332,2.319994 1.9466617,2.319994 1.4266631,0 1.9599951,-1.026664 1.9599951,-2.319994 0,-2.533327 -3.5733243,-2.466661 -3.5733243,-4.853321 0,-1.106664 0.4133323,-2.026662 1.6399958,-2.026662 1.2133303,0 1.6266626,0.933331 1.6266626,2.039995 v 0.186666 h 0.2933326 v -0.173333 c 0,-1.279996 -0.5199987,-2.319994 -1.9333285,-2.319994 z"
       id="path3137" />
    <path
       d="m 7.4566251,14.946838 v 9.33331 h 0.2933326 v -3.95999 h 1.33333 c 1.4799963,0 2.1466613,-0.706665 2.1466613,-2.186662 v -0.933331 c 0,-1.306663 -0.493332,-2.253327 -1.9333286,-2.253327 z m 0.2933326,5.09332 v -4.813321 h 1.5466627 c 1.2533306,0 1.6399956,0.813331 1.6399956,1.959995 v 0.959998 c 0,1.319996 -0.546665,1.893328 -1.8533283,1.893328 z"
       id="path3139" />
    <path
       d="m 12.536602,19.413493 v -4.186656 h 3.266659 V 14.946838 H 12.24327 v 9.33331 h 3.559991 v -0.28 h -3.266659 v -4.319989 h 2.74666 v -0.266666 z"
       id="path3141" />
    <path
       d="m 18.776577,14.880171 c -1.413329,0 -1.946661,1.066664 -1.946661,2.359994 v 4.746655 c 0,1.29333 0.533332,2.359994 1.946661,2.359994 1.426663,0 1.959995,-1.066664 1.959995,-2.359994 V 20.973489 H 20.44324 v 1.026664 c 0,1.133331 -0.426666,2.066662 -1.653329,2.066662 -1.239997,0 -1.666663,-0.933331 -1.666663,-2.066662 v -4.773321 c 0,-1.13333 0.426666,-2.079995 1.666663,-2.079995 1.226663,0 1.653329,0.946665 1.653329,2.079995 v 0.733332 h 0.293332 v -0.719999 c 0,-1.29333 -0.533332,-2.359994 -1.959995,-2.359994 z"
       id="path3143" />
    <path
       d="m 23.81655,24.280148 v -9.053311 h 2.039994 v -0.279999 h -4.359989 v 0.279999 h 2.026662 v 9.053311 z"
       id="path3145" />
    <path
       d="m 26.66986,14.946838 v 9.33331 h 0.293332 v -4.306656 h 1.146664 c 1.21333,0 2.039995,0.359999 2.039995,1.733329 v 1.466663 c 0,0.399999 0.04,0.813331 0.226666,1.106664 h 0.319999 c -0.213333,-0.293333 -0.253333,-0.746665 -0.253333,-1.106664 v -1.466663 c 0,-1.026664 -0.439999,-1.706663 -1.479996,-1.866662 1.026664,-0.186666 1.479996,-0.813332 1.479996,-1.959995 v -0.839998 c 0,-1.279997 -0.533332,-2.093328 -1.919995,-2.093328 z m 0.293332,4.746654 v -4.466655 h 1.546663 c 1.199997,0 1.639996,0.706665 1.639996,1.839995 v 0.853332 c 0,1.439996 -0.746665,1.773328 -2.039995,1.773328 z"
       id="path3147" />
    <path
       d="m 35.829825,22.080153 0.546666,2.199995 h 0.293332 L 34.363162,14.933505 H 33.94983 l -2.253328,9.346643 h 0.266666 l 0.546666,-2.199995 z m -1.679995,-6.799983 1.626662,6.533317 h -3.213325 z"
       id="path3149" />
    <path
       d="m 37.323114,14.946838 2.279994,9.33331 h 0.439999 l 2.239995,-9.33331 h -0.28 l -2.186661,8.999977 -2.186661,-8.999977 z"
       id="path3151" />
    <path
       d="m 43.309754,14.946838 v 9.33331 h 0.293333 v -9.33331 z"
       id="path3153" />
    <path
       d="m 44.669743,14.946838 v 9.33331 h 1.959995 c 1.41333,0 2.013328,-0.999998 2.013328,-2.319995 v -4.679988 c 0,-1.33333 -0.599998,-2.333327 -2.026661,-2.333327 z m 0.293333,9.05331 v -8.773311 h 1.653329 c 1.239997,0 1.733329,0.866665 1.733329,2.039995 v 4.706655 c 0,1.159997 -0.479999,2.026661 -1.733329,2.026661 z"
       id="path3155" />
    <path
       d="m 49.976389,19.413493 v -4.186656 h 3.266658 v -0.279999 h -3.559991 v 9.33331 h 3.559991 v -0.28 h -3.266658 v -4.319989 h 2.74666 v -0.266666 z"
       id="path3157" />
    <path
       d="m 54.269703,21.98682 c 0,1.306663 0.559998,2.359994 1.973328,2.359994 1.439996,0 1.999995,-1.053331 1.999995,-2.359994 v -4.746655 c 0,-1.306663 -0.559999,-2.359994 -1.999995,-2.359994 -1.41333,0 -1.973328,1.053331 -1.973328,2.359994 z m 0.293332,-4.759988 c 0,-1.146664 0.439999,-2.079995 1.679996,-2.079995 1.25333,0 1.706662,0.933331 1.706662,2.079995 v 4.773321 c 0,1.146664 -0.453332,2.079995 -1.706662,2.079995 -1.239997,0 -1.679996,-0.933331 -1.679996,-2.079995 z"
       id="path3159" />
  </g>
</svg>
