<?xml version="1.0" encoding="UTF-8" standalone="no"?>
<!-- Created with Inkscape (http://www.inkscape.org/) -->

<svg
   version="1.1"
   id="svg2"
   width="23.973192"
   height="9.4666433"
   viewBox="0 0 23.973193 9.4666433"
   sodipodi:docname="tic80.svg"
   inkscape:version="1.1 (c68e22c387, 2021-05-23)"
   inkscape:export-filename="C:\Users\BUCH\Desktop\Retrogaming\Recalbox\travail thèmes\Thème vignette !!!!!!!\Maquette 2 !!!!\image1250.png"
   inkscape:export-xdpi="96.460785"
   inkscape:export-ydpi="96.460785"
   xmlns:inkscape="http://www.inkscape.org/namespaces/inkscape"
   xmlns:sodipodi="http://sodipodi.sourceforge.net/DTD/sodipodi-0.dtd"
   xmlns="http://www.w3.org/2000/svg"
   xmlns:svg="http://www.w3.org/2000/svg">
  <defs
     id="defs6">
    <clipPath
       clipPathUnits="userSpaceOnUse"
       id="clipPath3185">
      <path
         id="path3187"
         style="fill:#ffffff;fill-rule:evenodd;stroke:#ffffff;stroke-width:5.15903;stroke-linecap:round;stroke-linejoin:round;paint-order:stroke fill markers"
         d="m 1157.5591,335.78677 h 462.4206 L 1362.3723,1410.6277 H 899.95176 Z"
         sodipodi:nodetypes="ccccc"
         inkscape:export-filename="C:\Users\BUCH\Desktop\Retrogaming\Recalbox\travail thèmes\Thème vignette !!!!!!!\Maquette 2 !!!!\rect849.png"
         inkscape:export-xdpi="247.96268"
         inkscape:export-ydpi="247.96268" />
    </clipPath>
  </defs>
  <sodipodi:namedview
     id="namedview4"
     pagecolor="#ffffff"
     bordercolor="#666666"
     borderopacity="1.0"
     inkscape:pageshadow="2"
     inkscape:pageopacity="0.0"
     inkscape:pagecheckerboard="true"
     showgrid="false"
     inkscape:showpageshadow="false"
     inkscape:zoom="12.479331"
     inkscape:cx="25.121539"
     inkscape:cy="22.036438"
     inkscape:window-width="1920"
     inkscape:window-height="1138"
     inkscape:window-x="-8"
     inkscape:window-y="-8"
     inkscape:window-maximized="1"
     inkscape:current-layer="svg2"
     fit-margin-top="0"
     fit-margin-left="0"
     fit-margin-right="0"
     fit-margin-bottom="0" />
  <g
     aria-label="tic-80"
     id="text10488"
     style="font-weight:300;font-size:13.3333px;line-height:1.25;font-family:'Bebas Neue';-inkscape-font-specification:'Bebas Neue, Light';fill:#ffffff"
     transform="translate(-0.41359769,20.778791)">
    <path
       d="m 2.7335918,-11.378815 v -9.05331 h 2.0399949 v -0.279999 H 0.41359769 v 0.279999 H 2.4402592 v 9.05331 z"
       id="path10849" />
    <path
       d="m 5.5869004,-20.712124 v 9.333309 H 5.880233 v -9.333309 z"
       id="path10851" />
    <path
       d="m 8.8802156,-20.778791 c -1.4133298,0 -1.9466617,1.066664 -1.9466617,2.359994 v 4.746655 c 0,1.29333 0.5333319,2.359994 1.9466617,2.359994 1.4266634,0 1.9599954,-1.066664 1.9599954,-2.359994 v -1.013331 h -0.293333 v 1.026664 c 0,1.133331 -0.426666,2.066662 -1.6533291,2.066662 -1.2399969,0 -1.6666624,-0.933331 -1.6666624,-2.066662 v -4.773321 c 0,-1.133331 0.4266655,-2.079995 1.6666624,-2.079995 1.2266631,0 1.6533291,0.946664 1.6533291,2.079995 v 0.733331 h 0.293333 v -0.719998 c 0,-1.29333 -0.533332,-2.359994 -1.9599954,-2.359994 z"
       id="path10853" />
    <path
       d="m 11.866861,-15.912137 h 2.373327 v -0.266666 h -2.373327 z"
       id="path10855" />
    <path
       d="m 17.320162,-20.778791 c -1.37333,0 -2.053329,0.893331 -2.053329,2.226661 v 0.306666 c 0,0.999997 0.373333,1.759996 1.386664,1.986662 -1.039998,0.239999 -1.386664,0.986664 -1.386664,2.026661 v 0.626665 c 0,1.33333 0.639999,2.293328 2.053329,2.293328 1.413329,0 2.053328,-0.959998 2.053328,-2.293328 v -0.626665 c 0,-1.013331 -0.346666,-1.799995 -1.346663,-2.026661 0.97333,-0.213333 1.346663,-1.013331 1.346663,-1.986662 v -0.306666 c 0,-1.33333 -0.666665,-2.226661 -2.053328,-2.226661 z m 0,0.266666 c 1.186663,0 1.759995,0.786665 1.759995,1.959995 v 0.333333 c 0,1.186663 -0.573332,1.839995 -1.759995,1.839995 -1.173331,0 -1.759996,-0.653332 -1.759996,-1.839995 v -0.333333 c 0,-1.17333 0.573332,-1.959995 1.759996,-1.959995 z m 0,4.399989 c 1.21333,0 1.759995,0.639998 1.759995,1.853329 v 0.653331 c 0,1.186664 -0.533332,2.026662 -1.759995,2.026662 -1.213331,0 -1.759996,-0.839998 -1.759996,-2.026662 v -0.653331 c 0,-1.213331 0.559999,-1.853329 1.759996,-1.853329 z"
       id="path10857" />
    <path
       d="m 20.413466,-13.672142 c 0,1.306663 0.559998,2.359994 1.986661,2.359994 1.426663,0 1.986662,-1.053331 1.986662,-2.359994 v -4.746655 c 0,-1.319997 -0.559999,-2.359994 -1.986662,-2.359994 -1.426663,0 -1.986661,1.039997 -1.986661,2.359994 z m 0.293332,-4.759988 c 0,-1.146664 0.453332,-2.079995 1.693329,-2.079995 1.239997,0 1.693329,0.933331 1.693329,2.079995 v 4.759988 c 0,1.159997 -0.453332,2.093328 -1.693329,2.093328 -1.239997,0 -1.693329,-0.933331 -1.693329,-2.093328 z"
       id="path10859" />
  </g>
</svg>
