<?xml version="1.0" encoding="UTF-8" standalone="no"?>
<!-- Created with Inkscape (http://www.inkscape.org/) -->

<svg
   version="1.1"
   id="svg2"
   width="88.01284"
   height="9.4666424"
   viewBox="0 0 88.012842 9.4666423"
   sodipodi:docname="zxspectrum.svg"
   inkscape:version="1.1 (c68e22c387, 2021-05-23)"
   inkscape:export-filename="C:\Users\BUCH\Desktop\Retrogaming\Recalbox\travail thèmes\Thème vignette !!!!!!!\Maquette 2 !!!!\image1250.png"
   inkscape:export-xdpi="96.460785"
   inkscape:export-ydpi="96.460785"
   xmlns:inkscape="http://www.inkscape.org/namespaces/inkscape"
   xmlns:sodipodi="http://sodipodi.sourceforge.net/DTD/sodipodi-0.dtd"
   xmlns="http://www.w3.org/2000/svg"
   xmlns:svg="http://www.w3.org/2000/svg">
  <defs
     id="defs6">
    <clipPath
       clipPathUnits="userSpaceOnUse"
       id="clipPath3185">
      <path
         id="path3187"
         style="fill:#ffffff;fill-rule:evenodd;stroke:#ffffff;stroke-width:5.15903;stroke-linecap:round;stroke-linejoin:round;paint-order:stroke fill markers"
         d="m 1157.5591,335.78677 h 462.4206 L 1362.3723,1410.6277 H 899.95176 Z"
         sodipodi:nodetypes="ccccc"
         inkscape:export-filename="C:\Users\BUCH\Desktop\Retrogaming\Recalbox\travail thèmes\Thème vignette !!!!!!!\Maquette 2 !!!!\rect849.png"
         inkscape:export-xdpi="247.96268"
         inkscape:export-ydpi="247.96268" />
    </clipPath>
  </defs>
  <sodipodi:namedview
     id="namedview4"
     pagecolor="#ffffff"
     bordercolor="#666666"
     borderopacity="1.0"
     inkscape:pageshadow="2"
     inkscape:pageopacity="0.0"
     inkscape:pagecheckerboard="true"
     showgrid="false"
     inkscape:showpageshadow="false"
     inkscape:zoom="8.8242196"
     inkscape:cx="53.659136"
     inkscape:cy="-1.8131915"
     inkscape:window-width="1920"
     inkscape:window-height="1138"
     inkscape:window-x="-8"
     inkscape:window-y="-8"
     inkscape:window-maximized="1"
     inkscape:current-layer="svg2"
     fit-margin-top="0"
     fit-margin-left="0"
     fit-margin-right="0"
     fit-margin-bottom="0" />
  <g
     aria-label="sinclair zx spectrum"
     id="text13942"
     style="font-weight:300;font-size:13.3333px;line-height:1.25;font-family:'Bebas Neue';-inkscape-font-specification:'Bebas Neue, Light';fill:#ffffff"
     transform="translate(19.438441,-20.631009)">
    <path
       d="m -17.478446,20.631009 c -1.346663,0.01333 -1.919995,0.946664 -1.919995,2.30666 0,2.573327 3.573324,2.493328 3.573324,4.853322 0,1.13333 -0.439999,2.026661 -1.666662,2.026661 -1.226664,0 -1.666663,-0.893331 -1.666663,-2.026661 v -0.466666 h -0.279999 v 0.453332 c 0,1.29333 0.533332,2.319994 1.946662,2.319994 1.426663,0 1.959995,-1.026664 1.959995,-2.319994 0,-2.533327 -3.573325,-2.46666 -3.573325,-4.853321 0,-1.106664 0.413333,-2.026661 1.639996,-2.026661 1.21333,0 1.626663,0.933331 1.626663,2.039994 v 0.186667 h 0.293332 v -0.173333 c 0,-1.279997 -0.519998,-2.319994 -1.933328,-2.319994 z"
       id="path14345" />
    <path
       d="m -14.491794,20.697675 v 9.33331 h 0.293333 v -9.33331 z"
       id="path14347" />
    <path
       d="m -12.851808,21.124341 3.333325,8.906644 h 0.3599991 v -9.33331 h -0.2799993 v 8.733311 l -3.2799918,-8.733311 h -0.413332 v 9.33331 h 0.279999 z"
       id="path14349" />
    <path
       d="m -6.1585131,20.631009 c -1.4133298,0 -1.9466618,1.066664 -1.9466618,2.359994 v 4.746654 c 0,1.29333 0.533332,2.359994 1.9466618,2.359994 1.426663,0 1.959995,-1.066664 1.959995,-2.359994 v -1.01333 h -0.2933326 v 1.026664 c 0,1.13333 -0.4266656,2.066661 -1.6533291,2.066661 -1.2399969,0 -1.6666625,-0.933331 -1.6666625,-2.066661 v -4.773322 c 0,-1.13333 0.4266656,-2.079994 1.6666625,-2.079994 1.2266635,0 1.6533291,0.946664 1.6533291,2.079994 v 0.733332 h 0.2933326 v -0.719998 c 0,-1.29333 -0.533332,-2.359994 -1.959995,-2.359994 z"
       id="path14351" />
    <path
       d="M 0.26812216,30.030985 V 29.750986 H -2.8652033 v -9.053311 h -0.2933325 v 9.33331 z"
       id="path14353" />
    <path
       d="m 5.3747533,27.83099 0.5466653,2.199995 H 6.2147512 L 3.9080904,20.684342 H 3.4947581 l -2.2533276,9.346643 h 0.266666 L 2.0547617,27.83099 Z M 3.6947576,21.031008 5.3214201,27.564324 H 2.1080949 Z"
       id="path14355" />
    <path
       d="m 7.241397,20.697675 v 9.33331 h 0.2933326 v -9.33331 z"
       id="path14357" />
    <path
       d="m 8.6013843,20.697675 v 9.33331 h 0.2933326 v -4.306656 h 1.1466641 c 1.21333,0 2.039994,0.359999 2.039994,1.733329 v 1.466663 c 0,0.399999 0.04,0.813331 0.226667,1.106664 h 0.319999 C 12.414708,29.737652 12.374708,29.28432 12.374708,28.924321 v -1.466663 c 0,-1.026664 -0.439999,-1.706662 -1.479996,-1.866662 1.026664,-0.186666 1.479996,-0.813331 1.479996,-1.959995 v -0.839998 c 0,-1.279997 -0.533332,-2.093328 -1.919995,-2.093328 z M 8.8947169,25.44433 V 20.977674 H 10.44138 c 1.199997,0 1.639995,0.706665 1.639995,1.839996 v 0.853331 c 0,1.439996 -0.746664,1.773329 -2.039994,1.773329 z"
       id="path14359" />
    <path
       d="m 19.881328,29.750986 h -3.866657 l 3.933323,-8.759978 v -0.293333 h -4.053323 v 0.279999 h 3.733324 l -3.91999,8.773312 v 0.279999 h 4.173323 z"
       id="path14361" />
    <path
       d="m 25.574626,30.030985 h 0.319999 l -2.266661,-4.853321 2.119994,-4.479989 h -0.293332 l -2.013328,4.226656 -2.013329,-4.226656 h -0.306666 l 2.119995,4.479989 -2.279994,4.853321 h 0.306666 l 2.146661,-4.586655 z"
       id="path14363" />
    <path
       d="m 30.921243,20.631009 c -1.346664,0.01333 -1.919996,0.946664 -1.919996,2.30666 0,2.573327 3.573325,2.493328 3.573325,4.853322 0,1.13333 -0.439999,2.026661 -1.666663,2.026661 -1.226663,0 -1.666662,-0.893331 -1.666662,-2.026661 v -0.466666 h -0.279999 v 0.453332 c 0,1.29333 0.533332,2.319994 1.946661,2.319994 1.426663,0 1.959995,-1.026664 1.959995,-2.319994 0,-2.533327 -3.573324,-2.46666 -3.573324,-4.853321 0,-1.106664 0.413332,-2.026661 1.639996,-2.026661 1.21333,0 1.626663,0.933331 1.626663,2.039994 v 0.186667 h 0.293332 v -0.173333 c 0,-1.279997 -0.519999,-2.319994 -1.933328,-2.319994 z"
       id="path14365" />
    <path
       d="m 33.907893,20.697675 v 9.33331 h 0.293333 v -3.95999 h 1.33333 c 1.479996,0 2.146661,-0.706665 2.146661,-2.186661 v -0.933331 c 0,-1.306664 -0.493332,-2.253328 -1.933328,-2.253328 z m 0.293333,5.093321 v -4.813322 h 1.546663 c 1.25333,0 1.639996,0.813332 1.639996,1.959995 v 0.959998 c 0,1.319997 -0.546666,1.893329 -1.853329,1.893329 z"
       id="path14367" />
    <path
       d="m 38.98787,25.164331 v -4.186657 h 3.266658 v -0.279999 h -3.559991 v 9.33331 h 3.559991 V 29.750986 H 38.98787 v -4.319989 h 2.74666 v -0.266666 z"
       id="path14369" />
    <path
       d="m 45.227845,20.631009 c -1.41333,0 -1.946662,1.066664 -1.946662,2.359994 v 4.746654 c 0,1.29333 0.533332,2.359994 1.946662,2.359994 1.426663,0 1.959995,-1.066664 1.959995,-2.359994 v -1.01333 h -0.293332 v 1.026664 c 0,1.13333 -0.426666,2.066661 -1.65333,2.066661 -1.239996,0 -1.666662,-0.933331 -1.666662,-2.066661 v -4.773322 c 0,-1.13333 0.426666,-2.079994 1.666662,-2.079994 1.226664,0 1.65333,0.946664 1.65333,2.079994 v 0.733332 h 0.293332 v -0.719998 c 0,-1.29333 -0.533332,-2.359994 -1.959995,-2.359994 z"
       id="path14371" />
    <path
       d="m 50.267823,30.030985 v -9.053311 h 2.039995 v -0.279999 h -4.359989 v 0.279999 h 2.026661 v 9.053311 z"
       id="path14373" />
    <path
       d="m 53.121131,20.697675 v 9.33331 h 0.293333 v -4.306656 h 1.146663 c 1.213331,0 2.039995,0.359999 2.039995,1.733329 v 1.466663 c 0,0.399999 0.04,0.813331 0.226666,1.106664 h 0.32 C 56.934455,29.737652 56.894455,29.28432 56.894455,28.924321 v -1.466663 c 0,-1.026664 -0.439999,-1.706662 -1.479996,-1.866662 1.026664,-0.186666 1.479996,-0.813331 1.479996,-1.959995 v -0.839998 c 0,-1.279997 -0.533332,-2.093328 -1.919995,-2.093328 z m 0.293333,4.746655 v -4.466656 h 1.546662 c 1.199997,0 1.639996,0.706665 1.639996,1.839996 v 0.853331 c 0,1.439996 -0.746665,1.773329 -2.039995,1.773329 z"
       id="path14375" />
    <path
       d="m 58.467773,20.697675 h -0.293332 v 7.026649 c 0,1.279997 0.506665,2.373327 1.933328,2.373327 1.41333,0 1.919995,-1.09333 1.919995,-2.373327 v -7.026649 h -0.279999 v 7.039982 c 0,1.119998 -0.399999,2.093328 -1.639996,2.093328 -1.239997,0 -1.639996,-0.97333 -1.639996,-2.093328 z"
       id="path14377" />
    <path
       d="m 68.281064,21.137674 v 8.893311 h 0.293332 v -9.33331 h -0.453332 l -2.293328,8.853311 -2.293327,-8.853311 h -0.453332 v 9.33331 h 0.266666 v -8.893311 l 2.306661,8.866644 h 0.333332 z"
       id="path14379" />
  </g>
</svg>
